 24/07/2016 04:17:19 |                  Run 1                 Run 2                 Run 3                 Run 4                 Run 5                 Run 6                 Run 7                 Run 8                 Run 9                Run 10                Run 11                Run 12                Run 13                Run 14                Run 15                Run 16                Run 17                Run 18                Run 19                Run 20                Run 21                Run 22                Run 23                Run 24                Run 25                Run 26                Run 27                Run 28                Run 29                Run 30                Run 31                Run 32                Run 33                Run 34                Run 35                Run 36                Run 37                Run 38                Run 39                Run 40                Run 41                Run 42                Run 43                Run 44                Run 45                Run 46                Run 47                Run 48                Run 49                Run 50                Run 51
       0.0001*MaxFES =    5.143270634993225E8   7.091502062842724E8  4.6380744259317976E8  1.6596230025242841E9  1.0359386348717997E9  3.4128704550011146E8  2.8167553739486337E8    8.56065183817521E8  2.9016492229604584E8   6.638645995705624E8    4.31766545915447E8   1.310058162122616E9    1.10648707640469E9  1.1490809274779642E9   1.284102528916825E8   6.512154100226661E8   7.833740268401006E8  1.5159929177664711E9   7.459880189979641E8   2.918608981984704E8   8.059629736327678E7     6.8781527466439E8  2.3493870109799844E8   2.214369328374775E8   1.895099080935272E8    4.88437210730932E7    1.79143350238576E8  2.7157492251916134E8   1.175504050317278E9   7.032994325750118E8   7.449349660194786E8    5.85563629855395E8   8.080816762778355E8  1.6310765156653214E9   5.441314549703953E8   9.121119589370105E8  1.2202009524754202E9  1.7847209529881012E9   8.847454416796463E8  1.8455419885874732E9   1.247992022596134E9   5.211087726048282E7   2.936806199663184E8  1.0587659627018981E9   7.807375389219415E8   7.488009545427184E8   6.385321266703043E8   9.101945620975684E8   2.447818604416939E9  2.1215037462044394E9  1.1874168301649914E9
        0.001*MaxFES =    4.979765802517261E7   7.226735269972305E7   5.437705767091113E7   2.043113534361896E7  1.0497959079412512E8   1.016910628305702E8    5.11365924479002E7   3.886937061149966E7   2.509816160852805E7   3.875331464196703E7   4.639672144915607E7  1.7418878490595913E8   8.678103339272016E7      3995863.35265951   5.206985120584088E7   1.164777866276418E8   1.377798923228835E8  1.7278620995446855E8      3633302.96938535   2.275754260146707E7      2908557.45089602   1.536341069402011E8   6.539943826052918E7   8.479297692611258E7   4.509899231158136E7   1.090993601738972E7   2.161486255149713E7       8313814.0846939   1.680820478741846E7  2.1010070780022174E8   1.348807362945693E7   4.601559946501143E7      6387086.77549893   8.853082998058157E7   1.175160201141283E7  3.0016808085083526E8  1.0744095820740297E8  1.2399004982490145E8   1.718412382519649E7  1.8146308281022868E8   7.305313304063094E7   2.062457987059755E7     3.2306757571389E7   8.820452579246157E7  1.5640010720227307E8    6.13075965901521E7   9.109245471311457E7   3.126482503412179E7  1.0868788739981657E8  1.0603521561501826E8  1.1108295938294688E8
         0.01*MaxFES =       6596113.68615315      5172193.47720358   1.200668634461595E7       231413.33401045      9667969.78514986      8188467.89438072        6362460.260288      6924573.84570876      1958763.13404388      5592847.64672537      8631491.69832164      3034665.75770105      6855536.61526266      1013042.89642744      5071993.60826752   1.197360103304972E7      6746043.33618603   1.108738196862564E7      1146403.31677374       902188.78717183      1253913.06083629      3404525.93349499      8890248.63891346      8707553.65323819      2673211.91346574      3334311.48734513      2605547.14680104       2105531.3581922      4435431.73077939      4787309.73457502      6599497.48235665      2369616.95454914      2405154.28065144       2633370.9817093      2800143.07698303   1.003036120488338E7      4392090.02589274      9023557.44886228      8610426.14133149      8240966.84039439      3856531.71656182      2749108.72595631      6655638.32293212   1.212931279870235E7   1.207730760081997E7      9302658.30265998      4382852.75946517      3544532.80598414      4896555.43402024      4787523.54353099      4602963.15231607
         0.02*MaxFES =       2948242.81866399       2417920.6017486       4227050.7754132       231413.33401045      3766423.22525315      5540532.82228718      4296368.02613978      2556968.69739006      1573056.54825987      3344204.04891775      4842886.09347125      1449040.39629384      2161945.32324198       366000.55913342      2603672.88032982      4010166.50568136      3800815.50900603      4066711.14804155        715834.7942889       740005.71692815       691591.04244921      2148425.28955263      2774227.53593361      1335606.88933596      2268974.67758949        2234640.915093       847831.44236673        632134.9137638       1811126.2186969       1460658.7273082      4347284.35872425       596365.94367377      1473044.97019575       435706.30631165      1682539.66678605      2465238.35284367       3229511.6251992      4863775.66195101      4685571.47720915      4581945.80014028      3083208.36987262       879501.66360605      2707058.27733752      4685690.05996997      4930904.23014707      5413084.36614751      2512420.30354822      1891846.79201215      1992545.23532235      1537687.92817792       2821473.6242317
         0.03*MaxFES =       1716450.71358337      1561879.23305839      2618101.76253764       209106.82442078      2376603.97182819      3322092.36245098      3164417.07956415       937349.97249632       1178708.8853311      2270530.51400106      2619100.12810227       891142.42160841      1352013.14572062       353238.51867903      1166797.03609038      2796241.31322508      2429756.03208838      1219696.72025254       392903.42840712       635164.10052735       555414.48444827      1308089.63695488      1684174.21903848       727512.12900998      1551799.44253978       1739012.7920674       557558.65900578        446199.0578142      1236537.81848431       783663.52538842      2613345.92145819       368538.78769228       996815.28646591       303753.52711752       1150343.3522393      1201370.85226901      1937796.65727259      2563561.16261312      2150897.43835265      2717977.63395212      2479456.12399796       473216.45689545      1424053.83871052       3121833.4956089      3588138.86941068      3464225.62709969      1496672.92907567      1746681.64170541       1473828.7699722        626381.7627642      1349904.52353683
         0.04*MaxFES =       1168390.89575795      1247129.19349691      1622606.62190808       200531.83507653      1867838.94739355      1542256.44730081       2452755.8987155       503672.49395107      1158239.13162497       1435659.7311783      2281863.98047496       607184.78961085       764510.57706461       288015.47336362       957982.54501081      1876458.33507148      1405119.89072232       955055.58952145       392903.42840712       546245.57114892       314211.77645697      1046936.90857798       908380.49216299       630058.64392515      1163352.73100189      1301753.37548622       445714.64079571       325726.04338809       595333.75003302       528525.36512898      1676513.25790888       208387.97273296       735506.36107337       223738.08886802       930490.03950983      1105919.77617392      1334345.57394833      1671037.44318731      1158618.82635443       1879427.4049171      1678364.42469721       362133.90750243       885378.36470476      2249217.15437524      2561216.17684487       2167739.4469496      1108785.32915702      1420026.99713583       948019.43105158       462900.48942168        774509.6423053
         0.05*MaxFES =       1014106.41724257       944375.20113763      1328294.48801638       177486.14821175      1373560.66608438       875753.84984685      1732716.97385091       366306.90469856      1075414.25571174       991057.41554194      1943539.35158895       536019.72901584       641787.21537732       284829.29539276       644406.28989205      1279629.52254895      1124745.79895762       635417.75319078        320678.4680136       519123.34000452       284886.35696271       923527.67359311       757901.55316835        410817.2563639       991594.17424163      1007201.41359839       428907.05455895       239108.19667808       547224.99542991       349336.41674449      1009231.64014744       153454.07387492       575392.84419165        170157.8620665       629094.43481562       918143.14401833       951879.35555222      1307985.53011283      1002197.96325168       1473034.5891311       1537254.6041085       299542.04512458       767358.15164152      1392500.57078313      1388070.53895381      1649231.54185915       732233.13589515      1126902.28878386       694646.38726862       413826.99396205       534528.75657401
          0.1*MaxFES =        369654.75634575       401895.44026961       871526.03816499       158587.77842515       562485.89816194       340388.26136603        987253.5737498       167979.94325552       893177.20456346       409567.57202413       803454.12337184        300529.5959884       264815.55179698       172208.96461246       350541.38752629       591722.19524303       392560.16534949       330418.68551904       233509.08804147       465654.36772834       231506.46731558       235298.78179882       411751.76277631       221016.42092934        830072.8671354       369851.33235325       285168.01359208       115305.08628145       167437.82643206       320562.74971906       417283.44484378       147034.31854476       282220.45372448       112055.61352706       300419.57737121       154160.33140216       332529.36838614       578422.94947136       439020.46343863       444389.26433981       910955.80141137       197545.92767144       310808.93940345       272847.16243422       441657.98798319       852039.16725188       406609.19905474       715703.27639822       178533.06180077       276204.61511519       341703.06240665
          0.2*MaxFES =        218981.77849991       260322.81423159       475295.24147132       149202.68479369       263535.48516316       159817.31260351       638235.79623169       167388.76386805       546778.46478261       129171.57236363        620785.3547423       195957.29757467       117254.36705947        140673.4840189       127492.17723193       333535.68812634        257775.4528512       273979.55150636       131855.53345207       453411.76807661       142297.74451888       134898.22839085       300116.78787714       146035.73277518       620333.15657203       221973.02873754       233431.68489353       100266.13671529       109714.86530019       270092.16870476       188331.13181997       143785.38871034       143602.33855859       106184.10431581       209250.39992535       149944.45256199       181506.77365997       337984.53488927       252418.84204546       311885.60068227       780771.51269877       160901.89935351       166877.82917263        71496.27180991       289597.56172421       251139.22785496       329477.67083327       508816.27898938       122808.73285776       174473.16592052       286962.22930396
          0.3*MaxFES =        210497.60851678       210778.07736301       457150.12960375       124311.64293779       211061.83262827       113951.89294698        520827.2782924       162015.78562932       455843.56495965        81918.98992245       555273.25883263       159256.95205985       114902.99890333       138674.42658151        72507.05670826        289212.5852973       209260.44079479        231145.6358442       115682.90538179       342829.29574708        123839.5663283       130314.09456347       250905.11196246       134641.32746568       534579.24402283       166116.22673218       208632.39486077        92827.50548869       104301.32013617       236808.11634081       157476.15096924       119749.14263331       143602.33855859        88970.57688071       195406.83129138       126999.19372367       153116.93446328        302325.0499059       199234.79264251        266948.5340608       555475.40038914       160831.38927969        96744.82518538         55969.7018288       285152.83490253       176011.22417458       276366.67238492        385265.8736516       122808.73285776       153861.10365811       250513.51104032
          0.4*MaxFES =        191094.07371747       182330.87731987       424947.12536107       119325.90474435        202159.6800122       112532.81821582       455286.09535881       162015.78562932        357804.3816721        78400.76581518       495006.15564846       156696.93263257       113429.44756215       133435.99242491        72507.05670826       226608.21669707       206839.54195443        231145.6358442        97643.12012419       252041.84456518       123755.13355492        85352.69588177       250905.11196246       123104.66928161        461871.8795779       157650.65738499       208632.39486077        88959.71228907       104301.32013617       223910.37070354       141690.67216209       119749.14263331       103928.06380366        88970.57688071       183075.24172463       122342.90806878       133425.63148219       276193.95292888       179009.03379513       247848.72282311       508167.95633311       155845.87262545        86706.50374489        50709.24561718       270441.22952781       171764.81809612       207446.27447934        251230.1051632       122808.73285776       129772.40542142       186748.27531244
          0.5*MaxFES =        171701.42009404       170800.88193812       306407.47552744       116339.97559913       172681.55299331       100413.51234775       411188.34552346       162015.78562932       336977.83381559        78400.76581518       396070.12880449       152854.32922877       113429.44756215       127675.56212629        72507.05670826       214613.94922586       190134.23413585       210978.68352673        97643.12012419       244545.44299472       115168.10508681        78318.26841175       249264.77191742       107351.62764883       336659.93039143       148955.04212393       179724.20322872        88240.59771175       103143.86029223       223910.37070354       127094.89231571       118381.36957521        84917.39547552        88970.57688071       178383.93917235       113297.91376975       133425.63148219       251657.47977317       165864.58643363       240754.81382374         425916.647127       128955.91372146        86706.50374489        48808.04549584       270441.22952781       166536.82298201       203578.58488881       209534.19436299       116704.53968439       129772.40542142       170595.44664505
          0.6*MaxFES =        169376.18469969       167376.38911083       273311.72182301       112804.25776534       165385.08433756        92766.58839179       321266.32273827       162015.78562932       313877.39162608        78400.76581518       372887.30686429       132234.12682096       113429.44756215       123413.20457146        69382.76738927       187733.24103526       156997.86362829        197217.1656347        97643.12012419       230870.66804806       114928.46068822        76260.44826801       237639.60723712       101360.52144401       323093.27150353       138668.61939054       176838.58926261        82765.99093096       102666.58564165       223910.37070354       124640.76166179       118381.36957521        69156.48379759        88970.57688071       162632.18400034       102224.11401086       112905.16938431       211792.44523433           147624.1948       191138.05735454       346624.41522988       118526.53840408        86706.50374489        41852.77488163       240976.86153646       158622.10765416       151824.09522529       199124.65519297        98314.37542096       128264.09626592       170595.44664505
          0.7*MaxFES =        169376.18469969       165649.44511602       185650.36832699       110369.82006378       114890.70353193        92766.58839179       309018.45276461       162015.78562932       292347.33695615        78400.76581518       316152.18869182       132234.12682096       110170.46272257       116927.11384049        69382.76738927        170905.2464911       156997.86362829        197217.1656347        96996.37177375        228195.6969298       114928.46068822        76260.44826801        227867.2260032        94429.26811954        232431.7310261       138082.10828331       175575.36062614        72698.69819661       101609.40047305       208160.86204198       124640.76166179       113372.89404375        69156.48379759        88970.57688071       137607.98256806        93268.98950917       112905.16938431       181248.53744946       145362.39685777       176387.50075987       274849.93956095       118526.53840408        86706.50374489        41852.77488163       212021.38733817       158622.10765416        148230.1097004       199124.65519297        97099.94788889       123892.17773517       167016.59719766
          0.8*MaxFES =        166540.99047064       156535.79851947       181563.10491797       107301.56022968       103366.61444234        92766.58839179       280344.54257186       162015.78562932       289591.57116566        78024.62962094       293786.40705633       132234.12682096       110170.46272257       114831.68465684        69382.76738927       164732.95290049        151578.9723856        197217.1656347        93443.15880706       192625.78402481       114928.46068822        72445.06160811        227867.2260032        94429.26811954       200021.75667705       133914.48267418       163687.19480269        71549.98047975       101609.40047305        192311.8370886       119933.95697967       103474.94952921        64154.58554706        88970.57688071       135763.06410885        90698.77763914        96697.06872533       175061.97425134       140674.67558004       156430.70878503       267554.06392321        99203.06313082        86706.50374489         36965.8520841       199963.46467019       156196.89936311       147697.28391961       199124.65519297        97099.94788889       123892.17773517       164141.78374471
          0.9*MaxFES =        166540.99047064       155437.40585749       153683.13134728       101013.73598483        91633.25194646        92766.58839179       261190.17624415       162015.78562932       242008.56923693        77393.12125002       234254.62497511       132234.12682096       110170.46272257       114831.68465684        62872.94411898       155488.59737344       129809.83846782       169139.62891536        89510.46824476       175689.15362493       112807.39784846        72445.06160811        227867.2260032        82784.06063776       193916.78172032       133914.48267418       152121.35262766        71549.98047975       101403.72609708        188449.7902773       114053.39759639        66711.52907983        63370.13415954         87397.4223959       135763.06410885        73270.25515666        91594.39521512       148303.49002177       114746.90054248       124056.32454855       245244.55040667         94335.9116418        86706.50374489        33326.65750031       198593.77831098       153586.16756467       140192.75733319       193690.60981494        94683.57759631       115777.04171478        153303.7483201
              MaxFES =        166540.99047064       132271.32637213       144748.80547901       101013.73598483        91633.25194646        92766.58839179       201252.81124817       155955.03144936       218104.93814149        77393.12125002        224321.9742273       124783.61528095         106749.176629       114831.68465684        62872.94411898       148673.86179622       129809.83846782       166037.41843386        89510.46824476         151840.259575       107642.04792558        72445.06160811        227867.2260032        82211.06415388       189517.17600857       133914.48267418       134346.30727041        71549.98047975        99376.28573454       174104.58263374       113256.97981156        66711.52907983        55849.88665361        84046.87749669       130877.89942724        73148.91267153           85940.06564       135664.56177016        111789.8673035       118531.33534313       214940.52261584        89726.84719028         81966.0785894        33326.65750031       198593.77831098       139879.47280432       136394.43258271       144262.58222391        85143.61532727       115777.04171478       144999.41764441

                  Best                 Worst                Median                  Mean                   Std
        33326.65750031        227867.2260032       118531.33534313     124606.1650658441     46713.82617239582

