 23/07/2016 02:21:13 |                  Run 1                 Run 2                 Run 3                 Run 4                 Run 5                 Run 6                 Run 7                 Run 8                 Run 9                Run 10                Run 11                Run 12                Run 13                Run 14                Run 15                Run 16                Run 17                Run 18                Run 19                Run 20                Run 21                Run 22                Run 23                Run 24                Run 25                Run 26                Run 27                Run 28                Run 29                Run 30                Run 31                Run 32                Run 33                Run 34                Run 35                Run 36                Run 37                Run 38                Run 39                Run 40                Run 41                Run 42                Run 43                Run 44                Run 45                Run 46                Run 47                Run 48                Run 49                Run 50                Run 51
       0.0001*MaxFES =           152.79215213          168.86606889          177.29648724           177.5097414          144.57902862          166.52657718          171.29157853          161.63162785          192.39708712          180.43665328          153.64984823          191.02275153          168.72170864           243.1171595          158.04782105          150.14525195          146.44007241           200.7629995          156.62664621          153.78324348          183.95765284          181.38105004          203.69672398          144.65656804          215.22130957          189.23093466          157.16987628          183.99536568          139.38288329           203.5274678          156.47720566          168.25956034          208.52905047           194.5252846           90.12163205          182.14490426          157.20771829          134.20260832          171.75902365          199.93324134          202.73123909          186.67077523          177.57610027          163.04471221          154.22740114          199.62764639           223.9129368          222.49995799          146.35199464          157.55958205          155.57967598
        0.001*MaxFES =             94.8936001           76.56188526           117.1172561          109.87450232          104.75185872          111.67084065            88.9754934          112.58884969          101.46069195            134.147679          100.38535806          158.91584815           88.72538067          108.36514017           94.09926791           81.65036623           111.6932923          117.53922703          107.19622106           88.93392001           91.67374392          104.06861069          128.36093037           86.92784439          102.90289545           94.55346496           104.7810421           94.18180009          101.94449877           75.50951859          131.72635504            94.9583752          123.69528267          116.17944952           90.12163205          139.18460037          106.89095774           93.91040145          102.61428613          123.91724453           96.72076407           98.83238442          109.55447211           75.05316612          105.16250963          117.00292403          114.81972355           97.62442854          100.77676811          109.21151644          140.13026245
         0.01*MaxFES =            45.30223201           35.38185791           91.25224859           68.41376483           75.58223129           80.71093464           47.84933485           57.71493264           57.91800277           66.82310274           68.77217347           92.10708903           55.81366686           68.33355257           81.20179278            52.3493397           94.06093889           79.66267678           92.17095711           55.35908092           67.84020902           54.53369606           46.06313051           20.64767103           64.02921295           36.87028392           67.50224364           66.05383779           63.72753983           24.76741762          101.56612065           51.38822322           54.54261893           68.04495807           37.75375403           96.43058007           77.80373882           31.52414477           47.30792334           38.21682797           49.78570313           45.06217319           59.82341303           40.88567923            57.0373406           72.80877526           62.10770202           52.25953206           42.34121608           51.54703906           56.80865321
         0.02*MaxFES =            42.96627046           34.71063707           90.00728398           64.80160649           74.61722798           80.05853506           47.03331258           56.95109453           55.49388654           65.54839294           68.14327222            90.9446243           55.10864685           67.35501442           80.02946525           49.04366828           94.06093889           78.99558282           90.66912817           55.35908092           65.26008188           52.40281231           44.27989622           18.89599629           62.92131323           35.16407612            62.8630428           66.05383779           62.98740937           22.96790807          101.56329238            51.1491226            53.9272591           65.78852395           35.27640892           96.43058007            72.7691592           30.71340085           47.30792334           37.83408033           49.60647633           44.31094736           59.59811647           38.62471407           56.63258052           70.47861188           61.59727797           52.00883356           41.08582726           48.78027479           56.80865321
         0.03*MaxFES =            42.01127756           34.38036514           89.58771334           64.14225418           74.29571643           79.68782526           47.03331258           56.95109453            55.0813837           64.93611389           67.74243648           90.89656972           54.10347426           66.72602346           79.57127881           48.06464501            93.3364595           78.99558282           89.82045504           54.93695187           63.80731316           52.03452349           44.00404782           18.89599629           62.92131323           35.16407612            62.8630428            64.8582348            62.9709791           22.96790807          100.65003125           50.51077319           53.11939821           65.78852395           35.27640892            95.9732055            72.7691592           30.71340085           47.02504164           37.83408033           49.38514899           43.93140275           59.50823393           38.62471407           55.75398134           69.82369578           61.59727797           51.46817415           40.48398804            48.5877076           56.80865321
         0.04*MaxFES =            42.01127756           34.23881464           89.58771334           63.77390292           73.80123988           79.68782526           46.12312274           56.48975894           54.68346508           64.78449299           67.74243648           90.89656972           54.10347426           66.72602346           79.57127881           48.06464501           92.33831413           78.99558282           89.65122904           54.93695187           63.80731316           52.03452349           44.00404782           18.89599629           62.83834708           35.03959755            62.8630428           64.35102976           62.97063383           22.62858449          100.65003125           50.51077319           53.06957268           65.78851992           35.03560672            95.9732055            72.7691592           30.26448929           47.02504164           37.64626205           48.99937157           43.93140275           59.50823393           38.62471407            55.4120664           69.82369578           60.81854287           51.46817415            40.4549493           48.30702845           56.80865321
         0.05*MaxFES =            42.01127756           34.13148922           89.58771334           63.77390292           73.71734017           79.68782526           46.12312274           56.48975894           54.68346508           64.78449299           67.74243648           90.89656972           54.10347426           66.72602346           79.57127881           48.06464501           92.18810896           78.34329283           89.65122904           54.93695187           63.29665056           51.49812179           43.85480131           18.89599629           62.83834708           35.03959755            62.8630428           64.35102976           62.97063383            22.4705299          100.65003125           50.18546304           52.63544924           65.78851992           35.03560672           95.74398315           72.55041588           30.15032555           46.90972822           37.62609866           48.99937157           43.93140275            58.6723074           38.62471407            55.4120664           69.60606357           60.53505906           51.46817415            40.0199446           48.30518134           56.80865321
          0.1*MaxFES =            41.39363933           34.03887866           89.26755773           63.58029455           73.49332553           79.29819838           45.97403288           56.44703556            54.5495522           64.69615637            67.4743664           90.55256745           53.40007402           66.72602346           79.57127881           47.62886391           92.18810896           78.33868212           88.93513075            54.8367083           63.29665056           51.33838038            43.7024629           18.70957142           62.70515047           34.84294793           62.14787901           64.35102976           62.75912587            22.4705299           99.96385243           49.91948498           52.63544924           65.78851992           34.78200413           95.53998284           72.29970432           29.95251305           46.58202773           36.40832588           48.63055543           43.60260815            58.6723074           38.62471407            55.4120664           69.42348175           60.53505906           51.46817415           39.52589969           47.79034153           56.41044199
          0.2*MaxFES =            41.39363933           33.67848693           88.92682338           63.58029455           73.13140579           79.24768081           45.48520878           56.44703556           54.07616163           64.24422656           67.31659595           90.39734638           53.40007402            66.3395177           79.48035047           47.18836359           92.18810896           78.13963673           88.86545536           54.57450508           63.29665056           51.25674252            43.7024629           18.70957142           62.43004027           34.78371395           62.14787901           64.21635219           62.46104536            22.4705299           99.96385243           49.79842075           52.36763792           65.56872355           34.46593074           95.40897636           72.26124412           29.46853075           46.41894481           36.40832588           48.51858668           43.41728184           58.21511876           38.38601903           55.36442242           69.36884813           60.43984658           51.25629025           39.42029225           47.43417553           56.41044199
          0.3*MaxFES =            41.39363933           33.59061783           88.92682338           63.58029455           73.13140579           79.22343343           45.47091619           56.14237034           54.07616163           64.24422656            67.0557014           90.32466501           53.40007402            66.3395177           79.08686822           47.18836359           92.18810896           78.09359839           88.86545536           54.57450508           63.29665056           51.25674252           43.35046457            18.5455143            62.3233606           34.42479651           62.14787901           64.21635219           62.45518328           22.18292092           99.96385243           49.32429217           52.31928799           65.56872355           34.31712077           95.40897636           72.26124412           29.46853075           46.36550402           36.33569895           48.51858668           43.41728184           58.21511876           38.29375148           55.36442242           69.25659229           60.30306631           51.25629025           39.42029225           47.43417553            56.2981878
          0.4*MaxFES =            41.27533667           33.26573838           88.92682338           63.41346843           73.07409703           79.22343343           45.47091619           56.14237034           54.07616163           64.18375084            67.0557014             90.140882           53.25303243            66.3395177           78.96863844           47.18836359           92.18810896           78.09359839           88.86545536           54.57450508           63.29665056           51.25674252           43.35046457            18.5455143           62.29538536           34.39114852           62.14787901           64.21635219           62.31128366           22.18292092           99.96385243            48.9100675           52.31928799           65.48413571           34.31712077           95.13424657           72.26124412           29.26921214           46.11309638           36.33569895           48.49552159           43.18535874           58.21511876           38.29375148           55.20708739           69.08111001           60.30306631           51.25629025           39.38461816           47.43417553            56.2981878
          0.5*MaxFES =            41.27533667           33.26573838           88.92682338           63.41346843           73.07409703           79.22343343           45.47091619           56.10669965           54.07616163           64.18375084            67.0557014           89.98643876           53.25303243            66.3395177           78.96863844           47.18836359            92.0913948           78.09359839           88.86545536           54.57450508           63.29665056           51.25674252           43.35046457           18.54424621           62.02807269           34.39114852           62.14787901           64.20183958           62.17089349           22.18292092           99.96385243            48.9100675           52.20209795           65.18295807           34.31712077           95.13424657           72.26124412           29.26921214           46.11309638           36.33569895           48.48145901           43.18535874           58.21511876           38.29375148           55.20708739           69.08111001           60.30306631           51.25629025           39.38461816           47.43417553            56.2981878
          0.6*MaxFES =            41.27533667           33.26573838           88.92682338           63.27996345           73.07409703           79.22343343           45.47091619           56.10669965           54.07616163           64.18375084            67.0557014           89.98643876           53.25303243            66.3395177           78.96863844           47.18836359           91.92993535           77.63359913           88.86545536           54.26271692           63.28541249           51.24143315           43.35046457           18.51128358           62.02807269           34.39114852           62.14787901           64.20183958           62.17089349           22.18292092           99.96385243            48.9100675           52.18496459           65.18295807           34.31712077           95.13424657           72.26124412           29.26921214           46.11309638           36.08611402           48.48145901           43.18535874           58.21511876           38.28460389           55.20708739           69.08111001           60.28785399           51.25629025           39.38461816           47.43417553           56.22827907
          0.7*MaxFES =            41.27533667           33.26573838           88.92682338           63.23451664           73.07409703           79.22343343           45.29251701           56.10669965           54.07616163           64.18375084            67.0557014           89.98643876           53.25303243            66.3395177           78.96863844           47.18836359           91.92993535           77.63359913           88.86545536           54.25337991           63.28541249           51.24143315           43.35046457           18.51128358           62.02807269           34.39114852           61.92248669           64.20183958           62.17089349           22.18292092           99.96385243            48.9100675           52.18496459           65.02488262           34.31712077            95.0743999           72.26124412           29.26921214           46.11309638           36.08611402           48.40336138           43.18535874           58.21511876           38.28460389           55.20708739           68.92533749           60.28785399           51.25629025           39.38461816           47.43417553           56.22827907
          0.8*MaxFES =            41.27533667           33.26573838           88.92682338           63.23451664           73.07409703           79.22343343           45.29251701           56.10669965           54.07616163           63.96339241            67.0557014           89.98643876           53.25303243           66.27791304           78.96863844           47.18836359           91.92993535           77.63359913           88.86545536           54.25337991           63.28541249           51.12001773           43.14761153           18.30496227           62.02807269           34.39114852           61.92248669           64.20183958           62.17089349           22.18292092           99.96385243            48.9100675           52.18496459           65.02488262           34.31712077            95.0743999           72.26124412           29.26921214           46.11309638           36.08611402           48.20167121           43.18535874           58.21511876           38.28460389           55.20708739           68.92533749           60.28785399           51.25629025           39.38461816           47.21282948           56.22827907
          0.9*MaxFES =            41.27533667           33.26573838           88.92682338           63.23451664           73.07409703           79.22343343           45.29251701           56.10669965           54.07616163           63.96339241            67.0557014           89.98643876           53.25303243           66.27791304           78.96863844           47.18836359           91.92993535           77.63359913           88.86545536           54.25337991           63.22937703           51.12001773           43.14761153           18.30496227           62.02807269           34.39114852           61.92248669           64.20183958           62.17089349           22.18292092           99.96385243            48.9100675           52.18496459           65.02488262           34.31712077           94.98468023           72.18984822           29.26921214           46.11309638           36.08611402           48.20167121           43.18535874           58.21511876           38.28460389           55.20708739           68.92533749           60.28785399           51.25629025           39.38461816           47.21282948           56.22827907
              MaxFES =            41.27533667           33.26573838           88.92682338           63.23451664           73.07409703           79.16601893           45.29251701           56.10669965           54.07616163           63.96339241            67.0557014           89.98643876           53.25303243           66.22730399           78.96863844           47.18836359           91.92993535           77.63359913           88.86545536           54.25337991           63.22937703           51.12001773           43.14761153           18.30496227           62.02807269           34.39114852           61.92248669           64.20183958           62.17089349           22.18292092           99.95719272            48.9100675           52.18496459           65.02488262           34.31712077           94.98468023           72.18984822           29.26921214           46.11309638           36.08611402           48.20167121           43.18535874           58.21511876           38.28460389           55.20708739           68.92533749           60.18282435           51.25629025           39.38461816           47.21282948           56.17377764

                  Best                 Worst                Median                  Mean                   Std
           18.30496227           99.95719272           56.10669965     57.68057209980392    18.797123734567297

