 23/07/2016 02:34:12 |                  Run 1                 Run 2                 Run 3                 Run 4                 Run 5                 Run 6                 Run 7                 Run 8                 Run 9                Run 10                Run 11                Run 12                Run 13                Run 14                Run 15                Run 16                Run 17                Run 18                Run 19                Run 20                Run 21                Run 22                Run 23                Run 24                Run 25                Run 26                Run 27                Run 28                Run 29                Run 30                Run 31                Run 32                Run 33                Run 34                Run 35                Run 36                Run 37                Run 38                Run 39                Run 40                Run 41                Run 42                Run 43                Run 44                Run 45                Run 46                Run 47                Run 48                Run 49                Run 50                Run 51
       0.0001*MaxFES =           145.84025387          100.38827618          146.99312598           31.73992441          207.97359706          155.35150451           78.53239523          246.70221625          100.58111981           346.1492994            93.3090014          206.51206703          773.68990715           96.20896518          353.33157452           444.0386313          158.83926957          1130.9848849          122.57472786          134.51843306          184.66296766         1451.69697356          165.79624741          433.62685359          140.65767312          115.90910739         1092.58277508           52.17613297          419.13163361           21.56950564           49.26558965          440.00155875           46.66016343           30.76978785           162.6313782           33.94438781          226.09946312          129.43999194          443.69105795          246.59649405          168.93732533          272.24600245            98.0436912          124.42591798          338.23475597          288.20877335           56.96451453          267.56332427         1311.81456094           48.41244264          139.53968458
        0.001*MaxFES =            17.68210609           52.89673133           48.77266912           17.28974361           49.63887292          126.62530218           70.04567379          118.52912862           53.26819092           49.97434078           53.72430847          102.28491734           45.02741382           27.42560111          153.34563326           50.93723921           21.55841069           77.89744907           44.00514301           44.38092721            75.8998799           40.43034694           49.88830775            31.0154561           47.03072217           74.44334994           80.24655369           34.42560869            41.3127549           18.86962357           11.94581763           17.02438466           43.05925234            17.8701484           62.89287215            9.22895649          106.68832149           21.59156081           47.36141483            14.3451456           27.42039903           39.02712906           68.35796906           68.04422254           97.47296233           56.94203993           49.99405648           49.16709598             40.149265           28.92396062           38.92206905
         0.01*MaxFES =              6.2404228            6.70226729            8.10123167            5.28391843            5.84330499            9.24225355            8.93708133            8.73788983            8.19099041            4.62726748            7.11170566            4.84067804            5.41372892            7.17400973            2.59930144            6.25059871            6.97437428            5.00693614            4.85832422            7.26326339            4.56068123             5.8782021            5.07814425            8.07678599            6.06521477              5.875385            7.47777022            7.23915561            6.09806517            5.40094786            5.38784392            5.87301768            6.88854495             6.5605349           10.67886086            6.83495322            6.85436421            6.92572767            9.02544867            4.94788129             6.1182656            4.58040677            3.23453681            4.71221454            6.32338693            9.07091235            9.10148538            5.83922198            7.70111672            7.38277889            6.66066885
         0.02*MaxFES =             6.22955046            6.24184134            7.72350424            4.59679717            5.77785274            8.26016609            8.46576823            7.75658986            4.35903732            4.09411737            7.11170566            4.33429418            5.29615987            7.01331479            2.50548856            5.54194839            6.32211335            4.84966035            4.58301588            6.70431188            4.20761107            5.63645843            4.96544853            7.85706455            5.42078232            5.52551743            6.38383116            6.54099285            5.27837436            5.20508922             4.3648855            5.51679856            6.58587221            5.85932917           10.19986279            6.83495322             4.9422976            6.65947322            8.58755307            4.69926734            5.45795821            4.58040677            3.23453681            3.78750011            5.56651323            7.91681135            7.14910465            5.70652544            7.34332543            6.77723433            6.22972576
         0.03*MaxFES =             6.22955046            6.18814694            7.65494736            4.20358175            5.33923538            6.73667342            8.25814608            7.40926502            4.28786422            4.09411737            7.05547086            3.79050236            5.15035062            6.90285898            2.15319488            5.39219265            6.32211335            4.43534828            4.58301588            6.56095978            4.18809253            5.63645843            4.84695341            7.46221726            5.27940269            5.34681574            5.83228515            6.54099285            4.67087495            5.20508922            3.93664495            5.41854789            6.42779781            5.31788426           10.09191499            6.58874524            4.90917499            6.65947322            8.47301975            4.69471998            5.30345095            4.26180786            2.58177268            3.78750011            5.51196178            7.53231864            6.97791645            5.30063916            7.24525273            6.77723433            6.20164612
         0.04*MaxFES =              6.1694138            6.18814694            7.63908045            4.16149097             5.1700727            6.55489278            8.18342715            7.29892434            3.95389264            4.09086647            7.05547086            3.66534262            5.05954668            6.90285898            2.15319488             5.2670175            6.32211335            4.40768986            4.58301588            6.44983935            4.04647388            5.63645843            4.84695341            7.46221726            5.16165815            5.34681574            5.83228515            6.31406571            4.67087495            5.20508922            3.93664495            5.41854789             6.3917527            5.31788426            9.98105709            6.12554897            4.78048008            6.65947322            7.84558593            4.59257059            5.13580471            4.08383428            2.55554189            3.78750011            5.29378121            7.53231864            6.82729448            5.30063916            7.24525273            6.77723433            6.09684714
         0.05*MaxFES =              6.1694138            6.18814694            7.63908045            4.03261549             5.0530676            6.52948331            8.17253718            7.19846918            3.95389264            4.09086647            7.05547086            3.65073625            4.96047724            6.90285898            2.15319488            5.07920587            6.14418998            4.40768986            4.58301588            6.44888883            3.47617045            5.62482563            4.84695341            7.46221726            5.16165815            5.34681574            5.83228515            6.31399429            4.54589669            5.20508922            3.93664495            5.38742341            6.36549744            5.31788426            9.98105709            6.03052688            4.69245341            6.65947322            6.98104172            4.59257059            5.13580471            4.08383428            2.46949017            3.78750011            5.29378121            7.47613369            6.82729448            5.26859657            7.24525273            5.64965254            5.95365162
          0.1*MaxFES =             5.98336323            6.11707092             7.3148251            3.93756505            5.01051164            6.52948331            8.07908565            7.19846918              3.818004            3.99948301            6.97390182            3.41116995            4.96047724            6.82973363            2.15319488            5.01870541            6.03052001            4.40768986            4.58301588            6.28281561            3.47617045            5.16223439            4.75306347            7.34605694              4.915634            5.14040588            5.83228515            6.13827963            4.44356739            5.20508922            3.87507021            5.25756262            5.99803934            5.19690608            9.71870056            5.61780762            4.69245341             6.4225824            6.80957142            4.47921013            5.13580471            4.08383428            2.35125835            3.78750011            5.29378121            6.94413285            6.82729448            5.19820173            7.24525273            4.81912916            5.95365162
          0.2*MaxFES =             5.98155676            5.79221966            7.17853559            3.83760975            4.95004156            6.51097816            8.02392103            7.08575581            3.81624342            3.65801189            6.67534245            3.12714861            4.83451886            6.82973363            2.15319488            5.01573959            5.94097163            4.34151995            4.58301588            6.28281561            3.39177341            4.89793286            4.68734497            7.34605694            4.28210987            5.07053984            5.75984745            6.12793177            4.44356739            4.90957475            3.87507021            5.25756262            5.99803934            5.09663257            9.71870056            5.50293344            4.62237344             6.4225824            6.65181185            4.33885716            5.10330295            4.00592771            2.30888474            3.54781813            5.29378121            6.72462941            6.80136908            5.19820173            7.24525273            4.73755978            5.89497375
          0.3*MaxFES =             5.96126315              5.774293            7.08214353            3.82399915            4.90886798            6.51097816            8.02392103            7.08575581            3.77239173            3.34609837            6.67534245            3.12714861            4.83451886            6.82973363            2.05039542            4.83964079            5.92950809            4.29799906            4.55113502            6.28281561            3.39177341            4.89793286            4.68734497            7.34605694            4.26177243            5.07053984            5.59615003            6.12793177            4.44356739            4.78199536            3.80063473            5.25756262            5.99803934             5.0405826            9.71870056            5.50293344            4.62237344            6.40789957            6.65181185            4.33885716            5.10330295            3.99138953            2.26625938            3.54781813            5.28187621            6.72462941            6.58441796             5.1638366            7.00611332            4.73372089            5.86011168
          0.4*MaxFES =             5.96126315              5.774293            7.06386984            3.82267089            4.90886798            6.51097816            8.02392103            7.07945002            3.68692015            3.34430391            6.67534245            3.12714861            4.83451886            6.82973363            1.89650085            4.83964079            5.92950809            4.29799906            4.40707638            6.28281561            3.39177341            4.89793286            4.64394266            7.30835063            4.08285608            5.07053984            5.20831166            6.12793177            4.44356739            4.78199536            3.80063473            5.15505007            5.96349753             5.0405826            9.71870056            5.50293344            4.54658615            6.40789957            6.65181185            4.18414701            5.10330295            3.99138953            2.26625938            3.54781813            5.26559972            6.72462941            6.58441796            5.13519596            7.00611332            4.73372089            5.78810261
          0.5*MaxFES =             5.70055139              5.774293            6.93759933            3.82267089            4.90886798             6.2889656            8.02392103            7.07945002            3.68692015            3.28258284            6.67494803            3.12714861            4.82140669            6.70382618            1.80470423            4.83964079            5.88536551            4.29799906            4.36116329            6.28281561            3.39177341            4.86745078            4.64394266            7.19561048            4.08285608            5.07053984            5.18494643            6.12793177            4.44356739            4.78199536            3.80063473            5.15505007            5.74328458            5.01916262            9.71870056            5.50293344            4.53155408            6.40789957            6.63353122            4.18414701            5.10330295            3.99138953            2.19378773            3.53803034            5.26559972            6.72462941            6.58441796            5.13519596            7.00611332            4.71570458            5.75348411
          0.6*MaxFES =             4.88786466              5.774293            6.88314868            3.82267089            4.90886798             6.2889656            8.02392103            7.06879185            3.68692015            3.28258284            6.67494803            3.12714861            4.82140669            6.70382618            1.75610011            4.83964079            5.88536551            4.29799906            4.36116329            6.28281561            3.39177341            4.86745078            4.51868854            6.28360837            4.08285608             5.0316911            5.18494643            6.12793177            4.44356739            4.78199536            3.77605154            5.15505007            5.74328458            5.01916262            9.71870056            5.50293344            4.53155408            6.40789957            6.58273794            4.18414701            5.10330295            3.99138953            2.19378773            3.53240243            5.26559972            6.66960528            6.58441796            5.08835187            7.00611332            4.71570458            5.75348411
          0.7*MaxFES =              4.8682617              5.774293            6.81278435            3.78375956            4.88956673             6.2889656            8.02392103            7.06879185            3.68692015            3.28258284            6.67494803            3.12714861            4.82140669            6.68489344            1.75610011            4.83964079             5.8093694            4.29799906            4.35273518            6.28281561            3.39177341            4.86745078            4.51868854            6.04252822            4.08285608             5.0316911            5.14610807            6.12793177            4.41668469            4.78199536            3.77605154            5.15505007            5.72159996            4.90095543            9.71870056            5.50293344            4.53155408            6.40789957            6.58273794            4.18414701            5.10330295            3.99138953            2.13134291            3.42113881            5.26559972            6.66960528            6.58441796            5.08835187            6.96892882            4.68439394            5.75348411
          0.8*MaxFES =              4.8682617              5.774293            6.78805831            3.78375956            4.88956673             6.2889656            8.02392103            7.06879185            3.68692015            3.28258284            6.67494803            3.12714861            4.78621995            6.68489344            1.75610011            4.83964079            5.70482381            4.29799906            4.35273518            6.28281561            3.39177341            4.86745078            4.51868854            5.88984356            4.08285608             5.0316911            5.14610807            6.08003575            4.41668469            4.78199536            3.77605154            5.15505007             5.5752129            4.90095543            9.71870056            5.50293344            4.53155408            6.40789957            6.58273794            4.18414701            5.08000762            3.99138953            2.13134291            3.42113881            5.20329601            6.66613045            6.58441796            4.99150702            6.96892882            4.68439394            5.74915946
          0.9*MaxFES =             4.79230669              5.774293            6.78805831            3.78375956            4.88956673             6.2889656            8.02392103            7.06879185            3.68692015            3.28258284            6.67494803            3.12714861            4.78621995            6.56458806            1.75610011            4.83964079            5.70482381            4.29799906            4.30689765            6.28281561            3.39177341            4.86745078            4.51868854            5.88984356            4.08285608             5.0316911            5.14610807            6.01938371            4.41668469            4.78199536            3.77558328            5.15505007             5.5752129            4.90095543            9.71870056            5.50293344            4.53155408            6.40789957            6.58273794            4.18414701            4.96517168            3.99138953            2.12148559            3.42113881            5.20329601            6.66613045            6.58441796            4.99150702            6.96892882            4.68439394            5.74915946
              MaxFES =             4.74608057              5.774293            6.78805831            3.78375956            4.88956673             6.2889656            8.02392103            7.06879185            3.68692015            3.28258284            6.64851681            3.12714861            4.78621995            6.56458806            1.75610011            4.83964079            5.57470976            4.29799906            4.30689765            6.28281561            3.39177341            4.86745078            4.51868854            5.88984356            4.08285608             5.0316911            5.14610807            6.01938371            4.41668469            4.78199536            3.77558328            5.15505007             5.5752129            4.90095543            9.71870056            5.50293344            4.53155408            6.40789957            6.58273794            4.18414701            4.96517168             3.9904698            2.01368884            3.42113881            5.20329601            6.66613045            6.55901722            4.99150702            5.08933084            4.68439394            5.74915946

                  Best                 Worst                Median                  Mean                   Std
            1.75610011            9.71870056            4.96517168     5.104551562745097    1.4198021453688283

