 01/11/2016 20:23:40 |                  Run 1                 Run 2                 Run 3                 Run 4                 Run 5                 Run 6                 Run 7                 Run 8                 Run 9                Run 10                Run 11                Run 12                Run 13                Run 14                Run 15                Run 16                Run 17                Run 18                Run 19                Run 20                Run 21                Run 22                Run 23                Run 24                Run 25                Run 26                Run 27                Run 28                Run 29                Run 30                Run 31                Run 32                Run 33                Run 34                Run 35                Run 36                Run 37                Run 38                Run 39                Run 40                Run 41                Run 42                Run 43                Run 44                Run 45                Run 46                Run 47                Run 48                Run 49                Run 50                Run 51
       0.0001*MaxFES =  3.2078270686756866E11  3.082541298672342E11  3.341070935000758E11  3.598063691728752E11 3.0745681689736664E11 1.9640606998301248E11  3.448363206490997E11 2.3917183308003775E11 3.1694049371386804E11 2.7249768452708627E11 3.1503316722656085E11 3.2531491053035443E11   3.08507839049751E11  2.918586299278363E11  3.091964871543706E11 2.6099898197334467E11  3.576071432206874E11  2.680601438603518E11 2.4117257977083075E11 3.5724881674288666E11   3.38647228550533E11  3.603648726439079E11  3.279227075192902E11  3.724387166185786E11  3.798019905553543E11  2.981427681823446E11 2.4546038069168808E11 2.5788163318428464E11  2.776376947229108E11  3.132499305585032E11  3.134298904094413E11 2.6530275511800308E11  2.824311707162441E11 2.3211363572028723E11 2.4941205071671393E11 2.6801181351606573E11  3.199241611772607E11  2.631527006874353E11 3.5008373344555493E11  3.033845356245223E11 3.0685923161185095E11 2.9882343886433044E11 3.6438574963959827E11 3.1333543643781036E11   2.95745126190361E11  2.843168753826134E11  2.968314215031753E11  3.243530955708029E11 2.9479034392544855E11  3.346759529545232E11   2.46663491468658E11
        0.001*MaxFES =   1.466987572536952E11 1.5067930015998083E11  1.661243905106382E11 1.7725755117207635E11 1.6658378057390582E11  1.055055127573877E11 1.7455358896585477E11 1.2016948604126094E11 1.4109331386917688E11 1.3326657767529211E11  1.685246489746473E11  1.572516758478154E11 1.8125984621845602E11 1.3405418524220912E11 1.5279910572276852E11  1.322949352524468E11 1.6984449286299307E11 1.2868333990005461E11  9.852806598618217E10  1.483151336306063E11 1.8101434897414484E11 1.7438179056877753E11 1.6824662405394812E11 1.4740919470903006E11  2.023098163298053E11 1.3439034141048657E11  1.287034840655907E11 1.3563626678535477E11  1.553204163118896E11 1.8343792638134247E11 1.9140539300959354E11 1.4449987094309937E11 1.3228770107008109E11   1.07952064004399E11 1.1091283298550577E11 1.4686837895192377E11 1.7173617194810364E11 1.3255372802074431E11   1.59081694994803E11 1.3348559314521683E11 1.8100727032633087E11  1.484542823979396E11  1.487394569610479E11  1.609570471742967E11  1.516112153775198E11  1.602679161929391E11  1.496590784485872E11 1.3882102675200266E11 1.4195915624090894E11 1.5883904093107544E11  1.204877216271718E11
         0.01*MaxFES =   1.7952011583917403E8  1.5194016803021908E8   1.933901036807504E8   1.709907660811183E8  1.8101225653908673E8  1.1280381123026752E8   1.506110492013626E8  1.1215815202972639E8  1.4446958213392028E8  1.6359878769847932E8   1.691516366767601E8   1.550696963564657E8    1.76233930769336E8  1.4690683191537797E8   1.936473557480961E8  1.3729472093612942E8  1.9233326306961557E8  1.9354585494700637E8  1.6388173476328397E8   1.221254907942414E8  1.3122439406312284E8  1.8184521761859462E8  1.7830394265523925E8  1.5083439966712946E8  1.8536232988944185E8  1.9507363641733402E8  1.4060910459090352E8  1.8325040117912844E8  1.4581171698740333E8  1.8753999555641517E8   1.682752468181231E8  1.5399144701619762E8  1.6458655227674812E8  1.4646680878217822E8  1.4976521068549314E8  1.5341336704838577E8  1.6767225115072337E8  1.5765679666686597E8   1.462974894802626E8   1.944146735374831E8  1.8162815408117756E8   1.363951486475586E8   1.573660933568851E8  1.4377830364352655E8  1.3680249153478828E8  1.9628394653213328E8  1.9456323504543737E8  1.6089798535199028E8  1.8576336624716562E8  1.9289816483837372E8   1.330616949632132E8
         0.02*MaxFES =    9.880832755333494E7   9.717301520978138E7  1.0880330064656913E8  1.1503252358713321E8  1.1534218120056316E8  1.0039805980779377E8  1.0486216762788936E8    8.03828117600053E7   9.582204616325611E7  1.1322460677606612E8  1.3566839124616712E8  1.1964795800292931E8   1.160125933369988E8  1.1601144077535704E8  1.0551494495201068E8  1.1709818715792753E8   1.342759960578266E8  1.0647926643367653E8   9.662070351496994E7  1.0134684628379706E8  1.2577167412726028E8  1.0777633109035565E8  1.0881673387910241E8  1.1009016668281068E8    8.93285515733815E7  1.0302339044493428E8   1.037017066198268E8  1.2242487270675135E8   7.460092599777341E7   9.089117838148226E7   1.162364551515997E8  1.2607700546312435E8   8.837284169900002E7   1.063197092596494E8  1.0519976947314726E8  1.3122479827699491E8  1.1081451302785333E8  1.2456352515285248E8   9.052913105329165E7  1.1339803227335227E8    9.87466966957533E7  1.1817516130436394E8  1.1192469596731094E8   9.396369625706609E7    9.54870434269805E7  1.2383432966784678E8  1.2295673740306114E8  1.0841798547958416E8   9.977360535818224E7  1.2197573868257192E8   9.228445537294342E7
         0.03*MaxFES =    8.565785577028288E7   9.717301520978138E7  1.0880330064656913E8   9.008599090655783E7   8.798786102938575E7    7.84107260627782E7   9.851969366352247E7    8.03828117600053E7    7.90662110595037E7  1.0331018232439706E8  1.1229627194974186E8  1.1434261164638092E8    8.96205146572193E7  1.0934185040840545E8   8.698263016554785E7  1.0498221387135704E8  1.1148690167293555E8   8.662832009414959E7    8.71631359719099E7   9.046079257097106E7   1.078310290903533E8  1.0460379818671273E8   9.724417185826752E7   7.824887780841823E7     8.5992770023188E7   8.477455327333139E7   8.488650094508943E7   8.397121855737606E7   7.460092599777341E7   6.721889149707083E7   9.696120631447521E7  1.1899916693666884E8   7.300604242531571E7    8.70780812998882E7  1.0190298240504025E8   9.509228539694664E7   8.914313954642265E7  1.1963995630281307E8   9.052913105329165E7  1.0876129878598893E8   8.307594766489983E7   1.088478988653494E8   8.051948070637158E7    9.37105797239759E7   7.814783810578394E7  1.0333716274750698E8  1.2101505577318065E8   8.276366035012512E7   7.812956741246483E7   1.085440378274045E8   9.228445537294342E7
         0.04*MaxFES =    8.500057163961576E7   9.717301520978138E7   8.351555011702447E7   9.008599090655783E7   8.575655975647455E7    7.84107260627782E7   8.811376915482089E7    8.03828117600053E7    7.90662110595037E7   9.560348799606553E7  1.0528813350139152E8   8.816985503531668E7   8.933578713036408E7   9.325466749124806E7   7.228887485027017E7   9.462249754902747E7  1.0415937945482576E8   7.689524022662053E7   8.554534189807506E7   8.514844503808658E7    9.06172198762503E7  1.0460379818671273E8   8.102493900760537E7   7.824887780841823E7   8.576265648612674E7   8.477455327333139E7   6.609114438361933E7   8.379060368617085E7   7.392609215744205E7   6.721889149707083E7   8.661852894852903E7   1.112230004848346E8   7.300604242531571E7    8.70780812998882E7     7.5178233688348E7   9.404480062995706E7    8.39600602670346E7  1.0153894919928502E8   8.333225688853063E7    9.51152495070814E7   8.307594766489983E7   9.358627223668265E7   7.073124609890991E7   8.751933370892829E7   7.814783810578394E7   8.841347108870177E7  1.0359023197130515E8   8.276366035012512E7   7.812956741246483E7   8.774215535671261E7   7.694435140884896E7
         0.05*MaxFES =     8.12487856897927E7   8.704687315864788E7   8.099417839689413E7   9.008599090655783E7   7.552938598102944E7     6.7925274358339E7   8.260361197375119E7    8.03828117600053E7   7.042685607307129E7   9.559855518665624E7   8.954256775483604E7   7.924356614286757E7   7.210427892305118E7   8.009483370939814E7   6.796688175906277E7   8.472403080483045E7   9.582688654424188E7   6.657747689580796E7   8.554534189807506E7    8.27300280198859E7    9.06172198762503E7   8.571509472069255E7   7.239239256977779E7   7.824887780841823E7   8.441644063915256E7   7.537970343168464E7   6.609114438361933E7   7.592391627747399E7    6.88481702469184E7   6.721889149707083E7   8.116494135340226E7   8.451096348499276E7   7.300604242531571E7   7.787592151141137E7   6.781816312122342E7    8.38853838756525E7   8.129680059466314E7   9.142870398682182E7   7.836800807276078E7   8.137108186388078E7   7.617770100696766E7   9.226359034879418E7   7.073124609890991E7   6.734183209810299E7   7.660204777803332E7   8.841347108870177E7  1.0075703155121325E8   7.849232100005405E7   6.503185893649607E7   6.907980417828964E7    7.57587202153698E7
          0.1*MaxFES =    6.390665900927441E7   8.104304031054202E7   4.979876313950962E7   8.118413415236269E7   5.912985487013097E7   6.427679647035468E7   7.619435773298772E7   7.733029548248847E7   5.604153195610801E7   7.302229433740999E7   7.643863072368783E7    7.08961297136165E7   6.665000695143702E7   6.551861150770877E7      5.164999124308E7   6.608665695522418E7   7.618212298948789E7   5.751245834138364E7   6.349722756408018E7   7.933985588638203E7   6.891003502825226E7   7.431790016549686E7   7.239239256977779E7   7.824887780841823E7    7.34774108029911E7   6.576697656889956E7   5.851271292109073E7   6.569384131916933E7    6.88481702469184E7   5.750308994264193E7   7.401084845391737E7   8.185281300019427E7   5.699824504238392E7   6.322849828978374E7   6.517129789382966E7   8.035271058820385E7   7.519376119898555E7   7.437430364063103E7   7.257711452839287E7   6.320899608350177E7    7.28936940430102E7   6.876579543683444E7   5.438491589460533E7   6.734183209810299E7   7.250537450039253E7   6.792758620562424E7    8.59798974672443E7   7.849232100005405E7   6.503185893649607E7   6.305452988387517E7   6.933078973734131E7
          0.2*MaxFES =    5.480711564571041E7   6.853165274776372E7   4.979876313950962E7   6.669409659093321E7   5.912985487013097E7   6.427679647035468E7   5.534545659112169E7   5.705524400152885E7   5.518968553994088E7   7.053525236527532E7   5.219228623897801E7   5.059191281792784E7    5.81307514612105E7   6.551861150770877E7      5.164999124308E7   5.312415609421174E7   6.966403393281825E7   5.751245834138364E7   5.679165479054054E7   5.376096290099614E7   6.420872418641324E7   7.198618064253828E7   6.819647892218636E7   6.748523294123062E7   6.004289941243007E7   5.229644864141035E7   5.640532896530474E7   5.553455348561684E7   4.362010541856204E7   5.750308994264193E7    6.34253662767486E7   5.048106208602528E7   5.196704329645956E7   6.322849828978374E7   6.436700211498514E7   6.113611153252198E7   6.494682825113496E7   6.147921809302949E7   7.021994029180773E7   6.320899608350177E7   5.918992443403283E7   6.431271752091516E7   5.438491589460533E7   6.376268516250738E7    7.21715615952732E7   6.148282718964199E7   6.845212796308906E7   7.066458469650377E7   6.378640644360202E7   5.545711692947331E7   6.315336006925178E7
          0.3*MaxFES =    5.480711564571041E7   6.632675859486133E7   4.979876313950962E7   6.669409659093321E7   5.791246839989832E7   6.427679647035468E7   5.534545659112169E7   5.679656149830866E7   5.518968553994088E7   6.359346993490971E7   4.969014153537743E7   4.603915569809586E7   5.560498226610827E7   6.191566830337472E7      5.164999124308E7   5.028570720508045E7   5.982529824344036E7   5.751245834138364E7   5.639331664956665E7   5.376096290099614E7   6.310449166430424E7   6.465676957590997E7   6.493501117073276E7   6.248175611070516E7   6.004289941243007E7   5.229644864141035E7   5.561350254265689E7   5.553455348561684E7   4.362010541856204E7   5.750308994264193E7   6.200619776571679E7   5.048106208602528E7   4.606887071292933E7   6.322849828978374E7   4.693739366531478E7   6.113611153252198E7   6.319125445891504E7   5.809770966705984E7    6.83620084783983E7     5.8853808704123E7   5.082356112840078E7   6.210940426713469E7   5.438491589460533E7   5.971615781919617E7   5.793553869366538E7   6.101621017102058E7   5.231580851297746E7   5.756298790511141E7   6.042741345172603E7   5.105731048602099E7   5.346037901176244E7
          0.4*MaxFES =    5.480711564571041E7   6.357772195486192E7   4.979876313950962E7   6.669409659093321E7   5.630956848622305E7   6.116402085115687E7    4.99283137274512E7   5.444129588103355E7   4.862687846052149E7   5.087698593660084E7   4.969014153537743E7   4.603915569809586E7   5.391312405740428E7   4.884024127006767E7    4.35868465331716E7   5.028570720508045E7   5.369330223890634E7   5.751245834138364E7    4.80381343928414E7   5.222785055956994E7   6.310449166430424E7   6.465676957590997E7     6.3129137735673E7   5.339689474014131E7   6.004212803976872E7   5.229644864141035E7   5.561350254265689E7   5.553455348561684E7   4.362010541856204E7   5.750308994264193E7   5.561229885278664E7   5.048106208602528E7   4.606887071292933E7   6.251526179313019E7   4.693739366531478E7   6.076059077704505E7   6.319125445891504E7   5.809770966705984E7   5.985550595806193E7   5.554820662178321E7   5.082356112840078E7   6.210940426713469E7   5.438491589460533E7   5.971615781919617E7   5.793553869366538E7   5.812246910813251E7   5.231580851297746E7   5.644516842754028E7   5.336755203254558E7   5.105731048602099E7   5.305960265765471E7
          0.5*MaxFES =    5.480711564571041E7   5.636060076507646E7   4.979876313950962E7   5.771534261766783E7   5.630956848622305E7   5.234316141256547E7    4.99283137274512E7   4.937499431571232E7   4.862687846052149E7   4.361809222714306E7   4.969014153537743E7   4.603915569809586E7   5.081515134508024E7   4.884024127006767E7    4.35868465331716E7   5.028570720508045E7   5.369330223890634E7   5.190956141134909E7    4.80381343928414E7   5.222785055956994E7   6.310449166430424E7   6.156516309222368E7    6.17616572570924E7   5.274134091083502E7   5.790815623998055E7   5.229644864141035E7   5.561350254265689E7   5.553455348561684E7   4.362010541856204E7   5.750308994264193E7   5.561229885278664E7   5.048106208602528E7   4.606887071292933E7   6.167015162938022E7   4.484848452355476E7   6.024023377579073E7   5.836829981627837E7   5.480580797993304E7   5.651074565799415E7   5.554820662178321E7   5.082356112840078E7   6.210940426713469E7   5.438491589460533E7   4.117599512161446E7   5.708522088582766E7   5.812246910813251E7   5.231580851297746E7   5.481760755392153E7   5.336755203254558E7   5.105731048602099E7   5.305960265765471E7
          0.6*MaxFES =    5.480711564571041E7   5.636060076507646E7    4.55022226005209E7   5.376082202184859E7   5.630956848622305E7   4.901125430775205E7    4.99283137274512E7   4.937499431571232E7   4.862687846052149E7   4.361809222714306E7   4.969014153537743E7   4.603915569809586E7   5.081515134508024E7   4.884024127006767E7    4.35868465331716E7   5.028570720508045E7   5.369330223890634E7   4.911330028792725E7    4.80381343928414E7   5.222785055956994E7   6.310449166430424E7   5.942217768410163E7    6.17616572570924E7    5.03859280339964E7   5.509399432055573E7   5.229644864141035E7   5.421189036256979E7   5.553455348561684E7   4.362010541856204E7   5.618659084300558E7   5.561229885278664E7   5.048106208602528E7   4.606887071292933E7   5.044360008534193E7   4.484848452355476E7    4.89340630910007E7   5.200103687590009E7   4.580884134796808E7   5.651074565799415E7   5.357904321969759E7   5.082356112840078E7   6.103725804757002E7   5.438491589460533E7   4.117599512161446E7   5.708522088582766E7   3.993240496293461E7   5.231580851297746E7   5.481760755392153E7   5.336755203254558E7   5.105731048602099E7   5.305960265765471E7
          0.7*MaxFES =    5.480711564571041E7   5.636060076507646E7    4.55022226005209E7   5.376082202184859E7   5.630956848622305E7   4.901125430775205E7    4.99283137274512E7   4.720168891067066E7   4.862687846052149E7   4.361809222714306E7   4.761131194725852E7   4.603915569809586E7   4.746343576573671E7   4.372488244965451E7    4.35868465331716E7    4.93831513854903E7   5.369330223890634E7   4.911330028792725E7    4.80381343928414E7   4.496918677843078E7   6.310449166430424E7   5.814892437098462E7   5.975959176091764E7    5.03859280339964E7   5.509399432055573E7   5.229644864141035E7   5.308845772886655E7   5.436258553725897E7   4.362010541856204E7   5.618659084300558E7   5.561229885278664E7   5.048106208602528E7   4.606887071292933E7   4.852504958457569E7   4.484848452355476E7    4.89340630910007E7    4.92945760855833E7   4.580884134796808E7   5.651074565799415E7   5.357904321969759E7   5.082356112840078E7   5.432837490751486E7   5.163446317016924E7   4.117599512161446E7   5.567031785192817E7   3.993240496293461E7   5.231580851297746E7   4.881124989827794E7   5.336755203254558E7   5.105731048602099E7   5.305960265765471E7
          0.8*MaxFES =    5.480711564571041E7   5.636060076507646E7    4.55022226005209E7   5.144721528350267E7   5.630956848622305E7   4.694598181382246E7    4.99283137274512E7   4.720168891067066E7   4.862687846052149E7   4.361809222714306E7   4.761131194725852E7   4.603915569809586E7   4.746343576573671E7   4.372488244965451E7    4.35868465331716E7    4.93831513854903E7   5.369330223890634E7   4.911330028792725E7    4.80381343928414E7   4.496918677843078E7   5.763584226092037E7   5.814892437098462E7   5.975959176091764E7    5.03859280339964E7   5.509399432055573E7   5.229644864141035E7   5.308845772886655E7   5.436258553725897E7   4.362010541856204E7   5.438084541997517E7   4.669376884899392E7   5.048106208602528E7   4.606887071292933E7   4.852504958457569E7   4.484848452355476E7    4.89340630910007E7    4.92945760855833E7   4.580884134796808E7   5.651074565799415E7   5.357904321969759E7   5.082356112840078E7   5.432837490751486E7   4.663036550443739E7   4.117599512161446E7   5.567031785192817E7   3.993240496293461E7   5.231580851297746E7   4.881124989827794E7   5.336755203254558E7   5.105731048602099E7   5.305960265765471E7
          0.9*MaxFES =    5.212282971170665E7   5.636060076507646E7    4.55022226005209E7   5.144721528350267E7   4.977815853429162E7   4.694598181382246E7   4.884143807353065E7   4.720168891067066E7   4.862687846052149E7   4.361809222714306E7   4.761131194725852E7   4.422567175627909E7   4.746343576573671E7   4.110871565643699E7    4.35868465331716E7   4.688190773601499E7   5.369330223890634E7   4.911330028792725E7    4.80381343928414E7   4.496918677843078E7   5.763584226092037E7   5.814892437098462E7   5.942563702827707E7    5.03859280339964E7   5.509399432055573E7   5.229644864141035E7   5.308845772886655E7   5.436258553725897E7   4.362010541856204E7    5.43620868900477E7   4.669376884899392E7   4.810568141775293E7   4.456461812955922E7   4.852504958457569E7   4.484848452355476E7    4.89340630910007E7    4.92945760855833E7   4.580884134796808E7   5.651074565799415E7   5.357904321969759E7   5.082356112840078E7   4.986828262400166E7   4.663036550443739E7   4.117599512161446E7   5.567031785192817E7   3.993240496293461E7   4.933227564328374E7   4.881124989827794E7    5.18243151180832E7   4.979228046175986E7   5.305960265765471E7
              MaxFES =    5.049385005370722E7   5.636060076507646E7    4.55022226005209E7   5.144721528350267E7   4.945788017741668E7    4.63248247846194E7   4.758633035177819E7   4.720168891067066E7    4.69809887130178E7   4.361809222714306E7   4.761131194725852E7   4.422567175627909E7   4.746343576573671E7   4.110871565643699E7    4.35868465331716E7   4.682441076553133E7   4.794435664191383E7   4.911330028792725E7    4.80381343928414E7   4.496918677843078E7   5.763584226092037E7   5.814892437098462E7   5.942563702827707E7    5.03859280339964E7   5.509399432055573E7   5.229644864141035E7   5.308845772886655E7   5.436258553725897E7   4.362010541856204E7    5.43620868900477E7   4.669376884899392E7   4.619764639468321E7   4.456461812955922E7   4.852504958457569E7   4.484848452355476E7    4.89340630910007E7    4.92945760855833E7   4.580884134796808E7   5.395076561839963E7   5.357904321969759E7   5.082356112840078E7   4.788743586687634E7   4.663036550443739E7   3.749828002663295E7   5.567031785192817E7   3.993240496293461E7   4.933227564328374E7   4.881124989827794E7    5.18243151180832E7   4.936551148716609E7   5.305960265765471E7

                  Best                 Worst                Median                  Mean                   Std
   3.749828002663295E7   5.942563702827707E7   4.852504958457569E7   4.897080885516769E7     4651804.870010638

