 24/07/2016 08:51:52 |                  Run 1                 Run 2                 Run 3                 Run 4                 Run 5                 Run 6                 Run 7                 Run 8                 Run 9                Run 10                Run 11                Run 12                Run 13                Run 14                Run 15                Run 16                Run 17                Run 18                Run 19                Run 20                Run 21                Run 22                Run 23                Run 24                Run 25                Run 26                Run 27                Run 28                Run 29                Run 30                Run 31                Run 32                Run 33                Run 34                Run 35                Run 36                Run 37                Run 38                Run 39                Run 40                Run 41                Run 42                Run 43                Run 44                Run 45                Run 46                Run 47                Run 48                Run 49                Run 50                Run 51
       0.0001*MaxFES =       1034485.97746895      1415618.24957277      1982702.57352662       459678.39688836       422893.00520056       298205.55901065      1508680.88695839       615314.55792073       910126.55327534       733029.35769748       598052.68321853      1897685.94406147       892644.81882699      1647753.64387613       454714.58292967       795032.09763715       516983.48379079       293761.89920905       850262.88261042       597814.77495034       775051.18167579       504411.41034108       310677.45973747       550508.69561949       573878.87200611      1555125.36890432       754170.03706156       882408.25852587       916811.50046334       972002.85283992       246585.10424734       822695.79063206       760495.35123801       341535.02029407       523047.92762881       133353.07805288       544632.91032195      1033801.24093133        356163.6685231      1580979.33124355       427094.53967935      1453104.29255526       605005.51320157       1371449.8707355       1245208.2112572       590574.51307113        601018.0684191       223520.88409087      1463140.92365247       734462.50108219      1098088.27786853
        0.001*MaxFES =         96822.39528247       190324.11966755        99937.41477564        96069.85056492         69209.4200466        38525.29440501       125593.55681762       108985.74803414        74094.47282549        110211.5584456       101259.27348945        89024.80906342        99258.75404904       149007.58675377        81057.27972846       111894.17526024        41065.25136322        43643.73182401         81079.9473251        51562.61204026        43897.11528511        41127.97794874        24663.10286654        81286.54736945       164120.01346219       362874.64990831        82264.78393053         87274.0971831        40405.38837396        57179.53411236        21505.03941341       114086.97355007        82920.10787172        36851.10891195       143320.15754711        11187.30017046        71116.80980174        73067.99148989        45945.92457389        67659.66721574        31125.54182533        55600.88332745        74971.25215575       155515.63813793       184510.13911064        95663.11329592        95068.03806075        55877.18115103       116067.66847478       101595.25081483        70463.68350133
         0.01*MaxFES =           104.88961834          103.49792069          110.75177257          103.96480657          114.93654098          104.62358591          107.94004512          103.71943172          106.37202464          104.42567237          104.13777235          105.04474315          106.13956386          121.48383036          104.95022106          106.72336841          103.98778354          104.61643562          105.39031322          104.23068201          104.68345769          103.98209583          105.78861257          119.36793114           114.6984921          117.46765762          105.00873519          119.55757002          105.85454047          110.49579814          104.53475077           106.2863415          107.40104171          112.59782597          107.05624358          104.65717581          104.95687067          104.88879312          103.59830451          105.80111573          104.44139014           104.7389633          104.97907461          103.70615156           106.0962951           111.2589316          104.70307385          104.43300221          104.94002592          107.13893118          104.88397378
         0.02*MaxFES =           102.27211167          102.71555819           102.9560606          103.17990026          102.99195794          102.71842802          102.57447604          102.72148752          102.62981787          102.78067769          102.63569387          102.97492555          102.76381513          102.69287154           103.2028658          102.98241143          102.83406272          102.80754307          102.86039611          102.78148535          102.50088653          102.79404049           102.9468553          103.44418932          102.77240501          102.62753994          103.01533076          102.59101327          102.81192155          102.89818002          103.10138602          102.74900039          102.84188749          102.94873711          103.24494402          102.94390926          102.35658265          102.94552604          102.41424397          102.37143047          103.13401862          102.78781479          102.92973394          102.71720625          102.71656899          102.74390743          102.61006635          102.56802754          103.69467949          102.88220335          102.60272273
         0.03*MaxFES =           102.27211167          102.24536247          102.82945932          102.53000328          102.70660493          102.66162425          102.57447604          102.66104357          102.55400529          102.63362441          102.55641016          102.63873296          102.61088217          102.33362703          103.00139777          102.77382012          102.77017118          102.79866841          102.77346323          102.40565546          102.12061137          102.45743821          102.78109326          102.62833831          102.56583057           102.3440628          102.51556914           102.5349078          102.81192155           102.1282892          102.72488483          102.38464807          102.77909159          102.66351821          102.93355286          102.83238145          102.35658265          102.84463294          102.41424397          102.37143047          102.68554236          102.70191555          102.46976135          102.60023912          102.31649246          102.30902884          102.10959158          102.48124363          102.70206384          102.53509257          102.60272273
         0.04*MaxFES =           102.17730022          102.24536247          102.10644335          102.35780551          102.69811055          102.30511138          102.27336435          102.66104357          102.55400529          102.27819052          102.54159102          102.53769687          102.49526856          102.33362703          102.74106022          102.46639679          102.58257466          102.47879475          102.55535871          102.40565546          102.12061137          102.45743821          102.69351655          102.51708155          102.56583057           102.3440628          102.51556914           102.5349078          102.58070953          102.11090019          102.68937528          102.35892354          102.55969615          102.20695998          102.68693528          102.83238145          102.35658265          102.81645722           102.3450747          102.37143047          102.63373838          102.69566271          101.74613333          102.33587561          102.31649246          102.04573402          102.10959158          102.48124363          102.44061817           102.4780391          102.32048925
         0.05*MaxFES =           102.17730022          102.24536247          102.10644335          102.33477576          102.61813607          102.30511138          102.27336435          102.66104357          102.55400529          102.27819052          102.44635079          102.53769687          102.49526856          102.33362703          102.62798913          102.28850423           102.5776464          102.41736384          102.18606311          102.40565546          102.08201413          102.45743821          102.46211973          102.22853398          102.56583057          102.18245489          102.38115302          102.48358197          102.33669719          102.11090019          102.68883068          102.35892354          102.55969615          102.20695998          102.68693528          102.73402322          102.35658265          102.35620825           102.3450747          102.37143047          102.12662232          102.34196465          101.74613333          102.33587561          102.31649246          102.04573402           101.8817108          102.48124363          102.44061817          102.40456389          102.32048925
          0.1*MaxFES =           102.09754276          101.93323521          102.02932828          102.21952642           102.0384523          102.07133562          102.11566255          102.25555976          102.27828399          102.24165923          102.22305648          102.17325177          102.23813889          102.28258456          102.26371888          102.19861107           102.4947258          102.22414179          101.89321209           102.0005397          101.78126442          102.45743821          102.36092619          102.12870711          102.29855247          102.05499021          102.24796193          102.39685327          102.16474077          102.11090019          102.26624874          101.88185042           102.4048352          102.20695998          102.00227312          102.40179555          102.27618707          101.88655611           102.3450747          102.32421158          102.10083272          102.18921501          101.74613333          102.17262224          102.13307676          101.99813929           101.8817108          102.48124363          102.34590257          102.10824032          102.26041518
          0.2*MaxFES =           102.03872549          101.93323521          101.95303203          102.19618065           102.0384523          102.07133562          101.75953947          102.21920266          101.95466687          102.12482635          101.98394313          101.94143613          102.23813889           102.0772404          102.03322528          102.14401785          102.23576141          102.01175026          101.89321209           102.0005397          101.78126442          101.86347221          102.12869263          101.74146304          102.10650907          102.05499021          101.98345139          101.98012692          101.88669119          101.77652804          101.87079962          101.88185042          102.29477067          102.07123731           101.8791507          102.28630057          102.18088808          101.88655611          102.10890387          102.06662782          101.88351103          102.18921501          101.74613333          102.17262224           101.6999898          101.99813929           101.8817108          102.42249919          101.71641141           102.0229708          102.06264793
          0.3*MaxFES =           101.95808218          101.93323521          101.95303203          102.13821178           102.0384523          102.02583868          101.75953947          101.93288176          101.95466687          102.05983365          101.98394313          101.93476515          101.88925275          101.87570602          102.03322528          102.00371261          102.17881458          102.01175026          101.89321209          101.95875005          101.78126442          101.74136261          102.00239915          101.74146304          102.05746563          101.81664623          101.98345139          101.79105366          101.88669119          101.77652804          101.87079962          101.88185042          102.06039138           102.0545024           101.8791507          102.23542227          101.88666157          101.80383264          102.10890387          101.80962588          101.88351103          102.18921501          101.74613333          102.17262224           101.6999898          101.78300949          101.88147578          102.11868891          101.71641141           102.0229708           101.9355819
          0.4*MaxFES =            101.9163675          101.93323521          101.95303203          102.01905883          101.98120855          101.64403306          101.75953947          101.93288176          101.77760099          102.05983365          101.86997121          101.90223319          101.88925275          101.87570602          102.03322528          101.87158335          102.07206031          102.00928581          101.84421224          101.95875005          101.78126442          101.74136261          101.77607892          101.74146304          102.05746563          101.79952244          101.98345139          101.77060004          101.88669119          101.77652804          101.87079962          101.88185042          101.75690305          102.02067383           101.8791507          101.96215156          101.88666157          101.80383264          102.00514525          101.80962588          101.88351103          102.01114618          101.74613333          102.02248769          101.66591185          101.78300949          101.88147578          101.91976158          101.71641141          101.86794054           101.9355819
          0.5*MaxFES =           101.88459872          101.93323521          101.88176254          101.98125377          101.91391814          101.64403306          101.70920251          101.89924253          101.77760099          101.92890029          101.86997121          101.90223319          101.69712586          101.87570602           101.9983146          101.87158335          101.96855115          101.96614532          101.84421224          101.95875005          101.78126442          101.74136261          101.66742329          101.74146304          102.00928247          101.79952244          101.98342953          101.77060004          101.88669119          101.77652804          101.87079962          101.88185042          101.75690305          101.89551459           101.8791507          101.96215156          101.88666157          101.80383264          102.00514525          101.80962588          101.69797295          101.91666541          101.55621088          102.02248769          101.66591185          101.78300949          101.88147578          101.91976158          101.71641141          101.86794054           101.9355819
          0.6*MaxFES =           101.85373386          101.93323521          101.88176254           101.8211137          101.91391814          101.64403306          101.70920251          101.68317722          101.77760099          101.92890029          101.86997121          101.90223319          101.69712586          101.85721434          101.97006255          101.87158335          101.96855115          101.93204801          101.84421224          101.87143884          101.78126442          101.74136261          101.66160355          101.74146304          101.64133894          101.79952244          101.92560482          101.77060004          101.88669119          101.77652804          101.87079962          101.88185042          101.75690305          101.87283982           101.8791507          101.96215156          101.88666157          101.80383264          102.00514525          101.80962588          101.69797295          101.78449621          101.55621088          101.96776123          101.66591185          101.78300949          101.87786871          101.91136186          101.71641141          101.86794054           101.9355819
          0.7*MaxFES =           101.72598904          101.93323521          101.83887223           101.8211137          101.88906502          101.64403306          101.70920251          101.68317722          101.77760099          101.75404798          101.83544607          101.90223319          101.69712586          101.75508927          101.97006255          101.54048699          101.96855115          101.82230261          101.84421224          101.87143884          101.78126442          101.74136261          101.66160355          101.74146304          101.64133894          101.79952244          101.92560482          101.77060004          101.88669119          101.77652804          101.87079962          101.88185042          101.75690305          101.87283982          101.86908997          101.96215156          101.88666157          101.80383264          102.00514525          101.80962588          101.69797295          101.78449621          101.55621088          101.75524272          101.66591185          101.78300949          101.87786871          101.91136186          101.71641141          101.86794054           101.9355819
          0.8*MaxFES =           101.72598904          101.62300112          101.83887223          101.79481875          101.88906502          101.64403306          101.70920251          101.68317722          101.77760099          101.61316437          101.83544607          101.90223319          101.69712586          101.73185136          101.97006255          101.54048699          101.96855115          101.82230261          101.84421224          101.87143884          101.78126442          101.74136261          101.66160355          101.43156505          101.64133894          101.79952244          101.66749062          101.77060004          101.88669119          101.77652804          101.72145916          101.88185042          101.75690305          101.87283982          101.86908997          101.96215156           101.8164314          101.80383264          102.00514525          101.80962588          101.69797295          101.78449621          101.55621088          101.75524272          101.66591185          101.78300949           101.7198079          101.78916694          101.71641141          101.85638596           101.9355819
          0.9*MaxFES =           101.72598904          101.62300112          101.83887223          101.79481875          101.88906502          101.64403306          101.70920251          101.68317722          101.77760099          101.61316437          101.83544607          101.89657124          101.69712586          101.73185136           101.8266673          101.51600995          101.96855115          101.82230261          101.84421224          101.82347306          101.78126442          101.74136261          101.66160355          101.43156505          101.64133894           101.5411115          101.66749062          101.77060004          101.61225303          101.77652804          101.72145916          101.88185042          101.75690305          101.72838808          101.86908997          101.96215156           101.8164314          101.80383264          102.00514525          101.80962588          101.69797295          101.78449621          101.55621088          101.75524272          101.66591185          101.78300949           101.7198079          101.78916694          101.71641141          101.85638596          101.90924618
              MaxFES =           101.72598904          101.62300112          101.83887223          101.51643158          101.88906502          101.64403306          101.70920251          101.68317722          101.77760099          101.61316437          101.83544607          101.89657124          101.69712586          101.73185136           101.8266673          101.51600995          101.96855115          101.82230261          101.84421224          101.82347306          101.78126442          101.74136261          101.66160355          101.43156505          101.64133894           101.5411115          101.66749062          101.67168123          101.61225303          101.77652804          101.72145916          101.76069711          101.73160691          101.72838808          101.86908997          101.70983205          101.67188654          101.80383264          102.00514525          101.80962588          101.69797295          101.52039428          101.55621088          101.57949864          101.66591185          101.78300949           101.7198079          101.78916694          101.71360274          101.85638596          101.90924618

                  Best                 Worst                Median                  Mean                   Std
          101.43156505          102.00514525          101.72598904    101.72768075235295   0.12115375848169678

