 23/07/2016 02:43:17 |                  Run 1                 Run 2                 Run 3                 Run 4                 Run 5                 Run 6                 Run 7                 Run 8                 Run 9                Run 10                Run 11                Run 12                Run 13                Run 14                Run 15                Run 16                Run 17                Run 18                Run 19                Run 20                Run 21                Run 22                Run 23                Run 24                Run 25                Run 26                Run 27                Run 28                Run 29                Run 30                Run 31                Run 32                Run 33                Run 34                Run 35                Run 36                Run 37                Run 38                Run 39                Run 40                Run 41                Run 42                Run 43                Run 44                Run 45                Run 46                Run 47                Run 48                Run 49                Run 50                Run 51
       0.0001*MaxFES =    4.125183939620048E7   4.259529151840567E8    3.16314984722953E7   3.952509386332202E7  1.8573737336222053E8      1824979.93508602   2.915708768291323E8      3048975.96484632   1.845970978043061E7   7.121887191964266E7  2.0459367624544412E8    3.08571773359419E7  1.8855920773113534E8   1.288181924560811E8       391527.49599326  1.4521019058029434E8   2.099207326418631E7   7.906675271330606E8   2.200381133260609E7  1.2323562257355917E8   1.705648654287465E7    3.06805757711964E7      7580198.76893324  2.6409308836012638E8  1.8256841167188826E8   3.055177751260345E8   1.347282140041876E7  2.0345888444342324E8    9.76529148052817E7  2.9005001788191617E8      9557478.98746081   1.580458081132333E7  2.6880165846387964E8      2448744.71007565   2.055481954381286E7   7.432838106471843E7   3.345596572778634E8  1.6791425599923557E8  3.2083481966553324E8      8964685.42631167   2.882877148925753E7  1.7132809490481457E8  1.9795399859461915E8      6968272.95167315      3468466.25912353  1.4764217375429064E8  2.1758021526011166E8      1163648.19669514   8.290554484501325E7   2.954043866157409E7   6.697609489678714E8
        0.001*MaxFES =    2.117949264214032E7      2364112.23289889      1949343.13146853       403543.79371381      2364692.16359817        691447.2866816       422369.08253385      2244263.22102472       838338.24833008      2240389.36311207        67636.65504241       2416698.6272625      1744263.87619339      3794928.35346578        268881.6410069      3798990.14756752      1424959.46582345      2335954.50633178      1526344.42009485       280811.09178449       682174.45714808         51109.6516844       2405503.8362232       237180.99551589        63146.81723825        167030.9274482       368148.27757291      2247485.75350827      2631214.54273471       459601.18069832      1155917.80267571      1429792.54896774       799740.41059447      2235804.98876966       585869.89134664       122358.48312235       7231824.1600762      1204851.59075483       112575.88289748       654741.12410717      1555095.20309267       253019.84779315      2428993.88678332       201053.27872542      2908493.05741599       550453.50430925       101605.60581235       922474.10557247      2486674.69048764       594577.38487138      1556654.70337705
         0.01*MaxFES =         55256.75198844       131903.81490383       244074.96745825        36845.39599101       343156.05820329        51933.86216985        66221.98891618       528369.99315062       125207.03907498       203000.55403244        13772.11565411        840229.0618403        79537.39537899        24691.96285107         5392.83922766         2180.95675327       150387.79858146       303631.32244326       158670.98928583        10691.16683479        16374.71942114        17194.37732603        483036.7089307        16876.72767721        25280.03208313        11394.57387045        25778.24858399       336988.50812211       317671.02742724        81369.42645331        48960.93380239        51132.84607318        19613.00653131       607091.80772829       129116.24637846       101694.53735284       567551.36899332        79824.87413991        10943.14568078        28093.67256852       278944.24971893        44875.89912103        24846.20569839        11145.70768867         2452.52338457        40630.03401311        18250.00491054       102690.33339636      1072245.92733145         8783.50861765       136179.78428754
         0.02*MaxFES =         46152.49138111        31206.94087067        65318.63653625        25510.22999044        70739.41247057         43879.5224428        23490.05281163        53842.41647031        90243.12582569        36044.49571013        13512.55785785        96999.57822316        22518.60039196        19238.45637165         5302.30627731         2140.61014677          41010.574097        12686.49202547        49616.75688927          9012.9544551         6916.75746829        15422.52042847       133337.85529543        13537.65571635        24339.68584008         10449.7628829        15373.31158018       111964.48260861        11396.08225694         77675.9503343        39804.91437241        21861.50162926        16551.14173514       143659.65506873       100809.42451926        97860.06703857        115330.3242277           49097.23633         10702.5955217         2819.25710522        31094.48928177        37888.48430547        24846.20569839         8738.30525329         2265.23994826        12530.58164388        14262.51868335        28041.68667512       439305.76509248         7635.52657896        24522.08747233
         0.03*MaxFES =         38992.50381733         5492.71824464         10186.6097445        23452.86317365        10388.45391797        37645.69740113        19923.76663507         8842.38523094        81673.17494547         6615.13737523        12561.52024588         9560.01257077        21639.91608027        17493.89594836         4411.38846742         2140.61014677        38060.64750631         8365.22291826        44148.92911392         7693.90295478         6854.59871364        13868.01007681        14359.31733558        12145.36659363        24085.42524332         10449.7628829        11499.69935554         8586.21122273         4716.78877278        68643.18491681        32827.40712309        19932.15516977        13466.03810173        43027.34166779        82252.75949565        90301.12516086          7460.3844227        46516.51270831         10702.5955217         2389.07075178         4911.87717755        34268.62373943        23344.43042699         7556.17033953         1798.80349736        11591.65202657        12738.52480135        18035.25208667        38839.60710987         7326.18547498         5912.61273457
         0.04*MaxFES =         37613.57414786         3324.56320691         7276.49275398        20029.91055425        10275.16888624        27303.92409114         16843.2218835         7203.08645784        72868.48154242         4414.07477238        12289.35217172         7089.00187719        20779.59227116        17437.02331473         4411.38846742         2140.61014677        33431.98735441         7987.26650965        34450.51686998         7693.90295478         6704.38028043        11660.53241881        13241.33029535        10354.10264495        24034.80805665         10343.2345907        10574.40135243         4910.62984857         4643.69252111        65492.35697556        26901.34733806        19932.15516977        12445.67518606         7918.10074741         76727.2722363        83755.54535063          7460.3844227        40884.63335821         10365.5751801         2288.94109795         4484.49837355         28849.8390208        22120.32712041         7006.57363102         1798.80349736        11339.55225062         9493.26516516         17370.4692752         9402.53252933         7201.97904053         5495.10256117
         0.05*MaxFES =         37613.57414786         3324.56320691         7029.38474276        17598.09808523         9977.03312261        26171.60722245        16067.50185459         7203.08645784        70077.67152411         4235.40364093        11956.90941472          6956.4684357        19971.10047261        16211.90710864         4410.77974084         2140.61014677        32720.13253136         7893.74013999        29189.81938037         7291.93051009         6604.70405321         10327.5141604        11621.54268892        10004.91521471          23900.414558         10343.2345907        10316.22509338         4656.19645044         4643.69252111        60845.76836606        22410.75465468        19644.15650412        10557.39756118         7426.14592374        67652.41704244        78383.81491556          7460.3844227        35930.16950398        10232.54453751         2288.94109795          3943.0033889        26252.71527496         21540.4917149         6751.28928349         1786.05186548        11288.74638379         9493.26516516           14666.64093          9143.4820476         7065.87803337         5495.10256117
          0.1*MaxFES =         24253.52676118         3203.01158037         5775.10475451        12610.10464555         9419.37239216        15414.35211162        10919.59964385         6166.42958305        39489.14219285         3815.37516535        11594.30108975         5077.44097317        17685.53786214        15227.42054778         3944.14833683         1670.00204169        27463.59858645         6939.58400072        15010.69331799         5193.11503942         5972.79833607         6253.10522549         8506.32384379         6574.00740297        22585.05084049         8881.97454594         8855.14769932         3317.14323131         3164.94683053        52161.40061037        15130.99793889        17677.59624742         9732.45558029          6526.0210761        37764.26230588        50619.92883443         6991.71637217        19084.13798106         8761.75879214          2248.7863433         3926.61715697        15215.94612383         17693.1642554         5400.36909326         1786.05186548        10058.85779268         6230.06502088        10679.94925985         7742.84876618         6689.35479417         5332.26429988
          0.2*MaxFES =         11778.74699921         2626.27159968         4481.00007117         9620.47507682         8575.41311481         7614.30740738         5601.68917596         5608.87052761        16049.39843439         2679.08434087        10500.60097275         4122.95977479        15146.98155778        12488.86121726         3648.67801637         1601.30289937        17908.29051572         6200.32310497         6885.66934463         3392.71366816         5340.60936907         3990.91199598         5648.96880088          4441.3000636        18015.65682755          6329.9412354         6661.93197001         2375.02629406         2262.72484537         36387.9508212         4886.12454378        14354.91098023          8538.8937585         6361.09515647         14613.2340052        29700.00645645         5230.11132685         8280.25276176         7319.82506948         2201.09804684         3004.25907949         8019.98391791        13079.26787633         4432.68392569          1602.1275119         7021.50553535         3469.69571302         5623.19159482         3557.88341847         6159.55509927          4419.4028628
          0.3*MaxFES =          7644.38227583         2153.28725401         3506.82045695         6414.37439711         8085.07019668         5205.60020634         3640.27587938         4909.28518649        12081.13818235         1804.95633563         8721.38992212         3872.93847214        12905.37077264        10119.82986985         3226.28188313         1484.39964601        14099.99411534          5192.9200775         5267.58812619         2268.98405534         3903.25443689         2457.19612636         4850.53756154         3747.78968049        15328.49924438         4814.94793602         5554.84025748         1932.57297148         1881.69608125        28592.96221576         2914.26779926        12537.90696445         7772.65991997         5582.71083032        12690.30130352         15776.4338793         4366.45019824         4540.65634588         6596.19514583         2174.53840638         1698.59321666         5023.39738776        10274.01625313          3661.3033891         1526.31756615         6617.96553428         2990.61532614         4328.28710975         3455.00499202          5819.9518228         3433.72042096
          0.4*MaxFES =          6959.93597967           1450.473077         2940.94380233          3817.2179023         7886.87753611         3520.21260522         2432.31620284         4399.68908085        10464.69158861         1390.47270916         7504.04818981         3374.12997957        11194.59302207         8923.02164061         2643.46644189         1422.95325767        10464.27398239          5107.5193334         4617.45714095         1851.99526556         2762.52585481         2161.03207096         4117.29265733         3183.70444471        11213.36766243         4435.54263924          5489.9078613         1329.71084927         1570.97641729        22950.13924717         2419.62895902        10728.12935206         6087.41644071         5220.33950046         9510.16392718        12154.18024794         4223.65234277         3401.57826844         6094.53555902         2127.81048127         1516.29942586         3678.77418001         9190.86445762         2741.12019005         1497.94305953         6004.31120489         1984.31783544         3153.03211139         2937.56484588         5380.75859904         3009.77329782
          0.5*MaxFES =          5768.80007459         1265.54104099         2497.25847139         3407.67762035         7668.47208736         2849.77612576         2241.16606514         4317.65703743           7730.635044         1138.62668002         6468.61478547          2515.2329114        10391.50355566         7933.91427039          2361.6463229         1352.39720858         9290.45269282         4110.99382354         3848.99438975          1472.3889521         2312.71384972         1783.28631959         3601.84241594         2976.39211271         9613.16863121         4331.69348838          5398.0212606         1125.33967221         1375.51514125        14810.34167677         1829.77817401         9783.88194288         4874.98095949         4947.59102307         7908.84056999         8255.16483244         3670.41092756         3149.86948825         5881.51864157         2036.71118901          1420.6729434         2266.69878033         7423.71107828         2449.63191096         1447.56374566         5448.43950683         1486.09737435         2648.89708284          2172.4771009         5067.65039706         2390.82934079
          0.6*MaxFES =          5133.30310393          1231.3434306         1899.70300748         2727.79538536         7177.10447309         2099.06557398         1813.36793864         4035.61945296         5961.24637567         1025.63123513         6421.79099576          2376.1428965           9050.687241         7050.59637021         1957.54784684         1352.39720858         8083.07035715         3642.64960025         3726.28021187         1234.68896539         1998.13032102         1506.13549824          2995.3386908         2333.79475712         7830.77288811         3930.89471948         5119.53515283          983.68657651         1256.73582675         9428.94255898         1798.45644148         9226.22963819         4330.79881899         4598.88801298         6415.45333366         7348.38995447         3204.85162362         2223.36121282         5229.33989148         1926.75212759          1118.3937557         1972.16243217         5697.89188788         2321.82389723         1356.15359143         5392.12668109         1254.73317412         2201.35140791         2115.04307236         5029.89116511         2209.39953684
          0.7*MaxFES =          4440.13932034         1082.23256501         1689.74593742         2520.44298826         7177.10447309         1835.83388639         1662.01640043         3989.44022645         4701.75351701          903.65795777         6299.88463351         2119.25331052         7942.04595634         5110.40108731         1828.91919399         1352.39720858         7327.57988686         3213.68736324         3726.28021187          1200.9068207         1670.06450528         1293.12437272         2394.42055114         2066.79600733         6541.49917812         3734.66118998         4406.20331414          851.05274458         1163.95367417         7195.65563285         1776.27855523         8826.36389538         4330.79881899          4020.4076548         6061.70817584          6131.4988836         2813.22672192         1927.07701444           4725.637994         1903.59088345         1064.84443598          1689.3912141         5001.19819096         2110.90447793         1336.76045423         5175.22835318         1037.35051147         1768.10680805         1966.73683861         4874.48197674         1954.73697133
          0.8*MaxFES =          4325.82275612          972.84945555         1517.32653946         2472.96163687         6955.58771147         1508.98461096         1397.29946257         3725.07093981         3074.53895905          811.56859307         5944.61479411         1722.91799927         6452.33898629          4564.5194495         1603.55089075         1322.36068721         6531.53931809         3091.49669322          3586.3464765         1063.79700402         1558.65403298         1095.78840268         1920.82047017         1701.59986525         6130.39781951         3670.62987666         3891.77629622          756.43483402          1053.6515599           5257.486813          1643.4091746         8345.63248096         3809.61822066         3870.02706409         5723.82293787         5612.57053298         2655.20438524          1470.6265434         4383.97305119         1890.19698775         1043.39276922         1645.30313235         4434.88783921         1765.14866314         1300.14542835         4956.82058854          896.06802702         1768.10680805         1911.26534725         4874.48197674         1809.25463941
          0.9*MaxFES =          4316.89853986          934.04871022         1278.50103383         2314.82903512         6923.83604811         1299.29359917         1323.45713371            3526.28946         2566.51560397           801.9504338         5944.61479411          1304.4313403         6084.05731043         3258.20245184         1543.05042091         1272.66877356         6167.88261737         2601.27952862         3525.83924435          833.35177984         1533.81624019         1034.38579104         1818.75961216         1560.44469302         5626.89111629         3483.43535531         3705.68691326          656.88349277          895.69703166         4755.69274631         1314.63157066         8169.29033267         3397.23309635         3715.75502961         5191.05480919         4955.94340099         2558.89732015         1257.45799328          3737.7437935         1758.17862483         1043.39276922         1436.17554145         3625.33540087         1586.67452534         1300.14542835         4734.37455017           848.7421263         1724.06067972         1550.07386379          4398.1011566         1604.63749021
              MaxFES =          4043.35387086          906.53491823         1171.29830261         2286.60142788         6781.44710521         1098.03218087         1222.63682707         3286.78737273          2279.2533426          723.97041275         5919.31013458         1243.68476613         4917.91951253         2461.93547605         1482.59822089         1272.66877356         4919.94486857          2566.6536289         3405.08030392          738.48445659         1533.81624019          937.77002616         1432.47473831         1212.24632341         4907.54067545         3483.43535531            3625.89887          526.21942798          695.81515675         4067.94422458         1208.78534714         7999.27423716         3128.32877563          3519.8761429         4763.42885981         4345.53116006         2408.30550696         1100.72719194         3429.25637315         1719.03380074          999.66708041          1425.6585476         3167.85695727         1385.08935769         1300.14542835         4734.37455017           797.4000199         1549.89205777         1352.30414218         4045.50607964         1447.90932591

                  Best                 Worst                Median                  Mean                   Std
          526.21942798         7999.27423716         1719.03380074     2568.229566334314    1749.0147479427987

