 17/06/2016 03:39:05 |                  Run 1                 Run 2                 Run 3                 Run 4                 Run 5                 Run 6                 Run 7                 Run 8                 Run 9                Run 10                Run 11                Run 12                Run 13                Run 14                Run 15                Run 16                Run 17                Run 18                Run 19                Run 20                Run 21                Run 22                Run 23                Run 24                Run 25                Run 26                Run 27                Run 28                Run 29                Run 30                Run 31                Run 32                Run 33                Run 34                Run 35                Run 36                Run 37                Run 38                Run 39                Run 40                Run 41                Run 42                Run 43                Run 44                Run 45                Run 46                Run 47                Run 48                Run 49                Run 50                Run 51
       0.0001*MaxFES =     15777697153.800259    19445050361.461708    18758811159.888504     12305820545.72894     15789217135.98151     70764535209.25337     8230815822.600485     55036574235.69415     17461810472.86065    12968532851.468353    19032762429.141563     43034629353.96614     11036671964.43103     18093548042.58152     15255751459.80936    23047368248.492794    27492483219.413376     34438743039.69451     54818790199.34573     8650181099.016924     5992788255.196743     25637065908.10304    15784692743.438305    15487029988.675512      8922473588.10151    16299071928.524132    33471168131.477894    23930517652.581783    19454799399.460945    29986113718.043182    21518983624.807503    21119500169.571625     41902896962.90531     5222473000.019402    22135025080.334576     17347701924.75976    21854827478.252785     5656451323.708479     55260334070.15171    11442014744.382565     24830669216.78888    11195003398.999983    10080838636.572216     3529256713.253093    27139311398.878315     20576989362.27765    26522660089.009907      14883283326.8341    12762854836.568157    13419518822.177578    30633360514.354416
        0.001*MaxFES =     15771196978.760878    19445050361.461708    18758811159.888504     12305820545.72894     15789217135.98151     70764535209.25337     5912368127.747348     54615761534.84812     17461810472.86065    12968532851.468353    19032762429.141563     43032990802.88843     11036671964.43103     18093548042.58152    15254081843.688477    23047368248.492794    27492483219.413376     34437155841.76728     54818790199.34573     8650181099.016924     5992788255.196743     25637065908.10304    15784692743.438305    15487029988.675512     8821220624.780453    16299071928.524132    33471168131.477894    23930517652.581783    17901127036.518562    29986113718.043182    21518983624.807503    21119500169.571625     41902896962.90531     5222473000.019402    22135025080.334576     17347701924.75976    21854827478.252785    5476179819.4373045     55260334070.15171     11441833632.39253     24830669216.78888    11195003398.999983    10063779753.682768    3234909575.5473127    27139311398.878315     20576989362.27765    26522660089.009907      14883283326.8341    12762854836.568157    13419518822.177578    30633360514.354416
         0.01*MaxFES =     10289227464.163876    13416731500.343313    12084092938.198647     9063464407.162685    11273627701.003738     53253794198.80322     5912368127.747348     33461319854.39794    12061185940.274364     9201061074.875174    12210542111.897797    27379866157.418907     8346587933.772743    11237033145.569635     9204091286.028328     9587312110.221527    17135285207.888857    24457385530.753674     40555483579.37686     4919256168.485901    2899262466.6819563    15451824157.470888     11682287545.08984      9331391088.50931     6844234106.878219    12690447949.787134     19839620664.95264    14225786152.585552    12424956113.837755     22779599012.74882    13728152611.814949    12446430659.115805    29409069647.980667     4598184603.267561    14728412003.450916     8731992681.584593     14637676679.24519     2225972163.466653     44017670054.68343    7883088623.1373415    11945516442.584925     8094520118.884528     5626881011.116065    1935400053.6869164    16826883759.328949    17423637806.472874    13867392573.018642     7701626172.993694     7950680777.576648     9397636620.771738    22689627897.276436
         0.02*MaxFES =      7151101667.161288    12590233312.838104    12084092938.198647     9063464407.162685     9995349148.111532     49946022861.81296     5912368127.747348    30298500124.157143    12061185940.274364     7416883341.468026    11376008786.646835    27379866157.418907     8130227764.872607    11237033145.569635     9204091286.028328     9587312110.221527    17135285207.888857    22809583443.370796     32626218309.56714     4919256168.485901    2899262466.6819563    13426645558.916582     11412127529.37262      9331391088.50931      4984108053.58554    12690447949.787134     19839620664.95264    14172762743.885096     6628838531.896858     22779599012.74882    13728152611.814949    12446430659.115805    29409069647.980667      4555970313.33655    12251825421.484007     8731992681.584593     14637676679.24519     2225972163.466653     43037830440.64098      6377239568.68021    11945516442.584925     6380969327.484071     3455291107.082755    1935400053.6869164    16826883759.328949    17423637806.472874    13867392573.018642     7701626172.993694     7217361698.846855     9397636620.771738    22689627897.276436
         0.03*MaxFES =      4780141878.136165     9312616113.283508     8967846000.725027     5039919014.160555     9995349148.111532    44059456858.981125     5193045794.390072    27243474106.156094     8944136834.105864     5480098418.067814      6103237654.79498    22453273031.563667     7954140547.233002     6100661227.348608      7969620465.97187     9133048685.386755    10692936817.687319    16689154320.903152     29522756377.55173    2947733014.0963526      2255742813.79669     8662606366.824446     11258040193.96111     6984074690.343701      4984108053.58554     8384035852.315632    17471541871.504482    14085723059.869099     6628838531.896858     15547724443.57675      8384872973.92636     7362999157.705345    20287854536.914627     4303648562.529459     7494405243.597211     5834202327.392034    11742482529.778122    1922915226.3003385     34100741891.10534    3540463721.2733097      9718075584.20876     5200385516.623461     3134827020.917868    1935400053.6869164    13083286564.685377    16572480154.520578    12367019750.456017     3561113161.420468     7217361698.846855     7290886808.471074     14030977993.53593
         0.04*MaxFES =      4297713784.441376     7414692946.713006     5710623815.311897     5039919014.160555      9194073755.84845    44059456858.981125     5193045794.390072    25870005014.501663     8944136834.105864     5040577463.280434      6103237654.79498    22453273031.563667     7860690496.376174     6100661227.348608     6847321740.243368     9133048685.386755    10692936817.687319    16689154320.903152    25184316706.058533    2947733014.0963526      2255742813.79669     8159082921.623901     10427010267.33614     6736912507.454441     4112038115.842812    8331969801.6567955    17471541871.504482    14085723059.869099     6090631731.309289     15547724443.57675      8384872973.92636     7362999157.705345    20287854536.914627     4303648562.529459     7494320521.954082     5834202327.392034    11742482529.778122    1922915226.3003385     34100741891.10534    3540463721.2733097      9718075584.20876     4703988485.251269    2396230149.6354823    1935400053.6869164     7907108709.825011    16572480154.520578    12367019750.456017     3561113161.420468      7060719591.73086     7290886808.471074     14030977993.53593
         0.05*MaxFES =     3477953371.3640795     4463085532.496584    3800282998.0977793    3094313229.6505914      9194073755.84845     39776393750.72514     5193045136.829697    24240219023.170914     7488644558.601884     4746034204.483861      5473501013.99112    22453272659.718636     5162804561.985008     6100661192.818697     6847321740.243368     9133047903.414244     6701485317.436157    16689154260.270374    25184316706.058533     2256890847.936099      2255742813.79669     8159082921.623901     10427010267.33614     6488961486.833679     4112038115.842812    5183230342.0573845     15527333926.70372    14085723008.588322     6090631731.309289    12798082708.249174      7922720517.36332    6526033764.6520605    13849626217.629433     4303648496.226439     4902705850.589844     5834202301.262681    10947319673.270401    1922911899.4297967     29832808895.43762    2229900461.2220116     7430401482.495748     4118121258.900303    2396230149.6354823    1935400053.6869164     5681184728.339024    16572480062.651613     6080395104.672132    2457289098.4684963      7060719591.73086     7290886740.531729     8057661751.106702
          0.1*MaxFES =       853577573.880767    4086402224.3445835     3469195711.373142    3094310338.4517055      9194072394.42128    33526130798.259094     4327405191.434404     19525810504.22314     5485646190.538306    3958182784.4206786     5250677770.898717     21838739012.98393    4065610819.2926416     6100661192.818697     6656967664.866338     9133047661.897486     2508147558.026244    10793194863.605541     23806931060.02389     2256889550.634312      2255742813.79669    4047063460.7576265    10384298906.354486      5572024078.60114    2517434777.3537216    3723477333.4508033    12668445746.521385    11973862922.342894     6090629881.224736    11447554885.745686     5690490750.119317     6325244470.410192     12857246635.16589     4284347015.257001    2362607007.4725447     5834202301.262681      4034592398.40386    1840433892.0297554    29832806728.773544     2229898118.949547     4863630413.268099     2326531262.081085    2396230149.6354823    1935400053.6869164     5166432812.338306    16572480029.936031     6080393089.526669     2391551884.953537      6330888301.28634     4854001418.053365     3096333386.680146
          0.2*MaxFES =       853577573.880767    3919746898.6158276    2567180596.0334835     3094308082.150797     6849725006.110724    24106825698.817482     3575746619.790895    19387473788.539143      4860460382.66144     2842093959.248545     4925226650.210817     6288486594.280354    4065609768.4160438    2067605421.1820717     6026647961.538827     5125293288.181346    2113302206.1466243     9964131094.182398    22883943412.801064     1669880701.188931    2126637828.8176775    2123562981.3009605     6267112635.650671    1771682292.8812954     2109192287.921477    2828408239.9728746     12668441577.57289     9988373460.728529     5706318969.220665    10571903779.918997     2685697207.689214     2966160202.937397     7074661695.651479    3998149173.6023045    1803830282.8400767     3307128835.033145      3308065220.11989    1840433838.3371115     22503926878.39453    2082364008.4325979     4125870944.608083     1746696947.073068    2396230149.6354823    1609595327.2551682      4469265954.17457    15969539633.629126      5386166131.37104    2069186786.3484404      5229695825.42641     4747083194.758831     2002244639.585451
          0.3*MaxFES =       700468412.014917    2262135724.8324275     2386295719.471751    2218169729.7540812    3810679303.1300554    23173848899.176098     2815405500.074055    14844553214.997072     4263915605.652712     2750526676.096461     3884717396.339422     6171474280.399825    2552939340.5543056    1994819299.3214931    4281848662.8784537     3328717414.647445    2113302206.1466243     7278757531.916203    15918270571.774784     773428579.5772678     2126637757.494395     1901149475.617695     5201174669.394326    1554565933.0806236    1411951368.0174687    2603570271.6599307     8516163143.379212     7403042675.352899     5368440765.170695      8193288908.71204    2479937817.3060317    2288848457.6885247     4140362779.814658    3980451694.3353763    1803830282.8400767    2817748058.4358206     2830449708.855693    1799914682.1340296    22377618605.817326    1541618441.7208378     2469757076.551678    1746696914.0542932    2396230149.6354823     789491213.4432033     2989112556.207107     12502223041.55972      5386166131.37104    1956920742.3948405    4016135843.2268476    4713753805.2640505    1128994809.5358949
          0.4*MaxFES =      700468376.1835136    1927489547.5305758    2386295652.6041284    1740555423.8582213     3116056352.116994     17647665036.76272    2000818880.7452238    13730983369.773937     4263915605.652712    2389114238.8564787     3637440586.517314     5565884105.350548       1740656019.3535    1947776496.6203995    2939895688.9701114    2470121140.8469367     1741270733.459208     4287016123.590932    13315510232.687986     773428579.5772678    2120889549.8936312    1687880672.7318652     3795943622.815862    1554565856.4289083    1014929798.9622958    2410054435.5635967     8471988367.282126     5349722657.926951     5368440765.170695     7055109491.079394    2341480975.3900633    2288848457.6885247     3867955313.242073    2749728926.9850903    1803830282.8400767    2817748058.4358206     2830449374.825788    1693697372.7774732    22377618605.817326    1179597171.5624108    2374877450.9060116    1506610944.7049255    2396230149.6354823     789491213.4432033    2477350598.4993725      8469365982.91925     3550142521.388272     1487686429.366243     3055514892.125422     2509057755.778651    1027846276.3087573
          0.5*MaxFES =      566522643.9831163     1819507181.013911     2111010750.837221    1588149425.6970198    3116056122.4023895      8928711748.49651    1358983964.3301592     5740828120.812444     4263915605.652712    2389114238.8564787    2765613102.9044747     4245285464.317524    1604028946.1278303    1947776496.6203995    2907191837.5812364    1853758699.3010385    1614408937.7912216    4287015514.5624495    11487807498.618229     773428579.5772678    1485701749.9420097    1320427147.9463952    2377229429.3336253    1554565856.4289083    1014929795.9721514    1721016009.1322186     4865190470.109234     5307624134.083614     5368440765.170695     6449477715.843514     1849814591.048627    2288848457.6885247     3867954775.141795    2301955799.9008737    1539991096.6431916    2817748058.4358206    2104612112.9305735     1564017530.585054    19845502563.589096    1081994309.8838642    1322984340.3715906    1068497766.7235721     2288987735.632955     789491213.4432033     2207962220.524178     4990065469.627408     2984571415.544684    1103198866.1844594    2225452605.3002076    2504916629.8936586     797445601.2843703
          0.6*MaxFES =      474120941.7160612    1406567212.4637506     1901311452.250989     1451629328.692423    1797914844.6777635     7089195549.698274    1183174350.8231523     5740826791.305284     2635849157.697821     1713690333.818746    2765612354.7382026    4184108543.8820286    1209846993.8497787    1471626241.3244536    2332465356.4168844      1350434172.65712    1613075573.3294291     2413609273.000803      9707908101.64182     693836215.5346255    1105632111.0763023    1320427147.9463952    2357361156.7784247    1123582339.1055815      708874957.777863     1308807540.274361    3149057537.3097773     4953373684.961153     5368440765.170695     3935618589.847668     1849814591.048627    2288848457.6885247    2029803574.5283506    2239581792.5642138    1097421650.2029784    1894438223.3451474    2104612112.9305735    1564017039.1328862    14880865740.737516     939291485.0294234     954988872.3205382    1039260287.0131751    2264733510.8326306     789491213.4432033    1769050019.0464637    1961842520.8888853    2950354944.2488627     815718392.7547106    1509420130.4999845     2504916628.376276     797445601.2843703
          0.7*MaxFES =     426505901.70301795    1240064041.3475296     982772767.9701099    1173642348.2644463     963434329.7945411     2992601205.221382    1043929569.0015005    4540723015.7878475     2381906017.545891    1397954261.9042895    2765612354.7382026    2458819082.3498154     927331481.9580178     1464584435.596875    1969124880.0517178    1225786893.3452814    1456276755.5226545    1409231371.0476093     8765296201.381575     642880374.2435716     924165950.3074995    1262419164.9122248     2221222744.470395     1092103193.988811     457597692.7843716       954565533.07892    2102454677.6833012     2715967912.855217     5368440765.170695    3394495180.7557974     1849814591.048627     1626619129.948483    1734517011.3788972    2077143261.3241801    1097421650.2029784     751948260.6334828    1960808515.0998747    1271969535.9075825     6591215192.480917     921318657.9682162      912239174.567712     726652843.7137697    2065671482.7878637     593335239.1981136    1605603164.6300771    1448877267.9372592    2950354944.2488627     815718319.1168643     914379431.5856439    2195296988.7215257     797445601.2843703
          0.8*MaxFES =      420532110.0852571     1236884689.742898     640765062.0574772    1149953307.1300263     861426821.2916567    2816865575.7614026      967255019.751437    3974214503.4447923     2381906017.545891    1297246612.2712567    1560623065.6138356      874387255.307948     836320552.2832406    1059711461.6569544     1610320643.118264    1225786893.3452814    1065847861.4961506    1214660737.4621332    1789800313.4244757     632842513.3995142     880023391.7030506    1059763369.4024453      2219130963.81048       810971125.13958    420711390.76471347       954565533.07892    1538426772.7064857    2175678961.6612225    3045064195.7753043     2602653870.350261    1571865321.3439138    1040973079.9295558    1435212063.9960916    1549022777.3723788    1084979283.8201425     751948260.6334828      1639679304.81435    1238364223.5306044     5191378271.919801     921318394.2455045     866966022.8415732      684741569.737752    1496689633.5271938      433647632.853156    1605603164.6300771    1135184815.5332649    2950354944.2488627     815718319.1168643     814843068.6644678    1722891543.2368298     738262127.2165538
          0.9*MaxFES =     384139800.68501997     1236884689.742898     640765054.6682825      717938243.596826     834580300.1289616    2187740893.3168354     940099106.2334566    3325762838.6690125    2246691180.1417294    1077361480.0982506    1135128359.8124766      569994381.520228     696773769.7486635     989869132.1697671    1421148592.3320212    1028342357.9557537     821113667.9041275     826053055.7377503    1789800313.4244757     567913540.4329396     880023391.7030506     873857471.1435556    1869151463.3252628     650182239.5654353    360411065.81663704     840820099.1550233    1310158321.8123598    1613345822.1665747    2555604955.5396447    2267416576.3830976     709148196.0950136     846310541.7926553     1305118166.295486    1470391172.0780869     678171232.8924762      401698496.458136     1416741192.711413     950933755.7767743    4145074319.9254537      852464264.474608     758228095.4469033     676454393.2450114     885519281.0038478      433647632.853156    1360546910.7513528     707116077.8276157    1635316826.8433104     815718319.1168643     742985172.8796622     1091644137.570434     719949816.4391067
              MaxFES =      325762884.4946411    1089450549.2482324    430544764.54445547     635017208.6556625     654128652.1583196    1822738365.1869833     789250657.8050097    1717816244.0171309     1669641218.642827     666298429.7462863     644519812.2613144     524965075.0727583     675882585.5942805      910406232.093355     776746903.1161927     870990044.2283491     679102857.9546351    336836656.90259385    1300471436.7625706    453202240.43100286     726807065.2965741     861425483.4418914    1406380363.8566003     584467394.5068463    316746255.48887503     728445850.9341029    1136240520.9200325     1420046615.262765    1944529756.6075466     1443669730.796337     577818358.2346288     769986762.7279263    1119856135.2845838    1323463887.1481194     612364546.1485842      401698496.458136     1299268953.864103      527912992.208899     3764161462.714599      559101852.126185      651878553.560321     625278400.7682654     700263513.7426106     422294896.1724312     880190413.2183149     606352026.0741265     578010639.3605068     516945808.3505482     638741722.6297851     891167995.6974237     598459217.2840046

                  Best                 Worst                Median                  Mean                   Std
  3.1674625548887503E8   3.764161462714599E9   6.791028579546351E8    8.94269578231417E8   5.698476918232052E8

