 23/07/2016 13:50:03 |                  Run 1                 Run 2                 Run 3                 Run 4                 Run 5                 Run 6                 Run 7                 Run 8                 Run 9                Run 10                Run 11                Run 12                Run 13                Run 14                Run 15                Run 16                Run 17                Run 18                Run 19                Run 20                Run 21                Run 22                Run 23                Run 24                Run 25                Run 26                Run 27                Run 28                Run 29                Run 30                Run 31                Run 32                Run 33                Run 34                Run 35                Run 36                Run 37                Run 38                Run 39                Run 40                Run 41                Run 42                Run 43                Run 44                Run 45                Run 46                Run 47                Run 48                Run 49                Run 50                Run 51
       0.0001*MaxFES =    4.542145237908318E9  2.5715746057860627E9  2.7665512508293915E9  2.7064353182100086E9   9.905072485949925E8   2.738154627681621E8   8.059908593791541E9   5.528378663328053E9 1.2605868283880932E10  1.5767904935818115E8  4.9858924304134417E8   2.305024966454066E9   4.321967269557449E9  1.554248509770258E10  1.0412220939946213E8  3.2747018254456525E9  2.5679287296031127E9 1.1473140863759829E10    1.53547106208964E8  1.6742581674551985E9   9.555756323928648E8  1.064076098394804E10  3.4013796583605204E9  2.243595414777848E10 1.8829382479876343E10   3.509391827499851E7  1.5304302554400283E8  4.0451768349742613E9   4.139396458246217E9  2.1793242430208855E9   1.05422653237039E10  4.7654985609050953E8   5.541841281278771E9   3.182424599839516E9  2.425276504102583E10   7.988762684305059E8  2.9982313658149815E9   1.583492080466326E7  2.5399392997595203E8 2.7228467955212196E10  1.2650920535905128E9  1.4105626426003876E9   3.814040036814614E9    6.42246153136979E9 1.1687436475074398E10   1.314143367632096E9  2.0461930612594316E9 1.3351054917284105E10   2.413879412848374E9  1.4562659059808838E8      3545877.82620263
        0.001*MaxFES =    4.542145237616611E9  2.5715745958979216E9  2.7665512392327156E9  2.7064353175278015E9   9.905072485949925E8   2.738154627681621E8   8.059908583602629E9   5.528378663328053E9 1.2605868283880932E10   1.576790481092674E8   4.985892348198121E8   2.305024952644994E9   4.321967246498793E9  1.554248509770258E10  1.0412220939946213E8   3.274701818940158E9  2.5679287128748217E9 1.1473140863759829E10    1.53547106208964E8  1.6742581669471257E9   9.555756323928648E8 1.0640760983692053E10  3.4013796583605204E9 2.2435954147618057E10 1.8829382479876343E10   3.509390428308303E7  1.5304302513271922E8  4.0451768349742613E9   4.139396458246217E9  2.1793242409810357E9 1.0542265301251284E10   4.765498340874976E8  5.5418412809954815E9   3.182424599839516E9 2.4252765041000294E10     7.9887625147415E8  2.9982313658149815E9   1.583492080466326E7  2.5399392997595203E8 2.7228467910364265E10  1.2650920279314597E9  1.4105626426003876E9   3.814040019308361E9    6.42246153136979E9 1.1687436474518639E10  1.3141433297185082E9  2.0461930612091973E9 1.3351054917274494E10   2.413879412848374E9  1.4562659059808838E8      3545877.82620263
         0.01*MaxFES =    3.803383601912182E8   3.823136419314045E8      2783784.05233949   6.010966403778056E8      3852596.67936379   6.153888331239874E7  2.1228876914183543E9   6.662773217919948E8    7.64890476752624E9      3442654.14910072  1.3380387463562727E8   1.561589145939851E7   1.359588150181803E8    5.02724303866673E9       522040.05323784   7.846008293296983E8   2.647442524245664E7  2.6952787762513986E9       624543.49216419   1.642742948078861E7   8.705804491486297E8    4.31046136149029E9  2.6732536564271355E9   9.251336640934603E9   9.084388246384909E9      6024630.59017669   2.671944482739043E7   7.017617701083928E8   9.761565502043205E8   1.298589143348694E9  2.2189293748575525E9   2.158147588405969E7    3.61014751696188E8  2.5987110500331078E9 1.2537843757284998E10      6887625.69855125  2.9932001459364996E9   1.517897466007803E7   1.053709165771665E7 1.2042046816475128E10   2.920973120963572E7  2.5863405924206322E8   9.549954337627263E8   3.311713582762692E9  3.4703318673870573E9  1.1179994249895756E9  1.5495940338998148E9  3.8779830053025923E9  1.9342803177167308E8      9710852.38342524       110062.90563318
         0.02*MaxFES =    1.478319256508962E7      2854126.23539736      2783784.05233949      3292119.67681412      2993863.40511191   1.525350046302871E7       217507.75712022   1.729992138751285E7      4023762.60414468       182294.07396818          24857.769994      1159734.59252035   2.221844411217107E7   2.266564083562119E7       161482.15078262      2598843.97054102        97438.60429018   3.678261755620838E7       274227.72362702        48322.20325296       928008.34128018      9389462.89792738         500688.370776   5.884858053019385E8   1.928406503031641E7      6024630.59017669   1.463907283106005E7      8008403.58473111      5305382.88759809       181942.63570379   1.959077471889746E7      4638350.99814239   2.421332313034517E7      1110937.53246684    1.09788590929496E9       130151.19027519      3469753.40699584   1.517897466007803E7   1.053709165771665E7   6.703805910125691E8      1148493.57035209        410718.9820894      1928040.71480141        714704.0570495   1.638915930346771E7       510260.52066553       201774.28031262   2.421528258592258E7       318419.07076109      3024796.08429339       110062.90563318
         0.03*MaxFES =       3339336.85801103      2853310.69019107      1928835.97918874      3270255.34528556      1169394.33273818   1.501978517961555E7       217507.75712022   1.718470325784746E7      1725556.21772234       182294.07396818          24857.769994      1100202.65610363   2.209010589018265E7   2.190769919901621E7       161482.15078262      2543119.87653277        97438.60429018        24393.82761589       274227.72362702        48322.20325296       923618.52255668      9389462.89792738       496398.85330354      6380305.04766251      1289967.81729665      6024630.59017669   1.463907283106005E7      8008156.77005332      5304468.86638995       141443.94592984   1.934891360813596E7      4630547.55124058       266734.21211035      1110937.53246684       330675.88981709        128879.2788827      3469753.40699584   1.503321790384857E7   1.053709165771665E7      6407112.00741557      1148493.57035209       404612.93532309      1713493.37784836       714576.53306459   1.570848799831133E7       510260.52066553       201774.28031262      6580654.99261617       318419.07076109      2936109.66302698       110062.90563318
         0.04*MaxFES =       3339336.85801103      2802757.95656391      1928835.97918874      3270255.34528556      1169350.52417264   1.501978517961555E7       217507.75712022   1.718466313965547E7        702898.3558548       182294.07396818          24857.769994      1100202.65610363   2.209010589018265E7   2.190769919901621E7       161482.15078262      2543113.37103812        97438.60429018        24088.59186555       274227.72362702        48322.20325296       923618.52255668      5406391.81300902        495658.6665217      6380305.04766251      1289875.31315768      6024630.59017669   1.463907283106005E7      8000630.59062455       5304332.0205495       141443.94592984   1.934888183413786E7      4541239.53280999       266734.21211035      1110937.53246684       330675.88981709        128879.2788827      3469753.40699584   1.502776914503519E7   1.053709165771665E7      6407112.00741557      1148493.57035209       404612.93532309      1713493.37784836       713589.30364865   1.570848799831133E7       510260.52066553       201774.28031262      6580654.99261617       318419.07076109      2936109.66302698       110062.90563318
         0.05*MaxFES =       3339336.85801103      2802548.68773528      1927919.93301862      3269410.30459104      1168783.49039179   1.497759060897283E7       217507.75712022   1.708179058095848E7       702896.04200314       182294.07396818          24857.769994      1100186.31219821   2.208953074012984E7   2.190756964850301E7       161482.15078262      2541914.47257593        97438.60429018        24088.59186555       274227.72362702        48322.20325296       923618.00674506      5405941.06104227       495454.98006585      6380297.81210291      1225212.02523654      6024630.59017669   1.463907283106005E7      8000630.59062455      5303779.72742795       141443.56780063   1.897463402800813E7      4541239.37880888       266725.90335024      1110937.53246684       330061.12214785       127952.12701759      3469753.40699584   1.502769925964232E7   1.053709165771665E7      6407027.27125764      1148493.57035209       404612.43066941      1713289.38502286       616243.79745009   1.570826645806941E7       510260.52066553       201774.28031262      6579159.90321134       318419.07076109       2934899.8055666       110062.90563318
          0.1*MaxFES =       3339336.85801103      2801733.14252898      1927177.33087528      3269337.95007811      1168298.95848806     1.4976167259146E7       217507.75712022   1.708114487306857E7       679740.39266355       182294.07396818          24857.769994      1099193.11275761   2.159714637226907E7   2.190756964850301E7       161482.15078262      2541213.34245504        97438.60429018        22968.49130988       274227.72362702        48322.20325296       898143.72017585      5227875.43700776       494615.04171201      6331017.69331208      1224496.66819725      6024630.59017669   1.463907283106005E7      7934704.81873909      5303417.57115063       140473.87874052   1.897309104785529E7      4541177.57592204       266667.39695251      1110937.53246684       330035.88282728       127474.49277231      3469753.40699584   1.498964273251575E7   1.053709165771665E7      6330669.33825666      1148493.57035209       403708.80991042      1712288.48699128       614971.01719746   1.545342424687135E7       510260.52066553       201774.28031262      4465269.59984352       318419.07076109      2934745.56832465       110062.90563318
          0.2*MaxFES =           4263.7056727         4726.85739111         2290.26699645          987.44937034         4831.09044433          275.12220813         1650.10070033          876.76505661         4429.75391342         1410.51322068          105.05445988         1346.84580137          276.75037803          313.16541125        10147.66929147         1692.93132275          844.91974938         5169.68043247          167.07994943         4560.17903027         6906.12390384         5463.16994118           650.7994902         8659.74808931         7845.38569194         7077.33384685         1936.34879478          270.11119918          294.88702362           43.45329627         5086.51660469         3573.32155719         3890.11932359         3987.96787108         6142.62646187        11781.45960695         3400.29076585          326.88049561          574.35067606         8928.79580937         1942.59997788         2070.18266922          459.40995752         1106.47356328          970.34871562         1583.23727763          145.55693169         3654.58447325         2916.79518988         4008.12740155         2313.56378139
          0.3*MaxFES =          3054.76830669         3044.89036002         1727.78864773           642.7718391         3286.86967523           253.0129719         1277.62489431          276.87274551         2659.62897446         1032.90932225           70.78039161         1137.66364236          237.46449646          154.21563128         6822.85036581          950.37674685          536.21901448          3322.4060004          144.93704327         2867.83695254         4791.04079633         3582.01042646          564.93720789         5798.38633382         5152.70645616         4674.89119083         1350.42159166          254.01278994          285.97899129           22.65612085         3675.09799608         2551.71609699         2641.07264782          2847.1673719         4695.25784896         8566.41109821         2265.68332026          257.73075946          420.96901416         6065.31838558         1072.14170981         1573.86252137          306.82376155           819.2778304          744.17064319         1117.23819768          145.11000096         2726.13989875         2075.34301082         2810.48640525         2120.76609915
          0.4*MaxFES =          2364.96085442         2004.66777764         1302.85830387          387.54947363         2253.51836875          246.37345999          891.24310435          253.25616073         1853.81557769          811.80941915             57.024993          858.87197124          237.46449646          136.99090636         4458.55971339          580.93208533          427.91465481         2649.33568727          136.02390313         1920.15041487         4128.08081803         2563.74915179          410.25889089         3878.42684079         3664.15665593         3849.92088282         1166.10552947          240.35761794          285.05021779           22.65612085          2856.5324326         1427.39125196         1628.90592869         2150.67999573         3523.39326565         5795.23535701         1551.52413753          220.94612454          392.12175428         4430.99873986          762.36510864         1127.25527359          285.25505483          549.65660825          713.14155599          945.81021005          133.49935107         1806.83555288         1534.84134498         2018.23118818         1371.47971964
          0.5*MaxFES =          1695.46783095         1524.23674245           990.0096659          275.65104891         1384.18145619          245.75701735          756.54296503          231.22381471         1276.87890499          538.61589237           39.51005388          797.55257909          200.64051397          100.77999864         3171.65952675           295.0288952           401.6728771          2001.2432702          130.99672832         1310.05083811          3130.1240412          2028.9164362          307.65080021         2748.70282081         2779.63566774         2772.74279207          809.55134502          221.63314591          283.02762862           22.65612085          1944.0395738         1006.07043278         1362.90284333         1516.51111426         2010.73455242         4378.07452631          971.37906839          207.32512759          330.68567204         2979.44692285          487.81845279          794.69755382          264.90168648          463.60113433          637.31150701          816.15594392          129.58667015         1135.20219224         1222.73470542         1388.31794694           965.5407772
          0.6*MaxFES =          1361.81254994         1091.14232475          708.80469545          214.46763766         1058.59669431          245.75701735           692.3848028          214.65140505          677.99411665          430.00321369           39.51005388          734.15512111          184.73496728           85.62193125         2361.85954757          199.57553843          326.24625857         1333.72791713          127.81714391          815.77963921         2192.84196452          1422.2971873          236.64002515         1932.81593236         2031.31086154          1864.9326235          711.34636294           214.5573965          274.68306936           22.31206088          1403.0633593          730.71015215          777.81456169         1146.72597996         1573.34217316         2882.31890284          652.51212739          207.32512759          296.39716352         2224.70484041          330.76417819          660.23028027          254.01569048            273.518532           576.8699009          712.10970982          129.58667015          864.82895616          906.76332296         1016.31302436          750.38481501
          0.7*MaxFES =          1156.31442155          963.17529503          593.07414604          151.63206089          879.07676663          245.75701735          561.57509178          205.71217449          513.67387696          386.17950058           35.74759861          657.24641873          184.73496728           85.62193125         1623.00229249          160.70405985           240.6986611          866.23082506          117.23677979           697.0078717         1801.49074795          938.40435331          204.57396271         1368.12648386         1547.82669945          1354.2640738           492.1436493          205.32402465          272.79770686           22.31206088         1062.28741747          581.27371059           524.4010919          796.19749658          880.11437386         2174.16990004          514.49106106          207.32512759            274.022592         1603.87983103          314.88449647          538.49482592          254.01569048          213.78423393          525.58885837           607.1530792          129.58667015          545.22328741          735.96765157          731.33554783          648.99503529
          0.8*MaxFES =           927.02572167          889.95789409          562.58787417          128.42575774          637.86903077          245.75701735          518.67165302          179.99341601          397.90398868          304.29795323           35.74759861          556.00679296          184.73496728           66.21330491         1180.50491936          141.02582983           199.5919031          481.88007047          111.38383365          557.69861588         1350.62462605           761.9670103          160.96538953          980.09777513         1255.85557134         1037.76875939          336.69281451          203.43513768          259.77030623           22.03700268          747.40931512          452.12384842          403.02109666          626.79201952          699.69552902         1538.69801651           471.9738747          195.73527315           266.4844572         1178.24402705          247.07623932          437.06351145          254.01569048          165.01894862          505.30276947          596.75841544          129.58667015          373.80993057          716.44032455          489.29869757          419.28585036
          0.9*MaxFES =           753.04572751          744.96124744          504.74892418          123.94276723          453.24955585          245.75701735           458.1904847          171.66975773          318.18341343          240.52943629           32.39176671          534.68042089          184.73496728           66.21330491          941.07178745          121.27769323          179.63648284          354.51860647          103.66216575          466.96227475         1160.16744992          637.05795524           97.47842707          821.46112781         1013.90149313          696.85494033          220.32478321          199.97983959          256.36269604           22.03700268          701.69738571          397.27443865          270.01436963           502.5311387           594.8972029         1128.06599073          284.54661688          183.56474008          263.68306492          858.37938976           228.9888179          385.50444694          250.35367541           76.65445358          484.21988928          596.75841544          129.58667015          245.51614371          639.04108878          439.24875922          277.43112928
              MaxFES =            712.1497833          484.70901951          393.80147274          123.94276723          417.88934828          244.49841438          412.34378242          160.69145835          257.11231031          213.59086129           32.39176671          499.57456002          184.73496728           66.21330491          671.36559206           89.59375735          170.84525405          274.97306958          103.66216575          384.27571465         1020.01940753          497.96404799           82.60992883          453.95379237          959.34544987          550.21886338          149.12364171          196.66925921           256.0985796           22.03700268          502.10810984           280.4322226          169.41739505          387.43029328          437.61555869          946.81549721          215.90635577          183.56474008          261.10405635          646.80853406          176.71694965          330.52754015          250.35367541           76.65445358          478.40740487          571.45447343          129.58667015          220.73119479          575.90350774          313.56072211          238.79684232

                  Best                 Worst                Median                  Mean                   Std
           22.03700268         1020.01940753          261.10405635    342.75089295039226    236.93841157908247

