 23/07/2016 13:24:49 |                  Run 1                 Run 2                 Run 3                 Run 4                 Run 5                 Run 6                 Run 7                 Run 8                 Run 9                Run 10                Run 11                Run 12                Run 13                Run 14                Run 15                Run 16                Run 17                Run 18                Run 19                Run 20                Run 21                Run 22                Run 23                Run 24                Run 25                Run 26                Run 27                Run 28                Run 29                Run 30                Run 31                Run 32                Run 33                Run 34                Run 35                Run 36                Run 37                Run 38                Run 39                Run 40                Run 41                Run 42                Run 43                Run 44                Run 45                Run 46                Run 47                Run 48                Run 49                Run 50                Run 51
       0.0001*MaxFES =    4.302747547293339E9   4.987439446512491E9    5.33480071958899E9   2.361982074074651E9   8.806551554260101E9 1.0331072253727411E10   9.158367700695341E9 1.6989105735908852E10 1.1600877991852594E10   8.210225895098087E8  1.208974409251267E10 1.0981554715175238E10   8.768372455872325E8 1.1297033233156971E10 1.5455472268678078E10  1.4581046934337325E9   5.155893639203546E8   3.302318357398021E9  1.754341340139962E10 1.2658191782371176E10   3.013444575513466E9  3.4604756350875454E9   6.106396684195362E9   7.429328471223204E9  2.7651313505646996E9  1.8948734738664508E8   5.308227698368828E9   7.271567289584252E9  1.8457065844095485E9   6.695240447987033E9 2.1337705979925617E10  1.5744647627704682E9 1.7012882672832027E10  1.932930830513943E10   8.463678865124187E9  3.0314864557025595E9  2.0578544969093323E9  3.7092523124222713E9   5.818251407163944E9  1.8094796379469976E9   3.018805241823765E9 2.2850339695823322E10 1.1831897880300142E10   7.433991949653677E8   4.337948380158983E9   6.944450236308769E9 1.0942875834533499E10   1.80487559232441E10  1.3041440132032578E9  2.943713119306595E10   6.458851396458855E9
        0.001*MaxFES =   1.0293447701715318E9  1.1646375725404766E9  2.1626701394325858E8  1.6504988611196501E9  3.0007815435485544E9    2.64251531052337E9   5.087603557524013E8  1.0445379587323364E9   2.872239421222549E9   7.679823381612663E8   6.198238089114113E8  4.7503771032443297E8   8.529917907452277E8  1.9646095135989326E8  3.5489082449611964E9    7.33328597218151E8   4.535856538949568E8    1.26144289854292E8    9.81993112382194E8   2.866359474459903E7  2.8539132361646897E8   6.111816019394863E8  2.0189268009394069E9  1.2176173238966463E9   7.971307565044858E8  1.8686605491708037E8   3.163930153834961E9   1.108047797291759E9  1.9873677162703654E8   1.759541954005331E9   7.262518369664439E8  1.7175030032790023E8  2.4849908905826658E8   5.321103932519092E8    9.58790581880884E8  1.0725113631790545E9   5.504535368142257E8   1.747375508268905E8  3.8617763676443845E8    9.77335911709694E8  1.1589614983523846E9   2.000039988423049E9  2.3426617272734755E8   7.293716778028418E8   1.273283045927694E9    6.29598400296098E8   7.647428124630854E7   8.066109116078379E8   6.307674796086649E8    2.22147238400466E9   1.373315817333257E9
         0.01*MaxFES =   1.0293447701715318E9  1.1646375725404766E9  2.1626701394325858E8  1.1168001216478028E9  3.0007815435485544E9  2.3780108392787485E9   5.087603557524013E8  1.0445379587323364E9   2.872239421222549E9   9.532637968521547E7   6.198238089114113E8  4.7503771032443297E8  4.6233302045240533E8  1.9646095135989326E8  3.5489082449611964E9  4.9235498356939363E8  2.5285439237786058E8    1.26144289854292E8   5.385631203343076E8   2.866359474459903E7   2.675368824722307E8   6.111816019394863E8  2.0189268009394069E9  1.2176173238966463E9   7.971307565044858E8   5.709442366792505E7  2.9675696548042808E9   1.108047797291759E9  1.9873677162703654E8   1.759541954005331E9   7.262518369664439E8  1.7175030032790023E8  2.4849908905826658E8   5.321103932519092E8   8.869710099486992E8  1.0672507182764939E9   5.504535368142257E8   1.747375508268905E8  3.8617763676443845E8    9.77335911709694E8  1.1589614983523846E9   2.000039988423049E9  2.3426617272734755E8   4.037640085508276E8   1.273283045927694E9   6.239843545196197E8   7.647428124630854E7  1.5579214416581723E8   6.307674796086649E8   2.216411366081056E9   1.373315817333257E9
         0.02*MaxFES =   1.0293447701715318E9  1.1646375725404766E9  2.1626701394325858E8  1.1168001216478028E9  3.0007815435485544E9   2.280088218446251E9   5.087603557524013E8  1.0445379587323364E9   2.872239421222549E9   9.532637968521547E7   6.198238089114113E8  4.7503771032443297E8   4.121059650119771E8  1.9646095135989326E8  3.5489082449611964E9   4.102355690023483E8  2.5285439237786058E8    1.26144289854292E8   5.385631203343076E8   2.866359474459903E7  1.8180481878509292E8   6.111816019394863E8  1.8780846573382063E9  1.2176173238966463E9   7.971307565044858E8   5.709442366792505E7  2.8062999732236834E9   1.108047797291759E9  1.7667355149673274E8   1.759541954005331E9   7.262518369664439E8  1.7175030032790023E8  2.4849908905826658E8   5.321103932519092E8   8.869710099486992E8  1.0307151217275499E9  4.6230600919282854E8   1.747375508268905E8   3.473814273698822E8    9.77335911709694E8  1.1423889375629442E9   2.000039988423049E9  2.3426617272734755E8   4.037640085508276E8   1.273283045927694E9   6.239843545196197E8   7.647428124630854E7  1.5579214416581723E8   6.268538849110504E8   2.216411366081056E9   1.373315817333257E9
         0.03*MaxFES =    5.148268862271196E8   4.166561731587241E8  1.6403949783918384E8   4.339861649756533E8   9.870829000354892E8   7.555530815888605E8   5.087603557524013E8   6.013819851614544E8   7.600089861145757E8   4.228612833667306E7    9.22223828609589E7  4.7503771032443297E8   3.310587381244128E8  1.1488841999258882E8   6.963382548888599E8   1.525145937986014E8   1.884419452194419E8  1.1072391165457559E8   5.385631203343076E8   2.866359474459903E7   4.241616616566329E7  1.9081887701164654E8    9.74713591355066E8  1.2176173238966463E9   7.971307565044858E8   5.380801583370332E7   6.620024286898167E8   5.318332897636398E8   4.654761724123896E7   6.778160343952544E8   7.262518369664439E8  1.7175030032790023E8  2.4849908905826658E8  1.3694699448687437E8  2.3036437888021016E8   2.721998916685332E8  3.4678224136267173E8   1.747375508268905E8  2.0307959722466004E8   4.868541156429476E8   6.505018777993711E8   7.905913884364791E8   5.028438576474283E7  3.8233581230875564E8   1.273283045927694E9   1.965648013743179E8   4.218546816604702E7  1.4239558489555308E8  2.9872894723214215E8   7.913167150048926E7   1.373315817333257E9
         0.04*MaxFES =    5.148268862271196E8   4.166561731587241E8  1.6403949783918384E8   4.339861649756533E8    6.58188462251312E8   6.416678702655141E8   5.067039273752135E8   4.979980973602385E8   7.600089861145757E8   3.132585306294605E7    9.22223828609589E7  4.7503771032443297E8  2.4162992842338866E8  1.0849885240842532E8   5.713347115480697E8    7.03951792315561E7   1.884419452194419E8   8.038686093384105E7   4.442412918169675E8   2.866359474459903E7   4.241616616566329E7  1.9081887701164654E8   9.250064214157373E8   8.919832752597057E8   7.971307565044858E8   5.042284031996787E7   6.620024286898167E8  4.1319337743704826E8   4.142139650415108E7   6.248162981077459E8   6.165341171371106E8  1.7175030032790023E8  2.2205632704414117E8  1.3694699448687437E8   2.107088177097877E8  2.3566429511958924E8  2.0032486491028532E8   1.747375508268905E8    8.99731890505251E7   4.868541156429476E8  2.0970505248041075E8   7.650488032432208E8   5.028438576474283E7    2.77216643590525E8   6.367682237059361E8   1.965648013743179E8   4.168367534330111E7  1.4239558489555308E8   2.982423951919409E8   7.913167150048926E7  1.3391796042444046E9
         0.05*MaxFES =   5.1460749470403206E8   3.728660993512018E8  1.6253325499854562E8   6.177033899444016E7    6.58188462251312E8   6.416678702655141E8   5.067039273752135E8   4.225094897968386E8   7.594914043608779E8   3.132585306294605E7   9.086556950080957E7   4.953010912043863E7  2.4162992842338866E8  1.0298972294849207E8   5.713347115480697E8    7.03951792315561E7   1.591982799983609E8   7.320212677336279E7  1.5322650695152342E8   2.866359474459903E7   4.241616616566329E7  1.0726411742899504E8  3.4158395751296645E8   8.919832752597057E8   7.971307565044858E8   5.042284031996787E7   6.046928988275762E7  4.1319337743704826E8   4.142139650415108E7   7.451339216552103E7  3.3606859916874635E8  1.7175030032790023E8  2.2205632704414117E8  1.3674173559465218E8   2.107088177097877E8  2.3566429511958924E8  1.1826306467372039E8   1.747375508268905E8    8.99731890505251E7   8.499407660306007E7  2.0970505248041075E8   7.650488032432208E8   4.978725865029957E7    2.77216643590525E8   6.367682237059361E8  1.9639574252677298E8   3.366855829253213E7  1.4057078501755732E8   1.836628926321378E7   7.370051330803296E7  1.3391796042444046E9
          0.1*MaxFES =    2.150229053943937E7   3.297853758698193E8  1.0226135214806405E8   5.177056315514675E7   3.558782705533488E7  2.1134620062594116E8   2.965503822842001E8   7.324846270509039E7   6.116796349646698E7   3.022894829757812E7   8.828165953549126E7   4.091118629921682E7  1.4047909508813584E8   8.378105154784857E7   1.702475879780928E7    7.03951792315561E7   1.437317436897346E8   6.107198027624779E7  1.4338774158971915E8   2.866359474459903E7   2.874836423007853E7   7.920608560627215E7    1.56454360740066E7   1.660824452508466E8  1.6800199585386565E8   5.042284031996787E7    2.88448234518412E7   2.789937620993718E8   2.615350062234791E7   5.671243823745337E7  1.6705138737581423E8  1.2630011471328807E8    5.89131352964274E7  1.1461112949888986E8  1.6455364644778726E8   7.670073426959468E7  1.1826306467372039E8   1.747375508268905E8   7.621120508719115E7   4.344538856333664E7  1.0110007789226516E8  2.7715357278634924E8   1.944290574815568E7   2.619140969961458E8   8.107003621507144E7  1.2183351507059081E8   1.737365052149878E7  1.3163576091577624E8   1.836628926321378E7   3.927980153897305E7   7.735637215031958E7
          0.2*MaxFES =       1159682.86649535       283145.33713401      1690684.97562461       2155882.1917803       831992.77278089      1232291.66164175      1342842.14675639      3213682.15762555      1105931.39401338        819347.4111431       285275.94403673      1426578.04242174      1507452.24508043      1191734.31256472      1032340.26836859       230577.23160453       1393138.8913063       2251124.2954015       906414.17983222        698116.2173028       1603429.4854553      2469768.29582304      2240773.39197816       172162.02352668      1380370.30164923      2376910.86521159      2546725.25847112        72856.58131561        745529.8366159       856723.64264495       668659.91330843        91936.14561791      1428828.64043503      1453995.78367456       868510.09405505      2100411.32299694      1723243.33950264      1188166.07207274      1370041.71944946      2033899.50334827       616646.51550502      1376812.96006025       401127.53486053      2413735.56786953       795921.97243394      2249972.20721141       322405.52806894      1329661.89318871        409122.8579496       957519.56485536       521102.64486856
          0.3*MaxFES =        155209.57287797       135922.94344088       490109.07064971      1221700.09194752       134959.47590936       110429.25150509       156707.62529916      1245068.92059668       621524.75389749       355166.38010719       154383.62727542          769469.34369       430677.00424066       661301.35445957       417134.21079785        65893.37128663        603572.4694991      1207107.15847506       114110.20072648       331597.98683356        518994.6925406      1092624.86122172      1139124.78469159        60170.49769886       276235.77101377      1212807.84597942       807148.24573569        18648.70644383       420350.89440586       296718.87227969       329015.73131875        50391.93741802       713393.93265291       820620.06483199       536254.08911966       811934.28321035       341553.11608262       594259.91694103       636699.03464836       907441.03155356       296478.56205929       828590.24791652       174163.34477131       327697.30920272       359345.15761775       570619.48750925       213219.76344083       634943.91763222       146587.22695581       619388.70800939       301591.58658539
          0.4*MaxFES =        107459.22411838       116428.71375726       358749.09665776       851660.63550291        70124.97585375        81228.01840998        92981.16961744       787336.30149099        323092.8385156       243604.22639192       114563.35882305       454548.78700594       232453.84309981       402872.00910288        311574.5329311        50335.72162079       324206.28316562       820056.71185307        47707.42523637       258602.42932333       327229.44044818        590919.0024961       740294.50610669        48959.68132613       206239.39655391       656636.74206553       579404.71037009           16627.65869       217166.15169439       226560.79855195        228794.0698223        33658.16968061       377968.39395111       639497.81978995       360920.35905358       542901.55025414       188840.41093673       456568.42758501       483120.09565134        502137.7919043       220843.59734429       556863.56315242       143552.76470492       146303.89598742       202488.96065713        321781.5797412       146495.31808611       426531.44330692       104448.92844848       521725.38347903       225705.95052955
          0.5*MaxFES =         83928.55333224       107731.31795302        297837.2985343       624959.75754434        48589.03904918        81228.01840998        82482.75828203       540945.18569122        237375.8653118       182318.06743734        112742.4044177       284904.61347032       183735.51170264       237050.30282105       245037.80319888         30570.5423397       231246.76106612       524381.14946625         38384.4282477       211352.73601464       250449.31919848       338168.15869981       493223.86500106        46681.17280934       151498.15314682       363783.47957271       429825.12902637        12816.68254884       158778.66421166       191245.67035657       176463.89641334        32150.21420632       226522.45396544       474157.60720635       260586.69793529       371571.11232545        145971.5379797       379772.44053456       405253.90580972       294206.35077081       153083.69948071       431727.05415562       138023.37433176       122326.47653969       170161.97833002       251454.82813415       100317.42015636       305916.27353791        92572.75264731       427384.58826764       181039.38420241
          0.6*MaxFES =         77880.82807413       104775.35028758       261100.39107133       502912.88794314        41552.01820119        81228.01840998        77206.14851167       407136.33330569       199181.86848152       154944.94103483       109242.70901476       182053.56948786       160569.76549846       186854.58833235       205124.52354505         30570.5423397       152386.03454983       410771.62210418        32678.94776412       187051.11436171       223710.12097718       221879.67052644       355806.78149288        46025.85107358        148227.5022485       287698.24454446       381284.81426249        12816.68254884       120004.95616212       178019.87488516       120450.05018708        26239.02332651        143563.7990759       383633.18670912       207392.88154023       294793.36884962       122498.18800963       327285.88700716       371797.37683777       221514.31181025       133329.89670122       344020.11155956        126746.5432621       108935.18497205        150634.4046394       215783.77928087        71423.78674337       182962.41530447        78383.16700292       322649.28166768       136154.13424329
          0.7*MaxFES =         69504.82125156       101834.83170763       233215.96207102       428550.11497753        41552.01820119        80167.79297278        74435.36294033       331872.41940969       180270.06166895       119048.43465802       109230.09856111       136194.00393353       160569.76549846       124807.01162316       166585.07841816        29268.39090867       114752.05755881       320018.35732328         30836.8356418       171731.28840492       198814.55787795       170566.68323723        280342.1160051        45566.70076978        148227.5022485        217115.2384757       320675.58193151        12816.68254884        65985.16527457       164474.29818117       102364.69930947        26239.02332651       103539.47416693       314826.73627797       170582.38182158       232544.88199056        92353.87652428       301470.46636116       324937.52239146        166713.5044379        113613.7841214       282460.22351052       120979.49360495        90121.16760779        122036.5132996       181789.46140079        62286.87868519       158919.27783372        75285.37718144       278800.13480701       130126.47035178
          0.8*MaxFES =         66941.70139391       101216.18814911       228614.37216822       341090.32201764         37487.0119994        80167.79297278        73006.40379148       296290.96579963       158580.32319936       114086.08125852       107020.92090484       125017.11242758       142600.64189537        82763.51123755       145102.28095885        29268.39090867        81908.71324133       280376.00981456        27811.75660306       144903.01643122       186609.37208116       126758.55663556       238535.90659373        45566.70076978       146511.32696761       170660.71992116       285602.09378187        12816.68254884        61370.40738252       148178.53526473        67090.01089775        24238.60753719        75941.33107412       260463.54336025       166899.77059155       182395.12497312        92293.71821746       278221.40847557       278933.75186684       119929.93479751       103792.75577557       261012.06954861       119905.46748373        88189.85923714       113109.75433816          168824.99178        50410.50411236        122042.3254658        75285.37718144       261654.68304597       117124.28691886
          0.9*MaxFES =         63768.37355973         99386.3932629       205054.51519103       316047.86382186        36494.02087387        79800.48103458        69867.51711554       279149.05668179       132351.73454348       106210.63382278       105623.75700687       109623.97716398       127080.31474137        58962.43096306       140241.56627726         28989.5090896        70609.79280391       235560.42713403        26939.89803638       143974.10078962       162940.55886346       111767.58437158       196289.63718624        45566.70076978       138510.53428336       151118.25263182        264050.9098957        11955.03581607        37220.30516614       137917.96683709        65352.70244157        24161.25027743        63604.98354107       243732.38005691       161399.15585956       156895.05175179        92293.71821746       259843.80868369       264441.76706816       104316.08776714        70193.77907543       253005.35447763       115711.58188585        88189.85923714       111670.85145437       164323.44397221        44273.68015914       102114.67156378        65987.76282189       211288.13888745       112378.46868335
              MaxFES =         61353.29260247        97044.81940899        199263.4532364       295193.10779572         35935.2114902        79800.48103458        69197.55727218       259348.57987187       129006.68574692        86577.33639823       102844.00960213       100443.95716202       110480.68530577        53673.15899382       130343.01950114        28112.91541247        65472.76945819       193225.65908652        26757.72841235       135957.73206723       161412.86928271       106658.49326703       180544.14349397        45566.70076978       127865.16588251       133540.61305963       227971.47956336        11801.26119758        32931.17102811       132849.58039372        54414.23527355        23311.34618819           55853.33747       211223.50248669        155424.2625422       140426.80647823        78877.92376834       233453.00488524       238317.34406189        85211.59631663        63051.43881861       238333.74034558       114594.25419231         84017.5875871        92980.37078487        159195.8996337        38281.07441338        84355.31406199        64850.54868227       197533.55515378       101419.83714362

                  Best                 Worst                Median                  Mean                   Std
        11801.26119758       295193.10779572       101419.83714362    116398.05133501506     69473.67638800977

