 23/07/2016 14:22:02 |                  Run 1                 Run 2                 Run 3                 Run 4                 Run 5                 Run 6                 Run 7                 Run 8                 Run 9                Run 10                Run 11                Run 12                Run 13                Run 14                Run 15                Run 16                Run 17                Run 18                Run 19                Run 20                Run 21                Run 22                Run 23                Run 24                Run 25                Run 26                Run 27                Run 28                Run 29                Run 30                Run 31                Run 32                Run 33                Run 34                Run 35                Run 36                Run 37                Run 38                Run 39                Run 40                Run 41                Run 42                Run 43                Run 44                Run 45                Run 46                Run 47                Run 48                Run 49                Run 50                Run 51
       0.0001*MaxFES =          3371.84523445        27866.22601716          808.93956361          183.57641487   1.309806654110023E7         4651.47166229        450328.5251829       834901.71655095         7806.68430656          681.62561544          756.77027903   3.200895563231673E7          959.63073689          572.87449089        72490.57550445          272.23659173         6445.53226003         1362.95130202           8882.856457         5642.01443243          457.32125102           89.15301303          462.65592974         2578.00808916         1061.48091174         5915.27551417         9081.81310215          8314.6900331        18977.55970195       472774.87977602        84753.39633571        11454.53593036        50210.02993415         5256.68587444         4216.87691134          199.44304248        22997.23438143          114.65867757          109.66128805       660162.62602508   3.430160611721726E7       698947.95657298         3024.11794261           7538.122052       136334.60769334         3225.25729684         1211.37269103      4289827.75798283       533911.73555497        10942.00698397         12384.6530775
        0.001*MaxFES =          3371.84523445        10867.33315746          808.93956361          183.57641487      4590649.09847875         4651.47166229        450328.5251829       454870.51120903         7772.12221634          681.62561544          719.79422245   3.200895563231673E7           873.6696286          572.87449089        72490.57550445          272.23659173         6445.53226003         1362.95130202         7907.85923909         5634.69275626          457.32125102           89.15301303          462.65592974         2578.00808916         1061.48091174         5915.27551417         7336.68961483         7712.46546105        18977.55970195       472774.87977602        84753.39633571        11454.53593036        50210.02993415         5256.68587444         4216.87691134          176.39547939        22997.23438143          114.65867757          109.66128805       660162.62602508      2313162.59277933       698947.95657298         3024.11794261         5950.44387224       136334.60769334         3225.25729684         1211.37269103      1531178.45184199       533911.73555497         10358.9216159         12384.6530775
         0.01*MaxFES =           621.85488584          391.21090164          808.93956361           54.93823625         9503.34034095         2802.54474047          187.70459524         3743.56303444         1882.70299257          233.72035545          252.60803429         1967.58454182          105.67195386            153.740668         3314.15026734          200.70523509         2233.50284321          164.59754517         6460.16251478          368.99389235           73.12265613            69.5961022          462.65592974          723.08727765          166.60658039         5353.91107527         4445.78607707         4992.30955816          9049.7662955         7367.64065605         7731.23339394         4474.19066858         8597.80879713         3567.29519007         4216.87691134           118.0757193          495.04766606           63.74151573          109.66128805        12422.03110965          1590.5756641         5432.00601799         3024.11794261         4539.23297373          4970.7823265         2002.51382865         1211.37269103         13426.0708499         9160.84533404         7949.31490148         7958.25321063
         0.02*MaxFES =           333.85200817          202.78206607          808.93956361           54.93823625         2281.73780998          1005.9830626          110.15944166         2025.34681413         1882.70299257          233.72035545          228.62270831          728.80050533          105.67195386          146.30983115         3314.15026734          130.29404632         1561.88747528           156.1255941         5189.52713077          368.99389235           73.12265613           58.00993165          462.65592974          253.57587266          166.60658039         5353.91107527         4445.78607707         4992.30955816         8943.16860971         7367.64065605         7456.79448059         4394.03459812           7366.563177         1343.11318442          1482.7998015           66.82559243          396.33376371           56.40900948          109.66128805         7358.86340784          1590.5756641         5432.00601799         3024.11794261         2916.44646806          4970.7823265          1886.8021319         1211.37269103         9184.86057469         4782.41810193         7518.85858363         7958.25321063
         0.03*MaxFES =           108.10603827             60.335831          150.68530329           50.90921456          417.36635585          716.90072134          110.15944166         2025.34681413         1882.70299257            66.6634846          228.62270831           98.02429156           62.70875754           72.15375659          1664.7128922          124.13778861          482.95917874           53.69812017          4458.4779759           180.6775272           49.34968099            52.0049314           83.63291958           237.2182857           82.12666645         5353.91107527           380.6464495         4356.74068199         8335.13329649         5330.01691166         6271.18080475          482.28921106          6616.2195647          412.86462727          266.53759814           50.22863233          396.33376371           52.39761043             54.415762         1978.55318102          1590.5756641         1217.60211481         1387.89680232         1766.78179209         4900.72688125          303.41762498           184.8805111         5686.27137468         4782.41810193          1593.1033826         6192.48494758
         0.04*MaxFES =            61.79358779             60.335831           57.15968976            48.4349208          252.51565084          136.94760305          110.15944166         2025.34681413         1882.70299257           56.07264134          228.62270831           98.02429156           58.39671311           69.73749658          867.14847091           84.48288851          149.19932034           53.69812017         4034.55802799           180.6775272           49.34968099             51.710084           83.63291958           98.06482199           82.12666645         5353.91107527           380.6464495         4079.71997696         7746.40304402         4716.16255996         5746.29962396          482.28921106         5428.50621632          186.30854974           182.8068638           47.84373182          396.33376371           50.88061997             54.415762         1978.55318102          1590.5756641         1217.60211481          323.83885586         1766.78179209         4900.72688125          239.66552594           184.8805111         5686.27137468          878.84310944         1361.88068511         4619.44009115
         0.05*MaxFES =            52.37287463           52.74823818           52.83525363            43.6787738          212.73947599           82.33607905          110.15944166         2025.34681413          725.61949734           53.99761612          228.62270831           98.02429156           58.39671311           56.77172412          277.85430677           70.95083013          140.01878214           53.69812017         2694.47794216           64.82844187           49.34968099             51.710084            70.2683366           98.06482199           73.52276129         5353.91107527           71.16075978         3023.27181766           7528.554987         2373.83790214         4915.07734845          293.49195511         5428.50621632           140.0271857           182.8068638           43.65245725          396.33376371           47.07865215           50.44760079         1978.55318102          1590.5756641          100.03729565          181.03736471          1678.9226217         3097.19701454          203.93022521          145.00119225         4543.13362567          562.82268753          836.02625552         4237.03553638
          0.1*MaxFES =            48.53047268            47.5955112           47.65489282           37.08126558            43.9041831           45.67932972           54.74409391         2025.34681413           55.54015134           48.42545274           51.11876801           49.96374047           49.02023971           48.90784617           53.51478115           49.94846517           45.24635773           48.89394344         1745.27384266           45.45197154           40.72980459           44.98562909            46.5526879           49.55582498           51.03212422         3460.67995271             50.638908         1624.73406626          260.90142492           51.08228875         1563.91110843           48.45103876          197.65287814           49.64537292           45.95451892           37.58488097          199.66065902            39.7187533           40.08643946          154.04353728           73.98911905           49.91501883            54.3725846          146.77942708         2073.05151933           51.60951392           52.11130367           69.38018482           46.52375375           50.28596614         2801.29095208
          0.2*MaxFES =            43.20773917           46.36289006           47.65489282           35.95561425            43.9041831           45.67932972           47.79399407         1332.35558415             43.266368           45.13275363           48.93049804           45.93344037           46.63844311           47.52101901           50.20017352           44.04803911           45.06959523           46.51587378          182.68102785           39.37640664           40.09454127           42.48281414           45.51349646           45.41072231           47.49951565          577.67774893           43.48736716         1279.35466875           50.86094836           46.76396814          959.96223295           41.62917356           60.84726556           49.13547498           42.32657944           36.07859976           52.42120202            39.7187533           35.67968324               50.7308           51.28540178           46.18713166           46.42869543           52.24342029         1272.85018236           44.22367087           48.13440715           50.98213677           45.18310824           45.23144399         1458.48902247
          0.3*MaxFES =            43.13224462           46.34407616           47.65489282           35.95561425            43.9041831           45.67932972           47.35239863         1332.35558415           43.22096616           45.11386068           48.60760863           45.93344037           46.63844311           47.52101901            50.1992147           44.04803911           45.06959523           46.47960836          182.68102785           38.87314289           40.09454127           42.48281414           45.50676068           45.40774406           47.49951565          577.67774893           43.39602202         1279.35466875           50.84576632           46.74816764          959.96223295           41.61778838           60.83694867           49.13547498           42.32657944           35.89190119           52.35440272            39.7187533            35.4852211               50.7308           51.28419951           46.17544079           46.42222201           52.23029303         1272.85018236           44.22367087           48.13113651           50.98213677            45.1389689           45.20652912         1458.48902247
          0.4*MaxFES =            43.10501533           46.33553464           47.65489282           35.81854577            43.9041831           45.67932972           47.32362154         1332.35558415           43.20594996           45.11386068           48.60760863           45.93344037           46.63844311           47.52101901           50.18914532           44.04147271           45.06959523           46.42904691          182.68102785           38.87314289           40.09454127           42.48281414           45.50126131           45.40426887           47.49951565          577.67774893           43.39602202         1279.35466875           50.84064199           46.74816764          959.68263362           41.54359161           60.83694867           49.13547498           42.32657944           35.65982681           52.35440272            39.7187533            35.4852211           50.72747769           51.28192771           46.17392834           46.42222201           52.23029303         1272.85018236           44.22367087           48.12359289            50.9787369           45.13053921           45.20652912         1458.48902247
          0.5*MaxFES =            43.10501533           46.33553464           47.65489282            35.7222345            43.9041831           45.67932972           47.31939757         1332.35558415           43.20594996           45.11386068           48.60760863           45.93195291           46.62861453           47.52101901           50.18687416           43.99314176           45.06959523           46.42468003          182.68102785           38.87314289           40.09454127           42.48183692           45.50126131           45.40426887           47.49951565          577.67774893           43.39602202         1279.35466875           50.84064199           46.71184487          959.68263362           41.54359161           60.83694867           49.13547498           42.32657944           35.65982681           52.35440272            39.7187533           35.39122547           50.72747769           51.28192771           46.17392834           46.42106544           52.23029303         1272.85018236           44.22367087           48.11724898           50.97606407           45.12177453           45.20652912         1458.48902247
          0.6*MaxFES =            43.10501533           46.33539442           47.65489282            35.7222345            43.9041831           45.67932972           47.29673812         1332.35558415           43.18795786           45.11386068           48.60760863           45.93195291           46.62861453           47.52101901           50.18366154           43.99314176           45.06407141           46.42468003          182.68102785           38.87314289           40.09454127           42.48127708           45.50022989           45.39243761           47.49951565          577.67774893           43.39602202         1279.35466875           50.83892498           46.71184487          959.68263362           41.54359161           60.83694867           49.13547498           42.32657944           35.65750956           52.35440272            39.7187533           35.35194207           50.72018361           51.28135191           46.17317461           46.42106544           52.23029303         1272.85018236           44.22367087           48.11724898           50.95982235           45.11549332           45.20652912         1458.48902247
          0.7*MaxFES =            43.10501533           46.33539442           47.65489282           35.67786372            43.9041831           45.67932972           47.29673812         1332.35558415           43.18795786           45.11265666           48.60760863           45.93195291           46.62861453           47.52101901           50.18366154           43.99314176           45.06407141           46.41306046          182.68102785           38.87314289           40.09454127           42.47013469           45.50022989           45.39243761           47.49951565          577.67774893           43.39602202         1279.35466875           50.83892498           46.68818298          959.68263362           41.54359161           60.79544202           49.12683937           42.32657944           35.58610068           52.35440272            39.7187533            35.2876253           50.72018361           51.28135191           46.16450235           46.42106544           52.23029303         1272.85018236           44.19826007           48.11101795           50.95982235           45.11549332           45.20652912         1458.48902247
          0.8*MaxFES =            43.10501533           46.33539442           47.65489282           35.65449663            43.9041831           45.67932972           47.29673812         1332.35558415           43.18795786           45.10333971           48.60760863           45.93195291           46.62861453           47.52101901           50.18366154           43.99314176           45.06407141           46.40039836          182.68102785           38.87314289           40.09454127           42.47013469           45.48348984           45.36819781           47.49951565          577.67774893           43.39602202         1279.35466875           50.83892498           46.68818298          959.68263362           41.54359161           60.79544202           49.12683937           42.32657944           35.49663166           52.35379137            39.7187533            35.2876253           50.72018361           51.28135191           46.16450235           46.42106544           52.23029303         1272.85018236           44.19826007           48.10175605           50.95982235           45.11549332           45.20652912         1458.48902247
          0.9*MaxFES =            43.10501533           46.33539442           47.65489282           35.62024975            43.9041831           45.67932972           47.29673812         1332.35558415           43.18795786           45.10333971           48.60760863           45.92851047           46.62566772           47.52101901           50.18366154           43.99314176           45.06407141           46.40039836          182.68102785           38.86746785           40.09277057           42.47013469           45.48348984           45.36819781           47.49951565          577.67774893           43.39602202         1279.35466875           50.83892498           46.68483277          959.68263362           41.54359161           60.79473866           49.12683937           42.32441537           35.49663166           52.35379137            39.7187533           35.27634295           50.72018361           51.28135191           46.16450235           46.42106544           52.23029303         1272.85018236           44.14591962           48.10175605           50.95982235           45.11549332           45.20652912         1458.48902247
              MaxFES =            43.10501533           46.33539442           47.65489282           35.62024975            43.9041831           45.67932972           47.29673812         1332.35558415           43.18795786           45.10051798           48.60760863           45.92851047           46.62566772           47.52101901           50.18366154            43.9833377           45.06240513           46.40039836          182.68102785           38.86746785           40.09277057           42.47013469           45.48348984           45.36819781           47.49951565          577.67774893           43.39178755         1279.35466875           50.83892498           46.68483277          959.68263362           41.54359161           60.79473866           49.12683937           42.32052818           35.33209424           52.35379137            39.7187533           35.25711356           50.72018361           51.27596966           46.16450235           46.42106544           52.23029303         1272.85018236           44.12829915           48.10175605           50.95982235           45.11549332           45.20652912         1458.48902247

                  Best                 Worst                Median                  Mean                   Std
           35.25711356         1458.48902247           46.40039836    177.89718121313726    372.18521511174083

