 02/11/2016 02:36:38 |                  Run 1                 Run 2                 Run 3                 Run 4                 Run 5                 Run 6                 Run 7                 Run 8                 Run 9                Run 10                Run 11                Run 12                Run 13                Run 14                Run 15                Run 16                Run 17                Run 18                Run 19                Run 20                Run 21                Run 22                Run 23                Run 24                Run 25                Run 26                Run 27                Run 28                Run 29                Run 30                Run 31                Run 32                Run 33                Run 34                Run 35                Run 36                Run 37                Run 38                Run 39                Run 40                Run 41                Run 42                Run 43                Run 44                Run 45                Run 46                Run 47                Run 48                Run 49                Run 50                Run 51
       0.0001*MaxFES =    4.259459957493578E7   2.059057479539793E7   2.535440626516365E7      3893565.71279658   3.524642755542723E7      4044692.37538525   1.978983540468883E7   1.689601177572617E7  1.0548249890387446E8   3.581254628573957E7   1.199994134156043E7   1.454819565381314E7  1.3601222883566487E8   1.317020358220167E7   1.428459324551088E7   1.180789955180521E7      1707033.68071303  2.4755772267744166E8      6114757.67622926   3.350130265519001E7   5.658605763871093E7   1.781176470007702E7   2.088646382294509E7   1.871722753281686E7      6483259.30568254   2.307009222513368E7   1.560939045530556E7   5.070843928517669E7      5878285.40083738      9906338.72183045     1.2858586545544E7       6060799.9532703      7995148.46308912       1502314.0109256       4148430.0691001   5.723422491759095E7   5.966075118079968E7   2.999292815546418E7   2.476190057052503E7   4.557530930685037E7   1.361400912830395E7   9.840232669550626E7   3.469541598007653E7      1881685.96697064   1.376846506763354E7   2.723145860493897E7   1.573804467276252E7      6518983.05605625    6.81864513813475E7      4264728.06762726   7.715671751260357E7
        0.001*MaxFES =    1.941980037556818E7   1.997810112801427E7   2.417817682532814E7      3007121.96439599   3.330262618972337E7      3991118.38495331   1.003835941498151E7   1.585309912235686E7  1.0110865013451938E8   3.572262829650274E7   1.181516888575758E7   1.093647483023473E7  1.3374597128375964E8   1.253227866204928E7   1.394724499812719E7   1.171355272236632E7      1634036.77416443   5.254318761680643E7       5856695.5493544   1.990778415878534E7   5.095885946206174E7   1.605549576136893E7   2.004136117771704E7   1.861417319582904E7      6161407.22382363   2.244911861185789E7      9764897.46842839   4.785263210264282E7      5878252.18863265      4597188.67736103   1.143330857113702E7      4180306.02225567      7755221.29844033      1470609.77120025      3955536.42340662   4.816756668240442E7   2.827392455418506E7   2.759136315963991E7   2.314311609927375E7   4.361998766331195E7   1.325652465964167E7    9.42811971400188E7   3.176455693340623E7      1796634.62734331   1.358224829490939E7   2.293639271018554E7      8681744.19250709      6426219.57094969   5.785440998235834E7      4167815.26981178    7.56816695405307E7
         0.01*MaxFES =     1.87825716550473E7   1.298773264302214E7   1.671533027317013E7      2793047.17534408   1.233177333992538E7      3677974.24971626      9505571.51930028      9513276.89213923   2.001581057735067E7   1.136116929907035E7       8243640.4578487    1.05185935595751E7   4.233453056595485E7      4695646.67135027      2329665.99576195      5691673.04728889      1435964.99160324    1.32873909765731E7      4503627.95836449   1.990778415878534E7   1.588041109564235E7      7761693.56055749      5159839.78203622      4032084.65378967      4321921.55181949      7509886.80101649      8898789.65570877   1.741577409038864E7      3780633.31121709      4597188.67736103      2627656.41388734      2642763.06420164      4341084.46833603       892204.84329374      2986252.39016824   1.925246267109116E7   2.435998533664233E7      6121812.83222481   1.067824682421726E7   2.374118860223662E7       8819889.7595525   1.376296815073926E7   1.039600672528752E7      1056625.16052729      9145301.69751825   1.941028239237066E7      7938298.47211611      4009729.06850638   3.130755941648325E7      2642713.06826525   1.436494670258367E7
         0.02*MaxFES =     1.87825716550473E7   1.298773264302214E7      6444618.04207409      2793047.17534408   1.085744227964943E7      3677974.24971626      9505571.51930028      9513276.89213923   1.801916235640257E7   1.136116929907035E7       8243640.4578487      8593217.07587247   2.167532986546791E7      4695646.67135027      2329665.99576195      5301530.77619051      1162525.38599142    1.32873909765731E7       4453330.8586935   1.848225861509107E7   1.292705372603626E7      3140742.19490086      4475396.96799114      4032084.65378967      1521646.30485609      5120096.81506329      8898789.65570877   1.741577409038864E7      3248180.22724704      4597188.67736103      2627656.41388734      2642763.06420164      4341084.46833603       715908.29257671      2986252.39016824      8647453.26793001   2.435998533664233E7      6121812.83222481   1.005997890901205E7   2.374118860223662E7       8819889.7595525   1.278011461916461E7       6637880.1259159      1056625.16052729      8978325.63123735   1.941028239237066E7      7938298.47211611       3993538.1322578   3.130755941648325E7      1717151.98636166      7251568.69079049
         0.03*MaxFES =    1.247058879012738E7      7885287.75504171      6444618.04207409      2545159.18060084      9723046.27732354      2889119.20195924      2835452.59233315      3893964.79238058   1.461683592439032E7       3455559.9519054      6743089.86350511      8486754.07635251   1.154842094142827E7      4695646.67135027      1928548.32434456      3817913.07092301       988736.19465321    1.32873909765731E7      4009965.15807986   1.208984516803504E7      9259877.08215011      3140742.19490086      4475396.96799114      4032084.65378967      1403164.44954148      4289783.51458365      3066061.28144095   1.109036641669868E7      1956039.40473417      2760976.89657013      1505211.77423988      1960354.85629289      3436418.72319653       698311.30455946      2967841.47269731      8647453.26793001      4931691.41866639      5360208.48508067   1.005997890901205E7      9309699.06886847      6392510.10842309      2471497.09345562      2335151.04682799        654427.2975556      5726397.44813642    1.37679694365931E7      3421444.54943725      3932833.21761512   1.804565136707042E7       1281775.6824417      6850998.09708898
         0.04*MaxFES =    1.143405416568485E7      6818940.84734465      6444618.04207409      2545159.18060084      9723046.27732354      2889119.20195924      2835452.59233315      3893964.79238058   1.314465882917316E7       3455559.9519054      6117053.73034121      8486754.07635251      8464024.98880235      4624828.73854354      1807548.38104057      3817913.07092301       839557.19550809    1.32873909765731E7      3923905.41848266   1.208984516803504E7      9259877.08215011      2969719.64167666       4127155.3581094      3706456.24498057      1351329.06275604      4240337.82604498      2431024.42031807   1.100111832472582E7      1956039.40473417      2449773.20656772      1505211.77423988      1960354.85629289      3436418.72319653       698311.30455946      2723590.24410145      7742577.30137933      4931691.41866639      4899943.07853991   1.005997890901205E7      9309699.06886847       5760620.8755566      2471497.09345562      2335151.04682799       511052.06103808      5393336.23549477    1.37679694365931E7      3421444.54943725      3932833.21761512    1.40398532515886E7       1281775.6824417      3874880.49324905
         0.05*MaxFES =    1.009871467423934E7      5271725.57882454      6444618.04207409      2535104.81739152      9445943.22659372      2819338.71849121      2810261.18780276      3893964.79238058   1.041971757159627E7      2869331.56392075       5345101.2091821      8486754.07635251      8464024.98880235      4476001.81796152      1807548.38104057      3485420.72037165       669532.67656357      6398634.49157449      3856990.14432531       9021006.3188565      9195417.23503192      2969098.40630297       4127155.3581094      3706456.24498057      1351329.06275604      3421358.34481731      2334957.43978453   1.100111832472582E7      1927910.37954465      2449773.20656772      1505211.77423988      1907664.72295317      3436418.72319653       692018.62550748      2723590.24410145      5056458.19637426      4931691.41866639      4899943.07853991       9058354.7201036      9112116.90348843       5760620.8755566      2471497.09345562       2226042.3510555       475154.24325999      3284756.64351192      7189692.15244359      3421444.54943725      3929429.16553455   1.139412078806941E7      1277597.34314378      3874880.49324905
          0.1*MaxFES =       6722399.83778459      1743117.46272135      2282666.85307471      2512394.51333887      3393467.05133145       2199102.2291418      2441902.41014313      3893964.79238058      7929845.39456279      2292203.75218645       2185167.6251567       3648753.4030345      7310784.25503381      2763889.30410612      1768424.01703395      2947157.45013137       266364.08670672      5191399.36699054      2505611.28840697      6914343.98213671      3803964.43194545      1950019.21582126       1514685.7202177      3012095.38982372       1194110.7874116      3076397.62379574      1275425.84243315   1.100111832472582E7      1786038.74448497      2328822.09592257      1190227.30487004       1532991.4520527      3261971.09164099       645319.50106099      2537199.52527052      3871645.11597081      3697958.22105213      4782775.01764514      5102146.47315147      8790976.16460578      4913650.40880821      1850346.86573636       1260032.7253284       203362.55644674      2192462.78463205      3901300.82063129      2779321.87454864      3921237.49262775   1.068436584976058E7       908650.55945038      3487708.76673106
          0.2*MaxFES =       3297388.15446618       755081.55207663       1265003.3566567      1805345.91911648      2447011.66168945      1169353.62461881      1449014.34700552      2905569.09073927      6466816.57816615      1428797.04745702      1678323.12840789      1982666.05573604      4726304.74607026      1190354.64141002       916851.29606651      1602895.19041826       233287.40046893      4506299.59686651      1469266.18565743       4363805.8343195      2483084.19699437      1544768.01358853       841959.83362815      1834380.19596375       775397.11998139      2043039.30071817       804489.27192004      3128533.70295365      1552307.64074902       847894.14585262       601880.64006605      1150051.87560139      2493746.14591489        422128.2910542      2148661.57958494      2899866.35214324      1177167.12819801      3856613.55076596      4365580.17304807      6914418.00411205      4274456.72065273      1621607.33253527       659246.51490377         99528.4931995      1670888.29635883      3261945.89911243      2561978.48750436      3221013.43650169   1.022675041941208E7       540747.19787014      3315880.27249245
          0.3*MaxFES =       2261147.46949427       529149.86631316      1139821.09427423        733110.0561662      1559161.56532594      1117021.72936269        1293653.633192      2345389.26836042      4612604.74157538       930281.15490227      1032941.16895941      1096132.41372193       1993016.1299122       603726.39947548       634592.00277633      1142515.72576771       212398.20474042      2502738.93331371      1114376.72139909      3298013.46926683      1357218.05233747       674774.94772912       783307.57411274      1084791.03035719       440748.12388294      1701969.91964119       545338.01939724      2412833.55943758       335747.92810999       274842.94824321        464790.9421361       833671.60479811      1738718.96107664       183881.19133866      1049333.27975513      1542279.76299549      1023336.35672404       1539292.0484829      1330285.47233845      6914418.00411205      3522839.03198155      1125311.93041871       429633.42747361        50780.93231055       1519311.7820249      1492241.27703794      1993144.08258291      1717249.93439067       4389038.8362332       413548.77733246      2650344.82007681
          0.4*MaxFES =       1618361.33733788       291115.12161263       421863.80576891       594097.29392066       919410.18153371       976248.78550978       670121.99552769      2211121.95710626      1008073.57147147       567767.90709651       910720.62278425       656469.01846678      1648430.49818623       509650.39153223        264204.6538311        758086.5642739       133620.06461131      2502738.93331371       474066.96460806      1545098.81547701       569254.79959038       568067.88108597       655112.72611843       373803.72850543       224928.84885348       937829.54036905       256988.61875706      2050373.81512436        199264.6677148       107580.78293361       164055.11581908       422639.24713681      1146848.22542155       124962.08064507        649153.8891855      1031246.56291189       514687.03848576       778481.18469195       944237.42399354       2694152.3691576      1251859.26683952       865455.22941973       290785.07683199        14306.82709378       726299.32642541       649825.39273564       766414.67551693       415967.20259347      2370558.16764539       307080.09892614      1923269.14934124
          0.5*MaxFES =        533656.68018289        60997.77526184       302780.55448657       286698.14525333       327333.47242858        228057.8774637       134557.22387883       789972.30436728       334694.07343354       231012.51154888       257592.62347821       158654.64576097       464099.38792611       174826.90115252        43374.55609399       291733.12521354         58261.3628012      2000842.05641077        255473.6721215       633506.97612506       215429.61946727       129389.91377344       216259.61011797       139351.65373694        52670.89583476       346065.21599858        90352.04213513       909546.70448302       100841.59311312        48679.01214701        35005.95039048       149845.16792115       435749.46335037        43388.63596522       205738.17434063       431986.73313975       153690.21708557       310438.79516521       344153.16805292      1148968.97707325       437285.88938258       257582.87592642        71935.35797966         3995.61445569       119870.08674545       201078.10480625       282124.18542678       206771.09177512          895983.43859        81622.64914863       691280.20588971
          0.6*MaxFES =           132.10613773          148.96968712          130.29504731          137.09779258          125.60335726          137.79722459          125.40250852          141.87159411          134.01653522          141.95694158           124.0765956          121.59860725          132.87280518           135.2998543           131.0395237          131.88908603          123.11551585          135.14477944          125.10874512           130.1915185          142.55871532          136.53345886          140.38233877          140.11386005          138.02432512          128.35859607          136.43849993          127.99539293          141.11794591           124.7842824           135.4399172          142.56929311           120.0049128          140.17458505          127.36046793          135.36558614          129.65093557          134.59996704          143.76795246           116.2273172          122.75268519           124.3176697          143.22059656           139.3102757          118.49745233          138.44398165          123.57524006          131.83992071          131.28137808          131.63320101          121.08394734
          0.7*MaxFES =            120.5184466           148.8978122          122.06213771          134.93464228          120.88017296          130.74518013          107.13841283          137.37393838          126.85254836          133.75787015          118.48836648          115.42742961          120.67789894          124.85430009          125.66713917          123.70324571          100.40400887           129.5754848          119.06881858          126.36211752          142.55871532          126.75575611          135.84327665          133.23333272          133.67750602          100.42355889           131.1582965          126.94091087          139.10270085          118.25338129          132.48202593          134.66915713          100.34802022          139.46520443          122.53128509          133.13301813          118.57471524          130.94527862          140.60612263          100.30633513          100.36700488          121.67920517          140.24749017           134.6630188          100.32689252          136.66540443          112.86163412          129.83050583           122.9742706          100.50410939          118.22318482
          0.8*MaxFES =           100.36962339          132.77040625          122.06213771          130.69210567          116.66559262          126.89140269          100.32968723          137.07820165          126.83702143          131.90840873          100.37611784          115.02423073          116.81242927          120.29064785          124.20316483          112.31836863          100.32026211          128.75067722          116.50875082          125.69310888          142.55871532          117.88968154          135.82912216          128.26737517          133.67750602          100.33339761          129.60922747          115.80010767          138.97395105          100.41252558          130.15520889           127.5217117          100.32499394          137.86179777          118.04280599           132.1475858           100.4279257          128.49498214          138.49882685          100.30633513          100.33485142          118.78091425          135.80388071          130.69533592          100.32689252          136.01854163          100.31073119          125.10748522          120.20422206          100.32589832          100.39453472
          0.9*MaxFES =           100.34258474          132.77040625          122.06213771          124.32682013          115.43921029          123.98842404          100.32964091            136.258312          126.83702143          130.65296916          100.32944031          114.89016988          114.63969564           115.0884352          123.61266655          100.34812142          100.31342416          126.91790369          116.35696106          125.11016382          142.55871532          103.59998972          135.77582125          127.98706289          132.43229641          100.32309477          129.53018929          100.40660037          138.20010666          100.35649398          129.81345068          126.29988879          100.32499394          135.99088132          111.99901263          129.63580498          100.33920524          126.30547998          138.36805941          100.30633513          100.32072997          118.47101326          135.24780211          128.49923286          100.32689252          134.87571858          100.31073119          120.23991634          120.20422206          100.32353683          100.33723809
              MaxFES =           100.34258474          131.73133953          122.06213771          100.38677262          100.35614714          118.48754764          100.32357194          130.43798711          126.80606026          130.65078653          100.32944031          100.36259361          114.36531478          100.39239613          117.92559656           100.3378526          100.30932024          125.35112171          116.35696106          124.94113912          142.55871532          100.35380918          135.77582125          127.98706289          129.98779182          100.31830507          129.21638585          100.32940818          134.41203198          100.32937348           128.0407487          125.26186848          100.32499394          135.99088132          100.35002151          124.41692012          100.32790653          126.16842788          138.36805941          100.29084761          100.30283962          118.47101326          130.91924298          128.03198367          100.31765195          131.22219249          100.30125975          118.54267926          120.20422206          100.32353683          100.31373642

                  Best                 Worst                Median                  Mean                   Std
          100.29084761          142.55871532          118.47101326    115.52973353235296    14.336476955935176

