 01/11/2016 20:51:10 |                  Run 1                 Run 2                 Run 3                 Run 4                 Run 5                 Run 6                 Run 7                 Run 8                 Run 9                Run 10                Run 11                Run 12                Run 13                Run 14                Run 15                Run 16                Run 17                Run 18                Run 19                Run 20                Run 21                Run 22                Run 23                Run 24                Run 25                Run 26                Run 27                Run 28                Run 29                Run 30                Run 31                Run 32                Run 33                Run 34                Run 35                Run 36                Run 37                Run 38                Run 39                Run 40                Run 41                Run 42                Run 43                Run 44                Run 45                Run 46                Run 47                Run 48                Run 49                Run 50                Run 51
       0.0001*MaxFES =          2260.46948764         8387.28915831        12256.86818379         8687.91482219         3602.69379694        10429.28953699         8380.42883507         4077.04334359         8004.27257331        12339.74593453         8255.49615046         6424.86744975        10484.84143771         3203.73264985         3350.07883081        13515.76866548         5910.53078151         6756.31573608         13154.9129163         3595.09391221         3034.25920213        11649.61086302        13684.77989382         3119.09716631        11476.31385488        12623.69488946         3148.00343547        13942.29108038         1770.78208251         1615.61289726         5381.29741345         11360.4348742          5189.5105997         6003.60844329         8019.79380389         2771.01357916         7471.45348312        16662.18116868         2694.14479594         7672.49099244        14031.75141558          5020.5120192         8175.24169315         8186.20528095         4876.72300745         2774.68628954         6925.61992752         5621.48929264         4477.94520791         12427.4858177         9955.82711022
        0.001*MaxFES =          2031.73852021         7105.08915273        10368.63234219         7713.63802507         3400.81836252         9715.17371946         7716.91887011         3794.89638038         4940.67542063        10227.30186008         6651.06167264         5651.99417289         9057.42315926         2568.10206518         3115.60977559        12382.43324511         5254.26506448         6194.11203666         9965.95962554         3516.29059753         2692.82959281         9257.21985925        12127.40960894         2744.69916936        10281.31004002        10829.42451246         3079.82110306        12996.55000451         1527.94583644           1481.648101         5006.12371027         8724.33625939         4590.98335427         5690.47491954         6643.22638881         2445.28781626         6814.10261516        15283.17957397         1982.75917905         6965.51503339        12698.10002723         4530.01112699         7488.48736779         5839.47007734         3944.99413681         2531.50967818         5814.89073882         5044.51835027         3307.57510981        10395.18466017         7570.64877267
         0.01*MaxFES =          1767.03618338         4376.65521159         8223.60228374         4288.64789762         2075.60962089          5722.7798049         4517.38470082          2605.6894535         4940.67542063         6993.63320715         4703.13850154         3679.49128956         7136.13641748         2069.26356358          2377.2562874          8574.9214083         3785.49894269         3752.86641955         8320.72769161         2181.99963423         2436.11134085         7023.66994691         9083.87449207         2436.87621829         6794.32221912         8371.41920564         2139.28851612         9744.69679603         1351.57815219         1300.53107698         3300.68268444         8017.13787755         3279.33180125         3621.76686985         4724.21810771         1802.47166745         4759.69199179        12780.81424771         1982.75917905         5061.81836077        10640.44075489         3131.51168467         4286.77423906         5463.57826697         3053.11502599         2081.62379214         3703.42937999         3324.27807301         3035.34139593         7266.23368184         6654.22984102
         0.02*MaxFES =          1716.73824925         4376.65521159         7895.58502919         4288.64789762         1879.18630419         5657.46135943          4198.9898751         2590.82143583         4512.66543189         6993.63320715         4703.13850154         3679.49128956         6079.67212374         2059.52395029          2377.2562874         7650.42646668         3603.66557925         3752.86641955         8320.72769161         1921.35199163         2105.01977886         7023.66994691         8190.41647808         2436.87621829         6168.26232751         7639.38953494         2139.28851612         8946.18599066         1351.57815219         1237.69497717          3119.5599153         6336.64358496         2945.04878989         3073.41065513         4724.21810771         1802.47166745          4367.6812588        12780.81424771         1899.03222468         3952.48471565         8379.45893704         2846.22481522         4286.77423906         5199.51327036         3053.11502599         2016.94029979         3618.72824678         3065.15411327          2703.7841411         7266.23368184         4976.29997879
         0.03*MaxFES =          1394.88246347         2691.71171806         6686.67180481         3120.01795187         1841.48404481         3104.65220637         2731.74806627         2033.06323083         4225.51178132         4401.20803229         3851.48657853         2838.79628509         3709.51520793           1876.498254         2009.02397084         4762.23643684         2542.53179344         2694.41897254         5361.04823015         1346.02060898         1857.07757584         5472.63765286         4788.75423251         2075.94607838         4687.36239971          4515.2664268         1918.44972481         6805.69331467         1071.29956929         1044.59037627         2329.62851754         3946.31096168         2463.82142065         2870.33520836          4672.4928628         1650.37677579          4367.6812588        11020.52374992         1518.59271951         3459.08123601         8217.59748937         2110.85696604         3878.23284634         3305.64051961         2437.78081892         1805.59369973         3581.95907381         2710.75360532         2052.82822671         4754.50227497         3864.35702284
         0.04*MaxFES =           1312.3200869         2691.71171806         6249.07814091         3120.01795187         1679.11667578         3104.65220637         2583.71519237         2003.02626224         3871.70356298         3763.89201215         3851.48657853         2838.79628509         3599.60604776           1876.498254         2009.02397084         4068.09783285         2501.48197636         2542.26022068         5361.04823015         1346.02060898         1815.93173495         5472.63765286         4788.75423251         2075.94607838         4489.73182827          4515.2664268         1918.44972481          5732.6704848         1071.29956929         1044.59037627         2280.77144231         3946.31096168         2190.21328639         2447.84186705         4554.62118168         1650.37677579         3837.76885526        11020.52374992         1461.66371365         3159.39063856         6087.06912132         1901.80182705         3878.23284634         3305.64051961         2437.78081892         1805.59369973         3528.88502556          2518.4359473         2052.82822671         4754.50227497         2838.58974235
         0.05*MaxFES =          1266.90308192         2184.16302736         6249.07814091         2883.45942787         1679.11667578         2797.14204714         2583.71519237         1827.22908326         3871.70356298         3347.76983605         3248.85355376         2512.07061327         2443.91773383         1709.48528055         1968.05572045         2492.90658851         2048.42445623         2542.26022068         4756.03428062         1295.07030851         1582.59151965         3799.05418336         3508.94324014         2069.68616423         3613.83100294         3008.83132527         1864.67548373         3591.09312858          890.32188761          946.24921739          1955.8837724         2717.87534831         2189.95110727         2447.84186705         4497.99291176         1521.64792805         3378.86617797         10175.5054669         1422.24912944         2821.06583361         6087.06912132         1513.93638571          3284.4968593         3257.11161536         2090.65761389         1761.80402322         3528.88502556         2031.36213792         1811.06334592         3804.51889317         2838.58974235
          0.1*MaxFES =           970.87197691         1904.16322379         4792.97800701         2148.09043186         1574.13300026         2350.12275917         2244.45633003         1711.32349157         3278.29414566         2456.75017643          2280.2504202         2110.77785533         1397.92104025         1492.57109158         1794.08832925         1321.45939309          1606.1027318         1990.51457311         4328.31310625         1037.30403254         1059.65844623         3213.64316825         2206.37477196         1768.61312113         2637.90816009          2821.0385724         1672.29851477         2860.55679425           601.2757495          695.79895597         1883.47548001         2051.27674549         1793.94983755         1815.28577593         3602.21326977          1256.8605906         2205.02575602         6693.67486912         1170.16662229          1966.5999538         2822.37824492          980.54977934         2477.58579353         2591.58900739         1856.43002826         1542.11632351         2919.13896253         1550.75414256         1210.85509241          1938.9303091          2236.6959202
          0.2*MaxFES =           854.19581478         1741.88103771         2475.10820397         1595.44575161         1235.74335654         2100.05451106         1721.77927535         1329.04793762         1652.93060175         1216.48219012         1529.90184733         1789.37919538          879.12331875         1222.79023612         1540.68184598         1046.89254548         1374.06500254         1534.15917758         2730.17781358          921.02480919          676.09446527         1767.46580512         1526.04355203         1176.65927926         2222.35748091         1990.08223846         1471.33279421         1898.72724243          542.71662132          552.97100476         1582.26973789          1439.3862965         1251.78042749         1506.98815839         2185.33263238         1099.13374437         1423.20871826         2786.22240608          968.43715904         1367.41228806         1544.77938437          621.97655551         1691.55551053         1623.81637131         1603.89001583         1266.93084749         1767.96372347          863.55480844          607.53946065         1571.64162349         1178.33502874
          0.3*MaxFES =           581.77607384         1482.43711266         2070.85044659         1362.88722966           916.8228025         1666.27401048         1331.70918935         1153.33349897         1210.66910847          930.46132765         1255.24882883         1299.39273395          744.27181033         1046.74297041         1369.62525477          923.57631425         1166.65552857         1489.75203014         2094.95543527          830.68515193          425.38227539         1311.34102948         1339.18217037          880.63985148         1680.75255686         1432.05172736         1194.67919514         1142.84288555          450.70329985          452.91236949         1342.21196385          958.67484905         1135.22119705          971.04794579         1545.33684672         1017.72722319          877.13581878         1585.78934358           868.9453263         1268.16856352         1365.02950766           449.9853259         1247.10307054         1351.94458603         1449.63392168         1095.98530911         1220.38967775          731.72313801          419.47779282         1202.12037721          705.96864546
          0.4*MaxFES =           430.96881371           1162.653212         1664.41409676         1220.09573274          696.93016041         1301.38635065         1155.36144205          923.12627009          851.91695765          745.93651679           961.3790815         1115.99991433          628.42924391          857.70049196          1170.5294597          756.31359339          940.07198327         1051.08732214          1743.0434547          744.06688936          317.76953026         1037.04746959         1117.97620342          762.02942942           1370.477524         1152.67088081          965.61705142          928.65804548           347.4622424          323.23952069         1157.80300726          656.15323536          996.09879043          714.76248285         1315.79043694          747.97080227          666.26656197         1164.00483658          653.57744943          982.15285316          800.85538573          336.83282121          821.73019439           836.0457713         1170.89057842          964.75102541         1074.48608419          504.07102471          358.07061696          864.03726068          594.68409057
          0.5*MaxFES =           296.13987636          832.95834998         1146.89289615          742.77944426          432.40458776          878.54647668          871.81746035          738.87003489          582.51165457           524.9904214          641.76888404          752.77287098           389.8658901          574.98741119          584.37268155          543.42956333          790.05013884          827.42193379         1275.89602786          389.72131806          225.58239481          781.52271541          865.26398666          412.03112548          932.74004591             642.42486          616.89779978          531.48214459          245.72302209           208.8361593          816.92716948          481.06509936          765.54026102          539.98222506          774.80689667          515.83730555          470.89346259          861.35375021          382.12253862          643.52401341           588.3934763          234.25424776          577.71425671          489.80957152          872.85719455            745.784244          676.55204277          352.77165871          242.96146993          456.92773149          469.19520085
          0.6*MaxFES =           107.77409335          570.07028009          727.92685509          574.49466713          110.16966533          598.72597147          508.35184935           492.8062771           108.5337872          109.67364097          108.65258893          107.87495469          109.67370541          109.23501445           108.8871989          109.26928785          517.59546993          587.68050373          875.78309289          109.92500906          109.61024332           564.8211885          529.75952867          110.42871578          109.73367855          108.35329836          426.91100157          110.98277809          109.19921169          108.85407074          541.02380585          109.07162501          590.87088252          110.34258886          110.17829903          344.45645119          109.24244112           610.0763196          110.05070854          108.62897158          108.26633132          108.99094364           107.7840005          109.52853357          615.71243913          394.47271001          109.57289487          109.60188911          109.32749144          108.93670582          110.49056765
          0.7*MaxFES =           107.36897606          569.97521145          727.79182253          574.37340222          109.44062478          598.65137577          508.15811545          492.76720404          108.04300427          108.90978267          107.84913393          107.46171955          108.05456458          108.15170267          108.32978884          108.52174163          517.59546993           587.6312148          875.63180753          109.05291158          109.01447196          564.57696631          529.62889367          109.64419129          108.77141707          107.58710441          426.91100157          110.41863712          108.47714025          108.27212656          540.52484737          108.07493081          590.59066913          109.06048134          109.57336508          344.45645119          108.54911053          609.64443322          109.22731265          107.81454379          107.42516944          107.81698478          107.38540314          108.95831952           615.6843016          394.28640196          108.80169716          108.79567804            108.593853           108.3577824          109.64759656
          0.8*MaxFES =           107.19946445          569.96766706          727.79182253          574.21025948          109.20527511          598.54470458          508.14818539          492.68548114          107.49379262          108.01688976          106.88551825          107.30892389          107.99833889          107.54638022          108.05872398          108.21432951          517.53905947          587.59972134          875.58736684          108.59916523          108.15364673          564.57696631          529.51386547          109.14354547          108.32018156          107.45749874          426.78481794          110.12823535          108.19102178          107.54454821          540.38377457          107.52514135          590.43387886          108.64558905          108.99124543          344.39287621          108.24732031          609.64443322          108.40123397          107.28094573          107.21462617          107.31949444          107.10028524          108.34753895           615.6843016          394.13612319          108.68607042          108.38505943          108.44684853          108.05156268          109.31533753
          0.9*MaxFES =           106.91401983          569.79359883          727.79182253          574.19477799          108.98503952           598.5224447          508.10478307          492.67283212          107.41279405          107.67643794          106.53826221          106.97350048          107.89315273          107.19672593          107.93873205          107.81083637          517.46455924           587.5196151          875.56298796          108.49626347           107.7723421          564.54930253          529.51386547          108.80180717          108.05717026          106.88470451          426.66577893          109.71755614          107.75655733          106.98882747          540.38377457          107.44198124          590.43387886          108.41707493          108.58612055          344.35826092          107.86405873          609.64443322           108.1092565           107.1410309          107.15225077          106.99282368          106.97859974          108.03260608          615.60847058          394.13612319          108.45175673          108.19233375          107.81376315          107.99567207          108.91453401
              MaxFES =           106.74171885          569.79359883          727.79182253           574.0615362          108.93844288           598.5224447          508.07544021          492.67283212          107.38426789          107.43692633          106.46044749          106.56582538          107.71999541          106.84907541          107.92700203          107.61454274          517.46455924          587.48093341          875.56298796          108.41812544          107.67764573          564.54930253           529.3479111          108.47391557          107.84861789          106.73060303          426.66577893          109.61292216           107.4249226          106.68666843          540.38377457          107.24131441          590.43387886          108.20825851          108.47609244          344.35826092          107.71618188          609.64443322          107.73363373          107.03320378          107.03811832          106.83938002          106.74117946          107.92207388          615.50620716          394.13612319          108.35742389          108.18534151          107.56378788          107.99567207          108.28296951

                  Best                 Worst                Median                  Mean                   Std
          106.46044749          875.56298796          108.20825851     267.0254533770589     228.6663526284638

