 01/11/2016 15:36:42 |                  Run 1                 Run 2                 Run 3                 Run 4                 Run 5                 Run 6                 Run 7                 Run 8                 Run 9                Run 10                Run 11                Run 12                Run 13                Run 14                Run 15                Run 16                Run 17                Run 18                Run 19                Run 20                Run 21                Run 22                Run 23                Run 24                Run 25                Run 26                Run 27                Run 28                Run 29                Run 30                Run 31                Run 32                Run 33                Run 34                Run 35                Run 36                Run 37                Run 38                Run 39                Run 40                Run 41                Run 42                Run 43                Run 44                Run 45                Run 46                Run 47                Run 48                Run 49                Run 50                Run 51
       0.0001*MaxFES =    1.119348126476101E9  1.0804863444122677E9  1.3757379069831257E9   9.596703519392458E8   7.202192693146936E8   6.275572677904216E8  1.2658588192617407E9   1.906310653395992E9  1.0511340478876662E9   1.065637545612546E9    6.67482317811526E8  1.2339068999338734E9   9.382622624563552E8   1.751082783275041E9   1.165302031176278E9  1.3682573718497977E9   1.546756909727368E9   1.661506439713024E9   7.829965550131994E8  1.5823672372983518E9  1.6035690252320278E9  1.1653028318133981E9    8.18903437140153E8  1.0468335134041216E9   9.221845231912519E8    1.44264779401349E9   9.828274866464827E8   4.823483253469795E8   2.135019132504899E9   5.682301159660398E8  1.9105474465784621E9  1.4186981597068617E9  1.2585300987104366E9  1.1484021065526643E9    9.87909933075986E8   6.386484060664078E8   8.542024285784158E8  1.3025210127021232E9   8.197080979097341E8   1.761931436079318E9   7.774811178177598E8  1.5349397739331934E9  1.0966335673990874E9   1.488549133913753E9  1.1014941570798762E9   1.940169368526482E9  1.9171816065003307E9  5.3339708536062545E8  1.1090907139221447E9  1.1912699089084313E9  2.9162911893722045E8
        0.001*MaxFES =    9.393089122352511E8   4.689589416281625E8   5.674431367798893E8   8.392343221311715E8   6.353355784363694E8   6.275572677904216E8   6.891623773843795E8  3.9973944916352576E8   8.727942034279773E8   4.217344734380285E8    6.67482317811526E8   7.709092815988888E8   4.143822050557771E8  3.4283852681907964E8    9.23163590941028E7   5.956155323652515E8   9.372158926349376E8   5.992198206434197E8  2.4548463920918155E8    4.31236301030189E8    6.02011991586583E8   5.572771637146645E8   6.609587321635524E8   4.767556013495129E8  3.1776115176194656E8   3.285771096569522E8  3.5757355879269946E8   4.812586219470954E8   2.993937997825413E8   2.296287615936079E8   5.010475972953518E8  5.1732945620678186E8    6.02109841234098E8   4.683195963228536E8   2.942698097636238E8  3.4834861326354223E8  1.2878057204231305E8   6.159063907838426E8  3.9216391345024043E8   6.108757095597496E8   5.207904654267464E8   4.216711360857177E8  5.3669715448204994E8   3.242068169525086E8  1.5229391393162256E8   3.565024867154059E8   8.381267296350296E8  5.3339708536062545E8   6.561886950902876E8   5.491198117961671E8  2.9162911893722045E8
         0.01*MaxFES =    9.774799824774192E7   9.470021725224242E7  1.4084836830377916E8  1.0292183625755726E8   1.099731295589233E8  1.1326229518264619E8    9.60668586489485E7   1.222776370625003E8   6.778654461923885E7  1.0280753192374404E8  1.2952367333405899E8  1.1145841679090767E8   8.635024803670605E7  1.1979186511551803E8    9.23163590941028E7  1.4125966289257884E8   7.837906382416797E7  1.3500483886400664E8  1.0444852260609575E8   5.494582989307021E7  1.2035613977142347E8   5.358441394551556E7   9.133925062094393E7   6.531842071110046E7  1.2785626706373893E8  1.2917600133669499E8  1.7998147700214595E8    5.58360730709652E7   7.366734833156034E7  1.1166802369655195E8   9.005218685763483E7  1.0574135285843436E8    6.76096898500378E7   3.655769240406923E7    2.63966172871967E7   6.945693907854082E7  1.2011480698155195E8   7.240991590305892E7  1.0945528817287382E8   9.233966440455008E7   3.985901320036329E7   6.663941069263558E7   9.640149194812801E7   6.804091193609378E7  1.2334337556309721E8  1.1354542185766876E8   1.379632415147443E8   9.234693758850183E7  1.0788799533679967E8  1.4040023259509817E8   1.028614688222517E8
         0.02*MaxFES =    2.469327083603599E7   4.862522689468095E7   4.372277022038094E7   3.409691552275138E7   2.879989414430698E7   3.357094690361503E7   4.484504834686525E7   1.793163145684035E7   5.192693934049915E7   3.940608286539404E7   3.488251635010863E7   1.966230519941392E7   3.188253596398171E7   2.468336522292415E7    2.06902680947463E7   2.297617900387569E7   1.377926173280621E7   2.925136451878019E7   3.498700349700915E7   3.332138774302613E7   3.515409913706919E7    1.89983620869789E7   3.693051621001903E7   4.276319335862006E7   3.359202295200836E7   3.448195473294261E7   2.686294524155522E7   3.182220322338198E7   3.571348478022141E7    4.69766406237925E7   2.588202332295985E7   3.900946460864529E7   3.475567084485666E7    3.55478953974699E7   2.523854951628523E7    1.91873038107919E7   2.085155895720936E7   4.733283562418999E7   4.352189293463312E7   3.387269263398974E7   2.968889300770113E7   3.034772237143479E7   2.896435811056284E7    2.07947845133651E7   4.096683187652053E7   2.530936525071682E7   5.166381969910615E7   4.523500790728894E7   3.735183775396354E7   3.908477037654723E7   3.573140259955451E7
         0.03*MaxFES =    1.467094519748265E7   1.033318407614611E7   1.523280013081491E7   1.713706497596879E7   1.410617735576717E7   1.493852045443174E7   1.152197652825759E7   1.612736859193965E7   1.132175832259446E7   1.367479047528627E7   2.131078929050452E7   1.741146851672872E7   1.168825440865061E7   1.519614352102908E7   1.795232380855585E7      8332715.14049034      8261862.54473335      8436116.56373077    1.16718164715713E7   1.593820862510477E7      7313934.09747213   1.784312788408788E7   1.347743446676202E7      7219874.22664626    1.04930953752254E7   1.202675955215247E7   1.492471924719076E7      9267899.98368034   1.640692282370184E7   1.370364985278403E7   1.488293106119208E7   2.056897125599077E7   1.249406217524954E7   1.669285636552224E7      8257330.52365932      9452787.35823077      8845984.80790762   1.410595203914304E7   1.334007546533309E7   1.501467873840816E7      9930653.40695864   1.518515449594331E7   1.478615692198479E7   1.319812508844817E7   1.582263664005717E7   1.960298078584721E7   1.512093060253772E7   1.502217622948526E7   1.123087883278682E7   1.376482583663285E7   1.575056949912636E7
         0.04*MaxFES =       5968221.03823971      5552863.90797896       8579090.6894133      7435104.96381793      6748347.95094763      4874728.72632131      8919177.00583847      6506169.84895735      9621238.11753734      9368753.67382386      6586786.14482121      7171960.51266766      5033747.66654515       4609526.8471813      4089616.39786263      1874942.26846191      6010720.51768614      7913106.91695044      7141619.70765983      3717816.98738144      4796483.29137904      6517376.45511991      4615972.97610171      6602971.03145091      5662430.02629125      6880571.31415127      9065468.93973022      5894279.55905918      7362678.24398794      5991731.79291477      3690798.65699198      5108548.59755327      5088526.77589521      6261284.55366778      4133017.23898743      8168387.17257083      7314116.60611663      4396050.57103724      7445984.77618965      4924875.36095457      7305511.38208077      5300945.04377243      3503622.76372752       8918022.7144022      4711148.81954247      6062227.85917722      8468116.49021042      7146947.48994495      5949722.89136484      5948264.35592293      3000737.20528209
         0.05*MaxFES =       3736584.57697129      2227844.71183847      2934195.49639335      2166662.79803309      3204236.71883372      2439357.27873232      2683574.11389644       3712955.7731764      1973895.29444645      3082105.98474841      2299362.22187406      2808859.38327628        2645545.388501      2352966.32797604      2443859.50927387      1874942.26846191      2156511.78418236      2583609.96212836        2913843.119172      2436659.88801834      3353153.31523733      3782326.61478192      4580078.62858482      3542841.03304309      4060197.78399908      3852851.97645242      4039468.86013314      2697374.39798629      2924273.46011989      2004061.72926105      3071857.71095512      3336011.99829053      2719950.42128886      2087451.63396549      2399482.25929039      3141554.97258049      3186203.48909001      2445537.04620641       3223052.6495637      2074367.09220863      3255778.17253911      2896235.74122082      3055621.91035045      1785894.10185111      3123382.01882667      2967984.00546798      4545801.91075511       2608224.1934093      4292540.48238895      2884255.48106339      2669876.77020994
          0.1*MaxFES =        107643.54187607       124664.89721895       139252.87165405       114699.79157408       135013.19545757       123299.16945356       171009.65023818       130349.53641299       130950.08383008       118770.78556547        145068.6541558       144332.19418959       132253.34060656        133569.4093066       132365.70155625       119242.05743713       137698.56350337       125078.92187418       142740.25025172       111258.88701061        136564.1547891       151378.42850831       127462.01151353       151666.39382383       104018.80064223        185148.5248813       131675.26938882       142921.05813679       202140.43851804       128348.87830006       105486.67527347        120982.2852939       103490.09496372       127559.72587482       141679.36287678        111601.8224107       134524.65165261       111262.43622844        160932.7561841        89112.35475148       149316.17478568       144288.12240278       129692.44647648       119161.94042448       160429.18910796        90220.49774291       150897.27836109       119232.49119419         115199.980616        139673.9017174       125124.26029545
          0.2*MaxFES =         10209.67470266        11069.64585568        10027.36397558        10603.30767878        10565.71791891         13004.9991589        11654.12471977         9747.31931431        10849.71847106        11268.50655917         9751.18975331        10422.11758217        10395.68419176        11565.81906718        11248.58313416        10796.54952108        10893.83088042         11028.4451424        11392.51041026          9702.0310388        10638.41975096          10921.693275        11621.79191873        11077.97036563         10562.7679371        12830.68435477        11487.18973108        11436.50758874        10288.71047624        11688.06418804         11089.5053088        10312.12191291        10050.58055607         9927.64711443         10407.5793959        10681.04243546        11408.26941699         10428.2988363        10037.98232594         8551.73364828        11216.55592904        12291.80115686        11584.16465033        11126.94675897         9839.02629994        10492.98453217        11258.89502763         9904.16342742        10084.46361305        10776.56446165        10474.17987543
          0.3*MaxFES =          4696.27443292         5244.97097072         5210.22294927         4996.87994807         4944.08602166         4772.72522638         4950.53940291         5203.53221682         4837.04262242         4773.71119283         5618.34263916         5650.70271047         5159.98672435         5120.76808309         5695.68427654         5291.39810892         5284.63419216          5687.1572614         4936.20415531         4508.50231554         5239.20096649         5840.46862964         5714.52230713         5413.80055016          5549.0900944         6176.35264153         5702.90548036         5306.14687192         5607.57436936         5500.31829844         5794.07579748          5305.1575454         6049.77591376         5366.97932176         5532.18099799         5371.48228604         5423.45355175         5406.29645648         5416.89759694         5472.63599245         5500.48674792         5084.17506732         5469.66874562         5674.09599514         4546.66744983         5766.97940699          5222.8432733         4892.03190601         5453.45340797         5804.09287438         5525.85923176
          0.4*MaxFES =          4210.97574485         4348.82982114          4375.9152235         4744.67858412         4108.59653462         4291.36570969         3944.42646422          4230.6771842         4488.31591075         4361.01372272         3674.91468336         4121.26310918         4291.76673871         4731.56889398         4407.68464775         4019.13338381          4379.4538524         4534.31808327         4579.07214453         4491.62361485          4640.9007493         4171.32358111         4468.96852832         4453.81192044         4362.88489266         4603.28331557         4707.61095607         4269.71808699          4710.8571771         4549.70660521           4449.123979         4302.03311268         4500.82005491         4488.35963554          4427.6476857         4347.78237655         4241.19775407         4783.29642838         4329.91816753         4326.48571838         4439.32301661         4712.12120672         4248.69909691         4323.60843583         4493.33523367         4643.67831665         4553.28406108         4404.97157252          4243.5982388         4226.39859506         4564.94171481
          0.5*MaxFES =          4042.50098405         4257.60803746         4028.51921153          3951.9900104         4035.12288015         4059.04740871         3944.42646422         3797.77251769         4168.61486443         3884.05752168         3674.91468336         3486.14521463         3896.78696612         4243.78801226         4030.82424069         3864.18481827          4379.4538524         3732.30843455         3926.77858126         4118.55394953         3770.43426749         4089.88032624         4053.91295823          3557.4306115         4049.52837819         4158.40398058         4272.17442881          3943.4479911         4061.89362422         3729.16977611         4208.10410905         4232.60089192         4195.20942837          4009.4157203         4027.27902568         4064.76563861         3879.26151701         3941.33193491         4329.91816753         3763.63699381         4439.32301661         4008.03712718         4102.16355938         4252.62725958         3667.22910321         4325.20929648         4352.92857724         3537.85793126         4020.57136347         4118.67053668         4331.66117891
          0.6*MaxFES =          3574.62405678         3731.11917644         3835.33279164         3926.08815167         3871.35747521          3594.6882901         3807.86929011         3797.77251769         3675.74896775         3604.11658036         3674.91468336         3486.14521463         3273.16577277         4113.36317641         3775.16101182         3320.02636397         4065.75885995         3732.30843455         3926.77858126         3956.81663336         3770.43426749         3625.20707953          3748.8499774          3557.4306115         4014.21039083         4099.27673023         3973.99161053          3907.7669081            3714.35494         3729.16977611         3963.61529249         3993.83750966         3806.81004987         3887.90815614         3523.64741979         3805.13075305         3673.74166909         3601.73730289         3796.06582079         3507.52398358         3831.59573688          3776.3183182         4098.99556099         3857.42196958         3576.12202026         4037.03694303         4163.90097525         3537.85793126          3721.8340038         3550.24368733         4031.44156121
          0.7*MaxFES =          3574.62405678         3583.70756234         3828.23910347         3770.42620932         3737.63808379          3594.6882901         3611.92314371         3657.87522254          3406.0934999         3604.11658036         3674.91468336         3486.14521463         3273.16577277         3888.54059609         3775.16101182         3320.02636397         3933.33604266         3732.30843455         3262.08311979         3746.15357527         3684.38383047         3625.20707953          3748.8499774          3557.4306115         3901.40400884         3740.26480202         3520.11915867         3773.95983937            3714.35494         3729.16977611         3931.49840093         3862.19465563         3806.81004987         3503.70561114          3457.6677512         3804.12489631         3619.75297156           3590.780444         3796.06582079         3507.52398358         3831.59573688         3471.29449081          3659.3853733         3769.32217103         3552.34240945         3985.99280507         3792.44194677         3537.85793126          3721.8340038         3550.24368733         3813.80601931
          0.8*MaxFES =          3574.62405678         3446.75020113         3562.94690453         3770.42620932         3492.42357585         3456.78754324         3566.21687767         3460.94808373          3406.0934999         3545.46879311         3674.91468336         3486.14521463         3273.16577277         3888.54059609          3613.0770097         3320.02636397         3407.28030304         3578.41104577         3262.08311979         3479.67985203         3684.38383047         3625.20707953          3748.8499774          3557.4306115         3655.96424718         3740.26480202         3520.11915867         3523.76070472            3714.35494         3567.18375005         3575.79993224         3752.60036719         3806.81004987         3503.70561114          3457.6677512         3804.12489631         3619.75297156           3590.780444         3675.49736249         3507.52398358         3724.34240285         3471.29449081          3659.3853733         3769.32217103         3552.34240945         3841.74312794         3667.75341899         3537.85793126          3721.8340038         3504.28828452         3573.51121389
          0.9*MaxFES =          3215.96532577         3446.75020113         3434.26908999         3402.05936411         3405.16647295         3242.54131674         3566.21687767         2950.11287508          3406.0934999         3229.20935366         3473.82988576         3357.18069722         3273.16577277         3819.22677589         3530.61663192         3320.02636397         3407.28030304         3561.15038821         3262.08311979         3479.67985203         3508.46550586         3582.45699968          3748.8499774         3420.83653445         3522.50800061         3513.22149894         3520.11915867         3523.76070472          3371.2835335         3567.18375005         3575.79993224         3678.77996756         3806.81004987         3503.70561114          3457.6677512         3804.12489631         3551.17403716         3321.20840138         3675.49736249          3386.3068108         3724.34240285         3471.29449081          3659.3853733         3549.01126311         3332.82042328          3581.8314389         3579.63889854         3537.85793126         3594.26734735         3320.38234033         3573.51121389
              MaxFES =          3215.96532577         3429.40537315         3192.75942762         3402.05936411         3371.47477293         3242.54131674         3155.36069597         2950.11287508          3406.0934999         3229.20935366          3419.4727255         3357.18069722         3273.16577277         3765.30189158         3530.61663192         3200.02354761         3259.90653114         3394.12779632         3262.08311979         3463.36461566         3508.46550586         3582.45699968          3748.8499774         3420.83653445         3302.73562192         3499.66551402         3173.82372855         3482.63890525          3371.2835335         3567.18375005         3575.79993224         3678.77996756         3806.81004987         3503.70561114          3457.6677512         3435.34523805         3551.17403716         3321.20840138         3675.49736249          3386.3068108         3265.88560991         3471.29449081         3502.31399509         3549.01126311         3332.82042328         3385.02303277         3579.63889854         3537.66323101         3594.26734735         3253.70174117         3573.51121389

                  Best                 Worst                Median                  Mean                   Std
         2950.11287508         3806.81004987         3420.83653445    3423.8351336066657     172.4036686633437

