 24/07/2016 01:04:28 |                  Run 1                 Run 2                 Run 3                 Run 4                 Run 5                 Run 6                 Run 7                 Run 8                 Run 9                Run 10                Run 11                Run 12                Run 13                Run 14                Run 15                Run 16                Run 17                Run 18                Run 19                Run 20                Run 21                Run 22                Run 23                Run 24                Run 25                Run 26                Run 27                Run 28                Run 29                Run 30                Run 31                Run 32                Run 33                Run 34                Run 35                Run 36                Run 37                Run 38                Run 39                Run 40                Run 41                Run 42                Run 43                Run 44                Run 45                Run 46                Run 47                Run 48                Run 49                Run 50                Run 51
       0.0001*MaxFES =  1.4806866835184885E11  1.916905021571737E11 1.6959103983963293E11  1.483617591122539E11 1.8025260581310507E11 1.5811299402087122E11  1.749838942067844E11 1.3252781222576419E11 2.0685589108934753E11 1.6465123197436353E11  1.629442471777276E11 1.8593862555412823E11 1.2994517051018008E11  9.317007631265608E10  2.202494742095509E11 2.0917466637590045E11 2.1697594926846176E11  1.861782719659958E11 1.4748612125969977E11  1.460088440713296E11 2.2149524270523657E11 2.0288301118691693E11 1.3473555399513397E11  1.815722042551324E11  1.947545686497941E11 1.6712746710549658E11 1.6064734731264816E11 1.7632587160331592E11 1.6318059664669247E11 2.0131709175673822E11 1.7219802596700922E11 1.7663087305224875E11 1.9374521848482812E11 1.9132039830175247E11  1.961622377980152E11   1.53671844828304E11 1.9134742900717395E11  1.937235612954818E11  1.676006986840012E11  1.818310127427227E11  1.666673390401539E11  1.296684445162153E11  1.421252893956868E11  1.653182839115543E11 1.7526422399950674E11   9.71537255701686E10 1.2813825930296432E11  1.619774321393367E11  1.836823214488773E11 2.3017435813230005E11 1.9899083341517154E11
        0.001*MaxFES =  1.1122145837106116E11 1.2725566451813564E11 1.0797016701487456E11 1.1648841496566786E11 1.0800918580109285E11  8.834259185913376E10 1.3727981431809412E11 1.3252781222576419E11 1.2454664950409494E11 1.3900038572103323E11  1.425960766416129E11 1.7696432201038943E11 1.2994517051018008E11  8.825218865616235E10 1.3253865159092049E11 1.0181139014823744E11 1.3769433667859283E11 1.3842436574570447E11  9.334324375379047E10 1.3589594130149495E11  1.161766550829619E11 1.4831170928308426E11 1.3473555399513397E11 1.2483782930755142E11 1.2674334252802634E11 1.2998290183125897E11  8.648549061727885E10  1.206143268222616E11 1.2276986848816766E11  1.604555299685952E11  1.212798143864136E11 1.5336233861820596E11   1.55759445274071E11 1.2238932760578677E11 1.4534135686395932E11 1.3841036443625024E11 1.3015255698074141E11  1.255694656878932E11 1.1942306756551625E11 1.1743505049322931E11 1.3819810630416052E11 1.1020111292291786E11 1.0312504357520842E11 1.4149874684784314E11  7.838400048651668E10   9.71537255701686E10 1.2813825930296432E11 1.4373240456038815E11 1.3477037105250746E11 1.3641752460341656E11   1.38278737223418E11
         0.01*MaxFES =   9.310629817837387E10 1.0299899638705925E11   8.04634580231403E10  8.380131685230048E10  7.979075537745119E10  8.212081744518582E10  7.043029919525943E10  6.870718791448851E10  7.990814856587184E10  9.541963027501958E10 1.1790704292854654E11  9.576950785951924E10  8.204233184797552E10  8.825218865616235E10  9.206517459159016E10  8.316672434839754E10 1.1966923336767575E11    8.2236823742812E10  9.334324375379047E10  7.887956004705373E10  9.127708461532442E10 1.0627996214692485E11  7.986764133799939E10  8.731596772772786E10  8.938466617290288E10 1.0099396194820819E11  7.759633476956241E10  9.059181732030806E10   1.00263110836487E11  8.808301312937674E10  8.859146461445222E10  7.622615190891507E10  9.759077005910265E10  9.277867838388464E10  9.193955307592604E10  9.038918051473747E10 1.0004867761412675E11  7.331919925209323E10   8.43787023165924E10  9.573833538011615E10  9.293437032058391E10  9.648554558390727E10   9.03747996977522E10  7.459163838169806E10  7.786151750422444E10   9.71537255701686E10 1.0805641067374277E11  8.432765527701822E10 1.0260171148787306E11   8.74630168637198E10  8.955653181886769E10
         0.02*MaxFES =   7.099532252720946E10  8.237033774796841E10 5.9235176897725296E10  8.131382699613638E10  7.979075537745119E10  7.176279948667647E10  5.917127349147855E10  6.870718791448851E10  6.901120079325256E10  6.475730925936435E10  6.834589396270763E10  8.317720699781844E10  6.681964665023628E10  6.610647143581651E10 6.4869277093634125E10  6.460034631001214E10  7.741070880433925E10  7.184192908160107E10  6.403151289248657E10  5.907468863039769E10  6.584736154191111E10  7.921988262843494E10  7.986764133799939E10  7.085978454146744E10  6.375541413957871E10  6.076808899260262E10 6.2580902497223946E10  7.507823498592671E10 6.4323275803163605E10 6.4889706824605354E10  6.068182131185782E10  5.603438673023057E10  6.881347028502179E10  7.855684720366356E10  7.650433498946524E10 6.0742486302673744E10  8.089885657669249E10  7.214140907059921E10  5.917045874122426E10  7.585436204064664E10   6.38304110589405E10 4.9600278058059654E10  4.576963296589884E10  7.459163838169806E10   7.01465913828705E10  8.449972708266458E10  4.601197404790356E10  8.087330870605206E10  7.236045392579942E10 5.0345432532398384E10   7.36714957825224E10
         0.03*MaxFES =   4.895909965057581E10 5.9158266193266365E10  4.671805651281327E10  5.453437222075555E10   7.07113763330196E10  5.149571329902135E10 4.5877656850351585E10  5.964589162726095E10 5.0335989336440636E10 5.7465681992754845E10  5.738761775252596E10   5.77959168992495E10   5.00807783720511E10  5.158785743442368E10 4.9729119528385796E10  4.789755493033963E10 6.2341788507057335E10  5.437919478431877E10  5.048898342942551E10 3.9216480296349014E10  5.489124944583234E10  5.498613814934533E10   5.85799034425001E10   4.03280731054184E10  5.200304817597116E10 4.1632822827977684E10   5.00958231049529E10  6.161121690028258E10  4.437927395791577E10  4.049751887304374E10   4.80715670134861E10  4.860975168844058E10  4.747668317041043E10 5.8301501081164215E10 5.2643474940441185E10 4.7580621188006516E10  5.319248569299417E10  4.288034085164754E10 3.0511826534805443E10  5.560429711839087E10  6.108805245695217E10 4.9600278058059654E10  4.576963296589884E10 4.6748381458905235E10   5.24373314505821E10  5.322204207461942E10  4.601197404790356E10  4.199465902316785E10  4.992899773641739E10 5.0345432532398384E10  5.283766405096823E10
         0.04*MaxFES =   4.156464569755463E10 3.1214583915395214E10  4.671805651281327E10  5.051620938698787E10 4.2090790346013855E10 3.8750207799140625E10   3.59238492152514E10  5.346112846627851E10  3.026873770944688E10  4.636652224189332E10  4.706567551821348E10  4.473596870046022E10 3.7394719836552795E10  4.151663783428227E10 3.2471550221082535E10  3.488213820833229E10 3.7447712875572105E10  3.659909988794945E10  4.868496916130622E10 3.2050345597775745E10 4.3962610600397705E10  4.357562067605578E10  5.215777128634258E10  3.732475155152559E10 4.4683559701752785E10  3.125842145418184E10  3.022175207701558E10  3.850819666388565E10  4.091755519971883E10  4.049751887304374E10   2.95047326800166E10  3.917029621707385E10  3.659909627588166E10  4.573797130770871E10  4.139691967704817E10 2.9103406169180397E10  4.097270931779352E10    3.7605813390146E10 3.0511826534805443E10  3.460645579198275E10  4.052826861261641E10  3.972924267220078E10  3.646938621656651E10  3.492278535995048E10  3.862560284801592E10  4.015676096901338E10  3.942250443002106E10  4.199465902316785E10  4.510273896334229E10  3.744025922586192E10  4.169487407464853E10
         0.05*MaxFES =   3.290152339283017E10 3.1214583915395214E10  3.612048066160959E10  3.809902841387598E10  3.936929417535112E10 3.8750207799140625E10 2.0157795512646584E10 3.8711767631410484E10  3.026873770944688E10 3.6813610077568146E10 3.3563822820876125E10  3.123709658760642E10  3.220111718825807E10 3.0694322168308533E10 2.3138520136234985E10  2.313488419138194E10 2.8824094687907516E10  3.128356130523883E10 3.1892708531180313E10 2.4252048134443558E10 2.7566453069876987E10  3.683134707358804E10  3.610779483488391E10 2.9524959810281967E10 3.5547997751322266E10 2.9951756785870907E10 2.2771711514906128E10  3.540241525906948E10 3.5379753533832664E10  2.856344953283501E10 2.4506095994354866E10  2.943005913372867E10 3.1610908141737507E10  3.557553211673781E10  3.655263052523678E10 2.7170033774405014E10 3.7535172312848236E10  3.333684657030859E10  2.468728430736863E10 3.2049337158587666E10 2.8676758564465725E10 3.2338810753191204E10 3.1108559527294033E10 2.7256878397616776E10 2.7853623385058537E10 2.9971307463539852E10  3.270844634379349E10  2.877250078916511E10  3.787196317024081E10 3.2749291480278736E10  3.470439774405775E10
          0.1*MaxFES =    9.357734224540398E9  1.152029158959781E10 1.2131502633450247E10  1.474391270523536E10  1.252777962045709E10 1.0471510698811222E10 1.0114399960193903E10  1.362798790309734E10 1.2294915362469944E10 1.2004378500330317E10 1.2650093518610317E10 1.3544836986766687E10 1.3557807451219563E10 1.1949904796446764E10 1.3047461806409288E10 1.0589700566544518E10 1.2726465986290283E10 1.1220986286791676E10 1.2675250230664099E10 1.2288813390996948E10 1.4071359433396297E10 1.6686541547145853E10 1.4071411510882162E10 1.0836678730242302E10 1.1758421576056246E10 1.3487045215129581E10 1.0688772894417404E10 1.4990268520565365E10 1.1775601130224998E10 1.2024979637534876E10 1.1852401313020493E10 1.2044817039070986E10 1.2552340274690178E10 1.3411591011408937E10 1.3768307621683147E10   9.841124396823397E9 1.1349584631129435E10 1.0990886540385668E10  1.148005287182195E10  1.169764484037335E10 1.2334757346764137E10 1.2887993755538614E10  1.299496478789279E10  1.306022230150671E10 1.0868977645373672E10 1.3996196547588917E10 1.3620509394921967E10  1.062580854292092E10 1.3305386810486807E10 1.0250919045602543E10  1.238777328884829E10
          0.2*MaxFES =   3.4708203365505886E9   3.840267274281345E9  3.5096296912882895E9   3.696372663649878E9  4.0433397451073203E9  3.9317273660155377E9  3.7796377418139296E9   3.751933116780588E9  3.6486614783775363E9  3.3924402793945355E9   4.340954330359356E9  4.2778179462029114E9   3.213637610012681E9   4.004629272024524E9  3.4030642292730217E9   3.833956767989312E9   4.578281538535913E9   4.338135169321351E9   3.833037833460489E9  3.6439282929671702E9  3.7347153158243384E9   4.310367194666884E9   3.206466753626564E9  3.2469300554043627E9   3.484271535182173E9  3.9888227248075585E9  3.8199986266510634E9   3.770226367620924E9   4.208842764925779E9  3.1487447005601916E9   3.429142983393861E9   3.259521942003771E9   3.355941771234913E9  3.7519942761608634E9  3.9300120877677097E9   3.400179113755564E9   3.782505647362173E9   4.109733748432927E9   3.271588979066013E9  2.7334736230193596E9   3.393241280076626E9  2.8782465350673013E9  3.2703825372926393E9   3.719863280565104E9   3.368350810169733E9   3.811233213640513E9  3.4350661075961084E9  2.9016167631000853E9    4.07338753441832E9  3.7431654523912416E9   3.909334640966141E9
          0.3*MaxFES =   1.2017709626279268E9   1.452137767315268E9   1.475981291803374E9  1.4169899916672802E9  1.6772102366515965E9   1.374174074713478E9  1.1890026949732182E9  1.5904618694811254E9   1.282032007460003E9  1.3386733709213467E9  1.5913231477377517E9  1.1106261843590953E9   1.275342753468172E9  1.4150327299050033E9  1.3496262139881852E9   1.177199764834197E9  1.5567390894082077E9   1.598543363973505E9  1.1888943837253735E9  1.2866990299664218E9  1.6031816014135337E9    2.00923441966083E9  1.6277665761397893E9   1.213498010494371E9   1.392732065149877E9  1.4751801319320452E9  1.3138067552596717E9  1.3570519398477948E9  1.4196266573404195E9   1.330034967681697E9  1.2385351621183257E9  1.3814392586956205E9  1.5802955437271874E9   1.574142779321371E9  1.6242133716377294E9  1.3012194371902568E9  1.3205989831505647E9  1.3278688437256234E9  1.2495374045545433E9  1.4579207690074973E9  1.5479858771920366E9  1.1231751015449295E9  1.2867101892891252E9  1.0537435853538942E9  1.4629186219139893E9   1.355044437926325E9   1.245212628986904E9  1.6090420983173687E9  1.5366630201925085E9  1.4026097277953084E9   1.292431936423522E9
          0.4*MaxFES =   4.5722659075557405E8  3.9964613808787024E8   6.367724197827816E8   6.679113105991087E8   6.213728076135072E8   5.437046488965452E8  3.9634036294729203E8  5.0943509065218043E8  5.1752625997000086E8  4.9053679049187034E8  5.3077381685774434E8   4.615836251016981E8   5.627364831949458E8   6.482099647145741E8   4.637196788350076E8   5.039536581039909E8  4.3279840976046854E8   6.566209154901091E8  4.7483390328113383E8  4.8342190650549847E8   5.094189983958601E8   6.484502391806195E8    6.67417890471504E8   5.296179614015886E8   5.293507683127936E8   4.568266701846213E8   5.524944910365555E8    5.62386775847032E8   5.528679756704245E8  4.7781890540670353E8   4.723023361405422E8   4.329567405213993E8   5.562703651650137E8   5.729648985869845E8   6.027274610531455E8   4.470549405048077E8   5.783992005700226E8   6.001754629930042E8   3.294035140353448E8  5.2236449540463144E8   3.666112020671536E8    5.81564347657309E8   5.084351551321375E8   6.311347984550776E8   4.645987826759028E8   4.908856283134837E8   5.093216552490883E8   6.594487017202369E8   5.815323369647193E8   5.017910170807876E8   5.676478421602226E8
          0.5*MaxFES =   1.9194509776692837E8  2.2790969321362296E8  2.3738753192503262E8   1.960159042189816E8  2.1883918106388363E8   1.739592775346523E8  1.8273379641696402E8  2.2326634099556237E8  2.6717575731296194E8  1.9257033818333167E8  2.3621449310122862E8  2.3336703241706043E8  1.9959259516477633E8  2.5251202594175223E8  2.1269407416824868E8  2.5693979743354234E8   2.392978735621225E8  1.8422526986769032E8   2.407607203827061E8  2.3408142692771885E8  2.4215835021627367E8  2.2702215034516597E8  2.3805371651678818E8  1.8873067065214518E8  1.9587208207010707E8  2.1082812603944018E8   1.777225358089759E8   2.111538203958877E8   1.844705765281688E8  1.9154892543494588E8   1.970046038856928E8   2.187213789980952E8  2.4815439159950197E8   2.081537015207374E8  2.5357946761298665E8    1.66449507725496E8  2.2228419946589047E8  2.4606471917636365E8  1.7906124545914122E8   2.612990676104166E8   2.131017138932944E8   1.553081404631905E8  1.4212653630500215E8  2.0100894836096856E8  1.8083291158216688E8  2.2472882437171325E8  1.9051619205888188E8   2.328721332402885E8   2.578917815360398E8   2.182393109527123E8   2.191634631566088E8
          0.6*MaxFES =    8.018665199169476E7   9.611424005851588E7   8.250553044406664E7  1.2023791239678334E8   7.526386471212912E7   9.693252102536786E7   8.274738851338044E7   1.030699766467724E8   8.160592667327428E7    8.53033444285722E7  1.0179409316059095E8   7.159031966483983E7   7.812094414575537E7  1.0501102690405329E8   8.894788900544335E7   7.924137891083083E7   9.426512876664363E7   8.584053096078031E7   7.474313427321555E7   8.330098413798098E7    8.86140995623235E7  1.0044707941310798E8   9.802759555498381E7    8.52802456708098E7   7.892282460810897E7    7.06815024167088E7   8.592750940553232E7   9.151302366736722E7   9.912452914660682E7   8.142958124292894E7   8.444889201804674E7   7.941758037560037E7    8.46979336437582E7   8.707195711950804E7   7.887264413292082E7   7.011714495722859E7  1.1006430360915813E8   9.250556876972575E7   7.247102696558248E7   8.125547461751097E7   8.986980383330233E7     8.1081973353085E7   7.074240575642443E7  1.0831803151722695E8   8.861175937611394E7   7.182432936981916E7   8.561032792465413E7   9.395948635700302E7   7.871334824016123E7   7.118195349985015E7  1.0406753358766104E8
          0.7*MaxFES =    2.971615855371155E7   3.355291882723781E7   4.950674045758932E7   3.938757744050888E7   2.637611636203958E7   2.996876329348354E7   3.352961595809646E7   4.514357776563743E7   3.973649806501417E7   3.213998381444766E7   3.403400593184063E7   3.463631964200242E7   3.507208051636193E7    3.70746233689913E7   3.301306632544859E7    3.45222422556298E7   3.854969051931736E7   3.843886811949479E7    3.84952914766081E7   3.944708082717962E7   3.705222854516513E7   3.745153080655851E7   4.436613729214342E7   2.506541723986755E7   3.715812493150148E7   3.085724026319693E7   3.096819162974666E7   3.540015869227367E7    3.19037808980701E7   2.677097252687507E7   3.555980817180799E7     3.4891272742867E7   3.904446998017797E7   3.453887972332066E7   3.568176446140243E7   3.261916968015199E7   3.369856062003331E7   3.279515830207671E7    3.12927729012374E7   3.833890988474248E7   2.904801259184734E7   2.682726991581428E7   3.636131949079804E7   4.219247627152175E7   3.415482542832765E7   2.840309054507415E7   3.828841438866443E7    3.95514866403768E7   3.459560650757137E7   2.942500859805091E7   3.621386807841655E7
          0.8*MaxFES =    1.230569897998065E7   1.428122151094358E7   1.443305745975435E7   1.757245953104559E7   1.367696315295535E7      8129654.32121228   1.193969010740684E7   1.436350370927793E7   1.693280781920329E7   1.439597419343778E7   1.837454265177069E7   1.021462142685405E7    1.45014934356697E7   1.632416984623219E7   1.420453695327639E7   1.080064827678216E7   1.038125593357484E7     1.6438906097218E7   1.399908021003309E7   1.476371330269065E7   1.291922148716075E7   1.219561572244167E7    1.55968062460581E7   1.083294690980643E7   1.586656321335104E7   1.403041400710683E7   1.256250415044672E7   1.349002182601116E7   1.241988183569892E7   1.301306711046768E7    1.25795557952387E7   1.374859068864695E7   1.561706886497958E7   1.114117525646894E7    1.12420528924246E7   1.257933113805076E7   1.341031866382398E7   1.475851056304746E7   1.521735067178119E7   1.634051725953535E7   1.439851562407929E7   1.318862742175772E7   1.314124536414274E7   1.563253891692696E7   1.551209330051176E7    1.40835421063833E7   1.410865796951308E7   1.892508044961677E7   1.736248002909286E7   1.529093993081929E7   1.658293290884524E7
          0.9*MaxFES =       4648051.95152376      5084648.24788846      6870653.18586569      8037481.87002923      5306596.25094488      4524532.66961106       5095547.7328555      6873245.69156405      7427098.51335898      4482302.01397758      6291597.59335393      5881960.71407742      5422296.21251193      5779690.46434138      5395915.28597329      4863919.49775334      6230085.99690845       5908505.7213714      5806011.95420559      5725805.79550825      4380985.15131629      6760264.96130795       5358076.0336039      4898309.47714046      5395823.42017406      6342891.59437438        5995863.597758      6297898.70578325      4645484.58701363      5103722.52265972       3441707.5339652       4083583.7081068      6337969.30702081       5834638.1299104      4979465.72349822      4691067.89473428      5630452.98195134      4910901.84113266       5158176.0603054      4950996.61320244      5159786.52667946      5701240.05136691      3918957.21625923      6253188.99155156      4910318.85818518      4654045.53943963      5208921.47961662      6630210.33290732      6325743.64917401      5355911.28649247      5166299.70236917
              MaxFES =       2086485.16275605      2292266.43555925      3087237.13436337      2710050.89166423      2429275.56239758      1631552.86540007      1632847.01531424      2700172.16327463      2309631.64504266      2334056.84539408      2690867.64186849      2647003.38045165      2151944.36125193      3212770.21844162      1951530.82869946      2236801.92622804      2234737.97735016      2699674.55013069      2367445.26668721        2452123.606406      2153113.65324819       2702681.8207224      2516403.04276108      1922086.41398531      2295208.72777447      2152415.79893906      2099423.13647426      2371105.70087408      2112608.80919578      1426885.19676187      1589151.57043917      2297528.57306874      2687056.46580948      2084464.93973201      1946057.45047456      1667327.61661235      2545917.08173826      1976968.86603368      2151110.53601754      2545769.15438752      2133047.87154533      2189371.94060969      2016186.73738298      2129094.57932414      2452971.39745934      1936991.09658261      2369613.07761474      1869953.83035072      2302339.38532024      2025596.34435616      2506381.81676043

                  Best                 Worst                Median                  Mean                   Std
      1426885.19676187      3212770.21844162      2236801.92622804    2255555.0610007374     362583.6451303226

