 24/07/2016 09:12:57 |                  Run 1                 Run 2                 Run 3                 Run 4                 Run 5                 Run 6                 Run 7                 Run 8                 Run 9                Run 10                Run 11                Run 12                Run 13                Run 14                Run 15                Run 16                Run 17                Run 18                Run 19                Run 20                Run 21                Run 22                Run 23                Run 24                Run 25                Run 26                Run 27                Run 28                Run 29                Run 30                Run 31                Run 32                Run 33                Run 34                Run 35                Run 36                Run 37                Run 38                Run 39                Run 40                Run 41                Run 42                Run 43                Run 44                Run 45                Run 46                Run 47                Run 48                Run 49                Run 50                Run 51
       0.0001*MaxFES =        218431.82508082       280385.91370375       232561.13302617       332867.49302901       149117.73244783       103662.96294752       292032.65441412       192698.54027888       481172.84501551       128473.89332642       190968.65570119       204237.65398645       283107.49396871       317249.49894019       201336.79024222       215434.37761251       322945.51289631       136498.25520363       121406.96700103       133654.82060988       188134.26583818       234548.71640304       274977.65132167       204653.34163457       436813.04400433       200532.54641609        96339.08904596       210097.55755448        192780.7669788       160393.44144314       154702.87013001       207969.43461992       216671.85022748       241376.55923858       349845.27341575       165309.85258031        190080.3905454       154640.59683761       200653.42139754       212326.34681798       194767.78864559       174734.65826675       277166.72765482        275883.0628109       307783.54659084       180729.20306247        370847.3928945       123624.47913736       174183.40726627       221041.72081776       213924.96376427
        0.001*MaxFES =         116164.9551617        153347.5652223       116556.24503323       110840.49983874       149117.73244783       103662.96294752       137331.04985997       141122.55991383        163764.0337464       128473.89332642       128267.66732959       135902.86822149       144253.63464299       100846.43965067       145728.74831415       118576.50999726       114819.60191548       118328.64056239       117257.57373748        84688.07018439       109520.74045064       133008.05728774       131274.58028846       166066.70792293       162294.76434281       109757.22023165        93524.43794883       109762.87996875       145047.31358917       110548.24642442       122251.54973068         130161.304476       111705.62656418       118612.90552675         107154.744411       146808.06591797       167970.74576263       123536.45271332       160303.22932185       136124.90538038       157591.35634349       143385.15908844       119528.47069801       201948.88256812       163792.06876154       139265.44550087       119000.56725459       123624.47913736       119066.91300516       156259.18572506        118022.2265809
         0.01*MaxFES =         83616.45431747        72264.34600496        78446.70023123        59608.46347338        77720.53887983        71465.59740746        84638.12034243         82376.8718743        75937.69992358        75537.65012951        81917.31712297        74783.06377918        80372.19383622        86000.06777304        87265.10835959        82132.39345935        72602.07655192         84942.9449003        77328.60265147        82396.16225382        79802.32099281        64678.63300407        84492.67122431        95119.75103117        80305.69375579        69421.74560972        76397.49873034        82063.23645819        71917.56160289        86336.13373701        80521.09093128        65768.85178956         70610.8821287        78047.97792509        97366.83553814        90549.09672781        72732.04533424        79366.24378641         75984.0912801         82801.5302295        70103.39283855        81517.60891388        90773.34208452        86338.28486964        74598.17551152        75880.12862406        82081.28599307        84386.27630174         78871.2287131        71839.00008256        69633.97847279
         0.02*MaxFES =         70585.93764599        71672.55362133        66636.17205798        56364.26207677        67749.78601443        66973.49525296        68785.15884327         69442.9577733        64796.94561345        70247.90766793         72413.1735065        67213.70542596        66522.14510776         63006.0421526        70921.18670949        57121.23825824        70188.69969196        77368.28831709        68877.26451189         69068.5665984        68448.17573596        64678.63300407        67031.26666025        66067.02847273         70422.3774468        60733.78172422        67819.79652206        69814.40331654        67054.21949671        75398.76766556        65141.84736082        65768.85178956         70610.8821287        60493.65478898        60122.34172116        76715.57250205        64270.00055338        69435.26860508        75809.33980329        67668.17155146        67993.59070843        81428.18763631        65715.46443149        68533.70844906         58751.5699921        61760.10084318        62338.95589232        62485.17315834         66685.0854507        69748.21294926        63914.92209277
         0.03*MaxFES =          63755.6949166        54703.95506882        52774.15306888        54772.03166751        56165.46827234        55881.09100747        61369.82721171        61192.56883904        59186.99182643        61610.69978393         62474.0040788        60263.90660418        60725.68665004        61602.06472067        55910.29286275        49655.07117694         61055.3126482        57395.75665249        54224.68559794        60836.97332827        55278.65628092        53837.05426464        56797.35235007        53484.59122946        60051.14419637        59886.92682382         62427.9965711        69814.40331654        57903.45769157        63672.17061114        58520.66898985        62640.30792403        57106.29290929           56402.91509        60122.34172116        63854.95445134        60222.18254184        59654.36514644        66135.25310777        58005.27363489        61012.37970737        65032.37375654        55842.39892647        64304.16772019         58751.5699921        57750.85262806        55550.65994662        60845.68508423        63562.44127421        63615.11515641        63362.23919114
         0.04*MaxFES =         57863.93719347        54703.95506882        52671.26200903        48270.26340034        49436.35457097        53843.60421941        52947.15306027        60154.98871712        54254.65428936        58079.53476989        56644.07774661        54324.88098453        53815.51903028        56452.53064397        54252.06204734        49655.07117694        61027.01384048        57395.75665249        53593.21429691        55761.65200457        55278.65628092        53737.99446393        56563.01766406        52007.01881052        56054.50935932        52885.01090048        57824.97936485        56351.56354931        52394.29019964        63323.78329555        55696.33810724        53780.64673434        57106.29290929        54338.18021598        58762.51890796        59945.10877951        52495.47631562        59514.24232464        57980.03498469        53949.71162336        55699.85598938        59823.85566957        53983.02581865        58197.16250783        57559.34856817        53583.31547367        54557.25509775        54550.77092091        55899.58740672        58168.47060089        53711.96636492
         0.05*MaxFES =         55680.76290866        52744.94832923        47889.65315411        48063.17206722        40844.67072602        50631.57907861        52947.15306027         57023.8542894        52173.53756495        50371.46830445        54810.66765039        51198.81317428        51880.86737045        51651.67202166        51905.28235778        49655.07117694        55203.07380077        51977.73116876        48322.72628758        50895.27875497        48460.84111613        48397.10509933        52227.49319289        52007.01881052        52970.35575119         52823.5168651        52982.59105034        51869.24048057        45670.74219404        56473.58158118        48042.89653936        50604.82224972        52786.35574864        48556.45075823         57611.9179357        58773.59300942        47986.96035735        52867.38553769        48144.93326964        46699.01239838        53385.50121357        58015.66350148        48062.46635648        51542.77941631         54494.9039164        47276.55276023        54557.25509775        51818.28284282        52549.66392152        51321.91551129        53711.96636492
          0.1*MaxFES =         37764.80528658        37788.30260944        37211.91669811        39562.18782912        37132.04024402        43380.32746362        42861.58207089        38936.88507938        42349.94978516        40446.83078912         41665.3665878        38800.46430052        42294.16222877         43455.9665581        43340.18212534        39788.32083062        40938.62872742        43486.59300387        37796.81162616        42286.21554433         40922.0993736        42378.98769315        39346.01385767        38836.30485248        42419.49566504        41088.35054844        38070.32634301        41356.43661407        39475.07521451        42550.73417881        37122.73022173        37878.81036353        41016.38609152        40090.87705196        44576.78630671        42225.71177014        41723.77139344        44861.66769837        39701.06568482        41002.43555439        40643.04089633         43271.5008574        38704.39254265        40541.92611844        40328.62911799        36426.28098926        45181.55816633         42587.8882896        40479.18615872        41816.52493359        37523.63678936
          0.2*MaxFES =         33892.24592271        34087.54273128        33937.89411066        36471.82631104        34127.48056237        37398.76488124        34480.82085551        34099.00508692        37283.10896307        34650.54621628        37003.74683229        34374.28037708        34281.50979639        37745.07238824         38019.7243653         36530.4151395        34174.06974956        34675.60355734        34527.68054886        37406.24138657        34249.41738602         37703.3428525        34197.87936564        35144.96240262        36755.35772031        34799.71279577        34519.50351687        37207.89892445        34571.77257331        36838.76982579        34177.29349236        34190.19867313        35471.31920112        34319.41296262        38676.92707971        35016.29878691        34604.00716924        37709.33305576         34776.0947393        34497.22365144        34362.30463667        35260.44307292        34958.63664857        34294.31181766        35005.56211972        34212.14740271        38284.85798398        36962.85016007        34634.23602094        36901.93367953        33859.68477853
          0.3*MaxFES =         33333.39183926        33338.76340116        33355.98561665        33077.04935136        33536.76433168        35460.75403819        33463.27178004        33507.17427105         35211.6778973         33742.4539749        35394.65582722        33531.37885972        33508.30724044        34638.44550609        35807.61537718        33355.93755713         33521.9952491        33685.14151406        33570.97119521          35349.282441        33473.50901284        35110.91294418        33481.30983223        33827.63123742        35314.89824991        33625.90521752        33580.58147032        35186.08519332        33721.24624647        35352.62027016        33424.33077605        33543.19462304        33996.96484765        33554.95372197         35866.3440403        33819.01361496        33533.41081377        35492.23386766        33668.16817283        33479.80473611        33649.19345705        33788.74060382        33826.30865875        33632.00282545        33700.95174071        33456.59916942        35238.01019831        35550.61206773        33642.32096342        34224.43231388         33368.1427369
          0.4*MaxFES =         33113.75607154        33102.56592672        33185.85245582        32121.83938381        33301.17260955        33645.20106118        33215.02901353        33231.68115314        32473.91089604        33386.56780965         34120.5123957        33222.33595919        33261.75851962        32152.66104402        32905.78971933         32138.7813151        33242.70864838        33341.63958837        33230.23742097        32576.27836172        33202.50417385        32993.81906543        33247.10687333        33375.45573776        32715.71876916        33334.38900668        33300.43637276        32584.89812809        33352.45854665        34383.66927049         33189.2454507        33222.47908556        33439.16498669        33234.59051569        33750.94101095         33386.5810546        33229.61832213        34331.96002669        33300.36023938        33199.42427807        33353.43778146        33275.90236805        33359.24531237        33324.88272827        33369.12986737        33203.58694267        33726.55253661        32518.84121622        33238.02717514        32247.22939456        33178.27922035
          0.5*MaxFES =         33034.46399655         33058.1894757        33048.35471863        31728.15304387        33110.20922996        32015.72576438        33100.02660638        33092.25915753        31895.86809435         33175.1200011        32176.09706265        33097.52974488        33118.94617705        31811.59477512        31956.69009329        31699.02399063        33133.91726774        33174.81104865        33098.02687309        31935.30320562        33082.25178038        32022.75360236         33112.2998851        33182.98970592        32049.96361964        33154.62970463        33133.88162783        31808.81146486        33173.99262364        32227.44671377         33088.3609291        33091.54790732        33207.00875216        33101.89148503        32260.40307161        33184.04222452        33086.71594975        32201.54337481        33124.71889187        33098.38162771         33179.2214395        33123.09253132        33184.06403659        33102.97483916        33178.97815866        33077.51399656         32052.8180409        31974.59040709        33161.51282559        31705.24212163         33058.5004814
          0.6*MaxFES =         32995.27011192         33005.0475223        33006.78461684        31621.11099474        33039.44213759        31718.28319841        33032.47684777        33024.98645672        31577.30514684        33081.71353664        31810.91524454        33019.06084257         33017.6268747        31620.26779028        31696.95784319        31466.39664704        33032.09481631        33060.06356333        33017.51783461        31615.50311423         33019.3397445        31640.73499481        33035.84616714        33056.95208759        31645.87648138        33058.63188584         33039.6545447        31593.37284391        33073.90349332        31703.96320773         33015.3003507        33024.16910414        33127.47188738         33024.1823273        31712.70088666        33058.25107845        33025.84126942        31762.79712422        33057.17507748         33016.1004774         33052.0882903         33054.7198833        33077.05899872        33051.18999834        33084.26008541        33005.54698206        31790.58955871        31624.10136449        33063.14011653        31552.62882377         33004.3572298
          0.7*MaxFES =         32966.86314428        32974.04973139        32972.88184081        31497.82468619        32983.30861072        31520.54057209        32990.63495775        32995.11485911        31454.14469806         33008.9107193         31521.3471195        32986.97312185        32987.53061141        31450.61165993         31508.9873047        31429.19613376        32992.74461214        33014.54585884        32974.83958789        31522.32388923        32973.32401823        31460.86214939         32995.1367623        33009.96000924        31533.69665493        33004.93487512        32985.78314212        31463.97787101        33016.50537742        31587.93093282        32975.63347401        32979.97437395         33046.2030702        32994.34626127        31570.46519417        33002.36218004        32984.89120309        31589.47942418        32996.00130111        32988.95317145        33005.88186985        32998.42240447        33011.56610192        32993.30737348        33020.96487051        32974.23882382        31499.84450276        31471.05645291        33005.18194338        31482.83719799          32967.021441
          0.8*MaxFES =         32951.89037627        32953.75793799        32955.84078342        31410.86470053        32962.28527071        31400.45821355        32965.68352395        32964.08947912        31411.36165266        32981.29608317        31473.98439471        32958.33733244        32959.39132475        31381.99686976        31406.52877128         31312.3032764        32968.42428179        32986.50431035        32958.04944695        31424.00002714        32959.11597667        31403.14875366        32960.33133957          32970.013313        31393.04205779        32970.99644619         32961.7509045        31361.51208362         32984.6829267        31480.37486037        32957.13004572        32961.79868104        32996.57211886        32971.60792263        31460.40520548        32973.93240138        32962.64899751        31448.01887016        32968.58156662        32964.15252833        32983.34409664        32971.22323117        32986.09163885        32972.19509313        32984.38958055        32952.34518682        31452.45891055        31413.62207264        32976.12210024        31387.68952169        32958.95321162
          0.9*MaxFES =         32949.68000411        32951.04484408        32947.51039592        31300.49852153        32952.90285293        31400.45821355        32954.09671648        32952.39565293         31338.3290415        32964.51740644        31349.80868255         32945.9761466        32948.27066099        31314.56504762        31347.25190714         31252.8162039        32951.19860739        32961.71179647        32948.15726399        31387.20033264        32951.61308555        31352.85488765        32949.33893409         32954.1004366        31310.37727327        32951.70551523        32950.83841349         31293.6539319        32962.90323497        31390.58691956        32945.01278477        32952.29049516        32968.79778586        32953.68302549        31391.79059233        32954.70814785        32951.46405462        31367.46321154        32953.93788723        32949.45399292        32964.06329783        32955.54992305        32962.59225912        32954.08098356        32960.76992326        32949.16498722        31352.44238888        31366.76033446        32960.26474814        31320.76402886        32947.29595258
              MaxFES =         32946.16642643         32943.2049744        32947.51039592        31220.00863239        32949.16399489        31345.80874103        32946.66638486        32945.82241706        31243.85627986        32950.98610942        31256.11522262        32942.33809992        32941.75437613        31256.69893785         31261.2545398        31233.70845936        32942.73940824        32948.61865907        32943.81964572         31289.0867898        32944.90385192        31269.78605459        32941.37091665        32947.56333256        31255.88677461        32945.26254293        32943.29539784        31251.03121477        32947.70001943        31332.82754825        32940.31647913         32948.9146563        32949.02865205        32945.58522914         31269.7775498        32949.75809548        32943.67305526        31336.44011565         32948.4247403        32943.16484712        32947.92795967        32946.58081029        32950.96329085        32945.34112404        32951.26119507        32947.09320918        31352.44238888        31265.28047174        32947.53625975        31283.99461001        32943.11202748

                  Best                 Worst                Median                  Mean                   Std
        31220.00863239        32951.26119507        32943.29539784    32390.030841480584     794.5628043282293

