 17/06/2016 09:14:59 |                  Run 1                 Run 2                 Run 3                 Run 4                 Run 5                 Run 6                 Run 7                 Run 8                 Run 9                Run 10                Run 11                Run 12                Run 13                Run 14                Run 15                Run 16                Run 17                Run 18                Run 19                Run 20                Run 21                Run 22                Run 23                Run 24                Run 25                Run 26                Run 27                Run 28                Run 29                Run 30                Run 31                Run 32                Run 33                Run 34                Run 35                Run 36                Run 37                Run 38                Run 39                Run 40                Run 41                Run 42                Run 43                Run 44                Run 45                Run 46                Run 47                Run 48                Run 49                Run 50                Run 51
       0.0001*MaxFES =      22541876367.29703     23623249576.63468    19771973136.679237     18741914351.04212    20656902775.004303    19122458150.830933    26704343634.276794    21870757788.870853     16555273997.58068     24075374074.41242     20792520408.10535    22520263808.225502    18880270673.032585      22678378195.7211     22583256513.51275     20141159530.00679     25199283259.84762     21949461810.50049     21675011447.18505     20651126203.03407    22683491187.738888    20390023344.787575     18283393063.09333     18687897273.06119    20181000733.209408     23379483816.33984    22424193175.141235     22722838901.17559    19302499900.393135     22055814390.33264    18457639434.976128    20813878288.087326     18990591774.14565    13082247565.364136     23809740991.06246     18606380152.08264     19020227081.25326     21021685725.26895    24705786231.855526     24998494745.36467    19679481763.582363     22606604162.71562     23303816972.98009     25150783316.02062     27129028365.95098    18652384173.689766    19855409757.515167    20759140409.311268     19441991650.58698    15770844602.482832    19656261829.026173
        0.001*MaxFES =     17997521093.396545     15519051506.82379    13410616574.821594     17798847888.79641    14505788971.868198    15960418591.663124     17379990226.86492    16925183693.411352    13664826531.798769     17777941520.33724    16858919278.754879    13091385697.984407    17045579992.827026    14156108125.964817     15684206844.91042    16804987004.285402    15613018472.829159    11430645701.441883    15527447987.064571    13119855938.838278    16976411452.686201     17333165480.68708      10607940847.5111    17503563605.478737    14965482643.468582    15802333838.160496    17440044638.799343    12601076625.446592     11712134665.50519     12977708432.23984    18346539639.532234    15763556853.273867    12706177559.202705    13082247565.364136    16375627508.501831    16696415854.944164    17661475754.733177    15416341010.601114    12780670608.212948    15324160925.863993    17114237977.306284     16412231970.42605    15259083728.241745    18546242599.872826     17539544336.51599    17399879320.332916     15481353929.10635    16222000862.801275      16953021611.7322    13399016389.054972    19039257498.360657
         0.01*MaxFES =      5530363533.925164       5576759170.7758     6625744507.059776     5494052946.056385     4890240139.411979     4706906797.433989     6344773099.551086      5647677265.35718      5346888385.50254     6442505354.101351     5945319940.856255     5831216336.118151     4989662235.690416     5981955847.190084     5736111097.418777     5700350058.513517     5361053186.411358      4775757570.73563     4916443524.822851     4281208383.438701      5808723794.77789     5318784741.929779     4677727350.413748     4775384922.846705     5825858063.177092     5466756519.339733     6456428888.956975     5683534842.724576     5728939850.171267     6217316194.646821     5372986987.169736     5072586591.207246     5321164776.825077     5447224909.631621     5548715514.278643      6259036999.56683     6477591747.226455     6193825544.315613     4984499291.517157     5649112846.579543     4967278848.793509     5663531220.855928     5425062098.446548     4533574028.082192    3983739596.8255577     5533879541.929511     6142290819.117976     6457732268.490347     6666686457.012511     5770170266.962369     5987714829.615966
         0.02*MaxFES =     4003656590.6462464     3571651967.822591     4010005604.580102     3571917029.807027     2972946545.951119    3764518149.3057547     4002449287.815995    3600607294.6081634    3312783611.6675363    3739463579.4709578     3641576566.513714    3538877069.1686172    3743775278.9869466     2930241442.584892     3657809763.981211    3668703048.0449476     3197736608.904253     3422756296.890118    2515910540.1427803     3589590763.484199    3434509749.3020444    3060199522.6784368     3191326753.130649     2661258103.424138    3731646523.4819684    3476198427.7301016      3212193576.31981     3461042835.480773    4034662086.8167305     3388586241.074995    3126464831.0374193     3884875739.253369    3695732991.0823293    3684307300.8858223     2911935019.685325     3891120818.819708    3650566487.2086573    3982567094.4816236    3812901571.4605513    2617325392.0881405     3728802031.276972     3423509155.423636      3788952352.80376     3760768125.957207    2600826839.3099637    3641584661.6447806     3078527025.721716     3081290727.346155    3774494252.8693924    3008645326.0353155    3283731012.0793834
         0.03*MaxFES =      3124616014.949983    2719632144.4525404    3006304772.1910357     2491588764.120044    2554638139.3515596     2729222593.443728     2811163367.835552    2773794014.4893446    2553011640.1485686    2384419254.7398868     2537359283.943075     2472691603.177988    2579260880.5330954     2930241442.584892    2447430976.9183397    3038003377.3611536    2464339932.3836436     2464393817.270877    2214929485.0655684    2623502552.4466457     2566829650.412727      2106878680.69464     2794076000.956297    2514044562.5949197    2716231409.7618585     2385721738.366803    2180358245.4198413     2261573405.328858    2566393480.2327127    1972469826.0183654    2153385864.9734945    2637786199.4628987     2882188644.800437    2437476955.7214913     2649189443.772324    2895402463.4274096     2720490749.685747     2567045946.419037    2592208640.4065638    2529924820.7316294    2111140048.0769377     2808302988.401002    2197825109.8711104     2821093574.889662     2410912216.732296     2940895255.568625     2733265955.432989    2501911475.1285663    2813638820.7471967     2601245740.525432    2056589905.8765206
         0.04*MaxFES =     2198112573.6890144    1868387933.4371347    2332898558.1116147    1828282684.4656315    2104153866.2636986     2044091230.793519     2333245230.559738    2112497506.2765281    2118205072.3036306    2384419254.7398868    1748382989.0012698    2112828772.4992366    1850900423.7268128    2127063509.6335027    1919650532.9495573    1991413516.4425807    2097049772.4697757     1975452547.207362    1757626083.5691648    2058748228.3189998    2182894861.6407022     2084301156.728704    1804965356.7642708    1638533848.7160904    2060625870.5390496     2167501044.302645    2180358245.4198413    2145221464.1049411    2152939243.4059973    1972469826.0183654    2153385864.9734945    2051776295.2715867    1781457668.7255893    1896193789.0613372     2257402581.624943    2030188355.1932542     2208596125.135752    2354788341.3717093    2073631116.7423186    1858317475.6196392    1920911047.5918639    2137273243.7948148    2029231035.8726108     1997567471.357111      1887705610.51984     2297181512.499319    2303193407.6835556    2123449171.7969072     2379083352.381675    2007877903.1649535    2004309570.2024124
         0.05*MaxFES =     2095437882.8608053    1671168465.1178448    1603065512.6598494    1707373377.6390145    1583624898.5582602    1859868165.9864619    2192735939.8496866    1762364663.1113927     1585075249.182945    1638010374.1427708     1718802924.140362    1804573188.8006628     1650059484.321181     1766936052.857957    1919650532.9495573    1658234256.0155087    1697284767.7466745    1855588733.7267954     1561099220.630466    1856043511.9149344    1928440890.5543878     1865364208.142444     1609802109.398037    1638533848.7160904    1687867387.8439703    1899378744.9488976    1886612114.9782743     1497058101.576508     1900215390.160596     1749715732.782279    1627951254.8084488    2051776295.2715867     1750656052.922408    1896193789.0613372    2041674796.4671211     1813317373.248794    1332572247.8076935    1884872773.9708037     1683002868.573994    1545318872.3903213     1880769092.886806    1976527006.3436124    1662521923.3199677     1997567471.357111    1639201607.5605328     1434669418.460903     1492846649.995514    1761924368.5696373    1254086991.5508974    1392317155.3563437     1724682959.701653
          0.1*MaxFES =      971483866.1419693     861715605.0028424    1122180302.2910287     981280303.2721425    1020499511.3591521    1120559679.8815732    1113181764.0607343      981728434.875782    1166871674.2869766     1161768024.645934      989062591.224274     896203392.9989665    1095354210.2476006    1029373865.9332178    1076509243.8524306    1078012117.8522387     985719137.8190854    1046887419.7490389     851240353.2531964      1139520541.19114    1129822367.0342488     923895054.1388346     933780169.1339697     957288962.4255707     925616038.4434034     835015632.4289957    1036386648.5818222     984336867.1673815    1025152162.3298975    1056642039.7012173     949416199.8308518    1036804192.7231164     925036383.6834236     775507538.7615917    1142038662.5939884    1108749849.6804562    1014939639.4310302    1053948823.7855166    1042521963.7948691     913670313.1624682    1017133691.4707149    1035981845.2568353    1104561944.8496995    1144554024.4309049     882620829.5989155    1228466543.0467005      851684667.616336    1180330777.7782853    1145991743.4812253     912403896.4490496     999022558.1987427
          0.2*MaxFES =      618370512.0124639     623250112.7245914    510703454.94570756     557322854.2251631     591089177.6363896      556158743.858582      625643239.540616      583325460.987292     586957700.9242045     581930404.8390297     625020250.9927698    477241365.21398896     539703710.1209072     619890561.4064842     697548293.7272506     575177739.4304938     643819261.5728049    494362376.83609873     504871519.4768058     564778114.8442975     683317707.3860707     572449742.0352261     582706234.1570194     645834152.8708532     566049486.7678956     547622474.2596682     586129392.2467235      547728289.288102     629264419.3665977     643563480.0029442     568226105.5375521     636998367.8560039      599919080.919957     554203264.3068478     595901957.1559948     613687201.9242786     589204798.6422293     596460815.0793167     596807586.2308586      547120275.049188     573188885.1340945     699571057.4042542     552255887.2938993     604586630.7594433    524252702.35411114     719006813.8187926     539431621.0879421      605344076.455988     588692580.8481783     579131425.0615859     615134381.7900153
          0.3*MaxFES =      393404688.6229841     425244011.4084619    408485457.99978995    416499641.57929623    373745268.24150926    412747825.30600923     485541919.5944187     490479625.2992951     461638593.2119999    498196595.58367366    445164264.50508285     419690209.3268273     362818509.0906977    403746873.55025005    506590050.61837304    406786010.34080774     437387313.1777191     369029308.1812429    419408582.80382353     422898759.2193061    453006271.57482827    444566249.54023296     403080971.8652623    441606147.34008074    367043783.30753297    382728788.09289634      442696021.069295    380071481.87391895     391391083.8382715    398528360.71025145     391151423.9548978     438673707.1832948     418915742.8941759    466195315.34700197    345573543.51291096    450140906.21418387    383547820.12194055    383251991.86204237     409317737.2335995     446147629.9333639    448113348.32217556    481772623.84539384    367600353.83983964    438633524.93241614    342175764.21372694     490899549.4150447    443616481.41544545     429133495.2506845        326386178.4073    408550080.34175915     420325169.5307612
          0.4*MaxFES =     291612090.25849193     340331560.1636758    267266371.51863492     338857092.0847411    340322122.93190986     321277809.8377896      361617320.350717    349044671.19396746     324324143.7267099     367405402.3544851    308505288.64612585    303836174.28702366    241915504.80227843    348464398.40460193    290991474.18195325     277935801.0048963     337561570.3648569    332522362.56022614     317457080.7159993     293818487.7772598    314835875.85888076    306946245.74608815    331809713.19129026     304372730.6514285     275300386.4456154     331388731.4965228     334665825.6641524     294210358.1391008     327663856.0865231    331074165.26010257     297622599.3570032     319788664.7346044     344934852.1400543     295378311.8012994    345573543.51291096     361188489.8925686    304475186.49581003    285457998.24575937    303462810.44474435     324345192.3152548    326073733.72928196    342472967.86305344     285031960.5320948    323573476.77148825    264986063.63002473    373116633.23514575     288032956.6981879     317435647.8192682    310109459.72698116     311980081.0017935     322676013.7704243
          0.5*MaxFES =      268628135.3378899    269997338.20560366    223016890.01641384    260113897.66260418    251716497.93182787     244824068.7471442    262487780.53305307    297629543.82166547    248653753.68344432    295413343.28804463     257300139.1263379    251959161.24296826    241915504.80227843    255434805.62634593    290991474.18195325    227651756.61422154     274045682.6876148    248782883.13302058    233958557.80902547    250470670.25155926    213894156.91658315     267645105.5890975      217376066.947125    270732165.41115993     273741052.2016995     277029303.6805876    230652186.63108122     277315484.7602567      285465898.942911    252047453.88479802     242355925.2035767     278839230.3432542     227622413.2049076    238372098.08732888    297599526.62056476     248733589.1872993    252850330.86314347    232392294.93609747    241892060.51612985    256951394.84628806      263325315.601972    261105428.48233092    240809550.52576292    260504963.77805075    258318818.96698442     283619080.4396097    273080461.08376545    267491915.57179454     276318904.8541215     250807778.6493996    247209449.86284468
          0.6*MaxFES =     144896629.55362564    223104387.94237196    223016890.01641384    211342309.52087677    223193812.87219274    207356682.85197565    207143918.55790073    227188887.45745528    208831200.10974342    213113190.15747005    218643298.25590947    218520331.68347138    164430246.70997012    200941156.48760653    258349236.61518216    188100195.01632795    227700143.69919568     173183004.1795431     165886591.3999789     205682379.1453219    206756748.77490643     186728469.2188542    208541980.88739774    195096750.44545716    226255330.66498974    231221838.38393256    216488515.22142494    208167873.21725726     201047799.5385464     216950386.2483297    195531975.71165997      166898629.906955     227622413.2049076     203172409.3886299    228745399.36637142    191581624.82229686    199839447.52525297     192997831.0523512    166668210.87064573    199151362.84364897    233959705.51276097    240643632.28775543      209427976.436376    233240752.38124096    193575063.26000196     257813246.6304403    222853710.52575508     228359600.4357544    211657678.05733934    193241857.73141202    202409736.22692847
          0.7*MaxFES =     144896629.55362564    174765324.63565755     177785076.9302484    188133878.91935393     180002150.0058566    139604369.62666664    159389231.75490364    199808876.08279008    185348363.44776112    187038767.05259052    166264361.37241676    189369282.68108854     151339393.6664313    148169090.50936002    168536991.82792267    138093280.25455993    189090900.23478615     173183004.1795431     155121488.6143557    177829484.36806703     169061000.5038934    178664178.87809038    170681087.77453122    177695492.02835497    196332829.73245677    153308986.19740874    155303294.78264108    183233108.65249926    180360844.27432045     174623844.5798312    178223052.55581668      166898629.906955     175984100.7936918    174289754.80357742    189115746.38880563    185318626.31725666     166180904.3466638    156850128.26712748    166668210.87064573    153293117.14720544     175926808.2429605    186543923.19121063    180046844.52821317    203876932.49206555    149072664.86004955     194968771.7744957    179602426.21479833    190529198.37430978    195681863.49256098    151951883.97786316     154099810.7750006
          0.8*MaxFES =     134393877.93813714     147745147.2815691    122936540.40044832     147795249.0986664    137078742.97322893    139604369.62666664    153973514.39472145    160414943.18626115     134468192.4823243    152190806.23275054     137063648.0265555     153630316.8300052    133954239.45974098    137880300.59197858    168536991.82792267    137615919.15176457     129871777.4301891    153175819.96273544    139201872.34799057     154027560.2149638    154781985.93589723    150834236.86666104    142441568.61451852    160896617.95153385     146783264.7442724    141434536.41656104     153241437.5598038    153661621.04747275    141206394.85105282     162553801.5836061    135504704.15234113    142489566.15858167     144991514.0489368    134077862.03069375     158679944.9686538     140985148.3567446    147524070.34666678    134114236.32524538    113663468.85036357    153293117.14720544     132787234.7273935     155155284.4947611    143111613.71790978    171606178.74200234     129863062.8565309    166156686.67481756    168866356.71716878      138582788.967645     166121318.2564641    145566504.21523204    137598258.39534488
          0.9*MaxFES =      107695943.8580575    126429158.70295477    122936540.40044832     130105486.9009803    125230579.94421132    127336664.24235089    123224950.47827597    134580259.15504003    107271787.26619291    132213617.06963892    124512286.14507823    126842422.04333705    113668973.99970184    119836356.68607841    164927952.89808458    123700313.83789799     129871777.4301891    111628436.53839007    104327375.52657706    129047469.22716245    105302960.31635225     136126777.1558748    120069376.07729453    122390333.99936062    134675096.75498173    117182731.95318227     119287706.0615134    133554163.83922784    130315522.30074891    135317240.72073355    105103603.19640757    136536431.88565046    140059794.99630415    120973384.61082391    133697599.94272672     124151469.1478367    110984845.02607499    113437213.85172434    112404055.39372033    123258490.99187513     132787234.7273935    138986428.74781537      137513082.494438    125671187.91988593    121398081.38421668    134900354.47484633     133134378.2817641      138582788.967645    145120704.94069174    124967827.11630496    120173694.33639452
              MaxFES =      107695943.8580575    116672287.28779358    107061423.02071096    115818844.02900837    121660110.12448737     88376440.04194942    114357010.53340529     113227589.1210191    107271787.26619291    103531689.21514937    103853212.22352381    109690823.17027739    108386459.92608246     106671058.6712201    134708083.26027238     99066671.88714507    118854195.42587313    100121417.37135342     85689288.78663813    112720281.07781006    105302960.31635225    108400808.96077995     88127419.81704137    115465588.45268893    119521934.31764516    117182731.95318227    103291899.74240835    104046041.15822653    107853068.32848594     92164266.37317501     99966986.12169361    109749169.86900103    114603345.51333748    108318956.07591955    109452097.55345424    113048848.68593612     95856382.03864594    109842241.55345385    107994446.93704413     99656441.66461833    124857441.95061451    114682097.11145936    116719609.22393553    107505560.53682077    104156461.08476065    112661380.18148938    112797121.10246436    107115654.79080538    110062707.21349408     100940876.0301244      84040482.4075724

                  Best                 Worst                Median                  Mean                   Std
    8.40404824075724E7  1.3470808326027238E8  1.0831895607591955E8  1.0785920869342354E8     9628311.439485028

