 22/07/2016 17:33:59 |                  Run 1                 Run 2                 Run 3                 Run 4                 Run 5                 Run 6                 Run 7                 Run 8                 Run 9                Run 10                Run 11                Run 12                Run 13                Run 14                Run 15                Run 16                Run 17                Run 18                Run 19                Run 20                Run 21                Run 22                Run 23                Run 24                Run 25                Run 26                Run 27                Run 28                Run 29                Run 30                Run 31                Run 32                Run 33                Run 34                Run 35                Run 36                Run 37                Run 38                Run 39                Run 40                Run 41                Run 42                Run 43                Run 44                Run 45                Run 46                Run 47                Run 48                Run 49                Run 50                Run 51
       0.0001*MaxFES =           144.59687693          177.75069839          206.36864214           180.9679268           208.4199003          165.80152964           231.9899019          220.61960014          155.66385824          151.83020879          171.14437364          166.67849409          171.87675925           285.5528001          271.48606976           165.8316902          198.97533975          201.58380126          199.16738697          201.61437696          189.41921299          166.58527832          203.98651847          172.77727697          176.98296981          278.83172869          183.20231995          214.27595172          295.24742833          239.15346144          188.04064687          208.59450924           205.7559947          250.39172541          253.74337658          158.10684753          194.86131069          236.84191162          164.34706106          251.67860471          232.84287486          203.06262146          199.01305856          203.13967555          177.33439582          166.66731442          168.83279824          172.84054234          254.53568284          290.08918729            212.317289
        0.001*MaxFES =           144.59687693          166.16039743          143.54515158          164.29947517          160.76045225          154.00152186           147.3025749          178.39493689          155.66385824          129.74962933           163.8269328          166.67849409          161.49101506          142.92539491          148.64044588          140.51167654          169.50738318          155.17711519           157.0836492          161.42014793          155.02294112          141.83447042          169.19445918          166.95560955          162.83624242          154.21243258          157.62522166          181.13499643          168.00830449          155.96539957          159.79452422          168.91069429          164.85258205          154.90733987          164.82098649          158.10684753          166.41920179          163.37575818          164.34706106          174.05223104          148.92744003          133.97049389           162.5982615          180.12026807          147.83902097          166.66731442          156.86859453          161.46136706          164.00667234          145.91029621          168.48302816
         0.01*MaxFES =           144.59687693          126.77930641          141.34085882          153.56005518          156.02467448          138.84921443          144.37664056          142.56351881          144.49404175          129.74962933          132.94634925           137.1238517          137.12770917          136.98731172          138.35765578          140.51167654          144.61843237           146.5232826          156.72095909          130.25681184          144.92179206          141.83447042           138.1072109          133.78169982          150.99837494          146.01114137          141.23185626          139.58708373          151.47119411          133.07916068          136.35123891          138.74592418          134.32542091          138.75725373          138.91233098           143.3518224          150.33863304          148.47264835          148.99509357           139.2179477          143.62227843          133.97049389          151.71342166           138.3915576          147.42533424          141.36596009          143.60634466          146.22741253          143.86920221          143.83537676          139.98026692
         0.02*MaxFES =           139.97015246          126.77930641          141.34085882          140.35030143          139.20363413          135.20014793          138.32624133          133.65704021          136.42192734          129.74962933          132.94634925          131.44078397          137.12770917          132.38764707          138.35765578          140.51167654          138.35529825           146.5232826          135.78793394          130.25681184          140.57135103          140.35387676           138.1072109          133.78169982          139.64954004          133.45574249          135.99564717          139.58708373          142.79886267          133.07916068           135.5307021          131.02130909          134.32542091          125.97561352          138.91233098          126.96181015          131.39904051          140.37898601          142.33261233          135.78056844          139.53699183          133.97049389          135.65381715          137.95572447          140.31945948          134.61349167          135.12765767          133.85842678          132.04045483          136.35668742          138.97705822
         0.03*MaxFES =           134.32748278          126.77930641          130.78205802           130.0900088          128.19467625          131.87724522           132.7486569          133.65704021          136.42192734          129.74962933          130.64880974          131.44078397          137.12770917          132.38764707           132.6053347          123.00645398          128.72686942          134.07712996          135.78793394          129.28828645          132.81215261          134.32156775          126.77367832          121.90909554          136.21686831          133.45574249          135.99564717          137.97365589          132.90044482          133.07916068           135.5307021          131.02130909          123.11306956          125.97561352          136.55926784          126.96181015          131.39904051          134.68257514           140.3793771           133.2577652          132.05486043          133.97049389           131.3765848           131.5421167          139.11472901          120.89612257           134.8241034          133.85842678          131.13775299          136.35668742          134.20088993
         0.04*MaxFES =           131.56352203          123.39458009          130.51346139           125.2599567          122.04671706          131.31902722          132.14450668          133.65704021          136.42192734          121.23068402          128.80989885          131.44078397          132.04043756          132.38764707          131.36079616          123.00645398          127.54752023          129.42056887          126.79125516          129.28828645          125.60763479          133.43915391          126.77367832          121.78334126          126.42559949          133.45574249          130.74408034          126.56848859          125.56672505          131.42264235            121.751677          126.26676437          123.11306956           125.6188743           134.2623847          126.25748761          123.90566155          132.96432943          136.89170065          131.50008687          130.04105884          133.97049389           131.3765848           131.5421167          130.42592946          116.61822908           134.8241034          133.85842678          131.13775299          125.94527202          128.06435503
         0.05*MaxFES =           124.73192432          123.39458009           126.8422141          123.29643985          122.04671706            128.742366          128.55808294          128.81627619          126.49767777          121.23068402          126.73195596          124.38248922          127.29654296          118.61439019          122.05964444          123.00645398          120.76116111           127.2241249          121.01184623          121.41610937          125.60763479          123.41304291          122.18449914          121.78334126          126.42559949          126.92628709          127.84683402          126.06423559          121.81374481          122.22981346          121.65579722          124.98730714          123.03187635          114.01547798          122.35903879          126.25748761          123.90566155          123.71439951          125.36274969          123.17471801          126.45261372          130.66488745          117.35632774          125.43542824          128.31448088          116.61822908          131.86760914          127.06638468          131.13775299          125.94527202          128.06435503
          0.1*MaxFES =           113.19087609          109.70231342          113.49184979          113.02228079          114.81715096          112.70282376          114.51058571          114.17698855          115.21975194           110.8075092          111.58475372          115.22528131          113.78189152           113.1511955          112.65830979          114.06084063          110.84459639           117.3004259          114.39058614          113.08483391          113.08964275          112.12856982          112.03413902          113.18415941          116.52046327          112.00660148          111.63684954          110.05003257          114.55317877          110.60218395          113.26005016           114.3215342          114.06242644          113.47716739          114.68291198          115.28937332            112.147077          117.25636788          112.04604194          115.02510193          114.72309542          115.34553022          114.73374214          110.73923591          112.92712933          116.61822908          114.42543505          117.05070705          114.42365982          113.11468877          112.30398131
          0.2*MaxFES =            105.2192956          106.74922447          104.18314819            106.693332          106.27469391          103.19399947          106.69002511          108.00401619          106.23530372          106.15409392          103.96009237          106.79565004          106.43775388          104.03762418          105.61841243          106.14814741          105.14575579          107.48947405          106.49299738          106.97378116          105.69104278          106.96987277          105.54152337          106.38629008          106.85586045          103.38395642           106.5612356           106.6664776          105.95844777          107.10094993          105.96731187           106.4523366          105.31144229          107.24701701          106.94662733          105.77852145          107.06667244          107.01589455          105.23905484          107.34892137          105.38591363          105.12555113          106.88970418           107.5549341          104.76298715          106.06073896          106.76213524           106.4797875          107.69305347          106.63038948          107.46225052
          0.3*MaxFES =            105.2192956          104.87988873          104.18314819          104.97581421           104.7810134          103.19399947           105.6922149           105.3422174          104.88724595          104.16808363          103.96009237          104.95376736          105.41010707          104.03762418          105.61841243          104.70465527          105.10058816          105.34102873          104.57728754          104.77402817           104.0011403          104.19390764          104.87133435          103.91160995          103.91499933          103.38395642          104.95387067          104.77052144          105.02049081          104.46348053          105.17236165          105.18151793          104.29935629           104.1465272          105.28361384          104.10655365          104.28609808          104.94556002          105.23905484          104.91788387          104.78680683          105.12555113          102.74052292          105.75510703          104.76298715           105.2472314          105.74967019          104.94663629          104.93658835           105.4216065          105.76960042
          0.4*MaxFES =           104.72420297          104.19765881          103.75201589          104.90659435           104.6176132          103.19399947          104.33323151          103.88201153          104.65685175          104.11596085          103.96009237          103.98630312          104.35643662          104.03762418          104.42844623          104.63082562          104.43182084          103.49065417          104.56934354          104.35730371          103.55335571          104.19390764          104.34599164          103.91160995          103.91499933           103.0693656          103.22170339          104.77052144          104.58522013          104.46348053          105.17236165          103.64007663          103.70799319           104.1465272          104.12471002          104.10655365          103.42766864           103.5859226          104.86845626          104.67066855          104.06555692          104.82831023          102.74052292          104.02041761          104.76298715          104.43915846          104.27095029          104.42057527          104.93658835          104.43184941          104.88229676
          0.5*MaxFES =           104.31942252          104.19765881          103.64028955          104.62877609          103.74204113          103.19399947          104.33323151           103.7308555          104.65685175          103.60621906          103.75001908          103.98630312          103.53398856          104.03762418          104.36109002          104.57750023          104.42422825          103.49065417          102.75651314           104.0429605          103.55335571          103.49936183          104.34599164          103.91160995          103.91499933           103.0693656          103.22170339          103.56619455          104.47798961          104.46348053          104.29244985          103.64007663          103.70799319           104.1465272          104.12471002          104.10655365          103.42766864           103.5859226          104.19240049          104.48901962          104.06555692          104.24205955          102.74052292          104.02041761          103.48028171          103.99371094          104.27095029          103.46176258          104.93658835          104.20620584          104.53812879
          0.6*MaxFES =           103.35257109          104.12117672          103.19834187          104.62793501          103.74204113          103.19399947          103.94298644           103.7308555          104.35759917          103.60621906           103.2152547          103.98630312          103.53398856          104.03762418          103.34628047          104.57750023          103.14347469          103.49065417          102.75651314           104.0429605          103.55335571          103.49936183          104.11904776          103.87617463          103.91499933           103.0693656          103.22170339          102.97668878          104.09463461          103.93214491          104.02698676          102.41059551          102.97779892          102.57125149          104.12471002          104.07340823          103.42766864           103.5859226          103.57112414          104.19235019          102.73743659          103.56508096          102.74052292          104.02041761          103.48028171          103.99371094          104.27095029          102.45726981          104.12312227          104.20620584          103.94157099
          0.7*MaxFES =           103.35257109          104.01163149          103.19834187          103.48997816          103.74204113          103.19399947          103.94298644           103.7308555          103.83260449          103.60621906          102.58943165          103.63243537          103.53398856          103.25031398           102.3745829          103.28761226          103.14347469          103.49065417          102.75651314           103.4770624          103.55335571          103.49936183          104.11904776          103.36642043          103.91499933           103.0693656          103.22170339          102.97668878          103.97135526          103.93214491           103.3933253          102.41059551          102.97779892          102.57125149          104.11270458          104.07340823          103.14717773          103.36135109          103.57112414          103.55825089          102.73743659          103.56508096          102.74052292          103.78556564          103.48028171          103.99371094           103.6862896          102.45726981          103.73422306          103.97235099          103.01789938
          0.8*MaxFES =           103.35257109          104.01163149          103.19834187          103.02524131          103.74204113          103.19399947          103.94298644           103.7308555          103.30433068          103.44437728          102.58943165          103.63243537          103.17450673          103.25031398           102.3745829          103.28761226          103.14347469          103.49065417          102.75651314          103.41295986          103.55335571          102.51503368          104.11904776          103.36642043          103.91499933          102.95801489          103.22170339          102.97668878          103.96895966          103.93214491           103.3933253          102.41059551          102.97779892          102.57125149          104.11270458          103.91623946          103.14717773          103.36135109          103.57112414          103.35978796           102.1626121          102.73712162          102.74052292          103.78556564          102.61722474          103.79357957           103.6862896          102.45726981          103.73422306          103.97235099          103.01789938
          0.9*MaxFES =           103.35257109          103.19522073          102.77161106          103.02524131          102.79019836          103.19399947          103.94298644          103.53418732          102.85384931          103.44437728          102.58943165          103.63243537          103.05912123          103.25031398           102.3745829          103.12357922          103.08878355           102.9554708          102.75651314          103.28269136          103.55335571          102.51503368          104.11904776          103.36642043          103.91499933          102.95801489          103.22170339          102.97668878          103.96895966          103.69789269           103.3933253          102.41059551          102.97779892          102.57125149          103.66138611          103.84659098          103.14717773          103.36135109          103.57112414          103.12001931           102.1626121          102.73712162          102.74052292          103.11550904          102.61722474          103.38051002          103.06599223          102.45726981          103.73422306          103.97235099          103.01789938
              MaxFES =           103.35257109          103.19522073          102.77161106          103.02524131          102.79019836          103.19399947          103.93712144          103.43965307          102.85384931          103.44437728          102.58943165          103.63243537          103.05912123          102.92674891           102.3745829          102.74814663          103.08878355           102.9554708          102.47799158          103.28269136          103.55335571          102.51503368          103.63883352          103.36642043          103.91499933          102.95801489          103.22170339          102.37605043          103.75131054          103.69789269           102.6988363          102.41059551          102.97779892          102.57125149          103.66138611          102.26254057          103.14717773          102.06863791          103.57112414          103.12001931           102.1626121          102.73712162          102.74052292          103.11550904          102.61722474          103.38051002          102.75676163          102.45726981          103.58560915          103.90908294          103.01789938

                  Best                 Worst                Median                  Mean                   Std
          102.06863791          103.93712144          103.02524131    103.04122260882355    0.4859342833824664

