 24/07/2016 21:05:49 |                  Run 1                 Run 2                 Run 3                 Run 4                 Run 5                 Run 6                 Run 7                 Run 8                 Run 9                Run 10                Run 11                Run 12                Run 13                Run 14                Run 15                Run 16                Run 17                Run 18                Run 19                Run 20                Run 21                Run 22                Run 23                Run 24                Run 25                Run 26                Run 27                Run 28                Run 29                Run 30                Run 31                Run 32                Run 33                Run 34                Run 35                Run 36                Run 37                Run 38                Run 39                Run 40                Run 41                Run 42                Run 43                Run 44                Run 45                Run 46                Run 47                Run 48                Run 49                Run 50                Run 51
       0.0001*MaxFES =    8.202869628614342E8  1.0118554031311573E9   6.055174626982869E8  3.8740201374331445E8  1.4203332793146162E9    7.05125675628562E8   2.064329498984895E8   7.074961303725155E7  1.9958651027880663E8   8.486165452851847E8   5.372910248484665E8   4.709360920524644E8  1.0286587574624892E9  1.2569373536354032E9  3.8667947734017193E8   6.355331770375868E8  1.6202007869672318E9    6.10257584619816E8  1.6106729916033087E9   7.685773780571167E8   3.827175552491381E8   4.995902745691248E8   7.866532961806443E8  1.0206403613733326E9   6.854905195954909E8  1.4931004459318694E8   8.181374594303435E8  1.0159937254358698E9     3.9037611493933E8  1.6520658965791943E9  1.4073411974875448E9    1.29257950498241E9   3.883720417700582E8   5.091785481260897E8   4.748276963031322E8  1.8114993148689551E9   5.693574562046415E8    7.86786639920605E8    3.40005850345885E8   6.832335557265533E8   4.492192369976869E8   4.459228688963794E8  2.1723422373254701E8  2.2911975638780565E9  1.7510807487373406E8  3.1117267313814265E8  4.8206454443935686E8   4.477185093387768E8   5.558297330824698E8  2.6055951885878763E8  1.1450070477460747E9
        0.001*MaxFES =     1.15432006937668E8  1.9801456503361607E8  4.1760086250103986E8  1.3962963811440507E8   5.238879556341314E7   8.382877093080105E7   4.847847155605629E7   7.074961303725155E7  1.1603852424151628E8   4.580371975164636E7  1.2096701290425365E8   1.259594335380341E8  2.0260396424668983E8   5.775438428391973E7  1.6470954579415277E8   1.688905912624005E8  2.0911488125894403E8   9.098988727854495E7   7.005890054171693E7  3.5891636215726674E8  1.0112138540665945E8   4.890671535266214E7  1.1426953669811986E8  2.1643350259156328E8  2.9051516441743857E8   1.433423963790167E8   2.744788239492254E8  2.7768362388731855E8  1.2170758656680124E8   5.939288442098823E7   7.783220347777063E7   2.746097739111456E8   1.402020479746501E8   6.021609707161106E7  1.3308943072882548E8   9.815898929351208E7  1.5980459270683473E8  1.7604690192192408E8   6.083409752923016E7  2.0781191964540064E8   8.213167330988944E7   1.410018889566482E8   8.625216014225218E7  1.2982564971279052E8  1.2612146484755383E8  1.8489719513832122E8  1.2236056367139696E8   3.115902082117634E8  2.2228151284463894E8    1.74986181184176E8  1.4535284449714255E8
         0.01*MaxFES =    1.293422713128568E7   2.100780681361091E7   2.066525109026434E7        537940.0320149      5403583.39974034      5863868.39462283      4942497.63172876       821383.91838251      4005503.86353086      4644578.11704076      2722139.11911005    1.75920910688964E7      1886692.19230804   2.228023725519617E7      5032251.51775931      4895981.95070908   4.041422038110694E7      5807479.22213748      4165440.64145539        2522797.378787   1.070118070060789E7      2799806.25959508    2.09548745368095E7      4255360.19337854   1.624783949091648E7   2.396286870430574E7      5627354.48889235       7974905.2953931      4578756.75717072   1.396529178737985E7      6410796.48627444      4681977.86620152      1591343.87029118   1.467793827915007E7      3885091.77769633   1.231718677741964E7   1.369461949667995E7   2.037483921057217E7   1.460106931508808E7     1.0991783682114E7      5490989.81785166      7221010.50929403   1.307582044536346E7   1.197798107764936E7       684033.62164179      5661298.03733809   2.667521462286209E7       699522.11715488   1.351763031608679E7   1.012425327503231E7   1.034753068647405E7
         0.02*MaxFES =    1.167065541886871E7   1.534309044567683E7   1.337569153303367E7       432213.82706336      2909896.89799438      5668793.56446616      4562546.77672344        618344.8356374      3663290.30586757      4014371.67532954      1495056.92303455   1.484061822130873E7      1160382.44514849   1.014795688198545E7      3423651.82532755      1488715.83495225   2.958917328545529E7      3879567.93787498      3388205.16248754      1545129.10383301      8114506.19462307       2413969.3766459    1.53649915615416E7      2883652.37441872   1.098905075995031E7      9719994.59996562      4219482.98621531      4550553.62238613      3896234.90031302   1.023256379068149E7      4959623.57685415      4396375.47889536      1239829.53093047      9850180.70140563      2633306.80832715   1.099673576484412E7   1.052858612308887E7    1.14180691675683E7   1.327508674162771E7   1.022850460142626E7      4547402.25892286      4237624.40782767      6310151.48170009      6805482.45464459       623615.82504207      2761672.94797154   2.039101796767275E7       508990.79852729   1.004532422872979E7      8640258.02435905      9215924.41293546
         0.03*MaxFES =    1.101564080904372E7   1.398260388771109E7   1.020554199050951E7       427258.77424049      2448332.93105638      5505344.68186979      4357622.06360432       611667.12999131      3309338.74784398       3799123.9238451      1180161.41402642   1.321196250591507E7       984076.74762041      4654220.94154673      2130689.46282583      1169679.81457521   2.561999295830918E7      3088820.64126448      3092886.32999799      1372411.66796611      7245981.99357556      2195992.15486965   1.293651184185366E7      2430921.61134898      8734971.58554835      4767010.98311666      3839617.77272131      4147796.19772764      3444595.85568831      8052809.75357375      4273681.65375499      4104438.40480726       845733.21502469       6308389.5191416      2433121.41122038   1.034402933920649E7      9228633.84578976      7572463.18152122      9588169.30703726      9775528.09914946      3919997.09065173      3711523.18061675      4760706.05387604      5693305.77231515       611604.95990472       2401223.3738728   1.836210314989666E7       296480.85776062      7811577.31744298      8038589.51363654      8712108.04864098
         0.04*MaxFES =    1.029108599563623E7   1.280903278393905E7       8579724.3072607       425905.24925474      2169050.14577998      5249892.91548967      4205674.00364298       607160.23403599      3235831.05146876      3649062.04461388      1076588.87004862   1.246877359007587E7        942967.7538719      3737325.31063917      1693438.75920398      1069531.51866791   2.131843216463454E7      2211434.38321034      2937741.81796145      1322057.43956183      6822634.23958339      2045829.36519092   1.213898841116498E7      2201355.29315575      7134399.54904691      3671997.20095024       3309374.0297654      4070176.54204151      3247835.14604902      5910762.82598767      3767044.41401705      3571147.40925968       665466.14993414       6051784.2666957       2317026.9208985   1.012392489090931E7      6765644.85805552       5786268.5395442      8643276.83123736      9039678.33510676      3530751.51846457      3304583.37623539      3767171.45525946      5150521.62984859       605678.53281464      2165296.89228473   1.733427979383148E7       163846.86907838       5552073.3080513      6917722.87905177      8175534.88478585
         0.05*MaxFES =       9748296.49360007   1.228836005137908E7      7764216.78099045       410545.71538262      1708215.58166162      5016028.95269974       3689901.9675518        603261.3859202      2981778.17036478      3467176.30407622          887963.12022    1.15370437538869E7       873835.18880995      2834948.71637838       956761.40478861       961531.29260913   1.915254909664857E7      1525402.96060082      2659043.62931344      1314177.11571517      6006896.56038213      1952121.45060776    1.08793440427227E7      2008440.57605932      6521937.44338498      2738011.83771229      2772755.08993453      4038941.56266652      2792979.98447293      5408138.74447629      3131019.73009814      3202930.36695677       656200.48899243      5132884.09956426      2135125.00744607       8706081.4728961      5916331.66101731      4743080.22946023      8156337.68606293      8781172.03969978      3127004.30454768       2883803.4276181      2941233.41197292      4730108.80678059       593154.66944504      1392677.10365239   1.610236197389287E7       156854.00100416      3142267.15710648      6550568.70166837      6565634.10056265
          0.1*MaxFES =       7803018.15355765      8615735.25180968       4749709.8519493       388817.65036774      1065721.21085673      4425994.18663093      3204766.28750374       588799.54633269      2746217.35189971      3127517.00181391       438951.62080524      8272821.03281194       701428.70295479      1992639.69289105       728752.17071706       371907.17585444   1.301652454962113E7      1256152.47739795      1966478.81128062      1274880.11143922      4814008.12171503      1588730.31923775      4102402.19992529      1053759.87046904       4083199.5365234      1389598.48718519       1810045.0116424      3815998.15574266      1951386.88972779      2851564.03841139      1957643.43170203      3040291.76087053       248479.46885575      2597428.14992615       1832747.3614448      7391981.08936004      3996340.76552331      2288044.43949976      5278481.63749321      7549023.82959931      2459562.68699291      2065923.58909576      1918270.90354923      2318584.16779701        542963.2128497       749574.17187272    1.36226129811365E7       152803.91300824      2638638.79967453      4265130.59781735      4299868.28893758
          0.2*MaxFES =        5334557.2765059      6626997.14755245      3832378.39279436       364708.83267895       499125.54100642      3912780.93390513      2760678.36792023       571448.71802242      2153564.99600838      2784116.69892089       218682.64757512      5922306.95729495        555969.3440107      1595931.92392497       660482.20345763       306097.97579835      4893107.57082681      1049359.16212893      1609005.53817057       1216835.5575109      3633625.04016936      1216783.84318817      2124433.24172809       624429.92095376       1359070.9126799       740950.10295016       968393.67024674      3327332.49375662       932615.19161252      1308166.65384874      1332869.03343538      2811865.91464787        173010.9552547      2310859.99279964      1572004.44844153      5215372.88323503       2713280.8464562      1641946.89534474      2999068.69523727      5590890.22286125      1920029.03674904      1760049.56943585       1577974.8506824       832661.64606795       503057.44742813       442150.18263435   1.090963533959064E7       147576.23319363      2163912.19763028      2376913.24652614      3590736.17951389
          0.3*MaxFES =       4669616.20382991      5431662.86664506      3412927.67265856       350069.25681239       339857.43950984       3557331.7269673      2524915.53440841       556223.81942144      2013899.20863559      2431482.95834147       205806.67682066      4750310.55454157       511770.20245958      1463837.71171851       598473.14233264       272529.66535426      4142886.39698079       910687.95310629      1326030.16193871       1162885.6109934      3065887.18575393       981219.57639359       1535208.5248063       509484.26686402       553689.80383258       587260.98643316       716292.58502647      3046947.31050664        548230.7301631        921319.6035197       910287.77370892        2718662.435847       144507.51802912      2017441.49760206      1418760.11276801      4324891.13798903      1827820.35134457      1195035.48308754      2271091.57607593      4500725.18045036      1706530.36069708       1489903.1564237        1433332.378462       601603.68629826        484268.7054049       233181.51530636      8798341.24599221       145434.71105327      1972197.77946535       1662248.2964285      2987314.51812738
          0.4*MaxFES =       3983310.55857533      4819409.64913755      3168019.06165855       343032.59543957       253826.17956502        3382259.895035      2281061.37897811       544635.39837702      1634487.07577315      1980169.92582591       199373.86930046      4046015.36661312       458706.91698602      1361231.19474336       572749.79317624       248253.11518474      3289162.45105553       820727.76323013      1154523.63397198      1121288.83691355      2641465.50265711       821207.97831386      1174300.08000352       416478.34439922       378432.94720604        567793.3317767       583079.29286249      2710231.25547827       441002.18232867       717178.90755461       794777.99042958       2606729.3326786       129892.11095721      1881873.87573355       1287336.6765154      3760047.49116554      1608530.68427595      1043337.52969845      2056387.04322783      3920059.25377919       1562400.8048466      1417199.34859342      1290417.91360498       408382.62627687       462907.20117001       161377.06425751      7389145.45834609       140546.80276903      1821584.99443368      1334998.38062127      2671579.18328707
          0.5*MaxFES =       3462212.07834984      4106053.96751632      2965377.91076337       332372.98933611       188552.44168679      3201558.93109648      2065016.44939932       527698.72285725      1509028.19789788      1876075.61180836       193315.32549955      3350691.28659677       435529.39332306      1262481.17601383        535607.4264336       241385.96794212      3055549.85024289       776561.60846405      1076376.46740517      1077946.49142062       2415267.1784111       755500.67340376      1051722.48429443       320291.97492217        321667.7669069        548437.0433513       497375.97800423      2451710.72146439       389902.75434769       601501.85464094       742435.13448346      2499347.83893801       115918.23407976      1762056.03812177      1178028.19058021       3476352.2044637      1447337.01942879        946674.6586837      1785423.47804435      3438380.86744806       1457180.1909689      1348824.31316382      1191603.46631663       333818.16567311       399468.85335888       117828.75977881      6177558.16295766       138565.23106909      1580837.73352212      1181292.79876883      2548988.83119158
          0.6*MaxFES =       3073726.44344536       3758507.8484305      2727427.16473663       325591.83278475       167721.66220724      3042229.20001457      1912164.77621316       513919.25671586      1400913.76187926      1712880.65346096       190512.01065596      3031560.50986855       411069.29105149      1185686.29094866       498524.49752252       236450.21180004      2695909.78077269       721473.89370537       979737.20242262      1020516.64833135      2164487.51473443       721985.05785708       997968.33912934       302751.76281371       285722.56763623       535331.24496248        441404.7848028      2252895.57877571       359171.45133183       556764.64494018       714613.90092629      2420940.59004984       105439.48836443      1653973.07306984       1068925.8020608      3186047.79335647      1345351.60578289       891171.55605281      1653700.99748457      2866554.40077929      1367547.47579628      1272139.45476451      1067858.97371954       287517.88088188       390154.61473064       108578.38384762      5367477.28787125       136894.54546881      1484786.37144046      1108515.11967245      2452661.46727339
          0.7*MaxFES =       2844609.50526167      3281587.87873652      2528459.80357877       319471.01453902         149380.018177      2809779.25481323      1803274.10012525       509374.83282741      1295415.47508626      1438397.71736841       189399.71574723      2775524.50432094       394155.06403451       1111533.6876118       479797.45915866       227739.52479835      2312720.95007009       684035.68117792       887372.23811687         973909.280942      1992670.24074208       684581.82208898       936500.63071949       287316.10506115         267016.690483       524149.51067361       392989.41179701      2040053.22595884       331824.29011149       479933.10367487        696233.2763022       2335046.4066699        99659.39726373      1559813.62212581      1002177.45951347      3002685.33578878      1246156.51626515       814185.51029151      1567609.87781902      2547960.84427096       1158778.1666182      1208828.42633349      1009294.71737905       262364.54380571       381208.93481561       104828.24249918      4873312.19522644       134882.48982765      1400141.03238965       992054.20916749      2278802.58754468
          0.8*MaxFES =       2516442.97084849      2982812.43470026      2339110.44725453       313924.96182648        139870.9846886       2702462.0301072      1602824.43192383       497358.58404858      1219950.01036218      1336641.17653458       187753.44418177       2270711.5765881       382840.12181791      1013833.08829869       452813.84808173       222666.33255294       2146103.5579442       657076.95218806       838632.14702052       933375.19540133      1895066.76509489       652331.14390742       911317.78236924       280077.25709306       250909.87396748       512911.78407562       352555.97757557      1904738.27148459       316274.15899663        457312.6148795       670822.15292571      2262261.75660044        94721.24135446      1483007.63190236       895581.12358146      2833334.76431768      1166371.42092823       759275.32591901      1434049.55827224      2321165.35604496      1081200.74285133      1160240.04683931       956352.87224792       235288.76652749       374653.41954854       102117.73168081      4165312.37300359       132403.24158037      1324593.20058811       939350.01580227      2185691.10273512
          0.9*MaxFES =       2337341.58432215      2622717.01381419      2196272.65631546       309190.50790933       132405.76333416      2594311.12260772      1500070.32757478       491262.67111491      1125616.18158708      1259341.54620015        185686.2500125      2100588.11157942       373368.00298585       961721.56542524       435338.57600757       214435.07185443      1902883.74999471       633076.37286922       783327.34494597       891390.64899981      1778199.90462336        633991.7258118       868114.48461126       267381.79984647       238831.17426737       497336.44197287       328267.73327127      1708968.92137883       296440.40087415       445769.07646122       650258.45156077      2189338.87999233        91660.29882401      1401682.10615367       808941.56258382      2613919.41511641      1097339.13044195       729912.20613741      1346151.92583761      2126547.52286392       1003500.6451639      1110017.79013695       904522.15241602       213730.63332982       368165.98362058       100538.09100492      3628612.91084583       131358.16197498      1222053.75743738       888755.52790885       2109597.2465306
              MaxFES =        2148941.8879718      2404861.51512626       2039971.5322092        303186.3245164       123753.78779133      2476387.77333117      1400742.45180953       482597.53807288       970994.64128443      1228409.05395785       183984.79765286       2010828.0100664       361811.48652503       917217.45417016       413127.00866751       211401.86118582      1780098.64120739       612031.05634321       740246.31031802        836912.2073552      1678481.05019988       607636.21239107       842002.35022189       259375.82617833       225187.97726784       476834.55349686       309073.70397935      1625240.52732995       276833.65438067       432947.07241414       636275.09120349      2116922.37721265        89188.75828967      1344846.48705239         772394.570486      2479617.89022965       1020984.4174956       705980.66796601      1262118.75819956      1976904.80709794       948166.59136292      1059016.37291756       857694.51655482       206513.28376042       362809.74993979       100179.22318852      3347466.46709537       130367.04306751      1138192.45823788       833816.57426376      2032773.59314459

                  Best                 Worst                Median                  Mean                   Std
        89188.75828967      3347466.46709537        836912.2073552    1015751.9209056577     786181.8847016562

