 24/07/2016 22:09:38 |                  Run 1                 Run 2                 Run 3                 Run 4                 Run 5                 Run 6                 Run 7                 Run 8                 Run 9                Run 10                Run 11                Run 12                Run 13                Run 14                Run 15                Run 16                Run 17                Run 18                Run 19                Run 20                Run 21                Run 22                Run 23                Run 24                Run 25                Run 26                Run 27                Run 28                Run 29                Run 30                Run 31                Run 32                Run 33                Run 34                Run 35                Run 36                Run 37                Run 38                Run 39                Run 40                Run 41                Run 42                Run 43                Run 44                Run 45                Run 46                Run 47                Run 48                Run 49                Run 50                Run 51
       0.0001*MaxFES =           761.44167036         1307.88545199          573.99237522         1175.80987104           839.6304299           698.2137803          575.43927401          812.69982122          596.29917692         1129.30172751           554.6232387          793.40879795         1244.00710629          963.62155778          791.92498543          926.00717253          821.17444951           950.0592087          687.30290116          909.78565677          713.60517333         1029.50007715          705.68541736          708.34554035          838.49017005          765.31242308          877.46602022         1063.18636447         1062.74051554          827.62638288          993.27064365          1109.7854179          763.92403959          702.99849007         1076.40092154          923.69365291         1054.06124388          341.28573378          862.26902087         1035.64828015          990.80119219          965.42456533         1017.05363816         1216.98775617         1013.31387201         1084.22260172          787.05712255          908.82466288          987.95009663          703.34295886           852.4842409
        0.001*MaxFES =           416.91348868          630.88866052          482.21038354          696.37430556          538.31407486          520.25005243          480.86585329          590.99014082           441.6177729          506.86349982          411.32183568          456.91426862          522.93492201          558.49790596          448.65689728          529.86420127          633.77850621           633.9794156           516.3477164          494.21563754          543.95983789          472.70320803          374.71288404          444.18704091          552.66793463          655.01378619           520.0762246          544.34374883          581.83816768          527.95363379          551.84641461          429.01671861          520.84169951          486.34030217          495.01457819          589.41654873          631.42353296          341.28573378          586.87124369          444.21292198          396.61021285          388.82194352          539.38086655           633.3325937          572.45040982          616.65090552          574.98911133          395.52629642          529.38380812          471.42725082          466.55348987
         0.01*MaxFES =            120.1003654          131.27511386          143.89055636           138.7861138           136.0254618          125.69095995          123.23546883          141.69846147          128.59722222          131.95862549           122.4643372          132.56614199           123.2908769          136.97208021          115.70044206          128.70192114          135.39258724          140.72113951          130.78595831          120.10489742          125.43526753          127.57040644           124.6872806            119.145337           126.7621804          125.32169548           128.7978026          127.08879464          128.91120578           123.4310614          131.63908584          134.60625128          127.48770514          129.54222128          121.32780886          128.05877238          119.46807593           127.7821918          128.56592137          128.12170772           130.9224698          126.96803501          118.86385204          137.92770006           125.7290541          129.68676326          126.44779576          123.93011895          134.29741561          125.33717387          114.86744909
         0.02*MaxFES =           105.57864691          105.33064568          105.63782769          105.65342913          105.70937023          105.33252484          105.11276622          106.02622444          107.18146302          105.59450283          104.78168578          105.94660805           105.4268858          107.66843651           105.3882011          104.89115244          106.16394963          106.03469635          106.20200244          104.82045124           105.3359612          106.33811261          104.75671286          106.15036357           106.0252652          106.13493473          105.12682498          105.57315937          104.66731777          105.23381484          105.52305098          106.18383468          105.34232318          105.62831601          104.70432629          105.76986101          105.57010616          105.63862708          105.41176585          105.16350442          104.91912773          105.14521114          105.36799926          105.12961565          105.20769612          105.83946036          105.25683517          104.58339188          106.52351408           104.7416453          104.28118904
         0.03*MaxFES =           104.14502207          104.35826314          104.25102631          104.19368281          104.47033307            104.093347           103.8492148          104.06279094          104.71074345          104.06164164          103.85585529          104.74631972           104.5863573          104.80825016          104.61599094          104.13115097          104.78571319          104.88584562          104.57775546           104.1203627          104.32706128          104.28311998          104.47918169           105.1299657          105.05775026          104.21871306           104.2463655          104.61042804          103.44810891          104.07283779          104.88434771          104.37591838           104.3543574          104.35821344          104.10078131          104.46181164          103.86853163          104.35371796          104.54315802          104.10554148          103.88718186          104.09884125          104.97856617          104.17183165           104.2892928          104.69754196            103.713736           103.9637593           103.9943971          104.49634793          104.22891333
         0.04*MaxFES =           103.72469227          103.53844339          103.69889068           103.4223096          103.96642137          103.79322308           103.8117509          103.51763917          104.24725456          104.03308343          103.66541851          104.38193937          104.22134869          103.76242156          104.21545048          103.80854191          104.44766012          104.23931724          104.35407801          104.06885303          104.09595439          103.87446101          103.82287305          104.97672322          104.15160251          104.09251945          104.10152065          103.91279608          103.35480438          103.84957086          104.12666417          104.23221689          104.06561555          103.78606783          103.78078847          103.48695212          103.42509247          103.93162147          103.98788882          103.98320938          103.71454452          103.60767477          104.71070015          103.43125658          103.55799731            104.107421          103.49088114          103.63574463          103.98601002          104.38890281          103.76217168
         0.05*MaxFES =           103.62201858          103.53844339          103.64134951          103.35138325          103.94126444           103.7021299          103.79554586          103.49463401          104.04628598          103.47870692          103.59011337          104.36911169          103.38334847           103.4871469           104.2144865          103.39358775          104.01279765          103.68568808          104.02869709          103.96790363          103.83288601          103.59184118          103.76064765          104.68526782          104.08486402           104.0812815           103.8992038          103.88071465          103.33457089          103.36286474          104.06358561          103.51387409          103.91322015          103.67915202           103.6450792          103.27792994           103.3821281          103.66110156          103.83697682          103.76629218          103.71454452          103.60767477          104.27743169           103.3636728          103.40738548           103.9520281          103.48276135          103.48860774          103.98601002          103.71023739          103.66552646
          0.1*MaxFES =           103.48793743          103.52739349          103.43932182          102.97120542          103.47651919          103.40274908          103.78544613           103.3986486          103.71375425          103.33851709          103.53539411          104.07011267          103.20348328          103.24720075          103.99572855          103.19167747          103.86980431           103.4911689           103.4883986           103.8108413          103.70810247          103.23543808          103.37009147          103.77208185          103.49571225          103.89740096          103.12186715          103.74356067          103.32687777          103.36285088          103.91410577          103.28315249          103.48405187          103.29171386          103.57440278          103.26041056          103.36851493          103.49751973          103.55688845          103.18643768          103.65847349          103.50601615          103.56288713           103.2150723          103.23353893          103.32941029          103.41489516          103.36381886          103.88059567          103.47491406          103.19941806
          0.2*MaxFES =           103.24050691          103.52563186          103.15668339          102.85060226          103.44871802          103.35929944          103.71778282          103.02943226          103.04263383          103.11444077          103.35197524          103.77210178           102.9832333          103.22550706          103.88081448          103.11098735          103.77186347          103.46839603          103.30318355          103.68153315          103.53763769          103.19117661          103.28644253          103.73433941          103.29718535          103.88201254          102.91996724          103.53960881          103.09060383          103.11145082          103.39670401          103.27257842          103.11405258          103.28977236          103.17242233          103.12986675          103.30365383          103.48285198          103.54819118          103.16037439          103.29990947          103.18006487           103.3411081          103.12624853          103.11129213          103.14797649          103.03639937           103.1428009           103.7192239          103.23239753          103.18624684
          0.3*MaxFES =           103.17681315          103.29415099          102.94623883          102.73791353          103.44628096          103.09450103          103.38710298          102.99701364          103.01052022          103.06573243          103.25200795          103.47206147           102.9832333          103.19266614          103.69665419          103.10779869          103.64625845          103.46638331          103.30043064          103.44927766          103.30388958          103.18023198           103.1801293            103.600762          103.29306415          103.82157721          102.90293908           103.5370012          103.00770192          103.10809199          103.33453461          103.26284873          103.09260178          103.28972548          103.16638942          103.12970001          103.10540989          103.28210301          103.54742146           103.1591146          103.14374267          103.17807166           103.3411081          103.10557642          103.10636752          103.03992604          103.00600547          103.12823032          103.62373147           103.2229259          103.18331461
          0.4*MaxFES =           103.08453156           103.2598444          102.94623883          102.73233111          103.44555647          102.96717544          103.36930015          102.99617118          103.00582345          103.06486846          103.24685325          103.36897981           102.9832289          103.17563651          103.62886495          103.05230086          103.06950417          103.45364887          103.25651413          103.25546939          103.26477199          103.10009031          103.17373105          103.56340832          103.18439231          103.42702779          102.85945224          103.52149085          103.00465782          103.10714621          103.33202142          103.21947148          103.09026644          103.04731013          103.16401783           103.1290832          103.10126209          103.13677622          103.15080608          103.15597422          103.10916746           103.1621159           103.3411081          103.10525913          103.08158641          103.03837111          103.00600547          102.98491349          103.44742328          103.05536739          103.15426425
          0.5*MaxFES =           103.04693574          103.07060705          102.94623883          102.72742762          103.44291551          102.95794896          103.31722832          102.96837121          103.00582345           103.0644791          102.98389596           103.2758981          102.69874698          103.11714022          103.59135231          103.01843241          103.06799694           103.4510511          103.25575607          103.24080825          103.26401109          102.96959798          103.17339142          103.14811773           103.1840377           103.1696213           102.7812037          103.46009317          103.00351271           103.0742383          103.33090432          103.21153795          103.08701937          103.03175397          103.16396874           103.1290832          103.10122799          103.13313857          103.08952456          103.15597422           103.1008798          103.10563767           103.3411081          102.95593999          103.07763352          103.02859201          103.00600547          102.95145705          103.44470215          103.05319635          103.15262297
          0.6*MaxFES =           103.04061295          102.81505954          102.83282529          102.72729634          103.35479865          102.95710292          103.06596638          102.95183784          102.99704962          103.03317185           102.9540326          103.02119178          102.69809505          103.11089342           103.5783187          102.98606314          103.06273384           103.4510511          103.21451883           103.2335763          103.26401109          102.96765105          103.17339142          103.12624907          103.09744483          103.02329834          102.77568383          103.45874518          102.99803679          102.99991761          103.33072553          103.21153795          103.08594352          103.02701843          103.16394788          103.12891104          103.10122799          103.11076286          103.08952456          103.15595157           103.1008798          103.10397721          103.34071698          102.90858017          103.07556266          103.01555286          102.93390094          102.89668441          103.43013202          103.01369677          103.15120038
          0.7*MaxFES =           103.03876466           102.8086441          102.80526068          102.70957222          103.35406306           102.9569968           102.9994895          102.95183784          102.99603483          103.03266726           102.9540326          103.01996352          102.62899755          103.11017772          103.55652966          102.98517785          103.05654214          103.37273608          103.21118884          103.23353774          103.20017995          102.96764569          103.17339142          103.12624851          103.03010535           102.9918607           102.7704954          103.40923187          102.81009183           102.9521643            103.330331          103.21063625          103.08594352          103.02516563          103.16394788          103.08260768          103.10085761          102.97509676          103.08892769          103.15595157          102.92161014          103.08300239          103.27563393          102.90551143          103.07477252          103.00568917          102.92295861          102.89668441          103.40886962          102.99975693          103.00070072
          0.8*MaxFES =           103.03858488          102.80864122          102.78204182          102.70559185          103.24529916          102.95694794          102.98235279           102.9506736          102.95309393          103.03265992          102.95205308          103.01626067          102.62895794           103.0364171          103.52605532          102.98488681          103.05536875          103.36786969          103.21118431          103.23284685          103.19638913          102.96718341          103.17339142          103.12475416          103.02654342           102.9918607          102.77049356          103.40229435          102.79114795          102.82591094           103.2821939          103.21041251          103.08594352          103.01778447          103.16394788          103.08260768          103.10085565          102.97509155          103.08892769          103.15595157          102.92023701          103.02643478          103.26962437          102.87173651          103.02177354          102.96862778          102.92295861          102.89668441          103.39484825          102.99955834          102.95899985
          0.9*MaxFES =           103.03761929           102.8079494          102.76854728          102.70505987           103.1747173          102.95693529          102.97748443           102.9506736           102.9440273          103.03265992          102.95205308          103.01620487          102.62410184           103.0364171          103.45818148          102.92109849          103.05536875          103.22987232          103.21118431          103.23284685          103.19635761          102.96718341          103.17339142          103.12466839           103.0221739          102.99175401          102.76922946          103.33264178          102.76632164           102.8252329          103.20541926          103.21017606          103.07667102          103.00365607          103.16394788           103.0815603          103.10085565          102.94277662          103.08877477          103.15595157          102.90125706          103.02501065          103.23443321          102.76927623          102.99929712          102.89019536          102.89605133          102.89668441           103.3168868          102.99955834          102.95799836
              MaxFES =           103.03753319          102.80794749          102.76852018          102.68729969           103.0129492          102.87714602          102.97378285          102.95046691          102.93349757          103.03265992          102.95205308          103.01617315          102.58990028          103.03559427          103.45818148          102.90467475          102.90958615          103.22725972          103.21010509          103.23284685          103.15112842          102.96718278          103.11696784          103.12466839          103.00955555          102.99015572          102.76837948          103.32290662          102.74274981          102.82520111          103.20176633          103.21017606            103.003472          102.99870302          103.16394788          103.08155842          103.10085565          102.94100984          102.95311951           103.0230485          102.89806809          102.94859609          103.17501431           102.7097263          102.99898987          102.86591026          102.89605133          102.89668441          103.31172233          102.78287575          102.95353782

                  Best                 Worst                Median                  Mean                   Std
          102.58990028          103.45818148          102.99015572    102.99513543784313   0.17425222879465496

