 21/07/2017 07:21:55 |                  Run 1                 Run 2                 Run 3                 Run 4                 Run 5                 Run 6                 Run 7                 Run 8                 Run 9                Run 10                Run 11                Run 12                Run 13                Run 14                Run 15                Run 16                Run 17                Run 18                Run 19                Run 20                Run 21                Run 22                Run 23                Run 24                Run 25                Run 26                Run 27                Run 28                Run 29                Run 30                Run 31                Run 32                Run 33                Run 34                Run 35                Run 36                Run 37                Run 38                Run 39                Run 40                Run 41                Run 42                Run 43                Run 44                Run 45                Run 46                Run 47                Run 48                Run 49                Run 50                Run 51
       0.0001*MaxFES =  3.8412506023587326E10 2.4930312769854465E10 1.2163006785058964E10 3.3949918062327095E10   8.479063703604067E9 1.4473136979612692E10  5.357691637531876E10 1.5290436329782455E10 2.0532386586234196E10 2.1482234583878647E10 1.5073437914196257E10  4.093986468134519E10  3.580304800564654E10 2.8975117314817398E10 2.4135392004513268E10 1.0554464451361553E10 1.7238234395721325E10 1.3403840659202446E10 1.0502339107073553E10   6.67311174714454E10 1.3509713754059967E10   5.984419097806589E9   5.414712489911635E9  5.373109278214005E10   7.862014855582493E9  1.179897327036593E10  2.461878471387962E10 1.5228684954848007E10  4.255737104377141E10 2.4243359131065063E10 2.3328720445489674E10 1.0369733904031906E10   1.95852499163751E10  4.1294526776603036E9   8.421448272347189E9 2.2345916241993443E10 1.2513834041064552E10 2.0742024530534897E10 2.7660942977020325E10 3.9150756377117516E10 3.5404285771153404E10   9.003275926261385E9   6.176208700384951E9 4.0223865890316666E10  4.731659539686449E10 2.3001872078364376E10 2.6352507576929546E10 2.2990958103603893E10 1.4979831340181921E10  3.6114390414716434E9 1.0863469587775465E10
        0.001*MaxFES =   2.739197783269117E10 1.4880679969462736E10   6.716361902720073E9 2.1826176810592636E10   3.434370478538991E9   8.235466641266095E9  3.642086480511865E10   7.392521036302794E9 1.1010943996327387E10 1.2591775066658218E10    8.66431080561028E9  2.745379514388001E10  2.351964516884864E10  1.944365074303685E10 1.2030507001367752E10   4.848717316065299E9   9.671725388629463E9   7.120500785206919E9   4.903401091780953E9  4.805351340833218E10   5.686524250084126E9  2.7684999021856723E9   2.162598340588259E9  3.770634358804183E10   4.890109413441566E9   5.829388821890229E9 1.3721656361152575E10    9.92553897287496E9 2.8338948958474915E10  1.393258819203964E10  1.207744581765837E10   5.727536417053441E9 1.2476040106499651E10  1.4581640028006504E9  3.6190497741818395E9 1.1881517213955282E10   5.441063765313319E9 1.1001226896681644E10  1.801400264547601E10 2.7008698550656578E10 2.1920331395578518E10  4.0507377865935135E9  1.9617052644323807E9 2.5790999303614532E10 3.2268079467041214E10  1.294719438919167E10 1.2083493339353039E10 1.2013458135230787E10   6.882134207061163E9   1.379824595112865E9  4.2332376110342903E9
         0.01*MaxFES =    1.061638156524204E7   1.888657552423762E7   1.890303073297749E7   1.762694653514549E7   2.198118789115191E7   3.112481022098861E7   2.008860136015743E7   3.345347362966277E7      8946963.95406306   2.078311735421898E7    1.62270572053255E7   2.488009391135937E7   2.214637057992092E7    3.60110091302702E7   3.807909332420403E7   2.476787541405048E7   2.871839944287799E7   1.884198457233317E7   2.441810429370839E7    3.39425116526342E7   2.017675033323906E7   1.606578927457416E7   1.246367551944138E7   2.213179714071958E7   2.000904584941597E7   2.076926223794403E7   2.363848974392029E7   1.513873259697949E7   2.245978735435718E7   1.693502225756608E7   1.959702417922332E7   3.318504305335363E7   2.271421779107468E7   1.557148006682683E7   1.312343771735323E7   1.878887847795461E7   2.399333023942008E7    2.44471469131181E7   2.279207274432328E7   2.435197297118323E7   2.340835751711065E7   1.405434812589946E7   1.225983205024503E7    2.22673163585315E7   2.946519386269984E7    1.94940135603429E7   2.351007380862931E7   2.242764984768244E7   1.400681524305769E7   1.924567742574738E7    2.24674913571259E7
         0.02*MaxFES =       4054944.47508748      6838263.85949562      7363938.16284942   1.058598136122809E7      3270450.95678533      5403267.35960488      5457590.91492317   1.169669457108276E7      3538184.46717365       4521821.6111808      4013861.01490373      6089452.11024342      6528143.28754029   1.174991530358236E7    1.54072534322866E7   1.105147081210585E7      6552284.07043674   1.015017461596625E7       8358483.9544045   1.372051854855315E7      5340677.01828038      4584483.12953603      5316264.37809379      8279392.68190385      4818179.96207789      5839765.58918177      6553964.29344557      4904781.59769782      8030605.15414918      4095908.12438594      3246716.71813391      8266013.54921243      5251197.11076432      7151639.64263711      6710991.38354557      5785525.37485669       8279089.2618278      9060847.49827128      7833635.73640474      8452289.64481591      8765799.00013467      6574968.17041579      6409081.04718869      8518430.42772219   1.122317543217877E7   1.242444206641366E7      8944854.04204268      9932879.05435134      4235564.09172327        6930670.044788      4342754.87196065
         0.03*MaxFES =       1684401.57943044      3772715.16647084      3784851.91774305      5036945.78528022      2046494.10051367      1460303.48278231      3081223.83927574       5493978.3860154      1848061.18123425      2382040.84412375      2611162.15249273      3699495.02427643      3780156.59970571      4026263.86044307      7822165.90920294      7755885.72327678      3036103.43039948       5539491.5623092       4127520.5431829      6386895.31382097       3131313.6492962      2710901.48652898       2898223.4715454       3005935.0282618      1997929.39564695      2468359.87398895      3439850.13533175      2902834.90807617       4205795.0653056      2329481.79709898       2639094.4984167      5798657.99517894      3184952.14860289       4924871.4111155      5041574.01447091      1975812.32845522      3087158.77145408      3893656.49467786      2621319.77079344      3732059.64522674       4744452.5791261      4030907.76157425      3482962.00550397      4045339.75550857      3443623.03023205      4601983.63656536       5775905.7978955      4248844.97003265      2159861.41086554      4184303.29922862      2595416.13462591
         0.04*MaxFES =       1300228.45749232      2128786.80831882      2454382.54090076      3582196.69125703      1451352.15894434       1120258.6763217      2229547.99430958      3616941.57777606      1279947.09570591        1964173.336518       1945899.1047018      2817397.51585606      2691694.61430742      2609806.38036697      3605362.85321894      5257844.08079063      2247465.93827291      3720562.69209618      3143625.76406951      3616168.93960507      2333731.75017056      2351196.09852259       2295975.1508607      2016676.01830804      1653890.85790588      1645568.14158315      2703812.62462268      2697680.28175456       2863185.4164807      1930088.17222175      1672249.41348973      4349319.05229436      1958359.30668856      3665514.62902331      3898898.45449477       1314104.4236708      2032298.06112449      2362144.41793538      1383538.16503337      2285563.94999453      2432323.84967966      2413184.52747389       2329372.7034756      2515491.68878832      2711030.56908285      2228136.51240854       3992477.7881779       2485026.6076942      1892379.01129764       2856518.1902683      2278887.53629183
         0.05*MaxFES =        890007.77337174      1548958.40619693      1847089.14201527      2768699.94240965      1181226.39860467        860429.6104411      1798905.24181693      2364450.96550671       998455.83372306      1692288.06431329       1492676.3174736      2271979.30810691      2256193.17426767      1462784.67666245      2629585.30994492      3925874.23475371      1748894.60793708      3072947.34546737      2641219.23084346      2650131.06983145      1928033.63118428      2151932.29312499      2067871.43173968      1721352.09410789      1198775.21098735      1295089.31517564      2125809.55201237       2098411.0618656      2100165.70297134      1648681.70205267      1365320.35965134      3517372.79369544      1487920.79197873      2976149.60794734      3164197.50229072      1089687.07343996      1279672.28592491      1667896.16783823       1015681.5798597      1779395.26189847      1497511.04222647      1969416.10614429      1848395.60533561      1950534.04882618      2015015.35146886        1501996.335791      2850405.91959495      1690249.53243288      1602763.82096605      2132181.72566742      1532064.02940578
          0.1*MaxFES =        195412.50909698       719779.93927798        886171.6791109      1329398.89929007       709558.66356036       620430.64504685       970029.89658978       956855.19737216       616259.79420173      1049059.65982888       841661.67314045      1073204.36306831      1233967.03738904        719105.6485141      1317885.50778519        1362975.048328       919101.12904003      1724616.77377388      1116000.89424493      1168494.67098782      1068627.96118271      1614966.91205437      1402970.80194858       972129.81976765       585557.89255453       868053.89975055      1359195.79032795      1070532.15961008       642069.65918838       962022.71828349       734331.26308206      1821078.80057146        747506.9999433       1078484.6096225       1654705.6891094       786756.99386523        676146.3463205       825449.86367813       501672.47207772       854483.35515814       569850.97409228      1172751.16487198        996549.8987375      1112760.39313325      1077796.13207318       503786.67789166       879842.51874914       629227.59685445       980199.42838123      1097949.40678608        803304.4647789
          0.2*MaxFES =          40095.2520753        447579.6728395       488748.44539616       611099.17271014       383187.85604141       457430.07294586        475525.2597815       577508.06958331       428578.09134399       548463.00308382       532061.15953385       501313.54141781       634807.06413232       351398.83432051        517741.1780741       549903.21938691       485288.03520565       666147.55571828       515501.68280376       512455.52995265       557592.33727627      1036134.92208313       980475.57662232         454306.793494       335487.12554004       548514.74646194       887370.97686271       478422.14636174       341709.73186254       486299.93232082       448879.37797792       918256.96398878       460768.38603374       457811.28009831       922191.89427495       537897.28591933       479779.76985704       513223.29609864       282009.51724509       435401.80966375       279947.10419006        651944.4637085       542240.44836032       550072.59141235       624824.53479116       325172.23573075       377943.74154917       375180.75599401       600406.28890432        568313.0696833       546349.20231099
          0.3*MaxFES =         16472.51100027       378156.66310202       361537.02848394       386791.10107904       284259.67167218       356373.92072724       311739.71090571       490617.38546883       350732.47495222       386514.30683006       397874.56911918        341965.6472828       421982.56324573       217686.64981067       314426.58883393       400045.75734311       350344.38565707       362465.24690842       361623.57354926       336796.71576494       371792.84147276       685470.29511565       738944.54781637       291518.72498897       266938.39431842       411600.06959515       666703.01659637       320771.76090394       284740.53015965        323080.1271579       360220.35440139       637037.83552473       367566.97085416       278533.65685205       624530.90807121       403989.70230649       408813.27333278       394548.08036235       224227.72085342       323597.46885924       206101.13369876        455756.8970708       393892.39472218       344185.04123141       439872.04927567       267341.13455796       249833.70905599       307671.07497967       432088.04939294       377776.18954517       447365.55343194
          0.4*MaxFES =         10732.66961324       338876.66392114       303633.39703634       289288.90613738       234309.65005071       288499.08314257       237164.96080973       433373.49873606       300021.26397205       313765.67238283       316111.16647244       261906.16222597       324193.28898389       166509.71147582       243607.08561474       337275.56032416       290876.30947171       241544.93075888       284751.23614485       257826.31752856       267880.39107218       504151.89598735       577981.56923513       227072.03781183       232811.82742079       326518.00393274       514985.34057249       254168.88238744       254864.32288307       248721.06633521       305400.02491726       519688.74645836       318516.20590054       214863.90310388       444613.74258959       321890.96767658       370665.99152027        315886.8627999       193723.78289918       276189.65865013       170019.24116508       363219.14469308       319370.93904339       252175.70421036       333543.19389169       231656.12242643       186679.48851955       269754.92043877       345576.48101428        285929.6279699       378304.24796112
          0.5*MaxFES =          8163.40145579       314224.55978273       269371.25670277       238819.02879445       206680.63722407       242125.17524764       193106.89225244       388069.76352218       264179.06258705       269736.77966062       259106.28172646       222853.94244527       263361.28056991       140543.59651363       213624.38177354       296035.03014581       254525.90936087       185675.88092808       231964.80873732       217963.61741199        212325.8919787       377827.70246501       466578.03779051       199164.33999047       211074.38141575       277189.68832191       423616.44724618       217374.54028783       234189.58303049       210949.19188706       271458.57811682        450516.3483732       290217.96907227        183013.0265893       351231.93510105       268189.81912182       342608.81720292       266885.26253323       175571.73467034       246586.76862958       147528.40591183       309845.66589628       268283.13532613       208082.29444968       273855.76866283       205094.33718524       141356.41460723       244419.85173495       287945.17574659       240233.61540666       325511.56841276
          0.6*MaxFES =          6569.56101323       294107.32169075       244931.61412204       205725.26970357       188585.66484489       207572.33866366       167873.20468558       353191.04570705        235479.3860926       237527.34340035       223216.62823941        196617.2023663       225183.07655307       127921.42558524       195642.25149633        267755.0624457       227971.35206807       157860.15774478       197800.97421741       193991.08778446       176267.63062112       294012.72580102       390238.08700666       182701.01963493       193587.46206899        244872.0944552       353747.13508825       195273.53263986       217998.96152666       187599.46379763       244740.22071477       408088.93194641        266280.9486103       165197.07937585       285399.72337916       231827.50398353       318919.46693229       232831.37728656       163043.53641632       225531.94499833       131999.81939177       273750.32812647       230505.59540497       181787.99733536       232320.21423174       183608.84321572       112531.73103028       222427.95528132       247441.06343034       212515.28062103       285410.12962836
          0.7*MaxFES =          5852.25421125       277843.18575562       228353.15245517       184277.00204132       175168.77616807       181098.18773303       150085.05526128       323314.48461567       215264.75004241       214496.14916795       195839.84934392       180759.79011259       198442.96956308       118508.21373345       183250.25870399       244631.66270314       209070.89183159       139928.39889301       172193.78175997       175191.68953524       153311.80987424       243203.59944273       335564.35630173        170585.2506641       179243.95970677       223684.31266783        306846.3169968       179170.51348103       206036.36843718       171954.26320159       224213.47886995       375495.44696475        248708.4712348       152524.44035585       241197.36298319         208167.271818       298802.98269621       209621.48148855       152899.79104627       208627.46203052       120713.61919641       245884.35417655       202521.41516823       164352.03909324       201664.06839573       166783.60387597        95743.08378886       204467.19633202       216901.59674909       193623.40408745       254369.47283743
          0.8*MaxFES =          5576.71603233       263998.40293506        215007.4648573       167141.66473806       163709.24906282        157528.3644771       138685.95954828       298979.14201376       197018.68632153       195333.59804494       175063.64901245       168932.34153512       179638.34657503       111870.48253089       173483.32015296       226875.87120123       193631.15467979        127017.2797226       152248.65047761       159729.67093175       136862.83366911       208650.63358828       300005.48211205       161382.53705503       167015.86067329        206519.8172657       272843.38143977       166476.08335056       195674.12079188       159081.67807301       206456.22696022       346124.74017606       232535.74802692       143057.23980477       209792.41965499       190930.99331009       279248.74686796       191415.86710037       143868.53944527       194429.66896789       112170.72669219         225700.377741       181437.39232449       150879.16282549       179208.17720818       153590.57742809        84711.09106522       191311.17341499       196893.21248706       180736.40813138       228942.11446187
          0.9*MaxFES =          5479.82678817       251682.72694387       203301.81560779       154097.53748671       154289.36368788       141379.17873126       129230.55864707       275502.15954106       181224.31258319       180552.27773411       159586.00628092       157948.71388035       164860.80676811       106445.08516276       164648.69070934       210794.73617706       179697.00240192       117992.29912102       137956.20538382       147304.90957205        125224.3249043       183539.93651469       270148.17705895       153280.15529916       155891.49337317       193307.64892187       246714.94688811       156094.16183816       186841.49182976        148209.1901022        191353.9550256         321810.961916       219143.58790962       135686.42732738         187814.672284       177514.82698909       263170.05224778       177959.57593314       136850.57544145       183117.85209097       104903.63451238       207857.70426542       163727.58480542       140058.57775875       161525.22610592        142030.5163808        76261.34920354       178604.79252581       181103.43338428        169137.0074434       209207.64785218
              MaxFES =          5452.81547839       240411.80490462        192351.2209264       144431.71729713       145967.49817033       128050.42087683       122223.13564207       255896.30668326       167452.42001239       167683.22674573       148348.13337583       149650.95087305       153685.93543927       101769.41929344       157651.74410829       197690.22565343       168257.03192551       110689.02044334       126539.75037123       137747.58919437        116739.4342188       165612.51793877        246360.4354171       146033.22323076       146651.89835625       182080.80471847       225525.78171031       146610.83153435       179082.49965249       139010.51716939       177446.88739441       301113.03270024       207973.47664424       129528.96111312       170354.41416481       167271.08925394        246695.0789619       165627.61934998       130512.29699857       172485.28421838        99315.83779564       192829.54709241       148392.11110657       131700.78931658       147206.28959417       132652.80282202        70066.88358631       168374.51047818       167037.01881583       159368.78032597       191114.61397716

                  Best                 Worst                Median                  Mean                   Std
         5452.81547839       301113.03270024       157651.74410829    160641.67915827513     48218.66192675953

