 20/07/2017 19:20:32 |                  Run 1                 Run 2                 Run 3                 Run 4                 Run 5                 Run 6                 Run 7                 Run 8                 Run 9                Run 10                Run 11                Run 12                Run 13                Run 14                Run 15                Run 16                Run 17                Run 18                Run 19                Run 20                Run 21                Run 22                Run 23                Run 24                Run 25                Run 26                Run 27                Run 28                Run 29                Run 30                Run 31                Run 32                Run 33                Run 34                Run 35                Run 36                Run 37                Run 38                Run 39                Run 40                Run 41                Run 42                Run 43                Run 44                Run 45                Run 46                Run 47                Run 48                Run 49                Run 50                Run 51
       0.0001*MaxFES =   8.637564797447406E10 4.1693573604399605E10   4.14128572056362E10  3.489393333888868E10  6.115106515979044E10  3.584543337538491E10 5.1906247932587204E10 3.1642792909854004E10 5.0557704112871284E10  6.797083979689653E10  6.303014809140208E10  3.402525636854376E10  6.932798755931537E10  7.618439234153352E10 4.8825296276324554E10 2.7050285636498177E10 4.0008815358111046E10  6.994807103567004E10  4.711791638669721E10  6.480304391647873E10  2.115123363356721E10  3.838332214413287E10 2.6649257842248505E10 2.4280554115245155E10  3.409202512838167E10  5.321758879114421E10 1.1699416220815839E11  4.487301575000619E10  4.881200624916507E10  4.473467701445858E10  4.254789792084675E10  7.467638713863528E10  3.606297008561731E10  3.720137147042594E10  2.627140837200061E10 5.6828733608967514E10  4.519465698409061E10  9.428959078862674E10  3.731047219756274E10   3.39713321845223E10  5.886087488786388E10  5.946591277878595E10 4.4814919980077736E10  2.821600539261551E10  3.780691232215514E10  3.458946865278472E10  3.135075309452411E10 3.9385817962314606E10 3.7581830475773476E10   4.76747893742498E10  5.672201982967087E10
        0.001*MaxFES =  6.5516841175667404E10 2.8153257234187134E10 3.0156447328170887E10 2.4119174154331493E10 4.0557920017136246E10  2.524887985383454E10  3.648454909249136E10 2.1663911413958717E10  3.542625521550341E10  5.088875748096231E10 4.6548971873830765E10 2.4990509955806763E10 4.5634179794689606E10  5.034443689776923E10  3.715917755463111E10  1.997178456337467E10 2.7657681505900036E10  5.268589693888939E10 3.3266098384368702E10  4.884263656979329E10 1.3752413929864199E10 2.5896861237661602E10 1.8987915144093143E10 1.7836583922264713E10  2.405528428886663E10  3.700227823517937E10  8.341650409834186E10 3.1384553743162865E10 3.5877340121524445E10 2.5961025686173996E10  3.284771362263658E10 4.9344420612340706E10 2.4218135177526543E10 2.6407460936072765E10  1.881269930077293E10  4.115555777053565E10 3.4761500757660095E10  6.681556857950563E10 2.8356184204901672E10 2.4156994146987377E10  3.975500561203789E10  3.987141836210848E10  3.409687636781467E10 1.5946051635388084E10  2.907879145168401E10   2.53530225477422E10  2.148344921485422E10  2.746504640863067E10 2.7242328234002235E10 2.6718995957380264E10  3.838970963448322E10
         0.01*MaxFES =   1.1526339377477244E8   2.696057366348253E8   3.155347094547527E8  2.0007218194824556E8  2.1761100285047597E8  2.2675890325661743E8  1.6676598217540166E8  1.8249677170933938E8  2.2802698681174156E8  1.8330194190229827E8   3.242219893652138E8  1.9762413806035757E8  2.2462532846639565E8   2.419694898868695E8  2.5695164349672487E8   1.731536522549487E8   2.303897629496479E8   2.875231424043659E8  3.0477008340025216E8   1.536918453644753E8  1.3609919766016078E8  2.0003464293806562E8  1.2181372507511719E8  2.6112305847433674E8   2.122192605105545E8   2.896115589030563E8  2.3036184455577707E8  2.5477244006446496E8  1.6811899415748867E8   1.866084119614168E8   2.341373076754774E8  1.9961239965238014E8  2.3115351604067194E8  1.9049996849850738E8  1.5854692654157662E8   2.758574303251979E8  1.2966784400125127E8  1.4637456476887232E8  2.3192792310734788E8  2.5797773647226074E8   3.268894071223255E8  2.8949286238562787E8  2.3508065605547124E8   1.725226049612698E8  1.5777032443863168E8  1.8289144620968974E8  2.0703082786994347E8  1.0994448504294997E8  2.2651737136439234E8  2.0296813483799288E8  2.0734059043872854E8
         0.02*MaxFES =      2.0939539921134E7   5.541044110820769E7   5.704507790240896E7    5.29088114881228E7   6.199299463889161E7   5.042253731009304E7   4.326584189692254E7   3.864843925666953E7   5.840938329909597E7    4.19005638700307E7   5.983137746649749E7   6.542685476819284E7   5.748206379647643E7   4.174776721127011E7   5.359369745450636E7   4.805093818796185E7   3.936798032894182E7   4.609652556740672E7   5.913427398587789E7   3.514273030441952E7   4.522724558711112E7   5.587952747031697E7   3.539668850072823E7   7.004349102615263E7   5.829586444478266E7   7.998149049468368E7   4.074504606075009E7   7.487255479236887E7   2.776697824372027E7   5.046927542502011E7   4.888888476728031E7   4.832015653922897E7   5.379687693076491E7   5.850796638172628E7   4.675043740698438E7   5.110212313845581E7   3.900248283072173E7   3.497451432119226E7   5.511910202733726E7    5.32390046234286E7   8.783270788049835E7   6.724712576048966E7   5.724753761456386E7   3.463928456660906E7   4.079223431655168E7    6.87858540679071E7   5.005947637133813E7   4.695972473189834E7    4.25848197461785E7   5.597273600055512E7   3.319495662127006E7
         0.03*MaxFES =    1.125198073145367E7   2.956205729837488E7   2.772669719558473E7    3.08139722155828E7   3.235047159635311E7   2.678231083592387E7   2.578383844149491E7   2.417656160745891E7   3.494555547243833E7   2.611924034466867E7   3.433077914702423E7   3.856593435589394E7   3.693715078790371E7   2.322548354089353E7   2.935023320301787E7   3.102254137214439E7   2.311070115164808E7   2.314253883491309E7   3.386153846009765E7   1.910461675250601E7   2.958209343267626E7    2.72686447240583E7   2.182950721829254E7   3.975828012581286E7   3.071476959609706E7   4.992291401281042E7   2.251507214201537E7   4.318544261180398E7   1.784287604053052E7    3.45580167683414E7   3.012727632738375E7   3.248083736007083E7   3.283988105344974E7   3.537594971847255E7   3.177195598706827E7   2.241526600618062E7   2.165985042235552E7   2.345536029678443E7   3.310476640736762E7    2.86183478074691E7   4.706796615212974E7   3.791007165428718E7    3.42429043979862E7   2.024960709808529E7   2.744620708759141E7   4.134812056635497E7   2.807290593010818E7   2.998123678336263E7   2.539630943452255E7   2.915268318847113E7   1.918715906055984E7
         0.04*MaxFES =       7128224.32947947   2.088963373076327E7   1.691666943765213E7   2.279511439786641E7   2.099851611626306E7   1.987054970421315E7   1.880123060340362E7   1.665559804408323E7   2.302190086956643E7    1.94769856765765E7   2.470349622246501E7   2.719194880577001E7   2.739879646010777E7    1.75191719672985E7   2.109807633885452E7    2.36525541234113E7   1.662151358997254E7   1.751347122649928E7   2.472965861664753E7    1.34032736110381E7    2.27030808513392E7   1.745392562744795E7   1.646959357434468E7   2.747014640092882E7   2.108365665736994E7   3.590103605108703E7   1.609780310584686E7   2.944579104594067E7   1.376614106674342E7   2.636467853255966E7   2.205149322279185E7   2.448691445412628E7   2.207375446021944E7   2.591742107682089E7   2.469133058255114E7   1.499877588730256E7   1.445035845777142E7   1.831896377491401E7   2.327722354074194E7    1.96731667578329E7   2.991462471594043E7   2.314045029597918E7   2.518081895112566E7   1.461334538037871E7   2.079128826093438E7   2.833189866767544E7   1.869852153711202E7   2.296282019069455E7   1.861869240378757E7   2.132955294464845E7   1.386728478463314E7
         0.05*MaxFES =       4634033.63624653    1.67625728606447E7   1.219576640741257E7   1.869188206078403E7   1.588536359585482E7   1.570736282607067E7   1.488613069750635E7   1.235119846516087E7   1.689798649299042E7   1.583523572921121E7   2.020424115377903E7    2.16834054704054E7   2.164392097472477E7   1.398077438934879E7   1.657481557873762E7   1.930155179261846E7   1.332814292808805E7    1.40718782966885E7   2.015335941088967E7   1.043253442911391E7   1.858551640912965E7   1.241118641734855E7   1.308993883224293E7   2.169161861703938E7   1.506473539707416E7   2.888767722720185E7    1.25153587758611E7   2.156298172956428E7   1.074802258536152E7   2.157443738472698E7   1.777809066253789E7   1.935431356831017E7   1.698585412481507E7   2.005439374775417E7   2.076779726247716E7   1.194845864182332E7   1.088573528104329E7   1.511564654915117E7    1.79451777126674E7   1.575374528686771E7   2.067842737257497E7   1.732371165378328E7   1.983862179301994E7   1.139384067858488E7   1.734568479400633E7   2.053539109969222E7   1.428177491627688E7   1.788714088380996E7   1.447652833541824E7   1.673313952991616E7   1.107399318804584E7
          0.1*MaxFES =        967843.07148013      8585303.50717882      5712497.92616695      9361855.83497379      7373952.94596905      9124242.74949094      6708520.48794315       5205232.8976853      7728901.21893326      7574095.57821618   1.079517029620625E7      8732446.86768214   1.044387682008878E7      6351096.33873961      8255301.27296251   1.028492520491591E7      6881725.92990809      8507770.41357558   1.113392003049313E7      5239178.94719358      9312735.71644654      5402438.02466738      6605920.19195296   1.097032294236543E7      7115658.53012939   1.211929080232251E7      6153442.77711442      9576425.87388814      5247408.80842704   1.141531971966826E7      9229663.44715891      9491214.85268883       6987682.2298119   1.058068367365664E7   1.142141536937297E7      6368580.84930456      4493247.63620239      7771329.00256515      9077144.35109931      9052631.09971895      8670923.44218332      8494075.40001121      9119682.13161118      5643180.82264538      9099141.66186567      8074226.30677983      7038768.68216175      7850343.36495423      6515031.12453612      8869480.80195782      5538855.33086853
          0.2*MaxFES =         88584.33368916      4440366.31325421      3481957.70492346      4183219.00315532      3813669.20931912      5307313.81652956      2997558.87277557      2870847.33477125      3788293.71076756      3491304.30073372      5021224.93156234      3544130.42329437      5035304.94109582      2795958.51629036       3799410.3312267      5246853.51293533      3712410.74628056      4794607.29365752      5095674.82334939      2960157.36683419      3939729.04540971      2645728.49550774      3594394.98460455      5955807.69582115      3550218.02991943      5093847.99714264      3182500.05389956      4306637.61782272      2645354.23250723      5654157.90534772      4239995.67113119      4886816.87764903       3456240.2310345      5328245.87545741       6190537.6147569      3640011.66398478      2131872.42431533      4071119.47909026      4839440.66263591      4504499.91493549      4332846.88724226      4052055.24442813       3801049.4471373      2649657.04777308      4127233.53613227       4015163.0535604      3697189.80812292      3380783.69380453      2913336.02194174      4582508.56251198      2778748.82295374
          0.3*MaxFES =         13131.43253204      2853577.04053601      2418802.96597154      2463546.20089934      2583838.40952248      3659559.61108827      1941782.22699631      2057256.94986238      2474004.54249912      2179064.75113203      2985131.11503843      2253187.05851744      3048133.73064299      1746951.08135225      2367497.09340584      3385062.66853819      2459356.65931401      3330467.11171592      2944572.51844055      1982243.30712078      2398959.58293125      1730403.80113888      2502488.50393275      3804987.07772643      2217735.92701814       2972336.7066253      2202741.45884914      2623462.11583972      1963320.34119008       3314084.5241018      2485078.70500545      3224998.23586231      2342299.18585664        3521842.314453      4033905.26657628      2627221.74159323      1474190.92318983      2813723.42980704      3388771.17555879       2666570.4320169      2986762.68895497      2597457.84022682      2156420.84232592      1700376.03953222      2528254.51444886      2679629.79138782      2386721.03937876      2115440.00816012      1853438.43517567      3055503.74621394      1857092.47658427
          0.4*MaxFES =          1145.96653858      2096889.62020369       1832601.5693852      1703814.48746108      1952252.50210605       2802717.9104073      1436932.14965162      1610992.72168938      1798464.16874642      1547825.51476811      2081219.50029395      1636229.04600959      2060998.63915791      1223242.23901509      1679461.71911137       2467670.2002743      1823442.20176538      2544667.12768319      2007237.91276664      1399633.07882347      1747682.76307398      1233068.61738065      1939056.11493036      2695393.39402352      1585492.03138795      1950375.47549209      1726936.81502935      1878427.91424335      1602442.55718584      2167235.47538853      1691225.23189072      2353609.22236716      1752041.14034398      2613457.34190575      2851360.82196185      2028408.44959835      1134731.97687679      2122554.81174558      2613857.18167082      1754179.13021833      2276103.68303506       1934392.2726503       1441232.3372382      1222615.03744163      1808775.52293006      2002359.94387405       1728691.9815046      1528565.72833435      1358121.86187629      2306439.13296998      1380883.76199393
          0.5*MaxFES =             21.3844943      1669624.65389354      1454125.79501533      1309040.05060882      1581184.66982345      2243434.24159686      1175484.13567979      1311371.79477414      1394991.65633949      1191055.28174979      1586350.58990156      1299579.55560681       1477930.2450543       941377.46709244      1305335.90636846      1921119.49738053      1438599.02155596      2068008.13314184       1539220.5330138       1036058.3606306      1411779.30333374       949241.32889708      1580412.03325377      2049506.71292436      1226259.29615473      1435800.21216722      1428702.41628598      1464291.20162233      1361284.51824052      1586770.29347502      1206151.91619191      1827872.94651014      1375218.32006198      2073832.04836034      2137199.42933264      1641322.48436578       922152.84369821      1672325.39136649      2136778.63975632      1251574.55157703      1859525.11022553      1566878.29130637      1064022.78419431       936022.22148367      1410565.84686576      1586312.83694237      1323945.77748195      1197576.20630645      1064229.82010385      1864723.71395422      1075233.77202742
          0.6*MaxFES =             0.05236648      1379444.30238436      1205423.72040192      1066957.20547888      1331681.81229271       1834151.1211617      1005774.25499856      1093156.82473338      1117061.80708025        966514.2136745      1296289.77315968      1079004.65743633      1131477.68351775       772177.13133438       1063337.2933667      1553928.94940611      1171212.99299204      1741322.11718743      1256873.12384662       785548.86972276      1183050.47464689       761680.56163966      1338328.59684491      1613263.18758456      1004227.61174262      1135773.32065005      1214934.30879878       1200304.6112472      1175126.67249641      1225710.72264254        915681.5637108      1460605.73796122      1119222.29186291      1728006.50048344      1694871.53763572      1364066.70296568       774467.39805845      1373699.15539509       1812557.2913522       969818.30738294      1569278.96182586      1322700.71837802       837487.52617786       761250.58152181      1170496.72696741       1287860.6043199      1062943.54441987        991176.3492946         867511.462414      1561904.81301855       885856.10287576
          0.7*MaxFES =                 6.1E-7      1176540.15671677      1031951.73405105       901975.95442039      1146606.40040781      1548325.23706836       890801.62323781       937471.69163863       925794.83015345       803581.27908727      1080497.86708339       916354.36627601       897766.96288874        658830.6855291       903133.82339502      1298946.11021692       977293.04919728      1508216.62174427      1067850.53556423       616213.44828206      1016609.64270945       630799.00218843      1170181.95846818      1311173.33618962       852346.10154642       947786.02552108      1062554.45283805      1022361.09829213      1019007.49214311        988190.1390322       722050.41331035      1193051.56346924       932544.68346787      1481995.65905321      1377767.20025107      1162908.97533938       667283.12132874      1160077.13753561      1566290.03057426       785027.96162652      1359985.63468542      1149198.96558758         683093.177028       634170.36233045      1006382.57673846       1078171.1137532       883347.12240282       840189.87035752        730622.4056809      1331044.17884768       748034.84107365
          0.8*MaxFES =                 6.1E-7      1028133.33662897       896248.61815072       786204.54220517      1004648.27855944      1322154.17931881       806501.90850577       817750.12756598       781116.15489138       694510.52977031       931324.77028835       794735.48168368       730928.06487209       577956.14000704       779741.49802636      1114897.43724859       839273.32730287      1324014.87974977       931451.34394581       496689.01589614       890285.65414405       538273.58560027      1039864.55204024      1095441.79529276       738103.21711418       820721.70528363       939781.93232002       892085.13222102       896876.98343465       824009.03848174       585830.08819766      1000620.55975966       776318.94234223      1302242.69459054      1145058.84429149      1006742.63989208       583460.74930657       989274.86261239       1374957.7096259       655732.91140525      1189792.39989536      1017140.29560954       578677.09445312       545448.74021819       881067.12894349        911884.3802427       751768.00249355       730733.62062463       629585.96356871      1153153.73711553       651066.59141859
          0.9*MaxFES =                 6.1E-7       325994.67957056       795420.75517772       701679.35936256       895427.81334678      1145830.18320636       734080.61323223         720967.915746       671808.77991344       612451.63670906       814743.61822624       698641.97447996       608157.94586047       514734.59122746       688095.69409653       971502.31034024       736954.67863611      1179288.28905293       823119.90210933       404494.55377158       783764.06193949       471505.82511683       929388.02250654       930062.45736818       656560.78214763       724032.15266812       837555.01652827        789772.8753933       793911.80918903       715127.86569206       487101.98473868       851009.89184403       662321.91709228      1154456.09520844       971914.23456115       888825.47796644       518390.69055829       863328.17206522      1219249.80105891       557537.16322961      1057293.17282709        910224.4823179       506122.62631208       478635.89688798        787913.2307131       784010.72118245       648784.71407604       647351.89040359       554587.81609966      1016006.66475111        570804.6690226
              MaxFES =                 6.1E-7        37362.66225282       710786.72693123       630611.78945532       802906.77237235      1004146.62794618       676964.79656728       638810.32409282       587004.69780268       547546.26437906       722845.44401643         622967.079867       517971.86404959       467427.90512341       612217.20300522       851992.44276119       649021.10416846      1061454.26348381       734032.56707868       338909.10883337       699738.07540186        419280.0486317       836773.14495072        795753.5776617       592436.35442643       646710.37942541        752924.2436237       704127.75514662       702282.69278229       634521.45876748       416953.04571864        731586.9484795       571906.03038229      1035883.04968065       839100.18622454       791601.88862287       466311.38449767       758840.43158253      1087334.44586874       485895.70281114       951183.54860812       817047.27010336       447516.63874812       426339.25592086        707789.7473295       682874.25235279       567016.81625276       577786.30745993       489953.13340821        906143.9044792       506470.28127479

                  Best                 Worst                Median                  Mean                   Std
                6.1E-7      1087334.44586874       649021.10416846      652256.110682581     216477.2698270235

