 23/07/2016 13:45:38 |                  Run 1                 Run 2                 Run 3                 Run 4                 Run 5                 Run 6                 Run 7                 Run 8                 Run 9                Run 10                Run 11                Run 12                Run 13                Run 14                Run 15                Run 16                Run 17                Run 18                Run 19                Run 20                Run 21                Run 22                Run 23                Run 24                Run 25                Run 26                Run 27                Run 28                Run 29                Run 30                Run 31                Run 32                Run 33                Run 34                Run 35                Run 36                Run 37                Run 38                Run 39                Run 40                Run 41                Run 42                Run 43                Run 44                Run 45                Run 46                Run 47                Run 48                Run 49                Run 50                Run 51
       0.0001*MaxFES =          4337.74443098         3660.89534761         4760.09315966         3676.11605438         4329.30207063         2963.17034148          4177.6357733         4999.40672468          3279.3026824         2836.97823679         3227.92569768         3557.10154829         4109.13411571         5240.17740521         3626.22033119         4808.81656816         2837.32240261         4140.77532644         4749.08670611         4655.58796862         3238.07288559         3480.26165814         3989.76533777         3887.08650785         4348.39009265          3334.3946961         4478.09537063         3568.91211878         2952.22886793         4712.70044389          4226.1773101         5499.59953215         3653.67375363         3379.76891595         3809.42012546         4169.89460841         4352.92672301         3996.65059502          3327.3482454         3507.02867808         4487.91879726         4094.71715276         3309.90301507         4474.71814641         3831.09844107         3425.47747641         3592.66301565         2583.37700036         3254.37409916         3326.51003811         3773.69065232
        0.001*MaxFES =          3360.66713917         2442.18489719         3437.53364333         3001.09503222         3071.72111783         1975.71875731         3579.04029592         3442.32759749           2494.513704         2107.46260297         2648.60221812         2594.91057716         2803.00039956         3878.30634459         2763.52640524         3718.20946104         1655.52627342         3376.00151807         3203.52513895         3753.11952162         2553.57984829         2357.56812588         2960.02002101         2880.35663703         3072.15616425         2335.67534379         2989.62669122         2904.14710839         2052.24739742         4199.26620675         3580.39767656         4644.72886998         2421.04425299         2448.73286536          2857.0974766         3177.10784346         3552.13573415         3204.87709594         2541.33069782         2914.89841265         3408.83308623         3241.07841142         2493.52842453         3290.69281382         2546.57309615         2640.39177562         1996.20043293         2048.06471123          2407.7589863         2820.83070811         2846.84056459
         0.01*MaxFES =          2436.07684651         1734.08431758         2020.09275427         2321.86102928         2160.72621258         1276.41427166         2020.15848308         1280.22470926         1766.72694942         1133.91625325          958.19207811         2142.76869758         1769.14671963         1232.36144012         1197.01395495         2370.26831428         1240.26638709          2677.5028687         1476.04275692         1848.32211701         1460.09586636         1788.69973875         1591.67129271             1860.8814         1633.83774232         1835.47805732         1889.78435767         1409.08567225         1319.79532781         1327.71278276         1689.81584843         1784.29268385         1962.62254464         1868.64145758         1615.42136968         1249.81214873         2065.61162849         1705.19228249          685.77786635         2264.98758334         1943.50989603         1606.93148372          931.21061724         1831.16480667         1218.97981228         1952.18638524         1267.45200021         1836.49008525         1963.49368923         2269.76733946         1436.29265852
         0.02*MaxFES =           2434.6220567         1733.93139411         1948.83878038         2321.64057123         1085.92575899         1276.16397213         1990.34177986         1276.16410006         1766.56096966         1130.45558441          950.57613084         2142.72207491         1754.72818106         1219.63517707         1195.96503625         2369.87041793         1240.10029808         2656.42600282          1469.0006126         1844.16983272         1456.57286051         1782.64386503         1590.64829362         1860.15362199         1632.47450145         1833.00478603         1885.83034626         1397.17807337         1319.50897128         1313.98089814         1679.07205676          1780.6947381         1955.37792223         1867.91507581         1610.30206714         1228.19383983         2029.39763046         1700.11425218          675.81177253         2260.36847084         1937.80879338         1603.59764408          926.50633273         1830.87965228         1208.60333298         1952.04481655         1265.99222816         1836.42251335         1963.23388694         2264.82477093         1434.55947057
         0.03*MaxFES =          2434.42240008         1733.93135962         1947.96774599         2321.64052219         1084.31138912         1276.16395406         1989.32639537         1276.16395407         1766.56096031         1130.31962498          950.48757373         2142.72207121         1753.71266299         1218.44711699         1195.96500094         2369.87039843         1240.10029401         2653.89692274         1468.81527623         1844.06095006         1456.22837009         1782.28065391         1590.64809432         1860.15359399         1632.47430511         1832.91838713         1885.33118542         1397.17715113         1319.50891634          1312.8120712         1678.68192427          1780.5442896         1955.12680263         1867.91502444         1610.09674161         1228.09727507         2027.55643666         1700.11369001          675.62153437         2259.54465527         1937.40869764         1603.50338715          926.50590051         1830.87963462         1207.15875082         1952.04480414         1265.99214739         1836.42250071         1963.23386698         2264.33535234         1434.55886917
         0.04*MaxFES =          2434.33653075         1733.93135961         1947.93798474         2321.64052219         1084.31123092         1276.16395406         1988.86769339         1276.16395406         1766.56096031          1130.3025869          950.26519623         2142.72207121         1753.43372212         1218.33720965         1195.96500094         2369.87039843         1240.10029401         2653.46405246         1468.80917846         1844.00436438         1456.20192617           1782.230326          1590.6480943         1860.15359399         1632.47430509         1832.91838713          1885.2144362         1397.17715112         1319.50891634         1312.64528602         1678.62330575         1780.47594121         1955.00654071         1867.91502442         1610.09426861         1227.93310414         2027.14025961         1700.11368996          675.58943928         2259.46784873         1937.37723773         1603.43018654          926.50590049         1830.87963462         1207.15875082         1952.04480414         1265.99214736         1836.42250071         1963.23386698         2264.04867951         1434.55886916
         0.05*MaxFES =          2434.31960879         1733.93135961         1947.81822274         2321.64052219          1084.3112309         1276.16395406         1988.80879794         1276.16395406         1766.56096031         1130.30091085          950.25725828         2142.72207121         1753.43103179         1218.33720965         1195.96500094         2369.87039843         1240.10029401         2653.35972092          1468.7579706         1843.95662928         1456.18634838         1782.14114177          1590.6480943         1860.15359399         1632.47430509         1832.91838713         1885.19933669         1397.17715112         1319.50891634          1312.6107816         1678.59653707           1780.385542         1954.95239328         1867.91502442         1610.07906235         1227.91602682          2027.0582024         1700.11368996          675.58209358         2259.41545403         1937.36766098         1603.41483721          926.50590049         1830.87963462         1207.15875082         1952.04480414         1265.99214736         1836.42250071         1963.23386698         2264.02321867         1434.55886916
          0.1*MaxFES =          2434.31770017         1733.93135961         1947.81822274         2321.64052219          1084.3112309         1276.16395405         1988.73897762         1276.16395405         1766.56096031          1130.2697967          950.21974716         2142.72207121          1753.1625541         1218.33720965         1195.96500094         2369.87039843         1240.10029401          2653.2701516         1468.72487092         1843.91666424         1456.10361928         1782.06614672          1590.6480943         1860.15359399         1632.47430509         1832.89154312         1885.19933669         1397.17715112         1319.50891634         1312.58331938         1678.57382918         1780.36084819         1954.91337179         1867.91502442         1610.05927141         1227.81535847         2027.04929707         1700.11368996          675.58005742         2259.40885007         1937.36652939         1603.40096589          926.50590049         1830.87963462         1207.15875082         1952.04480414         1265.99214736         1836.42250071         1963.23386698         2263.98206417         1434.55886916
          0.2*MaxFES =          2434.31769685         1733.93135961         1947.81756101         2321.64052219          1084.3112309         1276.16395405         1988.73789266         1276.16395405         1766.56096031          1130.2663612          950.21816477         2142.72207121          1753.1625541         1218.33720965         1195.96500094         2369.87039843         1240.10029401         2653.26935989         1468.72287784         1843.89395567         1456.10078364          1782.0609215          1590.6480943         1860.15359399         1632.47430509         1832.88501908         1885.19933669         1397.17715112         1319.50891634         1312.57226755         1678.57382918          1780.3597121         1954.90997763         1867.91502442         1610.05448796          1227.8056867         2027.04929682         1700.11368996          675.57998113          2259.4088469         1937.36598929         1603.40018875          926.50590049         1830.87963462         1207.15875082         1952.04480414         1265.99214736         1836.42250071         1963.23386698         2263.98206417         1434.55886916
          0.3*MaxFES =          2434.31769685         1733.93135961         1947.81749462         2321.64052219          1084.3112309         1276.16395405         1988.73789266         1276.16395405         1766.56096031         1130.26627407          950.21811982         2142.72207121          1753.1625541         1218.33720965         1195.96500094         2369.87039843         1240.10029401          2653.2693597         1468.72287596         1843.89395567         1456.10078364          1782.0609215          1590.6480943         1860.15359399         1632.47430509         1832.88500522         1885.19933669         1397.17715112         1319.50891634         1312.57226755         1678.57382918         1780.35969683         1954.90997763         1867.91502442         1610.05435263          1227.8056867         2027.04929682         1700.11368996          675.57997706         2259.40884685         1937.36598277         1603.40009164          926.50590049         1830.87963462         1207.15875082         1952.04480414         1265.99214736         1836.42250071         1963.23386698         2263.98206417         1434.55886916
          0.4*MaxFES =          2434.31769685         1733.93135961         1947.81749444         2321.64052219          1084.3112309         1276.16395405         1988.73789264         1276.16395405         1766.56096031         1130.19277391          950.21811982         2142.72207121          1753.1625541         1218.33720965         1195.96500094         2369.87039843         1240.10029401         2653.26935803         1468.72287548         1843.89395567         1456.10078364          1782.0609215          1590.6480943         1860.15359399         1632.47430509         1832.88500518         1885.19933669         1397.17715112         1319.50891634         1312.57226755         1678.57382918         1780.35969637         1954.90997763         1867.91502442         1610.05435263          1227.8056867         2027.04929678         1700.11368996          675.57997697         2259.40884592         1937.36598265         1603.40007942          926.50590049         1830.87963462         1207.15875082         1952.04480414         1265.99214736         1836.42250071         1963.23386698         2263.98206417         1434.55886916
          0.5*MaxFES =          2434.31769685         1733.93135961         1947.81749302         2321.64052219          1084.3112309         1276.16395405         1988.73789257         1276.16395405         1766.56096031         1130.19277362          950.21811982         2142.72207121          1753.1625541         1218.33720965         1195.96500094         2369.87039843         1240.10029401         2653.26933839         1468.72285265         1843.89395567         1456.10078364          1782.0609215          1590.6480943         1860.15359399         1632.47430509         1832.88500461         1885.19933669         1397.17715112         1319.50891634         1312.57226755         1678.57382918         1780.35969305         1954.90997702         1867.91502442         1610.05435263          1227.8056867         2027.04929678         1700.11368996          675.57997681         2259.40881711         1937.36598138         1603.40007937          926.50590049         1830.87963462         1207.15875082         1952.04480414         1265.99214736         1836.42250071         1963.23386698         2263.98206417         1434.55886916
          0.6*MaxFES =          2434.31769685         1733.93135961         1947.81748204         2321.64052219          1084.3112309         1276.16395405          1988.7378924         1276.16395405         1766.56096031         1130.19277362          950.21811982         2142.72207121          1753.1625541         1218.33720965         1195.96500094         2369.87039843         1240.10029401         2653.26811234         1468.72214771         1843.89395567         1456.10078364          1782.0609215          1590.6480943         1860.15359399         1632.47430509         1832.88499329         1885.19933669         1397.17715112         1319.50891634         1312.57226755         1678.57382918         1780.35953406         1954.90996502         1867.91502442         1610.05435263          1227.8056867         2027.04929546         1700.11368996          675.57997437          2259.4072314         1937.36597853         1603.40007909          926.50590049         1830.87963462         1207.15875082         1952.04480414         1265.99214736         1836.42250071         1963.23386698         2263.98206417         1434.55886916
          0.7*MaxFES =          2434.31769685         1733.93135961          1947.8173966         2321.64052219          1084.3112309         1276.16395405         1988.73789145         1276.16395405         1766.56096031         1130.19277362          950.21811933         2142.72207121          1753.1625541         1218.33720965         1195.96500094         2369.87039843         1240.10029401         2653.22581901         1468.69975433         1843.89395567         1456.10078364          1782.0609215          1590.6480943         1860.15359399         1632.47430509         1832.88492279         1885.19933669         1397.17715112         1319.50891634         1312.57226755         1678.57382918         1780.35527183         1954.90983032         1867.91502442         1610.05435263          1227.8056867         2027.04928693         1700.11368996          675.57996048         2259.39020284         1937.36596436         1603.40007448          926.50590049         1830.87963462         1207.15875082         1952.04480414         1265.99214736         1836.42250071         1963.23386698         2263.98206417         1434.55886916
          0.8*MaxFES =          2434.31769685         1733.93135961         1947.81630216         2321.64052219          1084.3112309         1276.16395405         1988.73788158         1276.16395405         1766.56096031         1130.19277362          950.21811458         2142.72207121          1753.1625541         1218.32910414         1195.96500094         2369.87039843         1240.10029401         2652.93825543         1468.67960228         1843.89395567         1456.10078364          1782.0609215          1590.6480943         1860.15359399         1632.47430509         1832.88449809         1885.19933669         1397.17715112         1319.50891634         1312.57226755         1678.57382918         1780.32301272         1954.90915127         1867.91502442         1610.05435263          1227.8056867         2027.04914053         1700.11368996          675.57987967         2259.39020284         1937.36588015         1603.40005087          926.50590049         1830.87963462         1207.15875082         1952.04480414         1265.99214736         1836.42250071         1963.23386698         2263.98206417         1434.55886916
          0.9*MaxFES =          2434.31769685         1733.93135961         1947.81316828         2321.64052219          1084.3112309         1276.16395405         1988.73775782         1276.16395405         1766.56096031         1130.19277362          950.21810119         2142.72207121          1753.1625541         1218.31600303         1195.96500094         2369.87039843         1240.10029401         2652.64695193         1468.66724518         1843.89395567         1456.10078364          1782.0609215          1590.6480943         1860.15359399         1632.47430509         1832.87422942         1885.19816963         1397.17715112         1319.50891634         1312.55603123           1678.573206         1780.32301272         1954.89446988         1867.91502442         1610.05435263          1227.8056867         2027.04914053         1700.11368996          675.57934538         2259.39020284         1937.36464457         1603.39989136          926.50590049         1830.87963462         1207.15875082         1952.04480414         1265.99214736         1836.42250071         1963.23386698         2263.98206417         1434.55886916
              MaxFES =          2434.31769685         1733.93135961         1947.80636183         2321.64052219          1084.3112309         1276.16395405         1988.73759721         1276.16395405         1766.56096031         1130.19277362          950.21798628         2142.72207121          1753.1625541         1218.31600303         1195.96500094         2369.87039843         1240.10029401         2652.17558719         1468.66266974         1843.89370299         1456.10078364          1782.0609215          1590.6480943         1860.15359399         1632.47430509         1832.86630488         1885.18416179         1397.17715112         1319.50891634         1312.54963178         1678.56687344         1780.32240114         1954.87839378         1867.91502442         1610.05435263          1227.8056867         2027.04914053         1700.11368996          675.57710896         2259.33543447         1937.34770319         1603.39914067          926.50590049         1830.87963462         1207.15875082         1952.04480414         1265.99214736         1836.42250071         1963.23386698         2263.98206417         1434.55886916

                  Best                 Worst                Median                  Mean                   Std
          675.57710896         2652.17558719         1733.93135961    1664.0545104178432    423.34239334606895

