 24/07/2016 23:09:40 |                  Run 1                 Run 2                 Run 3                 Run 4                 Run 5                 Run 6                 Run 7                 Run 8                 Run 9                Run 10                Run 11                Run 12                Run 13                Run 14                Run 15                Run 16                Run 17                Run 18                Run 19                Run 20                Run 21                Run 22                Run 23                Run 24                Run 25                Run 26                Run 27                Run 28                Run 29                Run 30                Run 31                Run 32                Run 33                Run 34                Run 35                Run 36                Run 37                Run 38                Run 39                Run 40                Run 41                Run 42                Run 43                Run 44                Run 45                Run 46                Run 47                Run 48                Run 49                Run 50                Run 51
       0.0001*MaxFES =        748071.93244486      2035565.59082544   1.796831280916161E7       834651.84047686      2303229.12037767      5804154.46949634       387268.18074671       499991.60270161       221342.28626401   2.079171655858404E7      5479525.89968895      5394594.48120735   1.055091157529296E7       214168.29636005       329312.48771237   1.518902323001411E7      2067195.81240415       2552422.1762462      1166314.90055036       194521.33285453      1780147.05920007      3648919.28277608       768618.27261867       340433.57171917       516551.61238808      4064863.66984078       977108.56095915   5.625717906092133E7      3580420.07784434       603179.84134633      1388058.05505546   1.883868662307965E7      2106937.69339622       788591.20657144   2.520270698145158E7   2.143616503746258E7      1988194.38547216      1227704.29283444      2809549.43882941      2817809.05486629      5297732.12092747      1822609.15206058      8675520.12118281       666508.98126267      2464175.81316668   2.347947161218894E7   4.843638698041492E7       406379.05466996       621392.27824678       796530.84377036     1.7500777931029E7
        0.001*MaxFES =        469268.89575147       996872.42478524       7766610.2270581       566699.22453608      1369653.87586065      3237578.87261984        290479.3612182       339408.62756721       167720.11733386   1.135658706127757E7      2995676.79691171      3129486.27139338      5430477.45594934       174615.04946528       237872.57463434      8893255.42855972      1287921.91380635      1418251.08756279       881868.39815822       151251.32313131      1040236.64727017      2454291.34661635       526597.63989906       237043.88779729       344820.42900261      1828797.85851007       691643.25156553    2.19075964183612E7      1640401.07677339       436696.96230661       785203.54519098   1.061969460996172E7      1167631.49802746       501699.36449958    1.30458606332137E7       9390213.6465041      1134720.36064614       889537.70862343      1561123.66432328      1530590.87390471      2850328.00727125      1030285.36587407      4742664.13439681       513783.27034458      1684426.58004181   1.361302915876334E7   2.261587815405476E7       253479.25609192       368150.26675774       552011.38069209      8363199.20062715
         0.01*MaxFES =         31563.69096474        37264.33326662        34440.61701453        33984.11690052        34511.45822108        36110.72345324        32213.88959948        33209.64754734         37450.6973659        33651.08299175         35688.5765998        32991.50139173        36948.48505111        33438.40782607        34260.27232128           36849.97502        33949.39407835         37939.3696497        33530.31067813        35120.44446868        35208.29411334         37059.8818842        35993.35757962        31730.04927424        35943.03291895        34927.92634604        32688.77464218        36341.27322927        33777.91292936        33601.80450257        32736.78471947        32330.99153375        36463.37613899        36892.96197936        37396.61480674        34816.84936805        38031.96031926         32964.5127539        33247.94945716        36592.32418811         35943.0479882        35236.68117935        33442.21679442        36443.74384287        33380.90933233        32256.03841935        34185.72372736        37641.55700266        31757.45185548        35847.74349131        33009.90604463
         0.02*MaxFES =         31247.51561747         35769.2151822        32695.77957254        31503.55654857        33084.84328747         34111.6103369        31373.86283376        32324.52623869         35547.1991855        31733.17972663        34565.83868061         31281.9634554        34342.22622177        31619.47213618        31765.99626262        34751.36794182        31446.42862015        36419.04664366        31935.29581118        34135.60704354         33468.5812233        35353.00797004        33198.68253788        31304.94743321        33623.72714511        32911.29328305        31345.90816025        34052.51656698        31880.98385334        31829.80716523        31568.01247852        31261.12852894        34228.45560111        34913.79653036         34042.0422378        33266.63634822        36485.69149064        31558.08744866         31978.7672091        33846.15149906        33701.65331239        33669.38029812        32131.29433488        33983.14853756        31828.86703905        31257.35461544        32134.01049736        33383.79693256         31319.6582763        33488.76421643        31651.18785611
         0.03*MaxFES =         31241.99128111        35748.18706912        32663.43467975        31480.01688665        33071.77679311        34089.19826217        31363.05429701        32318.63733659        35521.14922648        31716.14724718        34554.78225394        31251.12854375        34306.70186951        31590.13348755        31735.52624329        34714.28441809        31404.48304713        36360.33292553        31920.05655807        34117.39651004        33456.00805582        35333.25475376        33159.57928822        31290.72677239        33572.37850199        32797.55877549        31314.29529957        34023.36757422        31841.76116033        31812.23133497        31550.59854473        31247.46672315        34202.17143775        34720.74683636        33849.95324465         33227.3537472        36455.98032032         31525.3558039        31903.02782357        33731.53528377        33650.51903121        33661.38911228          32110.032291        33940.09111384        31809.27147832        31239.10738357         32108.4031441        33076.03589376        31309.48369081        33430.85492929         31641.0525129
         0.04*MaxFES =         31240.49259843        35746.77587406         32660.2021185        31478.51396543        33070.49663842        34085.78067138         31361.4690849        32317.62968462         35520.0945307        31714.82600804        34553.42324399         31249.7382087        34302.96691584         31588.2142183        31734.32579775        34709.74038051        31393.54871481        36354.56155855        31919.22772908        34113.10974182        33453.35363578        35330.85197992        33140.63235861        31284.53967504        33569.15117746         32794.6221135        31312.08448255        34020.92509835         31839.8849052        31810.56310512        31549.24921353        31245.42222091        34199.84502748        34699.89433809        33834.01946213        33222.15767282        36453.95337301        31515.73015634        31898.55515269        33726.13610242        33646.29160424        33660.06034048        32106.91651085        33937.11604244         31796.5127763         31236.8026413        32105.02139807         33048.4044106        31303.00533707         33423.3898311        31639.36740856
         0.05*MaxFES =         31239.93449504        35746.32952873        32659.74147865         31478.0697545        33069.80298244        34085.40678839        31360.70568884         32316.6978138        35519.10604838        31714.07260495         34552.8760051        31249.21209113        34301.51919459        31587.01930086        31734.32579775        34708.17007187        31388.07667487         36353.9333237        31918.76281066        34112.14864013        33452.76571656        35329.98123802        33116.70326338        31274.19807319        33567.67873582         32793.9398155        31310.04751673        34020.42751203        31838.84268901        31810.34705642        31548.95677333         31245.2280634        34199.38314844        34697.84481406        33829.80539962         33220.9355271        36452.44637578        31498.63876469        31898.03044527        33725.08082816        33645.72179478        33659.86986762        32106.21708781        33936.49746622        31789.79098592        31236.44874167        32103.87863915        33039.81920605        31292.95946641        33422.32535756        31639.13554521
          0.1*MaxFES =         31239.30942272        35746.00389409        32659.27061456        31477.34033964        33069.35058528        34084.89702162        31360.07708755        32315.52921939        35518.62800924        31713.47287299        34552.03638847         31248.8356306        34300.22905578        31585.81038794        31733.38755527        34707.15989195        31383.88340836        36352.84846509        31918.12647204        34110.62679693        33452.35043122        35329.32877916        33088.48803796        31245.39797111        33567.30247573         32793.0946546        31307.83989251        34019.90892341        31837.76700139        31810.18502299        31547.89584622        31244.82243467        34198.56399997        34696.01604651        33827.55475682        33220.02043606         36449.6096517        31441.43492239         31897.4342055        33723.37848911        33644.79221601        33658.86706728        32105.27001371        33936.14287699        31782.79618442        31236.09077774        32103.49572395         33035.7245173        31255.09906408        33421.10136694         31638.8629843
          0.2*MaxFES =         31239.26802834         35745.9877137        32659.25228791        31477.25346075        33069.33605238         34084.8625598        31360.00866308        32315.43332376        35518.55213137        31713.41930329        34551.97095199        31248.82386068        34300.14966997        31585.62474082        31733.34341351        34707.15316828        31383.65265108        36352.82465407        31918.07412631        34109.99636375        33452.33101318        35329.24427291        33087.47941247        31244.83451217        33567.29762578        32793.08600236        31307.68130135        34019.88233817        31837.64889941        31810.13632088        31547.83058653        31244.81786053        34198.47200455        34695.99581079        33827.43768138        33219.96564957        36448.52836577        31441.16026181        31897.39429226        33723.26687913        33644.77056125        33658.52201356        32105.23677945        33936.10272554        31782.54686913        31236.08545523         32103.4257018        33035.58649428        31253.61591836         33421.0593213        31638.85581586
          0.3*MaxFES =         31239.26775057        35745.98731939        32659.25204051        31477.25248836        33069.33604665         34084.8623474        31360.00789811        32315.43228215        35518.55175836        31713.41775495        34551.97034677        31248.82386029        34300.14088579        31585.62202412          31733.342072        34707.15316011        31383.65126621        36352.82461933        31918.06717656        34109.98293366        33452.33060749        35329.24230182        33087.47931034         31244.8333145        33567.29762557        32793.08599099        31307.67849992        34019.88231061        31837.64812865        31810.13504302        31547.83035754        31244.81786046        34198.47200191        34695.99577646        33827.43766752        33219.96557322        36448.52142976        31441.14102648        31897.39415996        33723.26546829        33644.77050714        33658.50646987        32105.23215607        33936.10213109        31782.54615676        31236.08545493        32103.42534713        33035.58647364        31253.60370298        33421.05928584        31638.85575861
          0.4*MaxFES =         31239.26772764        35745.98731062        32659.25204048        31477.25247914        33069.33604663        34084.86234727         31360.0078631        32315.43226082        35518.55174985        31713.41773874        34551.97034601        31248.82386018        34300.13999546        31585.62196188        31733.34206609        34707.15316011        31383.65126247        36352.82461928        31918.06686575        34109.98276414        33452.33060319        35329.24228624        33087.47931028        31244.83330196        33567.29762557        32793.08599097          31307.678254        34019.88230943         31837.6478938        31810.13499711        31547.83035237        31244.81786046        34198.47200191        34695.99577614        33827.43766751        33219.96557313        36448.52106402        31441.14007947        31897.39415992        33723.26546144        33644.77050701        33658.50547701        32105.23180583        33936.10210435        31782.54615582         31236.0854549        32103.42534345        33035.01555738         31253.6027199        33421.05928584        31638.85575859
          0.5*MaxFES =         31239.26772764        35745.98731042        32659.25204038        31477.25247909        33069.33604646         34084.8623462        31360.00786258        32315.43226006        35518.55174978        31713.41773869        34551.97034588        31248.82385656        34300.13992366        31585.62196174        31733.34206595        34707.15316011        31383.65126194        36352.82461928        31918.06686172        34109.98275335        33452.33060319        35329.24228557        33087.47931009        31244.83330193        33567.29762557        32793.08599089        31307.67820592        34019.88230941        31837.64787777        31810.13499565        31547.83035216          31244.817694        34198.47200191        34695.99577611        33827.43766751        33219.96553627        36448.52106165        31441.14005507        31897.39415974        33723.26546141        33644.77050698        33658.50547556        32105.23178365         33936.1021013        31782.54615581         31236.0854549        32103.42534342        33035.01555738        31253.60270697        33421.05928558        31638.85575842
          0.6*MaxFES =         31239.26772764         35745.9873034        32659.25203992        31477.25247851        33069.33604375        34084.86233932        31360.00786229        32315.43225832         35518.5517489        31713.41773838        34551.97034397        31248.82355838        34300.13992347        31585.62195902        31733.34206499        34707.15316011        31383.65125197          36352.824609        31918.06686166        34109.98270343        33452.33060311        35329.24228552        33087.47930758        31244.83330193        33567.29762557        32793.08599039        31307.67820393        34019.88230926        31837.64787767         31810.1349956        31547.83035001          31244.817694        34198.47199657        34695.99577591        33827.43766679        33219.96553627        36448.52064991        31441.14005482        31897.39415974        33723.26546095        33644.77046482        33658.50547556        32105.23178362        33936.10210126        31782.54615576         31236.0854549        32103.42534323        33035.01555738        31253.60270585        33421.05928558        31638.85575772
          0.7*MaxFES =         31239.26772764        35745.98717143        32659.25203877        31477.25247631        33069.33603517        34084.86209654        31360.00785803        32315.43224737        35518.55174543        31713.41773771        34551.97031556        31248.82007751        34300.13992065        31585.62187703        31733.34205906        34707.15316011        31383.65109931        36352.82437313        31918.06686093        34109.98265929        33452.33060289        35329.24228516        33087.47929754        31244.83330193        33567.29762531        32793.08598996        31307.67811323        34019.88230892        31837.64787709        31810.13499552        31547.83032472          31244.817694        34198.47179544        34695.99577543        33827.43766679        33219.96553627        36448.52064991        31441.14005464        31897.39414891        33723.26545894        33644.77046482        33658.50547545        32105.23178361        33936.10209508        31782.54615568         31236.0854549        32103.42534298        33035.01555738        31253.60270428        33421.05830493        31638.85575677
          0.8*MaxFES =         31239.26772764        35745.95657465        32659.25203312         31477.2524688        33069.33598352        34084.86045115        31360.00780374        32315.43220557        35518.55172435         31713.4177326        34551.97010793        31248.82007751        34300.13985308        31585.60819789        31733.34203643        34707.15316011        31383.64697013        36352.82061305         31918.0668592        34109.98253654        33452.33060241        35329.24228436        33087.47882847        31244.83330193        33567.29762531        32793.08598868         31307.6762019        34019.88230858        31837.64787374        31810.13499526        31547.82988524          31244.817694        34198.47179544         34695.9957707        33827.43766679        33219.96553627        36448.52064991         31441.1400543        31897.39413258        33723.26542389        33644.77046482        33658.50547542         32105.2317836        33936.10203033        31782.54615536         31236.0854549        32103.42534178        33035.01555738        31253.59253202        33421.05781282        31638.85574689
          0.9*MaxFES =         31239.26772764        35745.83252708        32659.25199569        31477.25229459        33069.33549905        34084.84808726         31360.0075755         32315.4320198        35518.55165469        31713.41771667        34551.96098325        31248.82007751        34300.13860958        31585.58662462        31733.34195804        34707.15316011        31383.63903797        36352.82061305         31918.0668469        34087.53829672        33452.33059842        35329.24228097        33087.47823193        31244.83330193        33567.29762195        32793.08590857        31307.63875126        34019.88230699        31837.64782985        31810.13499417        31547.82711219          31244.817694        34198.47179544        34695.99576246        33827.43766679        33219.96553627        36448.52064991        31441.14005204        31897.39177224        33723.26533488        33644.77046482         33658.5054753        32105.23178358          33936.100274        31782.54615384         31236.0854549         32103.4253394        33035.01555738        31253.59253202        33421.05781282        31638.85572689
              MaxFES =         31239.26772764        35745.83252708         32659.2516347        31477.24948634        33069.33479505        34084.84808726        31360.00535741        32315.43156845        35518.55134456        31713.41761371        34551.93929534        31248.82007751        34300.11229968        31585.58662462         31733.3415885        34707.15316011        31383.63903797        36352.82061305        31918.06677046        33909.86640859        33452.33057648         35329.2422715        33087.45860242        31244.83330193        33567.29762195         32793.0856577        31307.18594283        34019.88228374        31837.64770578        31810.13498908        31547.81861635          31244.817694        34198.47179544        34695.99563461        33827.43766679        33219.96553627        36448.52064991        31441.14004444        31897.38891489         33723.2571383        33644.77046482        33658.50547511        32105.23178347        33936.02433272        31782.54615011         31236.0854549        32103.42533276        33035.01555738        31253.59253202        33421.05781282        31638.85563447

                  Best                 Worst                Median                  Mean                   Std
         31236.0854549        36448.52064991         32793.0856577     32929.08939594157    1481.5563062626297

