 23/07/2016 14:33:54 |                  Run 1                 Run 2                 Run 3                 Run 4                 Run 5                 Run 6                 Run 7                 Run 8                 Run 9                Run 10                Run 11                Run 12                Run 13                Run 14                Run 15                Run 16                Run 17                Run 18                Run 19                Run 20                Run 21                Run 22                Run 23                Run 24                Run 25                Run 26                Run 27                Run 28                Run 29                Run 30                Run 31                Run 32                Run 33                Run 34                Run 35                Run 36                Run 37                Run 38                Run 39                Run 40                Run 41                Run 42                Run 43                Run 44                Run 45                Run 46                Run 47                Run 48                Run 49                Run 50                Run 51
       0.0001*MaxFES =        247021.22491037         7469.63783553         1820.97550866       332551.69341393          2281.9812146         6800.56107741         8004.57322329           637.8121887      1280054.24210946       171854.91631872         5094.05532528          2065.3307599         9670.79966906       913768.40051042         27387.8720153       652589.11971796          450.28402595         9637.26138693      4716448.74834535         6629.24471204         6821.27260417        38040.19946708         3684.57261252          811.42103475        37949.46879238          186.08838085         6449.17557043        48301.15296395          691.70876183       768512.60616161        11441.14825938   3.865985675401222E8         8246.99212781         5871.56461138        30833.89976515         5662.48664946      2137710.36520983         1803.51476393          132.35304656         9119.90079484  2.1097416901307508E8         9922.58078075        13902.03929924        13532.96292525         11006.0392405   7.059125994324856E8          692.30549624         1574.18455735         9772.61319392   4.439438816735909E7         9394.69479854
        0.001*MaxFES =         97640.06478185         5816.70576125          905.56327689        87959.17089306         1863.34199491         5372.74143269         6578.97503166          456.11959998       435309.19645292        68059.01107646         3519.74833074         1343.92386497          6441.1307092       223264.29522949        11817.64400372       276145.00107608          329.51522347         6378.56299424      2024263.97920903         4460.01094509         5762.21086492        17405.13209608         1979.45576621          583.46771922        15969.67414268          131.79541259         5021.86988025        21677.91685032          514.32042276        185011.9648017         8684.65496632  2.2157553955484658E8         5638.73485283         4799.72441656        13541.63703475         3403.90609619       961399.03915544          1098.5681362          123.34000943          6402.6486797    9.27587552023066E7         7199.21785525         7723.24140829         5313.97142206         8232.67143956  3.7767538639217484E8          472.22110626         1035.64433344         6450.09147595   1.920262904100646E7         6450.96651946
         0.01*MaxFES =            43.39575995         2886.49340519           40.31606965           48.55627435           1171.960491         3571.21254235         2955.78247834           45.07786368           46.52491092           44.08767269           45.21020192            45.6160333          3287.8397092           47.59898299           46.06114976           42.02311439          221.92633836         4765.67663221           41.85193438         2223.79058024         2232.91250148           519.8866131           43.00997776           45.96484036           51.29796058            79.3581651         2589.60073848           44.91338239           44.48773335           44.29084698         1593.42529537            44.0102779         2931.63102739           46.98201587           43.23462312         1103.61625456           45.08784924           43.79400819           71.86381176         3071.57224778           44.40435289         6232.77948741         2926.58122972           44.25579374         4798.95888076           45.30314832           40.19799171           42.61910862         4138.92127786           41.06653864         1198.34445419
         0.02*MaxFES =            41.13550016         2876.11781865           40.31606965           42.89524678         1168.09810358         3570.43419779         2954.36112322           43.07395885           40.15676089           40.09074785            42.0009036           41.24491963          3277.0128153           41.26262433           45.65720618            39.3615346          218.47667884         4764.69063634           38.83702987         2222.53540778         2219.28104227          455.58672539           39.54571039           37.34680904           39.80554484           75.60490581         2581.95709671           44.91338239           42.36141235           40.63459066         1566.64041667           41.31467487         2914.21242438           43.38456232           40.63118084         1102.49939402           39.79806142           43.25976709           70.23989486         3068.95021761           38.22090377         6232.40688952         2734.94227255           44.25579374         4795.41677608           41.89025268            37.6166462           38.83057717         4131.41999364           41.06653864         1189.13000059
         0.03*MaxFES =            40.27845803         2875.86969881           40.31606965           41.26515705         1168.09810358         3570.43415116          2954.3609557           42.27141434            37.6839365            39.9382299            42.0009036           41.24491963         3277.01031843           40.14878553           45.50572691           38.93879446          218.36511341         4764.69030655           38.83702987         2222.53534552         2219.27971664          455.57269552           39.54571039           37.34680904           39.80554484           75.40883736         2581.95559865           44.91338239           41.29319652           40.57356397         1566.63768913           39.83026423         2913.18584495           41.98128378           38.90656278          1102.4991697            39.4211575           43.25976709           70.18348989         3068.94948107           38.22090377         6232.40688132         2733.68356427           42.89334759         4795.41586364           41.89025268            37.6166462           38.34248944         4131.41917967           41.06653864         1189.12884735
         0.04*MaxFES =            40.19368041         2875.82883595           40.31606965           41.23262857         1168.04866512         3570.43415115         2954.36095565           40.49690824            37.6839365            39.9382299           40.26247363           39.92262431         3277.01031829           40.14878553           45.50572691           38.93879446          218.22210115          4764.6903065           38.83702987          2222.5353455         2219.27971638          455.57269453           39.10815104           36.96407764           39.80554484           75.33030617         2581.95559858           44.77023704           41.29319652           40.57356397         1566.63768848           38.85716402         2913.00350261           40.47056167           38.57504595         1102.49916967            39.4211575           43.25976709           70.17125875         3068.94948101           34.14313028         6232.40688131         2733.50826108           42.89334759         4795.41586355           41.89025268           37.25589167           37.63471535         4131.41917955           40.79495859         1189.12884706
         0.05*MaxFES =            40.15774852         2875.77439137           40.31606965           40.50542608         1168.03576075         3570.43415115         2954.36095565           40.22861652            37.6839365            39.9382299           40.26247363           39.92262431         3277.01031829           40.14878553           45.50572691           38.93879446          218.20290765          4764.6903065           38.83702987          2222.5353455         2219.27971638          455.57269453           39.10815104           36.73433512           39.80554484           75.32026672         2581.95559858            44.7414029           41.29319652           40.57356397         1566.63768848           38.23897354         2913.00350261           40.47056167           38.57504595         1102.49916967            39.4211575           43.25976709           70.16700491         3068.94948101           34.14313028         6232.40688131         2732.96015051           42.85049564         4795.41586355           41.89025268           37.01655931           35.73275184         4131.41917955           40.39014925         1189.12884706
          0.1*MaxFES =            39.93708057         2875.75497339           40.31606965           39.88922566         1168.02817093         3570.43415115         2954.36095565           40.17022062           37.42623054            39.9382299           40.18714298           39.92262431         3277.01031829           40.14878553           45.50572691           38.93879446           218.1871254          4764.6903065           38.83702987          2222.5353455         2219.27971638          455.57269453           39.10815104           36.60732025           37.85115391            75.2976079         2581.95559857           44.73122014           37.84412887           40.57356397         1566.63768848           37.94218159         2912.69120308           40.47056167           38.57504595         1102.49916967            39.4211575           43.25976709           70.16597023           3068.949481           34.11119757         6232.40688131         2732.79647226           42.64827082         4795.41586355           41.89025268           36.82054052             35.311534         4131.41917955           38.34014709         1189.12884706
          0.2*MaxFES =              39.927529         2875.72263865           40.31606965           39.88922566         1168.02817093         3570.43415115         2954.36095565           40.02649725           37.27972497            39.9382299            40.0995159           39.92262431         3277.01031829           40.14878553           45.50572691           38.93879446          218.18688667          4764.6903065           38.83702987          2222.5353455         2219.27971638          455.57269453           39.10815104           36.60525669           37.52253821           75.29554066         2581.95559857           44.73077327           37.67539488           40.57356397         1566.63768848            37.6453863         2912.55852181           40.47056167           38.57504595         1102.49916967           39.33611724           43.25976709           70.16590438           3068.949481           33.87266049         6232.40688131         2732.75852853           42.63779485         4795.41586355           41.89025268           36.77538703           35.25940312         4131.41917955           38.30205161         1189.12884706
          0.3*MaxFES =            39.92752899         2875.69034198           40.31606965           39.88922566         1168.02817093         3570.43415115         2954.36095565           39.90340894           37.26719575            39.9382299           40.09847741           39.92262431         3277.01031829           40.14878553           45.50572691           38.93879446           218.1868866          4764.6903065           38.83702987          2222.5353455         2219.27971638          455.57269453           39.10815104           36.60525568           37.42987999           75.29552393         2581.95559857           44.73071271           37.60120708           40.57356397         1566.63768848           37.57686428         2912.55852181           40.47056167           38.57504595         1102.49916967           39.30299293           43.25976709             70.165904           3068.949481           33.70707705         6232.40688131         2732.75852853           42.63744702         4795.41586355           41.89025268           36.75544268           35.20570889         4131.41917955           38.28045113         1189.12884706
          0.4*MaxFES =            39.92752899         2875.69034197           40.31606965           39.88922566         1168.02817093         3570.43415115         2954.36095565           39.70304872           37.26402411            39.9382299           40.09843795           39.92262431         3277.01031829           40.14878553           45.50572691           38.93879446          218.18688579          4764.6903065           38.83702987          2222.5353455         2219.27971638          455.57269453           39.10815104           36.60525543           37.41136446           75.29552389         2581.95559857           44.73070042           37.56623086           40.57356397         1566.63768848           37.54236564         2912.55852181           40.47056167           38.57504595         1102.49916967           39.29076203           43.25976709           70.16580645           3068.949481           33.62749591         6232.40688131         2732.75852853           42.63734673         4795.41586355           41.89025268           36.74590463           35.18244968         4131.41917955           38.24697743         1189.12884706
          0.5*MaxFES =            39.92752899         2875.69034197           40.31606965           39.88922566         1168.02817093         3570.43415115         2954.36095565           39.68620765           37.26326989            39.9382299           40.09837551           39.92262431         3277.01031829           40.14878553           45.50572691           38.93879446          218.18686737          4764.6903065           38.83702987          2222.5353455         2219.27971638          455.57269453           39.10815104           36.60525528           37.40302985           75.29552377         2581.95559857           44.73069828           37.54885824           40.57356397         1566.63768848           37.50821339         2912.55852181           40.47056167           38.57504595         1102.49916967           39.28993895           43.25976709           70.16515251           3068.949481           33.61848234         6232.40688131         2732.75852853           42.63724442         4795.41586355           41.89025268           36.74049419           35.17511261         4131.41917955           38.24630628         1189.12884706
          0.6*MaxFES =            39.92752899         2875.69034197           40.31606965           39.88922566         1168.02806884         3570.43415115         2954.36095565           39.68620765           37.26325923            39.9382299            40.0983026           39.92262431         3277.01031829           40.14878553           45.50572691           38.93879446           218.1867219          4764.6903065           38.83702987          2222.5353455         2219.27971638          455.57269453           39.10815104           36.60525525           37.39950869           75.29552342         2581.95559857           44.73069769           37.53929023           40.57356397         1566.63768848           37.50505266         2912.55852181           40.47056167           38.57504595         1102.49916967           39.28991605           43.25976709           70.16515251           3068.949481           33.61741558         6232.40688131         2732.75852853           42.63710341         4795.41586355           41.89025268           36.73710324           35.17131841         4131.41917955           38.24627652         1189.12884706
          0.7*MaxFES =            39.92752899         2875.69034197           40.31606965           39.88922566         1168.02733094         3570.43415115         2954.36095565           39.68620765           37.26325923            39.9382299           40.09768662           39.92262431         3277.01031829           40.14878553           45.50572691           38.93879446          218.18420495          4764.6903065           38.83702987          2222.5353455         2219.27971638          455.57269453           39.10815104           36.60525525            37.3977047           75.29552076         2581.95559857           44.73069763           37.53417599           40.57356397         1566.63768848           37.50419202         2912.55852181           40.47056167           38.57504595         1102.49916967           39.28991596           43.25976709           70.15850363           3068.949481           33.61725732         6232.40688131         2732.75852833           42.63698151         4795.41586355           41.89025268           36.73426725           35.16844979         4131.41917955           38.24627345         1189.12884706
          0.8*MaxFES =            39.92752899         2875.69034197           40.31606965           39.88922566         1168.02488557         3570.43415115         2954.36095565           39.68620765           37.26325923            39.9382299           40.09768662           39.92262431         3277.01031829           40.14878553           45.50572691           38.93879446          218.17426344          4764.6903065           38.83702987          2222.5353455         2219.27971638          455.57269453           39.10815104           36.60525521           37.39686981           75.29548537         2581.95559857           44.73069749           37.53064935           40.57356397         1566.63768848           37.50382609         2912.55852181           40.47056167           38.57504595         1102.49916967           39.28991592           43.25976709           70.15755637           3068.949481           33.61722907         6232.40688131         2732.75326009           42.63693972         4795.41586355           41.89025268           36.73231963           35.16673934         4131.41917955           38.24627281         1189.12884706
          0.9*MaxFES =            39.92752899         2875.69034197           40.31606965           39.88922566         1168.02488557         3570.43415115         2954.36095565           39.68620765           37.26325923            39.9382299           40.09768662           39.92262431         3277.01031829           40.14878553           45.50572691           38.93879446          218.12446838          4764.6903065           38.83702987          2222.5353455         2219.27971638          455.57269453           39.10815104            36.6052552           37.39528742           75.29533717         2581.95559857           44.73069735           37.52820742           40.57356397         1566.63768848           37.50366571         2912.55681182           40.47056167           38.57504595         1102.49916967           39.28991574           43.25976709           70.15673208           3068.949481           33.61722405         6232.40688131         2732.72451155            42.6369254         4795.41586355           41.89025268           36.73080702           35.16592203         4131.41917955           38.24627264         1189.12884706
              MaxFES =            39.92752899         2875.69034197           40.31606965           39.88922566         1168.02381417         3570.43415115         2954.36095565           39.68620765           37.26325922            39.9382299           40.09768662           39.92262431         3277.01031829           40.14878553           45.50572691           38.93879446          218.04908537          4764.6903065           38.83702987          2222.5353455         2219.27971638          455.57269453           39.10815104           36.60525519           37.39528717           75.29506657         2581.95559857           44.73069727           37.34773726           40.57356397         1566.63768848           37.50358216         2912.44311588           40.47056167           38.57504595         1102.49916967           39.28991565           43.25976709           70.15616254           3068.949481           33.61722355         6232.40688131         2732.69402887           42.63692081         4795.41586355           41.89025268           36.72921643            35.1655639         4131.41917955           38.24627258         1189.12884706

                  Best                 Worst                Median                  Mean                   Std
           33.61722355         6232.40688131           42.63692081     1084.867921484314     1616.969241706593

