23/07/2016 18:12:50
GaAlgorithm - Iteraction ProblemsCEC15:f2: 1 / 51 - 100000

23/07/2016 18:12:51
GaAlgorithm - Iteraction ProblemsCEC15:f1: 1 / 51 - 100000

23/07/2016 18:12:51
GaAlgorithm - Iteraction ProblemsCEC15:f3: 1 / 51 - 100000

23/07/2016 18:12:57
GaAlgorithm - Iteraction ProblemsCEC15:f2: 2 / 51 - 100000

23/07/2016 18:12:58
GaAlgorithm - Iteraction ProblemsCEC15:f3: 2 / 51 - 100000

23/07/2016 18:12:58
GaAlgorithm - Iteraction ProblemsCEC15:f1: 2 / 51 - 100000

23/07/2016 18:13:04
GaAlgorithm - Iteraction ProblemsCEC15:f2: 3 / 51 - 100000

23/07/2016 18:13:05
GaAlgorithm - Iteraction ProblemsCEC15:f1: 3 / 51 - 100000

23/07/2016 18:13:06
GaAlgorithm - Iteraction ProblemsCEC15:f3: 3 / 51 - 100000

23/07/2016 18:13:11
GaAlgorithm - Iteraction ProblemsCEC15:f2: 4 / 51 - 100000

23/07/2016 18:13:12
GaAlgorithm - Iteraction ProblemsCEC15:f1: 4 / 51 - 100000

23/07/2016 18:13:13
GaAlgorithm - Iteraction ProblemsCEC15:f3: 4 / 51 - 100000

23/07/2016 18:13:18
GaAlgorithm - Iteraction ProblemsCEC15:f2: 5 / 51 - 100000

23/07/2016 18:13:19
GaAlgorithm - Iteraction ProblemsCEC15:f1: 5 / 51 - 100000

23/07/2016 18:13:20
GaAlgorithm - Iteraction ProblemsCEC15:f3: 5 / 51 - 100000

23/07/2016 18:13:25
GaAlgorithm - Iteraction ProblemsCEC15:f2: 6 / 51 - 100000

23/07/2016 18:13:27
GaAlgorithm - Iteraction ProblemsCEC15:f1: 6 / 51 - 100000

23/07/2016 18:13:27
GaAlgorithm - Iteraction ProblemsCEC15:f3: 6 / 51 - 100000

23/07/2016 18:13:32
GaAlgorithm - Iteraction ProblemsCEC15:f2: 7 / 51 - 100000

23/07/2016 18:13:33
GaAlgorithm - Iteraction ProblemsCEC15:f1: 7 / 51 - 100000

23/07/2016 18:13:34
GaAlgorithm - Iteraction ProblemsCEC15:f3: 7 / 51 - 100000

23/07/2016 18:13:38
GaAlgorithm - Iteraction ProblemsCEC15:f2: 8 / 51 - 100000

23/07/2016 18:13:41
GaAlgorithm - Iteraction ProblemsCEC15:f1: 8 / 51 - 100000

23/07/2016 18:13:41
GaAlgorithm - Iteraction ProblemsCEC15:f3: 8 / 51 - 100000

23/07/2016 18:13:45
GaAlgorithm - Iteraction ProblemsCEC15:f2: 9 / 51 - 100000

23/07/2016 18:13:48
GaAlgorithm - Iteraction ProblemsCEC15:f3: 9 / 51 - 100000

23/07/2016 18:13:48
GaAlgorithm - Iteraction ProblemsCEC15:f1: 9 / 51 - 100000

23/07/2016 18:13:52
GaAlgorithm - Iteraction ProblemsCEC15:f2: 10 / 51 - 100000

23/07/2016 18:13:55
GaAlgorithm - Iteraction ProblemsCEC15:f3: 10 / 51 - 100000

23/07/2016 18:13:56
GaAlgorithm - Iteraction ProblemsCEC15:f1: 10 / 51 - 100000

23/07/2016 18:13:59
GaAlgorithm - Iteraction ProblemsCEC15:f2: 11 / 51 - 100000

23/07/2016 18:14:02
GaAlgorithm - Iteraction ProblemsCEC15:f3: 11 / 51 - 100000

23/07/2016 18:14:03
GaAlgorithm - Iteraction ProblemsCEC15:f1: 11 / 51 - 100000

23/07/2016 18:14:05
GaAlgorithm - Iteraction ProblemsCEC15:f2: 12 / 51 - 100000

23/07/2016 18:14:10
GaAlgorithm - Iteraction ProblemsCEC15:f3: 12 / 51 - 100000

23/07/2016 18:14:11
GaAlgorithm - Iteraction ProblemsCEC15:f1: 12 / 51 - 100000

23/07/2016 18:14:12
GaAlgorithm - Iteraction ProblemsCEC15:f2: 13 / 51 - 100000

23/07/2016 18:14:17
GaAlgorithm - Iteraction ProblemsCEC15:f3: 13 / 51 - 100000

23/07/2016 18:14:18
GaAlgorithm - Iteraction ProblemsCEC15:f1: 13 / 51 - 100000

23/07/2016 18:14:19
GaAlgorithm - Iteraction ProblemsCEC15:f2: 14 / 51 - 100000

23/07/2016 18:14:23
GaAlgorithm - Iteraction ProblemsCEC15:f3: 14 / 51 - 100000

23/07/2016 18:14:25
GaAlgorithm - Iteraction ProblemsCEC15:f1: 14 / 51 - 100000

23/07/2016 18:14:26
GaAlgorithm - Iteraction ProblemsCEC15:f2: 15 / 51 - 100000

23/07/2016 18:14:31
GaAlgorithm - Iteraction ProblemsCEC15:f3: 15 / 51 - 100000

23/07/2016 18:14:33
GaAlgorithm - Iteraction ProblemsCEC15:f2: 16 / 51 - 100000

23/07/2016 18:14:33
GaAlgorithm - Iteraction ProblemsCEC15:f1: 15 / 51 - 100000

23/07/2016 18:14:38
GaAlgorithm - Iteraction ProblemsCEC15:f3: 16 / 51 - 100000

23/07/2016 18:14:39
GaAlgorithm - Iteraction ProblemsCEC15:f1: 16 / 51 - 100000

23/07/2016 18:14:40
GaAlgorithm - Iteraction ProblemsCEC15:f2: 17 / 51 - 100000

23/07/2016 18:14:45
GaAlgorithm - Iteraction ProblemsCEC15:f3: 17 / 51 - 100000

23/07/2016 18:14:46
GaAlgorithm - Iteraction ProblemsCEC15:f2: 18 / 51 - 100000

23/07/2016 18:14:46
GaAlgorithm - Iteraction ProblemsCEC15:f1: 17 / 51 - 100000

23/07/2016 18:14:51
GaAlgorithm - Iteraction ProblemsCEC15:f3: 18 / 51 - 100000

23/07/2016 18:14:53
GaAlgorithm - Iteraction ProblemsCEC15:f2: 19 / 51 - 100000

23/07/2016 18:14:54
GaAlgorithm - Iteraction ProblemsCEC15:f1: 18 / 51 - 100000

23/07/2016 18:14:58
GaAlgorithm - Iteraction ProblemsCEC15:f3: 19 / 51 - 100000

23/07/2016 18:15:00
GaAlgorithm - Iteraction ProblemsCEC15:f2: 20 / 51 - 100000

23/07/2016 18:15:01
GaAlgorithm - Iteraction ProblemsCEC15:f1: 19 / 51 - 100000

23/07/2016 18:15:06
GaAlgorithm - Iteraction ProblemsCEC15:f3: 20 / 51 - 100000

23/07/2016 18:15:07
GaAlgorithm - Iteraction ProblemsCEC15:f2: 21 / 51 - 100000

23/07/2016 18:15:09
GaAlgorithm - Iteraction ProblemsCEC15:f1: 20 / 51 - 100000

23/07/2016 18:15:13
GaAlgorithm - Iteraction ProblemsCEC15:f3: 21 / 51 - 100000

23/07/2016 18:15:14
GaAlgorithm - Iteraction ProblemsCEC15:f2: 22 / 51 - 100000

23/07/2016 18:15:16
GaAlgorithm - Iteraction ProblemsCEC15:f1: 21 / 51 - 100000

23/07/2016 18:15:20
GaAlgorithm - Iteraction ProblemsCEC15:f3: 22 / 51 - 100000

23/07/2016 18:15:21
GaAlgorithm - Iteraction ProblemsCEC15:f2: 23 / 51 - 100000

23/07/2016 18:15:23
GaAlgorithm - Iteraction ProblemsCEC15:f1: 22 / 51 - 100000

23/07/2016 18:15:27
GaAlgorithm - Iteraction ProblemsCEC15:f3: 23 / 51 - 100000

23/07/2016 18:15:28
GaAlgorithm - Iteraction ProblemsCEC15:f2: 24 / 51 - 100000

23/07/2016 18:15:30
GaAlgorithm - Iteraction ProblemsCEC15:f1: 23 / 51 - 100000

23/07/2016 18:15:34
GaAlgorithm - Iteraction ProblemsCEC15:f3: 24 / 51 - 100000

23/07/2016 18:15:34
GaAlgorithm - Iteraction ProblemsCEC15:f2: 25 / 51 - 100000

23/07/2016 18:15:37
GaAlgorithm - Iteraction ProblemsCEC15:f1: 24 / 51 - 100000

23/07/2016 18:15:41
GaAlgorithm - Iteraction ProblemsCEC15:f2: 26 / 51 - 100000

23/07/2016 18:15:42
GaAlgorithm - Iteraction ProblemsCEC15:f3: 25 / 51 - 100000

23/07/2016 18:15:44
GaAlgorithm - Iteraction ProblemsCEC15:f1: 25 / 51 - 100000

23/07/2016 18:15:48
GaAlgorithm - Iteraction ProblemsCEC15:f3: 26 / 51 - 100000

23/07/2016 18:15:49
GaAlgorithm - Iteraction ProblemsCEC15:f2: 27 / 51 - 100000

23/07/2016 18:15:51
GaAlgorithm - Iteraction ProblemsCEC15:f1: 26 / 51 - 100000

23/07/2016 18:15:55
GaAlgorithm - Iteraction ProblemsCEC15:f2: 28 / 51 - 100000

23/07/2016 18:15:56
GaAlgorithm - Iteraction ProblemsCEC15:f3: 27 / 51 - 100000

23/07/2016 18:15:58
GaAlgorithm - Iteraction ProblemsCEC15:f1: 27 / 51 - 100000

23/07/2016 18:16:02
GaAlgorithm - Iteraction ProblemsCEC15:f2: 29 / 51 - 100000

23/07/2016 18:16:02
GaAlgorithm - Iteraction ProblemsCEC15:f3: 28 / 51 - 100000

23/07/2016 18:16:05
GaAlgorithm - Iteraction ProblemsCEC15:f1: 28 / 51 - 100000

23/07/2016 18:16:09
GaAlgorithm - Iteraction ProblemsCEC15:f2: 30 / 51 - 100000

23/07/2016 18:16:09
GaAlgorithm - Iteraction ProblemsCEC15:f3: 29 / 51 - 100000

23/07/2016 18:16:13
GaAlgorithm - Iteraction ProblemsCEC15:f1: 29 / 51 - 100000

23/07/2016 18:16:16
GaAlgorithm - Iteraction ProblemsCEC15:f2: 31 / 51 - 100000

23/07/2016 18:16:17
GaAlgorithm - Iteraction ProblemsCEC15:f3: 30 / 51 - 100000

23/07/2016 18:16:20
GaAlgorithm - Iteraction ProblemsCEC15:f1: 30 / 51 - 100000

23/07/2016 18:16:23
GaAlgorithm - Iteraction ProblemsCEC15:f2: 32 / 51 - 100000

23/07/2016 18:16:24
GaAlgorithm - Iteraction ProblemsCEC15:f3: 31 / 51 - 100000

23/07/2016 18:16:27
GaAlgorithm - Iteraction ProblemsCEC15:f1: 31 / 51 - 100000

23/07/2016 18:16:29
GaAlgorithm - Iteraction ProblemsCEC15:f2: 33 / 51 - 100000

23/07/2016 18:16:30
GaAlgorithm - Iteraction ProblemsCEC15:f3: 32 / 51 - 100000

23/07/2016 18:16:34
GaAlgorithm - Iteraction ProblemsCEC15:f1: 32 / 51 - 100000

23/07/2016 18:16:36
GaAlgorithm - Iteraction ProblemsCEC15:f2: 34 / 51 - 100000

23/07/2016 18:16:37
GaAlgorithm - Iteraction ProblemsCEC15:f3: 33 / 51 - 100000

23/07/2016 18:16:41
GaAlgorithm - Iteraction ProblemsCEC15:f1: 33 / 51 - 100000

23/07/2016 18:16:43
GaAlgorithm - Iteraction ProblemsCEC15:f2: 35 / 51 - 100000

23/07/2016 18:16:44
GaAlgorithm - Iteraction ProblemsCEC15:f3: 34 / 51 - 100000

23/07/2016 18:16:49
GaAlgorithm - Iteraction ProblemsCEC15:f1: 34 / 51 - 100000

23/07/2016 18:16:50
GaAlgorithm - Iteraction ProblemsCEC15:f2: 36 / 51 - 100000

23/07/2016 18:16:51
GaAlgorithm - Iteraction ProblemsCEC15:f3: 35 / 51 - 100000

23/07/2016 18:16:56
GaAlgorithm - Iteraction ProblemsCEC15:f1: 35 / 51 - 100000

23/07/2016 18:16:57
GaAlgorithm - Iteraction ProblemsCEC15:f2: 37 / 51 - 100000

23/07/2016 18:16:57
GaAlgorithm - Iteraction ProblemsCEC15:f3: 36 / 51 - 100000

23/07/2016 18:17:03
GaAlgorithm - Iteraction ProblemsCEC15:f1: 36 / 51 - 100000

23/07/2016 18:17:03
GaAlgorithm - Iteraction ProblemsCEC15:f2: 38 / 51 - 100000

23/07/2016 18:17:04
GaAlgorithm - Iteraction ProblemsCEC15:f3: 37 / 51 - 100000

23/07/2016 18:17:10
GaAlgorithm - Iteraction ProblemsCEC15:f1: 37 / 51 - 100000

23/07/2016 18:17:11
GaAlgorithm - Iteraction ProblemsCEC15:f2: 39 / 51 - 100000

23/07/2016 18:17:12
GaAlgorithm - Iteraction ProblemsCEC15:f3: 38 / 51 - 100000

23/07/2016 18:17:17
GaAlgorithm - Iteraction ProblemsCEC15:f1: 38 / 51 - 100000

23/07/2016 18:17:18
GaAlgorithm - Iteraction ProblemsCEC15:f2: 40 / 51 - 100000

23/07/2016 18:17:19
GaAlgorithm - Iteraction ProblemsCEC15:f3: 39 / 51 - 100000

23/07/2016 18:17:24
GaAlgorithm - Iteraction ProblemsCEC15:f1: 39 / 51 - 100000

23/07/2016 18:17:24
GaAlgorithm - Iteraction ProblemsCEC15:f2: 41 / 51 - 100000

23/07/2016 18:17:26
GaAlgorithm - Iteraction ProblemsCEC15:f3: 40 / 51 - 100000

23/07/2016 18:17:31
GaAlgorithm - Iteraction ProblemsCEC15:f2: 42 / 51 - 100000

23/07/2016 18:17:32
GaAlgorithm - Iteraction ProblemsCEC15:f1: 40 / 51 - 100000

23/07/2016 18:17:33
GaAlgorithm - Iteraction ProblemsCEC15:f3: 41 / 51 - 100000

23/07/2016 18:17:38
GaAlgorithm - Iteraction ProblemsCEC15:f2: 43 / 51 - 100000

23/07/2016 18:17:39
GaAlgorithm - Iteraction ProblemsCEC15:f1: 41 / 51 - 100000

23/07/2016 18:17:41
GaAlgorithm - Iteraction ProblemsCEC15:f3: 42 / 51 - 100000

23/07/2016 18:17:45
GaAlgorithm - Iteraction ProblemsCEC15:f2: 44 / 51 - 100000

23/07/2016 18:17:46
GaAlgorithm - Iteraction ProblemsCEC15:f1: 42 / 51 - 100000

23/07/2016 18:17:49
GaAlgorithm - Iteraction ProblemsCEC15:f3: 43 / 51 - 100000

23/07/2016 18:17:52
GaAlgorithm - Iteraction ProblemsCEC15:f2: 45 / 51 - 100000

23/07/2016 18:17:53
GaAlgorithm - Iteraction ProblemsCEC15:f1: 43 / 51 - 100000

23/07/2016 18:17:56
GaAlgorithm - Iteraction ProblemsCEC15:f3: 44 / 51 - 100000

23/07/2016 18:17:59
GaAlgorithm - Iteraction ProblemsCEC15:f2: 46 / 51 - 100000

23/07/2016 18:18:00
GaAlgorithm - Iteraction ProblemsCEC15:f1: 44 / 51 - 100000

23/07/2016 18:18:04
GaAlgorithm - Iteraction ProblemsCEC15:f3: 45 / 51 - 100000

23/07/2016 18:18:06
GaAlgorithm - Iteraction ProblemsCEC15:f2: 47 / 51 - 100000

23/07/2016 18:18:08
GaAlgorithm - Iteraction ProblemsCEC15:f1: 45 / 51 - 100000

23/07/2016 18:18:10
GaAlgorithm - Iteraction ProblemsCEC15:f3: 46 / 51 - 100000

23/07/2016 18:18:12
GaAlgorithm - Iteraction ProblemsCEC15:f2: 48 / 51 - 100000

23/07/2016 18:18:15
GaAlgorithm - Iteraction ProblemsCEC15:f1: 46 / 51 - 100000

23/07/2016 18:18:17
GaAlgorithm - Iteraction ProblemsCEC15:f3: 47 / 51 - 100000

23/07/2016 18:18:19
GaAlgorithm - Iteraction ProblemsCEC15:f2: 49 / 51 - 100000

23/07/2016 18:18:22
GaAlgorithm - Iteraction ProblemsCEC15:f1: 47 / 51 - 100000

23/07/2016 18:18:23
GaAlgorithm - Iteraction ProblemsCEC15:f3: 48 / 51 - 100000

23/07/2016 18:18:26
GaAlgorithm - Iteraction ProblemsCEC15:f2: 50 / 51 - 100000

23/07/2016 18:18:30
GaAlgorithm - Iteraction ProblemsCEC15:f1: 48 / 51 - 100000

23/07/2016 18:18:30
GaAlgorithm - Iteraction ProblemsCEC15:f3: 49 / 51 - 100000

23/07/2016 18:18:33
GaAlgorithm - Iteraction ProblemsCEC15:f2: 51 / 51 - 100000

23/07/2016 18:18:36
GaAlgorithm - Iteraction ProblemsCEC15:f1: 49 / 51 - 100000

23/07/2016 18:18:36
GaAlgorithm - Iteraction ProblemsCEC15:f3: 50 / 51 - 100000

23/07/2016 18:18:40
GaAlgorithm - Iteraction ProblemsCEC15:f1: 50 / 51 - 100000

23/07/2016 18:18:40
GaAlgorithm - Iteraction ProblemsCEC15:f3: 51 / 51 - 100000

23/07/2016 18:18:45
GaAlgorithm - Iteraction ProblemsCEC15:f1: 51 / 51 - 100000

23/07/2016 18:18:48
GaAlgorithm - Iteraction ProblemsCEC15:f4: 1 / 51 - 100000

23/07/2016 18:18:48
GaAlgorithm - Iteraction ProblemsCEC15:f5: 1 / 51 - 100000

23/07/2016 18:18:52
GaAlgorithm - Iteraction ProblemsCEC15:f4: 2 / 51 - 100000

23/07/2016 18:18:53
GaAlgorithm - Iteraction ProblemsCEC15:f5: 2 / 51 - 100000

23/07/2016 18:18:59
GaAlgorithm - Iteraction ProblemsCEC15:f6: 1 / 51 - 100000

23/07/2016 18:19:00
GaAlgorithm - Iteraction ProblemsCEC15:f4: 3 / 51 - 100000

23/07/2016 18:19:00
GaAlgorithm - Iteraction ProblemsCEC15:f5: 3 / 51 - 100000

23/07/2016 18:19:06
GaAlgorithm - Iteraction ProblemsCEC15:f6: 2 / 51 - 100000

23/07/2016 18:19:07
GaAlgorithm - Iteraction ProblemsCEC15:f4: 4 / 51 - 100000

23/07/2016 18:19:07
GaAlgorithm - Iteraction ProblemsCEC15:f5: 4 / 51 - 100000

23/07/2016 18:19:13
GaAlgorithm - Iteraction ProblemsCEC15:f6: 3 / 51 - 100000

23/07/2016 18:19:14
GaAlgorithm - Iteraction ProblemsCEC15:f4: 5 / 51 - 100000

23/07/2016 18:19:15
GaAlgorithm - Iteraction ProblemsCEC15:f5: 5 / 51 - 100000

23/07/2016 18:19:20
GaAlgorithm - Iteraction ProblemsCEC15:f6: 4 / 51 - 100000

23/07/2016 18:19:21
GaAlgorithm - Iteraction ProblemsCEC15:f4: 6 / 51 - 100000

23/07/2016 18:19:23
GaAlgorithm - Iteraction ProblemsCEC15:f5: 6 / 51 - 100000

23/07/2016 18:19:27
GaAlgorithm - Iteraction ProblemsCEC15:f6: 5 / 51 - 100000

23/07/2016 18:19:29
GaAlgorithm - Iteraction ProblemsCEC15:f4: 7 / 51 - 100000

23/07/2016 18:19:30
GaAlgorithm - Iteraction ProblemsCEC15:f5: 7 / 51 - 100000

23/07/2016 18:19:34
GaAlgorithm - Iteraction ProblemsCEC15:f6: 6 / 51 - 100000

23/07/2016 18:19:36
GaAlgorithm - Iteraction ProblemsCEC15:f4: 8 / 51 - 100000

23/07/2016 18:19:38
GaAlgorithm - Iteraction ProblemsCEC15:f5: 8 / 51 - 100000

23/07/2016 18:19:42
GaAlgorithm - Iteraction ProblemsCEC15:f6: 7 / 51 - 100000

23/07/2016 18:19:44
GaAlgorithm - Iteraction ProblemsCEC15:f4: 9 / 51 - 100000

23/07/2016 18:19:46
GaAlgorithm - Iteraction ProblemsCEC15:f5: 9 / 51 - 100000

23/07/2016 18:19:50
GaAlgorithm - Iteraction ProblemsCEC15:f6: 8 / 51 - 100000

23/07/2016 18:19:51
GaAlgorithm - Iteraction ProblemsCEC15:f4: 10 / 51 - 100000

23/07/2016 18:19:54
GaAlgorithm - Iteraction ProblemsCEC15:f5: 10 / 51 - 100000

23/07/2016 18:19:57
GaAlgorithm - Iteraction ProblemsCEC15:f6: 9 / 51 - 100000

23/07/2016 18:19:59
GaAlgorithm - Iteraction ProblemsCEC15:f4: 11 / 51 - 100000

23/07/2016 18:20:01
GaAlgorithm - Iteraction ProblemsCEC15:f5: 11 / 51 - 100000

23/07/2016 18:20:04
GaAlgorithm - Iteraction ProblemsCEC15:f6: 10 / 51 - 100000

23/07/2016 18:20:06
GaAlgorithm - Iteraction ProblemsCEC15:f4: 12 / 51 - 100000

23/07/2016 18:20:08
GaAlgorithm - Iteraction ProblemsCEC15:f5: 12 / 51 - 100000

23/07/2016 18:20:11
GaAlgorithm - Iteraction ProblemsCEC15:f6: 11 / 51 - 100000

23/07/2016 18:20:13
GaAlgorithm - Iteraction ProblemsCEC15:f4: 13 / 51 - 100000

23/07/2016 18:20:15
GaAlgorithm - Iteraction ProblemsCEC15:f5: 13 / 51 - 100000

23/07/2016 18:20:19
GaAlgorithm - Iteraction ProblemsCEC15:f6: 12 / 51 - 100000

23/07/2016 18:20:20
GaAlgorithm - Iteraction ProblemsCEC15:f4: 14 / 51 - 100000

23/07/2016 18:20:23
GaAlgorithm - Iteraction ProblemsCEC15:f5: 14 / 51 - 100000

23/07/2016 18:20:26
GaAlgorithm - Iteraction ProblemsCEC15:f6: 13 / 51 - 100000

23/07/2016 18:20:27
GaAlgorithm - Iteraction ProblemsCEC15:f4: 15 / 51 - 100000

23/07/2016 18:20:30
GaAlgorithm - Iteraction ProblemsCEC15:f5: 15 / 51 - 100000

23/07/2016 18:20:33
GaAlgorithm - Iteraction ProblemsCEC15:f6: 14 / 51 - 100000

23/07/2016 18:20:33
GaAlgorithm - Iteraction ProblemsCEC15:f4: 16 / 51 - 100000

23/07/2016 18:20:38
GaAlgorithm - Iteraction ProblemsCEC15:f5: 16 / 51 - 100000

23/07/2016 18:20:40
GaAlgorithm - Iteraction ProblemsCEC15:f6: 15 / 51 - 100000

23/07/2016 18:20:41
GaAlgorithm - Iteraction ProblemsCEC15:f4: 17 / 51 - 100000

23/07/2016 18:20:45
GaAlgorithm - Iteraction ProblemsCEC15:f5: 17 / 51 - 100000

23/07/2016 18:20:48
GaAlgorithm - Iteraction ProblemsCEC15:f4: 18 / 51 - 100000

23/07/2016 18:20:48
GaAlgorithm - Iteraction ProblemsCEC15:f6: 16 / 51 - 100000

23/07/2016 18:20:52
GaAlgorithm - Iteraction ProblemsCEC15:f5: 18 / 51 - 100000

23/07/2016 18:20:55
GaAlgorithm - Iteraction ProblemsCEC15:f6: 17 / 51 - 100000

23/07/2016 18:20:56
GaAlgorithm - Iteraction ProblemsCEC15:f4: 19 / 51 - 100000

23/07/2016 18:21:00
GaAlgorithm - Iteraction ProblemsCEC15:f5: 19 / 51 - 100000

23/07/2016 18:21:02
GaAlgorithm - Iteraction ProblemsCEC15:f6: 18 / 51 - 100000

23/07/2016 18:21:03
GaAlgorithm - Iteraction ProblemsCEC15:f4: 20 / 51 - 100000

23/07/2016 18:21:07
GaAlgorithm - Iteraction ProblemsCEC15:f5: 20 / 51 - 100000

23/07/2016 18:21:09
GaAlgorithm - Iteraction ProblemsCEC15:f6: 19 / 51 - 100000

23/07/2016 18:21:10
GaAlgorithm - Iteraction ProblemsCEC15:f4: 21 / 51 - 100000

23/07/2016 18:21:14
GaAlgorithm - Iteraction ProblemsCEC15:f5: 21 / 51 - 100000

23/07/2016 18:21:17
GaAlgorithm - Iteraction ProblemsCEC15:f6: 20 / 51 - 100000

23/07/2016 18:21:18
GaAlgorithm - Iteraction ProblemsCEC15:f4: 22 / 51 - 100000

23/07/2016 18:21:21
GaAlgorithm - Iteraction ProblemsCEC15:f5: 22 / 51 - 100000

23/07/2016 18:21:24
GaAlgorithm - Iteraction ProblemsCEC15:f6: 21 / 51 - 100000

23/07/2016 18:21:26
GaAlgorithm - Iteraction ProblemsCEC15:f4: 23 / 51 - 100000

23/07/2016 18:21:29
GaAlgorithm - Iteraction ProblemsCEC15:f5: 23 / 51 - 100000

23/07/2016 18:21:31
GaAlgorithm - Iteraction ProblemsCEC15:f6: 22 / 51 - 100000

23/07/2016 18:21:33
GaAlgorithm - Iteraction ProblemsCEC15:f4: 24 / 51 - 100000

23/07/2016 18:21:36
GaAlgorithm - Iteraction ProblemsCEC15:f5: 24 / 51 - 100000

23/07/2016 18:21:39
GaAlgorithm - Iteraction ProblemsCEC15:f6: 23 / 51 - 100000

23/07/2016 18:21:40
GaAlgorithm - Iteraction ProblemsCEC15:f4: 25 / 51 - 100000

23/07/2016 18:21:43
GaAlgorithm - Iteraction ProblemsCEC15:f5: 25 / 51 - 100000

23/07/2016 18:21:46
GaAlgorithm - Iteraction ProblemsCEC15:f6: 24 / 51 - 100000

23/07/2016 18:21:47
GaAlgorithm - Iteraction ProblemsCEC15:f4: 26 / 51 - 100000

23/07/2016 18:21:50
GaAlgorithm - Iteraction ProblemsCEC15:f5: 26 / 51 - 100000

23/07/2016 18:21:53
GaAlgorithm - Iteraction ProblemsCEC15:f6: 25 / 51 - 100000

23/07/2016 18:21:55
GaAlgorithm - Iteraction ProblemsCEC15:f4: 27 / 51 - 100000

23/07/2016 18:21:57
GaAlgorithm - Iteraction ProblemsCEC15:f5: 27 / 51 - 100000

23/07/2016 18:22:01
GaAlgorithm - Iteraction ProblemsCEC15:f6: 26 / 51 - 100000

23/07/2016 18:22:03
GaAlgorithm - Iteraction ProblemsCEC15:f4: 28 / 51 - 100000

23/07/2016 18:22:05
GaAlgorithm - Iteraction ProblemsCEC15:f5: 28 / 51 - 100000

23/07/2016 18:22:08
GaAlgorithm - Iteraction ProblemsCEC15:f6: 27 / 51 - 100000

23/07/2016 18:22:11
GaAlgorithm - Iteraction ProblemsCEC15:f4: 29 / 51 - 100000

23/07/2016 18:22:12
GaAlgorithm - Iteraction ProblemsCEC15:f5: 29 / 51 - 100000

23/07/2016 18:22:15
GaAlgorithm - Iteraction ProblemsCEC15:f6: 28 / 51 - 100000

23/07/2016 18:22:19
GaAlgorithm - Iteraction ProblemsCEC15:f4: 30 / 51 - 100000

23/07/2016 18:22:20
GaAlgorithm - Iteraction ProblemsCEC15:f5: 30 / 51 - 100000

23/07/2016 18:22:23
GaAlgorithm - Iteraction ProblemsCEC15:f6: 29 / 51 - 100000

23/07/2016 18:22:26
GaAlgorithm - Iteraction ProblemsCEC15:f4: 31 / 51 - 100000

23/07/2016 18:22:27
GaAlgorithm - Iteraction ProblemsCEC15:f5: 31 / 51 - 100000

23/07/2016 18:22:30
GaAlgorithm - Iteraction ProblemsCEC15:f6: 30 / 51 - 100000

23/07/2016 18:22:33
GaAlgorithm - Iteraction ProblemsCEC15:f4: 32 / 51 - 100000

23/07/2016 18:22:34
GaAlgorithm - Iteraction ProblemsCEC15:f5: 32 / 51 - 100000

23/07/2016 18:22:37
GaAlgorithm - Iteraction ProblemsCEC15:f6: 31 / 51 - 100000

23/07/2016 18:22:40
GaAlgorithm - Iteraction ProblemsCEC15:f4: 33 / 51 - 100000

23/07/2016 18:22:42
GaAlgorithm - Iteraction ProblemsCEC15:f5: 33 / 51 - 100000

23/07/2016 18:22:44
GaAlgorithm - Iteraction ProblemsCEC15:f6: 32 / 51 - 100000

23/07/2016 18:22:47
GaAlgorithm - Iteraction ProblemsCEC15:f4: 34 / 51 - 100000

23/07/2016 18:22:50
GaAlgorithm - Iteraction ProblemsCEC15:f5: 34 / 51 - 100000

23/07/2016 18:22:51
GaAlgorithm - Iteraction ProblemsCEC15:f6: 33 / 51 - 100000

23/07/2016 18:22:54
GaAlgorithm - Iteraction ProblemsCEC15:f4: 35 / 51 - 100000

23/07/2016 18:22:57
GaAlgorithm - Iteraction ProblemsCEC15:f5: 35 / 51 - 100000

23/07/2016 18:22:59
GaAlgorithm - Iteraction ProblemsCEC15:f6: 34 / 51 - 100000

23/07/2016 18:23:01
GaAlgorithm - Iteraction ProblemsCEC15:f4: 36 / 51 - 100000

23/07/2016 18:23:04
GaAlgorithm - Iteraction ProblemsCEC15:f5: 36 / 51 - 100000

23/07/2016 18:23:06
GaAlgorithm - Iteraction ProblemsCEC15:f6: 35 / 51 - 100000

23/07/2016 18:23:08
GaAlgorithm - Iteraction ProblemsCEC15:f4: 37 / 51 - 100000

23/07/2016 18:23:12
GaAlgorithm - Iteraction ProblemsCEC15:f5: 37 / 51 - 100000

23/07/2016 18:23:14
GaAlgorithm - Iteraction ProblemsCEC15:f6: 36 / 51 - 100000

23/07/2016 18:23:15
GaAlgorithm - Iteraction ProblemsCEC15:f4: 38 / 51 - 100000

23/07/2016 18:23:20
GaAlgorithm - Iteraction ProblemsCEC15:f5: 38 / 51 - 100000

23/07/2016 18:23:21
GaAlgorithm - Iteraction ProblemsCEC15:f6: 37 / 51 - 100000

23/07/2016 18:23:22
GaAlgorithm - Iteraction ProblemsCEC15:f4: 39 / 51 - 100000

23/07/2016 18:23:27
GaAlgorithm - Iteraction ProblemsCEC15:f5: 39 / 51 - 100000

23/07/2016 18:23:28
GaAlgorithm - Iteraction ProblemsCEC15:f6: 38 / 51 - 100000

23/07/2016 18:23:29
GaAlgorithm - Iteraction ProblemsCEC15:f4: 40 / 51 - 100000

23/07/2016 18:23:35
GaAlgorithm - Iteraction ProblemsCEC15:f5: 40 / 51 - 100000

23/07/2016 18:23:35
GaAlgorithm - Iteraction ProblemsCEC15:f6: 39 / 51 - 100000

23/07/2016 18:23:36
GaAlgorithm - Iteraction ProblemsCEC15:f4: 41 / 51 - 100000

23/07/2016 18:23:43
GaAlgorithm - Iteraction ProblemsCEC15:f5: 41 / 51 - 100000

23/07/2016 18:23:43
GaAlgorithm - Iteraction ProblemsCEC15:f6: 40 / 51 - 100000

23/07/2016 18:23:43
GaAlgorithm - Iteraction ProblemsCEC15:f4: 42 / 51 - 100000

23/07/2016 18:23:50
GaAlgorithm - Iteraction ProblemsCEC15:f6: 41 / 51 - 100000

23/07/2016 18:23:50
GaAlgorithm - Iteraction ProblemsCEC15:f5: 42 / 51 - 100000

23/07/2016 18:23:51
GaAlgorithm - Iteraction ProblemsCEC15:f4: 43 / 51 - 100000

23/07/2016 18:23:57
GaAlgorithm - Iteraction ProblemsCEC15:f6: 42 / 51 - 100000

23/07/2016 18:23:57
GaAlgorithm - Iteraction ProblemsCEC15:f5: 43 / 51 - 100000

23/07/2016 18:23:58
GaAlgorithm - Iteraction ProblemsCEC15:f4: 44 / 51 - 100000

23/07/2016 18:24:04
GaAlgorithm - Iteraction ProblemsCEC15:f6: 43 / 51 - 100000

23/07/2016 18:24:05
GaAlgorithm - Iteraction ProblemsCEC15:f5: 44 / 51 - 100000

23/07/2016 18:24:05
GaAlgorithm - Iteraction ProblemsCEC15:f4: 45 / 51 - 100000

23/07/2016 18:24:11
GaAlgorithm - Iteraction ProblemsCEC15:f6: 44 / 51 - 100000

23/07/2016 18:24:12
GaAlgorithm - Iteraction ProblemsCEC15:f4: 46 / 51 - 100000

23/07/2016 18:24:12
GaAlgorithm - Iteraction ProblemsCEC15:f5: 45 / 51 - 100000

23/07/2016 18:24:18
GaAlgorithm - Iteraction ProblemsCEC15:f6: 45 / 51 - 100000

23/07/2016 18:24:19
GaAlgorithm - Iteraction ProblemsCEC15:f4: 47 / 51 - 100000

23/07/2016 18:24:20
GaAlgorithm - Iteraction ProblemsCEC15:f5: 46 / 51 - 100000

23/07/2016 18:24:25
GaAlgorithm - Iteraction ProblemsCEC15:f6: 46 / 51 - 100000

23/07/2016 18:24:26
GaAlgorithm - Iteraction ProblemsCEC15:f4: 48 / 51 - 100000

23/07/2016 18:24:28
GaAlgorithm - Iteraction ProblemsCEC15:f5: 47 / 51 - 100000

23/07/2016 18:24:33
GaAlgorithm - Iteraction ProblemsCEC15:f6: 47 / 51 - 100000

23/07/2016 18:24:33
GaAlgorithm - Iteraction ProblemsCEC15:f4: 49 / 51 - 100000

23/07/2016 18:24:35
GaAlgorithm - Iteraction ProblemsCEC15:f5: 48 / 51 - 100000

23/07/2016 18:24:40
GaAlgorithm - Iteraction ProblemsCEC15:f6: 48 / 51 - 100000

23/07/2016 18:24:40
GaAlgorithm - Iteraction ProblemsCEC15:f4: 50 / 51 - 100000

23/07/2016 18:24:43
GaAlgorithm - Iteraction ProblemsCEC15:f5: 49 / 51 - 100000

23/07/2016 18:24:47
GaAlgorithm - Iteraction ProblemsCEC15:f6: 49 / 51 - 100000

23/07/2016 18:24:47
GaAlgorithm - Iteraction ProblemsCEC15:f4: 51 / 51 - 100000

23/07/2016 18:24:49
GaAlgorithm - Iteraction ProblemsCEC15:f5: 50 / 51 - 100000

23/07/2016 18:24:52
GaAlgorithm - Iteraction ProblemsCEC15:f6: 50 / 51 - 100000

23/07/2016 18:24:55
GaAlgorithm - Iteraction ProblemsCEC15:f5: 51 / 51 - 100000

23/07/2016 18:24:58
GaAlgorithm - Iteraction ProblemsCEC15:f6: 51 / 51 - 100000

23/07/2016 18:25:00
GaAlgorithm - Iteraction ProblemsCEC15:f7: 1 / 51 - 100000

23/07/2016 18:25:10
GaAlgorithm - Iteraction ProblemsCEC15:f8: 1 / 51 - 100000

23/07/2016 18:25:11
GaAlgorithm - Iteraction ProblemsCEC15:f7: 2 / 51 - 100000

23/07/2016 18:25:11
GaAlgorithm - Iteraction ProblemsCEC15:f9: 1 / 51 - 100000

23/07/2016 18:25:18
GaAlgorithm - Iteraction ProblemsCEC15:f8: 2 / 51 - 100000

23/07/2016 18:25:20
GaAlgorithm - Iteraction ProblemsCEC15:f9: 2 / 51 - 100000

23/07/2016 18:25:25
GaAlgorithm - Iteraction ProblemsCEC15:f7: 3 / 51 - 100000

23/07/2016 18:25:25
GaAlgorithm - Iteraction ProblemsCEC15:f8: 3 / 51 - 100000

23/07/2016 18:25:28
GaAlgorithm - Iteraction ProblemsCEC15:f9: 3 / 51 - 100000

23/07/2016 18:25:33
GaAlgorithm - Iteraction ProblemsCEC15:f8: 4 / 51 - 100000

23/07/2016 18:25:37
GaAlgorithm - Iteraction ProblemsCEC15:f9: 4 / 51 - 100000

23/07/2016 18:25:39
GaAlgorithm - Iteraction ProblemsCEC15:f7: 4 / 51 - 100000

23/07/2016 18:25:40
GaAlgorithm - Iteraction ProblemsCEC15:f8: 5 / 51 - 100000

23/07/2016 18:25:45
GaAlgorithm - Iteraction ProblemsCEC15:f9: 5 / 51 - 100000

23/07/2016 18:25:48
GaAlgorithm - Iteraction ProblemsCEC15:f8: 6 / 51 - 100000

23/07/2016 18:25:53
GaAlgorithm - Iteraction ProblemsCEC15:f7: 5 / 51 - 100000

23/07/2016 18:25:54
GaAlgorithm - Iteraction ProblemsCEC15:f9: 6 / 51 - 100000

23/07/2016 18:25:55
GaAlgorithm - Iteraction ProblemsCEC15:f8: 7 / 51 - 100000

23/07/2016 18:26:03
GaAlgorithm - Iteraction ProblemsCEC15:f9: 7 / 51 - 100000

23/07/2016 18:26:03
GaAlgorithm - Iteraction ProblemsCEC15:f8: 8 / 51 - 100000

23/07/2016 18:26:07
GaAlgorithm - Iteraction ProblemsCEC15:f7: 6 / 51 - 100000

23/07/2016 18:26:11
GaAlgorithm - Iteraction ProblemsCEC15:f8: 9 / 51 - 100000

23/07/2016 18:26:11
GaAlgorithm - Iteraction ProblemsCEC15:f9: 8 / 51 - 100000

23/07/2016 18:26:18
GaAlgorithm - Iteraction ProblemsCEC15:f8: 10 / 51 - 100000

23/07/2016 18:26:20
GaAlgorithm - Iteraction ProblemsCEC15:f9: 9 / 51 - 100000

23/07/2016 18:26:21
GaAlgorithm - Iteraction ProblemsCEC15:f7: 7 / 51 - 100000

23/07/2016 18:26:26
GaAlgorithm - Iteraction ProblemsCEC15:f8: 11 / 51 - 100000

23/07/2016 18:26:29
GaAlgorithm - Iteraction ProblemsCEC15:f9: 10 / 51 - 100000

23/07/2016 18:26:34
GaAlgorithm - Iteraction ProblemsCEC15:f8: 12 / 51 - 100000

23/07/2016 18:26:35
GaAlgorithm - Iteraction ProblemsCEC15:f7: 8 / 51 - 100000

23/07/2016 18:26:37
GaAlgorithm - Iteraction ProblemsCEC15:f9: 11 / 51 - 100000

23/07/2016 18:26:42
GaAlgorithm - Iteraction ProblemsCEC15:f8: 13 / 51 - 100000

23/07/2016 18:26:46
GaAlgorithm - Iteraction ProblemsCEC15:f9: 12 / 51 - 100000

23/07/2016 18:26:49
GaAlgorithm - Iteraction ProblemsCEC15:f8: 14 / 51 - 100000

23/07/2016 18:26:50
GaAlgorithm - Iteraction ProblemsCEC15:f7: 9 / 51 - 100000

23/07/2016 18:26:54
GaAlgorithm - Iteraction ProblemsCEC15:f9: 13 / 51 - 100000

23/07/2016 18:26:56
GaAlgorithm - Iteraction ProblemsCEC15:f8: 15 / 51 - 100000

23/07/2016 18:27:03
GaAlgorithm - Iteraction ProblemsCEC15:f9: 14 / 51 - 100000

23/07/2016 18:27:03
GaAlgorithm - Iteraction ProblemsCEC15:f7: 10 / 51 - 100000

23/07/2016 18:27:04
GaAlgorithm - Iteraction ProblemsCEC15:f8: 16 / 51 - 100000

23/07/2016 18:27:11
GaAlgorithm - Iteraction ProblemsCEC15:f9: 15 / 51 - 100000

23/07/2016 18:27:12
GaAlgorithm - Iteraction ProblemsCEC15:f8: 17 / 51 - 100000

23/07/2016 18:27:17
GaAlgorithm - Iteraction ProblemsCEC15:f7: 11 / 51 - 100000

23/07/2016 18:27:20
GaAlgorithm - Iteraction ProblemsCEC15:f8: 18 / 51 - 100000

23/07/2016 18:27:20
GaAlgorithm - Iteraction ProblemsCEC15:f9: 16 / 51 - 100000

23/07/2016 18:27:27
GaAlgorithm - Iteraction ProblemsCEC15:f8: 19 / 51 - 100000

23/07/2016 18:27:28
GaAlgorithm - Iteraction ProblemsCEC15:f9: 17 / 51 - 100000

23/07/2016 18:27:31
GaAlgorithm - Iteraction ProblemsCEC15:f7: 12 / 51 - 100000

23/07/2016 18:27:35
GaAlgorithm - Iteraction ProblemsCEC15:f8: 20 / 51 - 100000

23/07/2016 18:27:37
GaAlgorithm - Iteraction ProblemsCEC15:f9: 18 / 51 - 100000

23/07/2016 18:27:42
GaAlgorithm - Iteraction ProblemsCEC15:f8: 21 / 51 - 100000

23/07/2016 18:27:45
GaAlgorithm - Iteraction ProblemsCEC15:f7: 13 / 51 - 100000

23/07/2016 18:27:46
GaAlgorithm - Iteraction ProblemsCEC15:f9: 19 / 51 - 100000

23/07/2016 18:27:49
GaAlgorithm - Iteraction ProblemsCEC15:f8: 22 / 51 - 100000

23/07/2016 18:27:54
GaAlgorithm - Iteraction ProblemsCEC15:f9: 20 / 51 - 100000

23/07/2016 18:27:57
GaAlgorithm - Iteraction ProblemsCEC15:f8: 23 / 51 - 100000

23/07/2016 18:27:59
GaAlgorithm - Iteraction ProblemsCEC15:f7: 14 / 51 - 100000

23/07/2016 18:28:03
GaAlgorithm - Iteraction ProblemsCEC15:f9: 21 / 51 - 100000

23/07/2016 18:28:04
GaAlgorithm - Iteraction ProblemsCEC15:f8: 24 / 51 - 100000

23/07/2016 18:28:11
GaAlgorithm - Iteraction ProblemsCEC15:f9: 22 / 51 - 100000

23/07/2016 18:28:12
GaAlgorithm - Iteraction ProblemsCEC15:f8: 25 / 51 - 100000

23/07/2016 18:28:13
GaAlgorithm - Iteraction ProblemsCEC15:f7: 15 / 51 - 100000

23/07/2016 18:28:20
GaAlgorithm - Iteraction ProblemsCEC15:f9: 23 / 51 - 100000

23/07/2016 18:28:20
GaAlgorithm - Iteraction ProblemsCEC15:f8: 26 / 51 - 100000

23/07/2016 18:28:27
GaAlgorithm - Iteraction ProblemsCEC15:f7: 16 / 51 - 100000

23/07/2016 18:28:27
GaAlgorithm - Iteraction ProblemsCEC15:f8: 27 / 51 - 100000

23/07/2016 18:28:28
GaAlgorithm - Iteraction ProblemsCEC15:f9: 24 / 51 - 100000

23/07/2016 18:28:35
GaAlgorithm - Iteraction ProblemsCEC15:f8: 28 / 51 - 100000

23/07/2016 18:28:37
GaAlgorithm - Iteraction ProblemsCEC15:f9: 25 / 51 - 100000

23/07/2016 18:28:41
GaAlgorithm - Iteraction ProblemsCEC15:f7: 17 / 51 - 100000

23/07/2016 18:28:42
GaAlgorithm - Iteraction ProblemsCEC15:f8: 29 / 51 - 100000

23/07/2016 18:28:45
GaAlgorithm - Iteraction ProblemsCEC15:f9: 26 / 51 - 100000

23/07/2016 18:28:49
GaAlgorithm - Iteraction ProblemsCEC15:f8: 30 / 51 - 100000

23/07/2016 18:28:54
GaAlgorithm - Iteraction ProblemsCEC15:f9: 27 / 51 - 100000

23/07/2016 18:28:55
GaAlgorithm - Iteraction ProblemsCEC15:f7: 18 / 51 - 100000

23/07/2016 18:28:57
GaAlgorithm - Iteraction ProblemsCEC15:f8: 31 / 51 - 100000

23/07/2016 18:29:02
GaAlgorithm - Iteraction ProblemsCEC15:f9: 28 / 51 - 100000

23/07/2016 18:29:05
GaAlgorithm - Iteraction ProblemsCEC15:f8: 32 / 51 - 100000

23/07/2016 18:29:10
GaAlgorithm - Iteraction ProblemsCEC15:f7: 19 / 51 - 100000

23/07/2016 18:29:10
GaAlgorithm - Iteraction ProblemsCEC15:f9: 29 / 51 - 100000

23/07/2016 18:29:13
GaAlgorithm - Iteraction ProblemsCEC15:f8: 33 / 51 - 100000

23/07/2016 18:29:19
GaAlgorithm - Iteraction ProblemsCEC15:f9: 30 / 51 - 100000

23/07/2016 18:29:20
GaAlgorithm - Iteraction ProblemsCEC15:f8: 34 / 51 - 100000

23/07/2016 18:29:23
GaAlgorithm - Iteraction ProblemsCEC15:f7: 20 / 51 - 100000

23/07/2016 18:29:27
GaAlgorithm - Iteraction ProblemsCEC15:f8: 35 / 51 - 100000

23/07/2016 18:29:28
GaAlgorithm - Iteraction ProblemsCEC15:f9: 31 / 51 - 100000

23/07/2016 18:29:35
GaAlgorithm - Iteraction ProblemsCEC15:f8: 36 / 51 - 100000

23/07/2016 18:29:36
GaAlgorithm - Iteraction ProblemsCEC15:f9: 32 / 51 - 100000

23/07/2016 18:29:37
GaAlgorithm - Iteraction ProblemsCEC15:f7: 21 / 51 - 100000

23/07/2016 18:29:43
GaAlgorithm - Iteraction ProblemsCEC15:f8: 37 / 51 - 100000

23/07/2016 18:29:45
GaAlgorithm - Iteraction ProblemsCEC15:f9: 33 / 51 - 100000

23/07/2016 18:29:50
GaAlgorithm - Iteraction ProblemsCEC15:f8: 38 / 51 - 100000

23/07/2016 18:29:52
GaAlgorithm - Iteraction ProblemsCEC15:f7: 22 / 51 - 100000

23/07/2016 18:29:53
GaAlgorithm - Iteraction ProblemsCEC15:f9: 34 / 51 - 100000

23/07/2016 18:29:57
GaAlgorithm - Iteraction ProblemsCEC15:f8: 39 / 51 - 100000

23/07/2016 18:30:02
GaAlgorithm - Iteraction ProblemsCEC15:f9: 35 / 51 - 100000

23/07/2016 18:30:04
GaAlgorithm - Iteraction ProblemsCEC15:f8: 40 / 51 - 100000

23/07/2016 18:30:06
GaAlgorithm - Iteraction ProblemsCEC15:f7: 23 / 51 - 100000

23/07/2016 18:30:10
GaAlgorithm - Iteraction ProblemsCEC15:f9: 36 / 51 - 100000

23/07/2016 18:30:11
GaAlgorithm - Iteraction ProblemsCEC15:f8: 41 / 51 - 100000

23/07/2016 18:30:18
GaAlgorithm - Iteraction ProblemsCEC15:f8: 42 / 51 - 100000

23/07/2016 18:30:19
GaAlgorithm - Iteraction ProblemsCEC15:f9: 37 / 51 - 100000

23/07/2016 18:30:20
GaAlgorithm - Iteraction ProblemsCEC15:f7: 24 / 51 - 100000

23/07/2016 18:30:26
GaAlgorithm - Iteraction ProblemsCEC15:f8: 43 / 51 - 100000

23/07/2016 18:30:27
GaAlgorithm - Iteraction ProblemsCEC15:f9: 38 / 51 - 100000

23/07/2016 18:30:33
GaAlgorithm - Iteraction ProblemsCEC15:f8: 44 / 51 - 100000

23/07/2016 18:30:35
GaAlgorithm - Iteraction ProblemsCEC15:f7: 25 / 51 - 100000

23/07/2016 18:30:36
GaAlgorithm - Iteraction ProblemsCEC15:f9: 39 / 51 - 100000

23/07/2016 18:30:40
GaAlgorithm - Iteraction ProblemsCEC15:f8: 45 / 51 - 100000

23/07/2016 18:30:44
GaAlgorithm - Iteraction ProblemsCEC15:f9: 40 / 51 - 100000

23/07/2016 18:30:48
GaAlgorithm - Iteraction ProblemsCEC15:f8: 46 / 51 - 100000

23/07/2016 18:30:49
GaAlgorithm - Iteraction ProblemsCEC15:f7: 26 / 51 - 100000

23/07/2016 18:30:53
GaAlgorithm - Iteraction ProblemsCEC15:f9: 41 / 51 - 100000

23/07/2016 18:30:56
GaAlgorithm - Iteraction ProblemsCEC15:f8: 47 / 51 - 100000

23/07/2016 18:31:02
GaAlgorithm - Iteraction ProblemsCEC15:f9: 42 / 51 - 100000

23/07/2016 18:31:03
GaAlgorithm - Iteraction ProblemsCEC15:f7: 27 / 51 - 100000

23/07/2016 18:31:04
GaAlgorithm - Iteraction ProblemsCEC15:f8: 48 / 51 - 100000

23/07/2016 18:31:10
GaAlgorithm - Iteraction ProblemsCEC15:f9: 43 / 51 - 100000

23/07/2016 18:31:12
GaAlgorithm - Iteraction ProblemsCEC15:f8: 49 / 51 - 100000

23/07/2016 18:31:17
GaAlgorithm - Iteraction ProblemsCEC15:f7: 28 / 51 - 100000

23/07/2016 18:31:19
GaAlgorithm - Iteraction ProblemsCEC15:f9: 44 / 51 - 100000

23/07/2016 18:31:19
GaAlgorithm - Iteraction ProblemsCEC15:f8: 50 / 51 - 100000

23/07/2016 18:31:27
GaAlgorithm - Iteraction ProblemsCEC15:f8: 51 / 51 - 100000

23/07/2016 18:31:27
GaAlgorithm - Iteraction ProblemsCEC15:f9: 45 / 51 - 100000

23/07/2016 18:31:30
GaAlgorithm - Iteraction ProblemsCEC15:f7: 29 / 51 - 100000

23/07/2016 18:31:33
GaAlgorithm - Iteraction ProblemsCEC15:f9: 46 / 51 - 100000

23/07/2016 18:31:41
GaAlgorithm - Iteraction ProblemsCEC15:f9: 47 / 51 - 100000

23/07/2016 18:31:42
GaAlgorithm - Iteraction ProblemsCEC15:f7: 30 / 51 - 100000

23/07/2016 18:31:48
GaAlgorithm - Iteraction ProblemsCEC15:f10: 1 / 51 - 100000

23/07/2016 18:31:49
GaAlgorithm - Iteraction ProblemsCEC15:f9: 48 / 51 - 100000

23/07/2016 18:31:57
GaAlgorithm - Iteraction ProblemsCEC15:f7: 31 / 51 - 100000

23/07/2016 18:31:58
GaAlgorithm - Iteraction ProblemsCEC15:f9: 49 / 51 - 100000

23/07/2016 18:32:04
GaAlgorithm - Iteraction ProblemsCEC15:f10: 2 / 51 - 100000

23/07/2016 18:32:06
GaAlgorithm - Iteraction ProblemsCEC15:f9: 50 / 51 - 100000

23/07/2016 18:32:11
GaAlgorithm - Iteraction ProblemsCEC15:f7: 32 / 51 - 100000

23/07/2016 18:32:15
GaAlgorithm - Iteraction ProblemsCEC15:f9: 51 / 51 - 100000

23/07/2016 18:32:18
GaAlgorithm - Iteraction ProblemsCEC15:f10: 3 / 51 - 100000

23/07/2016 18:32:22
GaAlgorithm - Iteraction ProblemsCEC15:f7: 33 / 51 - 100000

23/07/2016 18:32:32
GaAlgorithm - Iteraction ProblemsCEC15:f10: 4 / 51 - 100000

23/07/2016 18:32:35
GaAlgorithm - Iteraction ProblemsCEC15:f7: 34 / 51 - 100000

23/07/2016 18:32:48
GaAlgorithm - Iteraction ProblemsCEC15:f10: 5 / 51 - 100000

23/07/2016 18:32:49
GaAlgorithm - Iteraction ProblemsCEC15:f7: 35 / 51 - 100000

23/07/2016 18:33:04
GaAlgorithm - Iteraction ProblemsCEC15:f10: 6 / 51 - 100000

23/07/2016 18:33:04
GaAlgorithm - Iteraction ProblemsCEC15:f7: 36 / 51 - 100000

23/07/2016 18:33:05
GaAlgorithm - Iteraction ProblemsCEC15:f11: 1 / 51 - 100000

23/07/2016 18:33:18
GaAlgorithm - Iteraction ProblemsCEC15:f7: 37 / 51 - 100000

23/07/2016 18:33:20
GaAlgorithm - Iteraction ProblemsCEC15:f10: 7 / 51 - 100000

23/07/2016 18:33:32
GaAlgorithm - Iteraction ProblemsCEC15:f7: 38 / 51 - 100000

23/07/2016 18:33:35
GaAlgorithm - Iteraction ProblemsCEC15:f10: 8 / 51 - 100000

23/07/2016 18:33:46
GaAlgorithm - Iteraction ProblemsCEC15:f7: 39 / 51 - 100000

23/07/2016 18:33:48
GaAlgorithm - Iteraction ProblemsCEC15:f11: 2 / 51 - 100000

23/07/2016 18:33:50
GaAlgorithm - Iteraction ProblemsCEC15:f10: 9 / 51 - 100000

23/07/2016 18:34:00
GaAlgorithm - Iteraction ProblemsCEC15:f7: 40 / 51 - 100000

23/07/2016 18:34:06
GaAlgorithm - Iteraction ProblemsCEC15:f10: 10 / 51 - 100000

23/07/2016 18:34:14
GaAlgorithm - Iteraction ProblemsCEC15:f7: 41 / 51 - 100000

23/07/2016 18:34:22
GaAlgorithm - Iteraction ProblemsCEC15:f10: 11 / 51 - 100000

23/07/2016 18:34:29
GaAlgorithm - Iteraction ProblemsCEC15:f7: 42 / 51 - 100000

23/07/2016 18:34:31
GaAlgorithm - Iteraction ProblemsCEC15:f11: 3 / 51 - 100000

23/07/2016 18:34:38
GaAlgorithm - Iteraction ProblemsCEC15:f10: 12 / 51 - 100000

23/07/2016 18:34:43
GaAlgorithm - Iteraction ProblemsCEC15:f7: 43 / 51 - 100000

23/07/2016 18:34:53
GaAlgorithm - Iteraction ProblemsCEC15:f10: 13 / 51 - 100000

23/07/2016 18:34:56
GaAlgorithm - Iteraction ProblemsCEC15:f7: 44 / 51 - 100000

23/07/2016 18:35:09
GaAlgorithm - Iteraction ProblemsCEC15:f10: 14 / 51 - 100000

23/07/2016 18:35:10
GaAlgorithm - Iteraction ProblemsCEC15:f7: 45 / 51 - 100000

23/07/2016 18:35:14
GaAlgorithm - Iteraction ProblemsCEC15:f11: 4 / 51 - 100000

23/07/2016 18:35:24
GaAlgorithm - Iteraction ProblemsCEC15:f7: 46 / 51 - 100000

23/07/2016 18:35:24
GaAlgorithm - Iteraction ProblemsCEC15:f10: 15 / 51 - 100000

23/07/2016 18:35:38
GaAlgorithm - Iteraction ProblemsCEC15:f7: 47 / 51 - 100000

23/07/2016 18:35:40
GaAlgorithm - Iteraction ProblemsCEC15:f10: 16 / 51 - 100000

23/07/2016 18:35:52
GaAlgorithm - Iteraction ProblemsCEC15:f7: 48 / 51 - 100000

23/07/2016 18:35:56
GaAlgorithm - Iteraction ProblemsCEC15:f10: 17 / 51 - 100000

23/07/2016 18:35:56
GaAlgorithm - Iteraction ProblemsCEC15:f11: 5 / 51 - 100000

23/07/2016 18:36:06
GaAlgorithm - Iteraction ProblemsCEC15:f7: 49 / 51 - 100000

23/07/2016 18:36:12
GaAlgorithm - Iteraction ProblemsCEC15:f10: 18 / 51 - 100000

23/07/2016 18:36:20
GaAlgorithm - Iteraction ProblemsCEC15:f7: 50 / 51 - 100000

23/07/2016 18:36:28
GaAlgorithm - Iteraction ProblemsCEC15:f10: 19 / 51 - 100000

23/07/2016 18:36:34
GaAlgorithm - Iteraction ProblemsCEC15:f7: 51 / 51 - 100000

23/07/2016 18:36:38
GaAlgorithm - Iteraction ProblemsCEC15:f11: 6 / 51 - 100000

23/07/2016 18:36:40
GaAlgorithm - Iteraction ProblemsCEC15:f10: 20 / 51 - 100000

23/07/2016 18:36:52
GaAlgorithm - Iteraction ProblemsCEC15:f12: 1 / 51 - 100000

23/07/2016 18:36:56
GaAlgorithm - Iteraction ProblemsCEC15:f10: 21 / 51 - 100000

23/07/2016 18:37:02
GaAlgorithm - Iteraction ProblemsCEC15:f12: 2 / 51 - 100000

23/07/2016 18:37:11
GaAlgorithm - Iteraction ProblemsCEC15:f10: 22 / 51 - 100000

23/07/2016 18:37:12
GaAlgorithm - Iteraction ProblemsCEC15:f12: 3 / 51 - 100000

23/07/2016 18:37:18
GaAlgorithm - Iteraction ProblemsCEC15:f11: 7 / 51 - 100000

23/07/2016 18:37:22
GaAlgorithm - Iteraction ProblemsCEC15:f12: 4 / 51 - 100000

23/07/2016 18:37:26
GaAlgorithm - Iteraction ProblemsCEC15:f10: 23 / 51 - 100000

23/07/2016 18:37:32
GaAlgorithm - Iteraction ProblemsCEC15:f12: 5 / 51 - 100000

23/07/2016 18:37:42
GaAlgorithm - Iteraction ProblemsCEC15:f12: 6 / 51 - 100000

23/07/2016 18:37:42
GaAlgorithm - Iteraction ProblemsCEC15:f10: 24 / 51 - 100000

23/07/2016 18:37:52
GaAlgorithm - Iteraction ProblemsCEC15:f12: 7 / 51 - 100000

23/07/2016 18:37:57
GaAlgorithm - Iteraction ProblemsCEC15:f10: 25 / 51 - 100000

23/07/2016 18:38:00
GaAlgorithm - Iteraction ProblemsCEC15:f11: 8 / 51 - 100000

23/07/2016 18:38:01
GaAlgorithm - Iteraction ProblemsCEC15:f12: 8 / 51 - 100000

23/07/2016 18:38:11
GaAlgorithm - Iteraction ProblemsCEC15:f12: 9 / 51 - 100000

23/07/2016 18:38:13
GaAlgorithm - Iteraction ProblemsCEC15:f10: 26 / 51 - 100000

23/07/2016 18:38:21
GaAlgorithm - Iteraction ProblemsCEC15:f12: 10 / 51 - 100000

23/07/2016 18:38:29
GaAlgorithm - Iteraction ProblemsCEC15:f10: 27 / 51 - 100000

23/07/2016 18:38:32
GaAlgorithm - Iteraction ProblemsCEC15:f12: 11 / 51 - 100000

23/07/2016 18:38:42
GaAlgorithm - Iteraction ProblemsCEC15:f12: 12 / 51 - 100000

23/07/2016 18:38:43
GaAlgorithm - Iteraction ProblemsCEC15:f11: 9 / 51 - 100000

23/07/2016 18:38:45
GaAlgorithm - Iteraction ProblemsCEC15:f10: 28 / 51 - 100000

23/07/2016 18:38:52
GaAlgorithm - Iteraction ProblemsCEC15:f12: 13 / 51 - 100000

23/07/2016 18:39:00
GaAlgorithm - Iteraction ProblemsCEC15:f10: 29 / 51 - 100000

23/07/2016 18:39:02
GaAlgorithm - Iteraction ProblemsCEC15:f12: 14 / 51 - 100000

23/07/2016 18:39:12
GaAlgorithm - Iteraction ProblemsCEC15:f12: 15 / 51 - 100000

23/07/2016 18:39:16
GaAlgorithm - Iteraction ProblemsCEC15:f10: 30 / 51 - 100000

23/07/2016 18:39:22
GaAlgorithm - Iteraction ProblemsCEC15:f12: 16 / 51 - 100000

23/07/2016 18:39:26
GaAlgorithm - Iteraction ProblemsCEC15:f11: 10 / 51 - 100000

23/07/2016 18:39:32
GaAlgorithm - Iteraction ProblemsCEC15:f10: 31 / 51 - 100000

23/07/2016 18:39:32
GaAlgorithm - Iteraction ProblemsCEC15:f12: 17 / 51 - 100000

23/07/2016 18:39:42
GaAlgorithm - Iteraction ProblemsCEC15:f12: 18 / 51 - 100000

23/07/2016 18:39:48
GaAlgorithm - Iteraction ProblemsCEC15:f10: 32 / 51 - 100000

23/07/2016 18:39:51
GaAlgorithm - Iteraction ProblemsCEC15:f12: 19 / 51 - 100000

23/07/2016 18:40:02
GaAlgorithm - Iteraction ProblemsCEC15:f12: 20 / 51 - 100000

23/07/2016 18:40:04
GaAlgorithm - Iteraction ProblemsCEC15:f10: 33 / 51 - 100000

23/07/2016 18:40:09
GaAlgorithm - Iteraction ProblemsCEC15:f11: 11 / 51 - 100000

23/07/2016 18:40:12
GaAlgorithm - Iteraction ProblemsCEC15:f12: 21 / 51 - 100000

23/07/2016 18:40:19
GaAlgorithm - Iteraction ProblemsCEC15:f10: 34 / 51 - 100000

23/07/2016 18:40:22
GaAlgorithm - Iteraction ProblemsCEC15:f12: 22 / 51 - 100000

23/07/2016 18:40:32
GaAlgorithm - Iteraction ProblemsCEC15:f12: 23 / 51 - 100000

23/07/2016 18:40:35
GaAlgorithm - Iteraction ProblemsCEC15:f10: 35 / 51 - 100000

23/07/2016 18:40:42
GaAlgorithm - Iteraction ProblemsCEC15:f12: 24 / 51 - 100000

23/07/2016 18:40:51
GaAlgorithm - Iteraction ProblemsCEC15:f10: 36 / 51 - 100000

23/07/2016 18:40:52
GaAlgorithm - Iteraction ProblemsCEC15:f11: 12 / 51 - 100000

23/07/2016 18:40:52
GaAlgorithm - Iteraction ProblemsCEC15:f12: 25 / 51 - 100000

23/07/2016 18:41:02
GaAlgorithm - Iteraction ProblemsCEC15:f12: 26 / 51 - 100000

23/07/2016 18:41:08
GaAlgorithm - Iteraction ProblemsCEC15:f10: 37 / 51 - 100000

23/07/2016 18:41:12
GaAlgorithm - Iteraction ProblemsCEC15:f12: 27 / 51 - 100000

23/07/2016 18:41:22
GaAlgorithm - Iteraction ProblemsCEC15:f12: 28 / 51 - 100000

23/07/2016 18:41:23
GaAlgorithm - Iteraction ProblemsCEC15:f10: 38 / 51 - 100000

23/07/2016 18:41:32
GaAlgorithm - Iteraction ProblemsCEC15:f12: 29 / 51 - 100000

23/07/2016 18:41:35
GaAlgorithm - Iteraction ProblemsCEC15:f11: 13 / 51 - 100000

23/07/2016 18:41:39
GaAlgorithm - Iteraction ProblemsCEC15:f10: 39 / 51 - 100000

23/07/2016 18:41:42
GaAlgorithm - Iteraction ProblemsCEC15:f12: 30 / 51 - 100000

23/07/2016 18:41:52
GaAlgorithm - Iteraction ProblemsCEC15:f12: 31 / 51 - 100000

23/07/2016 18:41:55
GaAlgorithm - Iteraction ProblemsCEC15:f10: 40 / 51 - 100000

23/07/2016 18:42:02
GaAlgorithm - Iteraction ProblemsCEC15:f12: 32 / 51 - 100000

23/07/2016 18:42:11
GaAlgorithm - Iteraction ProblemsCEC15:f10: 41 / 51 - 100000

23/07/2016 18:42:12
GaAlgorithm - Iteraction ProblemsCEC15:f12: 33 / 51 - 100000

23/07/2016 18:42:18
GaAlgorithm - Iteraction ProblemsCEC15:f11: 14 / 51 - 100000

23/07/2016 18:42:22
GaAlgorithm - Iteraction ProblemsCEC15:f12: 34 / 51 - 100000

23/07/2016 18:42:28
GaAlgorithm - Iteraction ProblemsCEC15:f10: 42 / 51 - 100000

23/07/2016 18:42:31
GaAlgorithm - Iteraction ProblemsCEC15:f12: 35 / 51 - 100000

23/07/2016 18:42:41
GaAlgorithm - Iteraction ProblemsCEC15:f12: 36 / 51 - 100000

23/07/2016 18:42:44
GaAlgorithm - Iteraction ProblemsCEC15:f10: 43 / 51 - 100000

23/07/2016 18:42:51
GaAlgorithm - Iteraction ProblemsCEC15:f12: 37 / 51 - 100000

23/07/2016 18:43:00
GaAlgorithm - Iteraction ProblemsCEC15:f11: 15 / 51 - 100000

23/07/2016 18:43:00
GaAlgorithm - Iteraction ProblemsCEC15:f10: 44 / 51 - 100000

23/07/2016 18:43:02
GaAlgorithm - Iteraction ProblemsCEC15:f12: 38 / 51 - 100000

23/07/2016 18:43:12
GaAlgorithm - Iteraction ProblemsCEC15:f12: 39 / 51 - 100000

23/07/2016 18:43:16
GaAlgorithm - Iteraction ProblemsCEC15:f10: 45 / 51 - 100000

23/07/2016 18:43:22
GaAlgorithm - Iteraction ProblemsCEC15:f12: 40 / 51 - 100000

23/07/2016 18:43:31
GaAlgorithm - Iteraction ProblemsCEC15:f10: 46 / 51 - 100000

23/07/2016 18:43:32
GaAlgorithm - Iteraction ProblemsCEC15:f12: 41 / 51 - 100000

23/07/2016 18:43:42
GaAlgorithm - Iteraction ProblemsCEC15:f12: 42 / 51 - 100000

23/07/2016 18:43:43
GaAlgorithm - Iteraction ProblemsCEC15:f11: 16 / 51 - 100000

23/07/2016 18:43:47
GaAlgorithm - Iteraction ProblemsCEC15:f10: 47 / 51 - 100000

23/07/2016 18:43:52
GaAlgorithm - Iteraction ProblemsCEC15:f12: 43 / 51 - 100000

23/07/2016 18:44:03
GaAlgorithm - Iteraction ProblemsCEC15:f12: 44 / 51 - 100000

23/07/2016 18:44:03
GaAlgorithm - Iteraction ProblemsCEC15:f10: 48 / 51 - 100000

23/07/2016 18:44:13
GaAlgorithm - Iteraction ProblemsCEC15:f12: 45 / 51 - 100000

23/07/2016 18:44:18
GaAlgorithm - Iteraction ProblemsCEC15:f10: 49 / 51 - 100000

23/07/2016 18:44:22
GaAlgorithm - Iteraction ProblemsCEC15:f12: 46 / 51 - 100000

23/07/2016 18:44:27
GaAlgorithm - Iteraction ProblemsCEC15:f11: 17 / 51 - 100000

23/07/2016 18:44:33
GaAlgorithm - Iteraction ProblemsCEC15:f12: 47 / 51 - 100000

23/07/2016 18:44:34
GaAlgorithm - Iteraction ProblemsCEC15:f10: 50 / 51 - 100000

23/07/2016 18:44:43
GaAlgorithm - Iteraction ProblemsCEC15:f12: 48 / 51 - 100000

23/07/2016 18:44:50
GaAlgorithm - Iteraction ProblemsCEC15:f10: 51 / 51 - 100000

23/07/2016 18:44:52
GaAlgorithm - Iteraction ProblemsCEC15:f12: 49 / 51 - 100000

23/07/2016 18:45:02
GaAlgorithm - Iteraction ProblemsCEC15:f12: 50 / 51 - 100000

23/07/2016 18:45:03
GaAlgorithm - Iteraction ProblemsCEC15:f13: 1 / 51 - 100000

23/07/2016 18:45:08
GaAlgorithm - Iteraction ProblemsCEC15:f11: 18 / 51 - 100000

23/07/2016 18:45:12
GaAlgorithm - Iteraction ProblemsCEC15:f12: 51 / 51 - 100000

23/07/2016 18:45:12
GaAlgorithm - Iteraction ProblemsCEC15:f13: 2 / 51 - 100000

23/07/2016 18:45:23
GaAlgorithm - Iteraction ProblemsCEC15:f13: 3 / 51 - 100000

23/07/2016 18:45:23
GaAlgorithm - Iteraction ProblemsCEC15:f14: 1 / 51 - 100000

23/07/2016 18:45:32
GaAlgorithm - Iteraction ProblemsCEC15:f13: 4 / 51 - 100000

23/07/2016 18:45:34
GaAlgorithm - Iteraction ProblemsCEC15:f14: 2 / 51 - 100000

23/07/2016 18:45:42
GaAlgorithm - Iteraction ProblemsCEC15:f13: 5 / 51 - 100000

23/07/2016 18:45:44
GaAlgorithm - Iteraction ProblemsCEC15:f14: 3 / 51 - 100000

23/07/2016 18:45:50
GaAlgorithm - Iteraction ProblemsCEC15:f11: 19 / 51 - 100000

23/07/2016 18:45:52
GaAlgorithm - Iteraction ProblemsCEC15:f13: 6 / 51 - 100000

23/07/2016 18:45:55
GaAlgorithm - Iteraction ProblemsCEC15:f14: 4 / 51 - 100000

23/07/2016 18:46:02
GaAlgorithm - Iteraction ProblemsCEC15:f13: 7 / 51 - 100000

23/07/2016 18:46:05
GaAlgorithm - Iteraction ProblemsCEC15:f14: 5 / 51 - 100000

23/07/2016 18:46:12
GaAlgorithm - Iteraction ProblemsCEC15:f13: 8 / 51 - 100000

23/07/2016 18:46:15
GaAlgorithm - Iteraction ProblemsCEC15:f14: 6 / 51 - 100000

23/07/2016 18:46:22
GaAlgorithm - Iteraction ProblemsCEC15:f13: 9 / 51 - 100000

23/07/2016 18:46:25
GaAlgorithm - Iteraction ProblemsCEC15:f14: 7 / 51 - 100000

23/07/2016 18:46:32
GaAlgorithm - Iteraction ProblemsCEC15:f13: 10 / 51 - 100000

23/07/2016 18:46:34
GaAlgorithm - Iteraction ProblemsCEC15:f11: 20 / 51 - 100000

23/07/2016 18:46:36
GaAlgorithm - Iteraction ProblemsCEC15:f14: 8 / 51 - 100000

23/07/2016 18:46:42
GaAlgorithm - Iteraction ProblemsCEC15:f13: 11 / 51 - 100000

23/07/2016 18:46:45
GaAlgorithm - Iteraction ProblemsCEC15:f14: 9 / 51 - 100000

23/07/2016 18:46:52
GaAlgorithm - Iteraction ProblemsCEC15:f13: 12 / 51 - 100000

23/07/2016 18:46:55
GaAlgorithm - Iteraction ProblemsCEC15:f14: 10 / 51 - 100000

23/07/2016 18:47:02
GaAlgorithm - Iteraction ProblemsCEC15:f13: 13 / 51 - 100000

23/07/2016 18:47:06
GaAlgorithm - Iteraction ProblemsCEC15:f14: 11 / 51 - 100000

23/07/2016 18:47:12
GaAlgorithm - Iteraction ProblemsCEC15:f13: 14 / 51 - 100000

23/07/2016 18:47:16
GaAlgorithm - Iteraction ProblemsCEC15:f11: 21 / 51 - 100000

23/07/2016 18:47:16
GaAlgorithm - Iteraction ProblemsCEC15:f14: 12 / 51 - 100000

23/07/2016 18:47:22
GaAlgorithm - Iteraction ProblemsCEC15:f13: 15 / 51 - 100000

23/07/2016 18:47:27
GaAlgorithm - Iteraction ProblemsCEC15:f14: 13 / 51 - 100000

23/07/2016 18:47:32
GaAlgorithm - Iteraction ProblemsCEC15:f13: 16 / 51 - 100000

23/07/2016 18:47:38
GaAlgorithm - Iteraction ProblemsCEC15:f14: 14 / 51 - 100000

23/07/2016 18:47:42
GaAlgorithm - Iteraction ProblemsCEC15:f13: 17 / 51 - 100000

23/07/2016 18:47:48
GaAlgorithm - Iteraction ProblemsCEC15:f14: 15 / 51 - 100000

23/07/2016 18:47:52
GaAlgorithm - Iteraction ProblemsCEC15:f13: 18 / 51 - 100000

23/07/2016 18:47:58
GaAlgorithm - Iteraction ProblemsCEC15:f14: 16 / 51 - 100000

23/07/2016 18:47:58
GaAlgorithm - Iteraction ProblemsCEC15:f11: 22 / 51 - 100000

23/07/2016 18:48:02
GaAlgorithm - Iteraction ProblemsCEC15:f13: 19 / 51 - 100000

23/07/2016 18:48:09
GaAlgorithm - Iteraction ProblemsCEC15:f14: 17 / 51 - 100000

23/07/2016 18:48:13
GaAlgorithm - Iteraction ProblemsCEC15:f13: 20 / 51 - 100000

23/07/2016 18:48:19
GaAlgorithm - Iteraction ProblemsCEC15:f14: 18 / 51 - 100000

23/07/2016 18:48:23
GaAlgorithm - Iteraction ProblemsCEC15:f13: 21 / 51 - 100000

23/07/2016 18:48:29
GaAlgorithm - Iteraction ProblemsCEC15:f14: 19 / 51 - 100000

23/07/2016 18:48:33
GaAlgorithm - Iteraction ProblemsCEC15:f13: 22 / 51 - 100000

23/07/2016 18:48:40
GaAlgorithm - Iteraction ProblemsCEC15:f14: 20 / 51 - 100000

23/07/2016 18:48:41
GaAlgorithm - Iteraction ProblemsCEC15:f11: 23 / 51 - 100000

23/07/2016 18:48:42
GaAlgorithm - Iteraction ProblemsCEC15:f13: 23 / 51 - 100000

23/07/2016 18:48:50
GaAlgorithm - Iteraction ProblemsCEC15:f14: 21 / 51 - 100000

23/07/2016 18:48:52
GaAlgorithm - Iteraction ProblemsCEC15:f13: 24 / 51 - 100000

23/07/2016 18:49:01
GaAlgorithm - Iteraction ProblemsCEC15:f14: 22 / 51 - 100000

23/07/2016 18:49:02
GaAlgorithm - Iteraction ProblemsCEC15:f13: 25 / 51 - 100000

23/07/2016 18:49:11
GaAlgorithm - Iteraction ProblemsCEC15:f14: 23 / 51 - 100000

23/07/2016 18:49:12
GaAlgorithm - Iteraction ProblemsCEC15:f13: 26 / 51 - 100000

23/07/2016 18:49:22
GaAlgorithm - Iteraction ProblemsCEC15:f14: 24 / 51 - 100000

23/07/2016 18:49:22
GaAlgorithm - Iteraction ProblemsCEC15:f13: 27 / 51 - 100000

23/07/2016 18:49:24
GaAlgorithm - Iteraction ProblemsCEC15:f11: 24 / 51 - 100000

23/07/2016 18:49:32
GaAlgorithm - Iteraction ProblemsCEC15:f14: 25 / 51 - 100000

23/07/2016 18:49:32
GaAlgorithm - Iteraction ProblemsCEC15:f13: 28 / 51 - 100000

23/07/2016 18:49:42
GaAlgorithm - Iteraction ProblemsCEC15:f14: 26 / 51 - 100000

23/07/2016 18:49:42
GaAlgorithm - Iteraction ProblemsCEC15:f13: 29 / 51 - 100000

23/07/2016 18:49:52
GaAlgorithm - Iteraction ProblemsCEC15:f14: 27 / 51 - 100000

23/07/2016 18:49:53
GaAlgorithm - Iteraction ProblemsCEC15:f13: 30 / 51 - 100000

23/07/2016 18:50:02
GaAlgorithm - Iteraction ProblemsCEC15:f14: 28 / 51 - 100000

23/07/2016 18:50:02
GaAlgorithm - Iteraction ProblemsCEC15:f13: 31 / 51 - 100000

23/07/2016 18:50:06
GaAlgorithm - Iteraction ProblemsCEC15:f11: 25 / 51 - 100000

23/07/2016 18:50:12
GaAlgorithm - Iteraction ProblemsCEC15:f13: 32 / 51 - 100000

23/07/2016 18:50:13
GaAlgorithm - Iteraction ProblemsCEC15:f14: 29 / 51 - 100000

23/07/2016 18:50:22
GaAlgorithm - Iteraction ProblemsCEC15:f13: 33 / 51 - 100000

23/07/2016 18:50:24
GaAlgorithm - Iteraction ProblemsCEC15:f14: 30 / 51 - 100000

23/07/2016 18:50:32
GaAlgorithm - Iteraction ProblemsCEC15:f13: 34 / 51 - 100000

23/07/2016 18:50:34
GaAlgorithm - Iteraction ProblemsCEC15:f14: 31 / 51 - 100000

23/07/2016 18:50:42
GaAlgorithm - Iteraction ProblemsCEC15:f13: 35 / 51 - 100000

23/07/2016 18:50:45
GaAlgorithm - Iteraction ProblemsCEC15:f14: 32 / 51 - 100000

23/07/2016 18:50:49
GaAlgorithm - Iteraction ProblemsCEC15:f11: 26 / 51 - 100000

23/07/2016 18:50:52
GaAlgorithm - Iteraction ProblemsCEC15:f13: 36 / 51 - 100000

23/07/2016 18:50:56
GaAlgorithm - Iteraction ProblemsCEC15:f14: 33 / 51 - 100000

23/07/2016 18:51:02
GaAlgorithm - Iteraction ProblemsCEC15:f13: 37 / 51 - 100000

23/07/2016 18:51:05
GaAlgorithm - Iteraction ProblemsCEC15:f14: 34 / 51 - 100000

23/07/2016 18:51:12
GaAlgorithm - Iteraction ProblemsCEC15:f13: 38 / 51 - 100000

23/07/2016 18:51:16
GaAlgorithm - Iteraction ProblemsCEC15:f14: 35 / 51 - 100000

23/07/2016 18:51:22
GaAlgorithm - Iteraction ProblemsCEC15:f13: 39 / 51 - 100000

23/07/2016 18:51:27
GaAlgorithm - Iteraction ProblemsCEC15:f14: 36 / 51 - 100000

23/07/2016 18:51:32
GaAlgorithm - Iteraction ProblemsCEC15:f11: 27 / 51 - 100000

23/07/2016 18:51:32
GaAlgorithm - Iteraction ProblemsCEC15:f13: 40 / 51 - 100000

23/07/2016 18:51:38
GaAlgorithm - Iteraction ProblemsCEC15:f14: 37 / 51 - 100000

23/07/2016 18:51:42
GaAlgorithm - Iteraction ProblemsCEC15:f13: 41 / 51 - 100000

23/07/2016 18:51:49
GaAlgorithm - Iteraction ProblemsCEC15:f14: 38 / 51 - 100000

23/07/2016 18:51:53
GaAlgorithm - Iteraction ProblemsCEC15:f13: 42 / 51 - 100000

23/07/2016 18:52:00
GaAlgorithm - Iteraction ProblemsCEC15:f14: 39 / 51 - 100000

23/07/2016 18:52:03
GaAlgorithm - Iteraction ProblemsCEC15:f13: 43 / 51 - 100000

23/07/2016 18:52:10
GaAlgorithm - Iteraction ProblemsCEC15:f14: 40 / 51 - 100000

23/07/2016 18:52:13
GaAlgorithm - Iteraction ProblemsCEC15:f13: 44 / 51 - 100000

23/07/2016 18:52:15
GaAlgorithm - Iteraction ProblemsCEC15:f11: 28 / 51 - 100000

23/07/2016 18:52:20
GaAlgorithm - Iteraction ProblemsCEC15:f14: 41 / 51 - 100000

23/07/2016 18:52:23
GaAlgorithm - Iteraction ProblemsCEC15:f13: 45 / 51 - 100000

23/07/2016 18:52:31
GaAlgorithm - Iteraction ProblemsCEC15:f14: 42 / 51 - 100000

23/07/2016 18:52:33
GaAlgorithm - Iteraction ProblemsCEC15:f13: 46 / 51 - 100000

23/07/2016 18:52:42
GaAlgorithm - Iteraction ProblemsCEC15:f14: 43 / 51 - 100000

23/07/2016 18:52:43
GaAlgorithm - Iteraction ProblemsCEC15:f13: 47 / 51 - 100000

23/07/2016 18:52:52
GaAlgorithm - Iteraction ProblemsCEC15:f14: 44 / 51 - 100000

23/07/2016 18:52:53
GaAlgorithm - Iteraction ProblemsCEC15:f13: 48 / 51 - 100000

23/07/2016 18:52:58
GaAlgorithm - Iteraction ProblemsCEC15:f11: 29 / 51 - 100000

23/07/2016 18:53:02
GaAlgorithm - Iteraction ProblemsCEC15:f14: 45 / 51 - 100000

23/07/2016 18:53:03
GaAlgorithm - Iteraction ProblemsCEC15:f13: 49 / 51 - 100000

23/07/2016 18:53:13
GaAlgorithm - Iteraction ProblemsCEC15:f13: 50 / 51 - 100000

23/07/2016 18:53:13
GaAlgorithm - Iteraction ProblemsCEC15:f14: 46 / 51 - 100000

23/07/2016 18:53:23
GaAlgorithm - Iteraction ProblemsCEC15:f13: 51 / 51 - 100000

23/07/2016 18:53:24
GaAlgorithm - Iteraction ProblemsCEC15:f14: 47 / 51 - 100000

23/07/2016 18:53:30
GaAlgorithm - Iteraction ProblemsCEC15:f14: 48 / 51 - 100000

23/07/2016 18:53:37
GaAlgorithm - Iteraction ProblemsCEC15:f11: 30 / 51 - 100000

23/07/2016 18:53:40
GaAlgorithm - Iteraction ProblemsCEC15:f14: 49 / 51 - 100000

23/07/2016 18:53:51
GaAlgorithm - Iteraction ProblemsCEC15:f14: 50 / 51 - 100000

23/07/2016 18:54:02
GaAlgorithm - Iteraction ProblemsCEC15:f14: 51 / 51 - 100000

23/07/2016 18:54:14
GaAlgorithm - Iteraction ProblemsCEC15:f11: 31 / 51 - 100000

23/07/2016 18:54:17
GaAlgorithm - Iteraction ProblemsCEC15:f15: 1 / 51 - 100000

23/07/2016 18:54:42
GaAlgorithm - Iteraction ProblemsCEC15:f11: 32 / 51 - 100000

23/07/2016 18:54:53
GaAlgorithm - Iteraction ProblemsCEC15:f15: 2 / 51 - 100000

23/07/2016 18:55:11
GaAlgorithm - Iteraction ProblemsCEC15:f11: 33 / 51 - 100000

23/07/2016 18:55:28
GaAlgorithm - Iteraction ProblemsCEC15:f15: 3 / 51 - 100000

23/07/2016 18:55:39
GaAlgorithm - Iteraction ProblemsCEC15:f11: 34 / 51 - 100000

23/07/2016 18:56:04
GaAlgorithm - Iteraction ProblemsCEC15:f15: 4 / 51 - 100000

23/07/2016 18:56:08
GaAlgorithm - Iteraction ProblemsCEC15:f11: 35 / 51 - 100000

23/07/2016 18:56:36
GaAlgorithm - Iteraction ProblemsCEC15:f11: 36 / 51 - 100000

23/07/2016 18:56:39
GaAlgorithm - Iteraction ProblemsCEC15:f15: 5 / 51 - 100000

23/07/2016 18:57:04
GaAlgorithm - Iteraction ProblemsCEC15:f11: 37 / 51 - 100000

23/07/2016 18:57:15
GaAlgorithm - Iteraction ProblemsCEC15:f15: 6 / 51 - 100000

23/07/2016 18:57:33
GaAlgorithm - Iteraction ProblemsCEC15:f11: 38 / 51 - 100000

23/07/2016 18:57:50
GaAlgorithm - Iteraction ProblemsCEC15:f15: 7 / 51 - 100000

23/07/2016 18:58:02
GaAlgorithm - Iteraction ProblemsCEC15:f11: 39 / 51 - 100000

23/07/2016 18:58:26
GaAlgorithm - Iteraction ProblemsCEC15:f15: 8 / 51 - 100000

23/07/2016 18:58:30
GaAlgorithm - Iteraction ProblemsCEC15:f11: 40 / 51 - 100000

23/07/2016 18:58:58
GaAlgorithm - Iteraction ProblemsCEC15:f11: 41 / 51 - 100000

23/07/2016 18:59:01
GaAlgorithm - Iteraction ProblemsCEC15:f15: 9 / 51 - 100000

23/07/2016 18:59:26
GaAlgorithm - Iteraction ProblemsCEC15:f11: 42 / 51 - 100000

23/07/2016 18:59:37
GaAlgorithm - Iteraction ProblemsCEC15:f15: 10 / 51 - 100000

23/07/2016 18:59:55
GaAlgorithm - Iteraction ProblemsCEC15:f11: 43 / 51 - 100000

23/07/2016 19:00:12
GaAlgorithm - Iteraction ProblemsCEC15:f15: 11 / 51 - 100000

23/07/2016 19:00:24
GaAlgorithm - Iteraction ProblemsCEC15:f11: 44 / 51 - 100000

23/07/2016 19:00:48
GaAlgorithm - Iteraction ProblemsCEC15:f15: 12 / 51 - 100000

23/07/2016 19:00:52
GaAlgorithm - Iteraction ProblemsCEC15:f11: 45 / 51 - 100000

23/07/2016 19:01:20
GaAlgorithm - Iteraction ProblemsCEC15:f11: 46 / 51 - 100000

23/07/2016 19:01:23
GaAlgorithm - Iteraction ProblemsCEC15:f15: 13 / 51 - 100000

23/07/2016 19:01:49
GaAlgorithm - Iteraction ProblemsCEC15:f11: 47 / 51 - 100000

23/07/2016 19:01:59
GaAlgorithm - Iteraction ProblemsCEC15:f15: 14 / 51 - 100000

23/07/2016 19:02:17
GaAlgorithm - Iteraction ProblemsCEC15:f11: 48 / 51 - 100000

23/07/2016 19:02:34
GaAlgorithm - Iteraction ProblemsCEC15:f15: 15 / 51 - 100000

23/07/2016 19:02:46
GaAlgorithm - Iteraction ProblemsCEC15:f11: 49 / 51 - 100000

23/07/2016 19:03:09
GaAlgorithm - Iteraction ProblemsCEC15:f15: 16 / 51 - 100000

23/07/2016 19:03:14
GaAlgorithm - Iteraction ProblemsCEC15:f11: 50 / 51 - 100000

23/07/2016 19:03:42
GaAlgorithm - Iteraction ProblemsCEC15:f11: 51 / 51 - 100000

23/07/2016 19:03:44
GaAlgorithm - Iteraction ProblemsCEC15:f15: 17 / 51 - 100000

23/07/2016 19:04:01
GaAlgorithm - Iteraction ProblemsCEC15:f15: 18 / 51 - 100000

23/07/2016 19:04:18
GaAlgorithm - Iteraction ProblemsCEC15:f15: 19 / 51 - 100000

23/07/2016 19:04:35
GaAlgorithm - Iteraction ProblemsCEC15:f15: 20 / 51 - 100000

23/07/2016 19:04:53
GaAlgorithm - Iteraction ProblemsCEC15:f15: 21 / 51 - 100000

23/07/2016 19:05:10
GaAlgorithm - Iteraction ProblemsCEC15:f15: 22 / 51 - 100000

23/07/2016 19:05:27
GaAlgorithm - Iteraction ProblemsCEC15:f15: 23 / 51 - 100000

23/07/2016 19:05:44
GaAlgorithm - Iteraction ProblemsCEC15:f15: 24 / 51 - 100000

23/07/2016 19:06:02
GaAlgorithm - Iteraction ProblemsCEC15:f15: 25 / 51 - 100000

23/07/2016 19:06:19
GaAlgorithm - Iteraction ProblemsCEC15:f15: 26 / 51 - 100000

23/07/2016 19:06:36
GaAlgorithm - Iteraction ProblemsCEC15:f15: 27 / 51 - 100000

23/07/2016 19:06:53
GaAlgorithm - Iteraction ProblemsCEC15:f15: 28 / 51 - 100000

23/07/2016 19:07:11
GaAlgorithm - Iteraction ProblemsCEC15:f15: 29 / 51 - 100000

23/07/2016 19:07:28
GaAlgorithm - Iteraction ProblemsCEC15:f15: 30 / 51 - 100000

23/07/2016 19:07:45
GaAlgorithm - Iteraction ProblemsCEC15:f15: 31 / 51 - 100000

23/07/2016 19:08:02
GaAlgorithm - Iteraction ProblemsCEC15:f15: 32 / 51 - 100000

23/07/2016 19:08:20
GaAlgorithm - Iteraction ProblemsCEC15:f15: 33 / 51 - 100000

23/07/2016 19:08:37
GaAlgorithm - Iteraction ProblemsCEC15:f15: 34 / 51 - 100000

23/07/2016 19:08:54
GaAlgorithm - Iteraction ProblemsCEC15:f15: 35 / 51 - 100000

23/07/2016 19:09:11
GaAlgorithm - Iteraction ProblemsCEC15:f15: 36 / 51 - 100000

23/07/2016 19:09:29
GaAlgorithm - Iteraction ProblemsCEC15:f15: 37 / 51 - 100000

23/07/2016 19:09:46
GaAlgorithm - Iteraction ProblemsCEC15:f15: 38 / 51 - 100000

23/07/2016 19:10:03
GaAlgorithm - Iteraction ProblemsCEC15:f15: 39 / 51 - 100000

23/07/2016 19:10:20
GaAlgorithm - Iteraction ProblemsCEC15:f15: 40 / 51 - 100000

23/07/2016 19:10:38
GaAlgorithm - Iteraction ProblemsCEC15:f15: 41 / 51 - 100000

23/07/2016 19:10:55
GaAlgorithm - Iteraction ProblemsCEC15:f15: 42 / 51 - 100000

23/07/2016 19:11:12
GaAlgorithm - Iteraction ProblemsCEC15:f15: 43 / 51 - 100000

23/07/2016 19:11:29
GaAlgorithm - Iteraction ProblemsCEC15:f15: 44 / 51 - 100000

23/07/2016 19:11:47
GaAlgorithm - Iteraction ProblemsCEC15:f15: 45 / 51 - 100000

23/07/2016 19:12:04
GaAlgorithm - Iteraction ProblemsCEC15:f15: 46 / 51 - 100000

23/07/2016 19:12:21
GaAlgorithm - Iteraction ProblemsCEC15:f15: 47 / 51 - 100000

23/07/2016 19:12:38
GaAlgorithm - Iteraction ProblemsCEC15:f15: 48 / 51 - 100000

23/07/2016 19:12:56
GaAlgorithm - Iteraction ProblemsCEC15:f15: 49 / 51 - 100000

23/07/2016 19:13:13
GaAlgorithm - Iteraction ProblemsCEC15:f15: 50 / 51 - 100000

23/07/2016 19:13:30
GaAlgorithm - Iteraction ProblemsCEC15:f15: 51 / 51 - 100000

