840 280 14 0.5 0.1 0.5 0.1 1 14 0.5 0.1 0.5 0.1 1 24.241594841192125 -1
2 1 14 2 2 0 0 0 551 9 1500657260251 2 0 0
0.594356809675746 0.6726597154898137 0.5 0.5 0.5 0.5 0.5 0.5 0.5 0.5 0.5 0.5 0.5 0.5 0.5 0.5 0.5 0.5 0.5 0.5 0.5 0.5 0.5 0.5 0.5 0.5 0.5 0.5 0.5 0.5 0.5 0.5 0.5 0.5 0.5 0.5 0.5 0.5 0.5 0.5 0.5 0.5 0.5 0.5 0.5 0.5 0.5 0.5 0.5 0.5 0.5 0.5 0.5 0.5 0.5 0.5 0.5 0.5 0.5 0.5 0.5 0.5 0.5 0.5 0.5 0.5 0.5 0.5 0.5 0.5 0.5 0.5 0.5 0.5 0.5 0.5 0.5 0.5 0.5 0.5 0.5 0.5 0.5 0.5 0.5 0.5 0.5 0.5 0.5 0.5 0.5 0.5 0.5 0.5 0.5 0.5 0.5 0.5 0.5 0.5 0.5 0.5 0.5 0.5 0.5 0.5 0.5 0.5 0.5 0.5 0.5 0.5 0.5 0.5 0.5 0.5 0.5 0.5 0.5 0.5 0.5 0.5 0.5 0.5 0.5 0.5 0.5 0.5 0.5 0.5 0.5 0.5 0.5 0.5 0.5 0.5 0.5 0.5 0.5 0.5 0.5 0.5 0.5 0.5 0.5 0.5 0.5 0.5 0.5 0.5 0.5 0.5 0.5 0.5 0.5 0.5 0.5 0.5 0.5 0.5 0.5 0.5 0.5 0.5 0.5 0.5 0.5 0.5 0.5 0.5 0.5 0.5 0.5 0.5 0.5 0.5 0.5 0.5 0.5 0.5 0.5 0.5 0.5 0.5 0.5 0.5 0.5 0.5 0.5 0.5 0.5 0.5 0.5 0.5 0.5 0.5 0.5 0.5 0.5 0.5 0.5 0.5 0.5 0.5 0.5 0.5 0.5 0.5 0.5 0.5 0.5 0.5 0.5 0.5 0.5 0.5 0.5 0.5 0.5 0.5 0.5 0.5 0.5 0.5 0.5 0.5 0.5 0.5 0.5 0.5 0.5 0.5 0.5 0.5 0.5 0.5 0.5 0.5 0.5 0.5 0.5 0.5 0.5 0.5 0.5 0.5 0.5 0.5 0.5 0.5 0.5 0.5 0.5 0.5 0.5 0.5 0.5 0.5 0.5 0.5 0.5 0.5 0.5 0.5 0.5 0.5 0.5 0.5 0.5 0.5 0.5 0.5 0.5 0.5 0.5 0.5 0.5 0.5 0.5 0.5
0.509671631259141 0.5276485172947339 0.5 0.5 0.5 0.5 0.5 0.5 0.5 0.5 0.5 0.5 0.5 0.5 0.5 0.5 0.5 0.5 0.5 0.5 0.5 0.5 0.5 0.5 0.5 0.5 0.5 0.5 0.5 0.5 0.5 0.5 0.5 0.5 0.5 0.5 0.5 0.5 0.5 0.5 0.5 0.5 0.5 0.5 0.5 0.5 0.5 0.5 0.5 0.5 0.5 0.5 0.5 0.5 0.5 0.5 0.5 0.5 0.5 0.5 0.5 0.5 0.5 0.5 0.5 0.5 0.5 0.5 0.5 0.5 0.5 0.5 0.5 0.5 0.5 0.5 0.5 0.5 0.5 0.5 0.5 0.5 0.5 0.5 0.5 0.5 0.5 0.5 0.5 0.5 0.5 0.5 0.5 0.5 0.5 0.5 0.5 0.5 0.5 0.5 0.5 0.5 0.5 0.5 0.5 0.5 0.5 0.5 0.5 0.5 0.5 0.5 0.5 0.5 0.5 0.5 0.5 0.5 0.5 0.5 0.5 0.5 0.5 0.5 0.5 0.5 0.5 0.5 0.5 0.5 0.5 0.5 0.5 0.5 0.5 0.5 0.5 0.5 0.5 0.5 0.5 0.5 0.5 0.5 0.5 0.5 0.5 0.5 0.5 0.5 0.5 0.5 0.5 0.5 0.5 0.5 0.5 0.5 0.5 0.5 0.5 0.5 0.5 0.5 0.5 0.5 0.5 0.5 0.5 0.5 0.5 0.5 0.5 0.5 0.5 0.5 0.5 0.5 0.5 0.5 0.5 0.5 0.5 0.5 0.5 0.5 0.5 0.5 0.5 0.5 0.5 0.5 0.5 0.5 0.5 0.5 0.5 0.5 0.5 0.5 0.5 0.5 0.5 0.5 0.5 0.5 0.5 0.5 0.5 0.5 0.5 0.5 0.5 0.5 0.5 0.5 0.5 0.5 0.5 0.5 0.5 0.5 0.5 0.5 0.5 0.5 0.5 0.5 0.5 0.5 0.5 0.5 0.5 0.5 0.5 0.5 0.5 0.5 0.5 0.5 0.5 0.5 0.5 0.5 0.5 0.5 0.5 0.5 0.5 0.5 0.5 0.5 0.5 0.5 0.5 0.5 0.5 0.5 0.5 0.5 0.5 0.5 0.5 0.5 0.5 0.5 0.5 0.5 0.5 0.5 0.5 0.5 0.5 0.5 0.5 0.5 0.5 0.5 0.5 0.5
0.5 0.5 0.5 0.5 0.5 0.5 0.5 0.5 0.5 0.5 0.5 0.5 0.5 0.5
0.5 0.5 0.5 0.5 0.5 0.5 0.5 0.5 0.5 0.5 0.5 0.5 0.5 0.5
2 2 2 2 2 2 2 2 2 2 2 2 2 2 2 2 2 2 2 2 2 2 2 2 2 2 2 2 2 2 2 2 2 2 2 2 0 2 2 2 2 1 2 2 2 2 2 2 2 2 2 0 2 2 1 0 1 2 1 2 2 2 2 1 2 2 2 2 0 2 1 2 2 2 2 2 1 1 2 0 0 2 0 2 2 1 0 2 1 0 1 2 0 2 1 0 0 0 0 2 1 2 2 2 1 1 1 2 1 0 2 1 2 2 2 2 0 1 1 1 0 0 0 1 2 0 1 1 0 2 1 0 1 1 0 0 1 0 1 1 0 0 1 0 0 2 0 2 0 1 2 1 1 1 1 1 0 2 2 1 0 1 1 0 0 1 1 1 1 0 0 0 1 0 0 1 0 1 0 0 3 1 0 0 0 1 1 1 1 0 0 0 0 1 0 0 0 0 1 0 0 0 0 1 0 0 1 0 0 0 0 1 1 0 2 0 0 0 0 0 0 0 0 0 1 0 0 0 0 1 1 1 1 0 0 0 0 0 0 0 1 0 1 1 0 0 0 1 1 0 1 0 0 0 0 0 0 0 1 0 0 0 0 0 0 1 0 0 0 0 0 0 0 0 0 0 0 0 0 0
0 0 0 0 0 0 0 0 0 0 0 0 0 0 0 0 0 0 0 0 0 0 0 0 0 0 0 0 0 0 0 0 0 0 0 0 0 0 0 0 0 1 0 0 0 0 0 0 0 0 0 0 0 0 1 0 1 0 1 0 0 0 0 1 0 0 0 0 0 0 1 0 0 0 0 0 1 1 0 1 0 0 0 0 0 1 0 0 1 0 1 0 1 0 1 0 1 0 1 0 1 0 0 0 1 1 1 0 1 0 0 1 0 0 0 0 1 1 1 1 1 1 1 1 0 1 1 1 0 0 1 1 1 1 1 0 1 1 1 1 0 1 1 1 1 0 1 0 1 1 0 1 1 1 1 1 1 0 0 1 1 1 1 1 1 1 1 1 1 1 1 1 1 1 1 1 1 1 1 1 0 1 1 1 1 1 1 1 1 1 1 1 1 1 1 1 1 1 1 1 1 1 1 1 1 1 1 1 1 1 1 1 1 1 0 1 1 1 1 1 1 1 1 1 1 1 1 1 1 1 1 1 1 1 1 1 1 1 1 1 1 1 1 1 1 1 1 1 1 1 1 1 1 1 1 1 1 1 1 1 1 1 1 1 1 1 1 1 1 1 1 0 1 1 1 1 1 1 1 1
1.4797687861271676 0.3821428571428571
0 0 0 0 0 0 0 0 0 0 0 0 0 0
0 0 0 0 0 0 0 0 0 0 0 0 0 0
0.0 0.0
172.95888619085235 75.68202674122048 0.5225626211576254 0.9933957037049922 0.3585844349956579 0.23887535829432488 125.82757890934319 144.66498171559243 0.8076708438434529 0.10057318469143796 0.09268795427858907 0.7047155006673775 48.636106530767606 1950.4807955664992 51.96265393590113 0
0.9883558159882277 172.95888619085235 75.68202674122048 0.5225626211576254 0.9933957037049922 0.3585844349956579 0.23887535829432488 125.82757890934319 144.66498171559243 0.8076708438434529 0.10057318469143796 0.09268795427858907 0.7047155006673775 48.636106530767606 1950.4807955664992 51.96265393590113 0
0.34530901184740914 62.24571259681193 70.66033864017776 0.1334882110177575 0.5180131305122084 0.6306900081270697 0.8764766967611967 101.16959870975833 35.31397761571705 0.6293045049932962 0.5257895154139319 0.9049812727768669 0.17213182474267175 120.98279325009199 1387.407109070012 820.1310132840164 0
0.7268333394472734 46.08044326516125 27.032450467011078 0.629348051563363 0.39670670869102426 0.10193992893082594 0.9862048129585056 277.0894019801277 46.30188022524521 0.20709926053176153 0.6611544696797702 0.07901376009033038 0.4758138840096232 29.453815688620544 591.410780576713 1265.1118510696022 0
0.21385832755165624 80.54347749413193 7.451332304037038 0.9191694746696272 0.3748488965147426 0.4857531513841264 0.6001506240855754 391.10147385556184 56.76277441039149 0.9077271446428742 0.42204099079196844 0.8448042473006829 0.590267880538972 422.3101236644059 641.3963178606639 1530.0346801328608 0
0.1788542958420949 217.01527105786815 10.032464792563964 0.9836460970041591 0.7251632211437958 0.8082777062729886 0.7923765568041903 311.1523170495082 211.172799604628 0.319651603786828 0.7965863247646623 0.8616783792221777 0.8004238802325134 14.850487944026103 1512.6232119780582 1801.518301588148 0
0.5304534148611165 216.2691967540978 95.66010840048227 0.12980164249829448 0.1996131619636597 0.9480747528797964 0.9501794009762539 234.56633000413444 202.29981997295934 0.42529222771436165 0.8334919085082519 0.4046658120505078 0.9810704137051084 326.7560075256397 834.1807508051884 2718.6905818697696 0
0.26758055155450433 453.73707758348957 67.88478651965134 0.6791191948222447 0.3027103638524981 0.8918464674261901 0.7727595903891329 28.31976038823429 236.07607314141973 0.21190003498218005 0.8744641755624906 0.7033877300362525 0.33816806985174136 445.6405834424007 1790.4430087879284 4417.215882246039 0
0.5485957730077402 381.0221202452746 65.57526954695635 0.3707012158051758 0.5809666391056235 0.10689513130864639 0.865915560754817 318.38995844423994 17.628536785021314 0.9592440358467152 0.8113134899534385 0.9416668186021512 0.5062157580327395 110.01927718926457 1859.8397037647337 4858.862234382056 0
0.8676332113178594 273.81281440208517 61.803164074559284 0.047076998391491764 0.44652801310310003 0.7329725716643116 0.9494394889426261 354.7837532661586 199.65384576158763 0.11269482251959981 0.22076182931393742 0.6014088498754651 0.899155782434793 312.625530906343 1370.7047114669517 4943.701843553615 0
0.5323258743248654 84.14170508745127 35.55417745367708 0.5529949520733126 0.7874120481736391 0.17411555761888678 0.23304956435850133 163.44619288112696 67.00168499588725 0.4935775100620291 0.6918271621810516 0.8655228624778327 0.03864042095812928 373.0386666121943 1753.4438227740256 7141.1638803747555 0
0.673549175517121 128.5890909379416 52.009840909609764 0.4352567297954645 0.6852594455790426 0.7390959603053793 0.47062667882656356 462.4056661924725 79.04213005296171 0.5077233435176054 0.9744747485732889 0.8516868826693612 0.27732057030238605 249.85583447891452 981.0000349081558 8106.545196896699 0
0.6054000110639735 138.14643961935565 51.937499730741635 0.03519899260611902 0.7679501711187768 0.8232403017939335 0.7491147375922311 33.20826899498202 94.48989153084351 0.7774157134473179 0.6310450632381698 0.03837484011116327 0.35719919967933716 441.34212973264886 1502.8259991920293 8138.035658860603 0
0.7054608337591555 504.5947226643313 9.73256711333884 0.6731576613160488 0.39579251699406415 0.11107639872870657 0.9688508384433809 155.1286556473813 267.5067396444581 0.23280129403982097 0.6366540438920235 0.1151190266205337 0.06374307716948995 10.896616643602696 1331.4081002795176 8724.229766644678 0
0.5261058886286493 256.92981930653065 30.558857017135786 0.8181170929132969 0.6041322025484535 0.5942299816047095 0.2665696194445359 92.21415151366794 216.35500001180625 0.5112309693023396 0.4329362396262297 0.07143040654943583 0.6729727303745694 272.7912669864803 1027.2580699424984 12727.779955904549 0
0.6600434602399186 86.9268289044515 20.582949701161304 6.688411975873148E-4 0.44584274564893317 0.6381586725326783 0.8077788803119338 300.24486550211753 58.09638730169235 0.21908652649652627 0.8276758167222409 0.6865480342583221 0.6791771176708391 250.34832663593153 1431.4357231878632 13803.161530103902 0
0.5918512873207392 477.15261824920003 96.03528704712475 0.5194167036986348 0.5270458142217708 0.3514318287875077 0.9243230884008615 27.817852419763152 296.36610360396855 0.3445719790527166 0.6528037275223963 0.062170688956672555 0.14788758784735584 174.74736080788773 1603.847201919882 14918.872465867378 0
0.8317470112346892 137.2607186434449 30.441203239377984 0.09208290437626186 0.8210992561572827 0.8397017651462333 0.0023478389827153137 345.5124177122617 24.54018303748964 0.5666349119037383 0.38692234215792687 0.642650401165996 0.11572347897950237 1.6987785178450565 837.9658804908863 16390.634458102177 0
0.5124412331803655 456.3347267201639 14.815041940311561 0.46556955215226314 0.3133960509537439 0.05862945118430888 0.5187345130013835 474.46838329133186 284.4520722515782 0.5481754220509593 0.6966063408805769 0.3252213121982806 0.7185060800268155 266.980750438547 1262.783640097542 24068.533654423172 0
0.7575044729741396 190.3903327104822 50.39446364985977 0.40167938394149655 0.7655092188025012 0.5866643611202622 0.40007063398626014 220.9226270952808 154.28471087040924 0.49797030146815285 0.29774320568149076 0.1553807599465373 0.14633450724685243 125.79986139315308 1637.234846666225 25512.30931865425 0
0.4074256514423178 532.5469748427765 21.778525144856445 0.5059804006280986 0.3226736548250249 0.6036219000542375 0.8997915280540129 103.51075164747901 496.74072313873336 0.21310684936377747 0.7430658939316028 0.9120792082787511 0.30428256029246686 444.2010560436189 1963.2821775398781 29563.484081500716 0
0.6569422502954035 510.9480181605272 67.49125635175558 0.4367985018891288 0.29081126948099456 0.7699266733887767 0.05930195422292657 268.05573611126187 280.520740098381 0.21013306362041476 0.6665024148579586 0.1783416804399527 0.24165309966368975 226.84403537158252 1314.3109358050542 29907.721906026025 0
0.31088896342672045 280.1855567763993 29.663701431961094 0.2578635479419408 0.9812543682524313 0.8440436244184323 0.45182791622428037 146.94709934749247 222.65086217953402 0.5971701331735342 0.001635462164098087 0.0906799025253786 0.4079443139930408 479.0650031128216 1080.3646527044364 30169.502983480164 0
0.9246892305899352 566.3845824250529 89.86585709224214 0.8542757981326182 0.4570828884784895 0.03946499323922439 0.9078623451462489 485.97506590642297 221.53840734471723 0.6753299880862255 0.18497045223917094 0.19131999751183593 0.4604918938627801 394.87989567465945 1213.9499929697201 69888.3766357687 0
0.39126343064588087 504.8946816224247 51.483024377919264 0.6718739448278185 0.5934961194037675 0.6594964953817972 0.19178292990498347 228.9260073063305 324.6615689295245 0.6827709259376732 0.1673748591434326 0.11672082399938967 0.4879127283005339 407.3109573692068 1338.7060019169235 91545.68287652635 0
0.007099159333392113 501.17319702136876 39.28789732099746 0.5831406729429914 0.8174171199908365 0.9098511061092289 0.9427063340285315 427.0651456378679 400.6739886107847 0.27867372457921896 0.6518089934912082 0.4521183468405166 0.4999992507614877 321.87868113425594 1159.9767161808152 147980.71036760995 0
0.4150225470030844 215.61030544049726 67.52896040261794 0.1274436847512669 0.21683191013735012 0.7829044501526319 0.4013956848317559 205.84457882674016 148.46094044344358 0.060527647888330635 0.3838538796344219 0.4023726600967715 0.0376006345596866 347.0329039203646 1227.1881229089129 175783.78077162834 0
0.8503737751254676 578.0283769888867 19.703119764805237 0.38044819892924414 0.6740813142401377 0.9534400883741062 0.6565890656289587 25.412517951135726 424.0935599042907 0.9052070833489931 0.41979100278862325 0.6234972307529515 0.5957258790680082 196.63197000048004 1460.219397150251 333773.0970434463 0
0.019975765447646565 314.4565218458943 4.978508081036605 0.2012554336393696 0.24397316073226 0.08111287065553213 0.3413392783920268 454.03498688326783 296.5508990086623 0.22312792076446059 0.6893414481258288 0.46516406490417067 0.8907888339080461 318.03778023268774 511.58429922468997 422144.9957165614 0
0.7234636509358351 198.91862966574803 52.85276379708207 0.7261507925883273 0.2896637925645563 0.11354362795028014 0.8843424329484587 323.02994372557015 182.73167532688623 0.5658495529374061 0.9730008666869954 0.13851084396028387 0.1895882406345784 423.0971739023218 659.1562840492358 482193.27664498176 0
0.22107579399273058 889.8320719082826 9.711158627096811 0.8050988967710163 0.28447866598131766 0.9628940104036625 0.020708032057171744 348.6173182665438 480.97316353804723 0.10924073731559222 0.7771598254687995 0.5961206872282322 0.00597275707179779 394.199330803623 1103.551948114553 593080.8501713454 0
0.10581459056567377 208.58951128501542 35.788874476385466 0.8701744866414377 0.9481069052792815 0.8459935004556993 0.4985026143226847 156.0804530268922 160.02778713679282 0.9003995751357508 0.04631407550902154 0.7438835880191764 0.4068060515561824 134.3087071430003 691.7969260468957 615991.7175008535 0
0.603490694531965 993.4471659160484 23.786143148374933 0.8066461274693709 0.568528221486444 0.6491033768447878 0.24382658127171672 61.597185615982404 957.7024336531408 0.25446712861771625 0.5657810487968532 0.1977484014206173 0.6741419641188285 368.1229650576971 1853.1787745415963 732466.0527675949 0
0.6639382501772183 1267.4504637960194 73.99321016948004 0.9140749581017837 0.3183380238103434 0.31271574487180653 0.6369467184649453 235.58492114673408 849.5152742685628 0.7682755568237835 0.4497366273661309 0.5320080614003145 0.6946037121949448 149.91329832706091 1742.243983911883 1105099.48489877 0
0.056639028161964866 1238.0524033637603 1.8380911276259044 0.7311711540714205 0.27942381686136325 0.03043839654340119 0.8129434963308034 299.44546216661246 854.9913121682179 0.7944457876522169 0.771684742889851 0.6615389034806473 0.29191436816166955 359.87120885487025 1055.6550664082886 1243226.121760517 0
0.2463933167435023 1094.4675195113532 11.329458457100202 0.7142054690434394 0.4810223155660017 0.7696330215720318 0.14371493980383046 364.8784063785 621.2828968838043 0.974943326995279 0.7439852444866828 0.21608677506456206 0.025641472720653594 107.59574448046794 1413.9090599833605 2339904.9179351116 0
0.027934025028971243 1411.997767780772 41.55538149852809 0.9511147375462414 0.21402001985207253 0.92294328566215 0.8130503814926759 352.0972263698513 805.0726067129033 0.6175705384841574 0.70376946909344 0.10467415893902299 0.040974789672320766 211.58081541394267 872.7773859443681 2351453.73651558 0
0.10780883987373979 711.3595687854238 41.01997917628314 0.459784160366564 0.6400793362011666 0.04962199948946102 0.9654566641257707 136.65075092818515 561.0704417284497 0.15234451928936857 0.7845764640275762 0.11725567907705856 0.06727534777058713 442.8067396359336 1260.6033826862874 2367724.273867127 0
0.15889466820159304 1382.271674492848 43.06187712798621 0.8663192772358866 0.13583221692931818 0.04679222727227528 0.917924593469739 353.32077749864874 790.2480586285329 0.818753616669418 0.37008500592695714 0.03521503406647197 0.8696023045984864 218.07971869544994 842.6395827685105 2772718.6073886785 0
0.8206341785033021 687.1479552145313 41.97870904426141 0.02796186112017461 0.7354911293401866 0.9401653887073965 0.08217470265913415 243.83579250026892 471.90921315511645 0.24813655125334938 0.5432379562744973 0.32939949412014574 0.02048074676455256 425.52584154336887 1535.3249131083876 2845917.9664186114 0
0.31982535964206915 831.6058655427605 22.264121168703568 0.6886409654577043 0.5109925838241881 0.28796775947306913 0.4257702433285463 279.76275304375145 490.9415985456263 0.3957857187587021 0.38316260067366614 0.6098709521682717 0.3162379155939746 281.79583137521803 1205.5770386954487 3138564.5977061903 0
0.42449889699411847 1293.7251254099283 63.89437512592146 0.6785291607587904 0.2512538480223124 0.9665496320727662 0.27590350031298155 479.9873989725898 775.3213849060023 0.3290485522006759 0.9270704982599711 0.6921861927836895 0.41445878881350046 405.31247752497603 1322.2997863064866 3327207.293688722 0
0.7701101465353832 1319.2795861436198 26.24502785431994 0.6439878594428674 0.2645066982457106 0.5188755453098505 0.6928352440247808 247.85512067285896 670.4929552311678 0.6046760790464478 0.31548348893873573 0.35021967370191776 0.6773776979081272 124.76033359053332 1534.3003713288385 3431233.1080311635 0
0.6158358163154694 361.33235242971335 36.83750036705183 0.4546539911273696 0.10900199474762201 0.9577548340699487 0.6081834351693625 421.28166207045604 341.9619736575574 0.18451505382910194 0.816581982160385 0.9873534510651372 0.30513658185366516 193.3985211448791 1552.8982424610226 3871326.7140979744 0
0.4345843175286732 1533.2208659106705 40.963266463636174 0.8951157927777749 0.1787838185555053 0.7555975150141978 0.8564696874574225 376.98142514155853 734.0758532002483 0.4206158687900278 0.15166711749721073 0.38289281975958 0.07064831502010507 245.3286759588301 975.2419057760861 3976893.639313588 0
0.5355602193493111 1250.6793479332573 5.016752861800286 0.4780005964867915 0.2713985966648059 0.8466861765959169 0.986870905234051 25.944459519771875 1158.932463732396 0.05170852492257345 0.42228222183510833 0.9440667491034815 0.7562263291379179 208.59421339488736 1811.8479180367472 5020378.208225604 0
0.05213047463485765 2299.6558319520427 53.1274819801682 0.8534156021334942 0.2995154140367172 0.5036796762899504 0.5827418495238024 296.85808360682466 1040.41738902927 0.6628071771736362 0.9840020114710365 0.34172150968141685 0.843801422106888 213.52620426036916 1593.2467223881702 6124328.984071513 0
0.28058131438686296 1010.9272862248288 89.73863499393103 0.7158985395966532 0.8289650217373185 0.8341961758523715 0.6101772245379287 55.59810852207135 343.48037293196506 0.8296719221786467 0.8822104511062178 0.4062140308765969 0.08790002887786932 106.78222825279366 1927.8631261486823 6154934.350885648 0
0.9159145654651222 1593.0359679110948 2.7315463077109294 0.7555553380197311 0.23109640446915283 0.5580395447199851 0.6984154210720026 126.04355726749662 1231.2211581292242 0.4862626770332831 0.9669282737793392 0.6723821336413557 0.9377855044790321 89.32328278012824 1327.979831416064 6217382.799891596 0
0.44175824475761727 976.7775446887339 36.20343599801005 0.6599250966677309 0.9931576934238213 0.32076094755607787 0.7174576688946573 432.90481049068933 697.6163544909958 0.25270268915070215 0.3590926810697636 0.33244917151724945 0.31281905429322204 129.93702308437716 1735.9122040235466 7637574.882047639 0
0.25778411361617104 1450.9838437447597 45.17970047043421 0.8862614851652064 0.13640565000690588 0.28767496706343476 0.5983629526280515 351.25408543992876 818.8294738683202 0.044400251873086605 0.3743287558419106 0.07415551417607952 0.6244507971185785 237.96624534274832 888.0936217463347 9273120.749971043 0
0.6864605017462247 2443.202873819507 45.18513718090909 0.8400376961539838 0.28823678200364733 0.6974329603535857 0.18631304217513697 412.7368426305435 627.2820022132629 0.699088113578238 0.0684480383106267 0.8557879510259673 0.5065559701537375 327.327410724705 1959.5268540948791 9791228.070606543 0
0.7926942963033824 1177.7090258055566 30.631752014937284 0.8570120614504745 0.8874587931268975 0.3988589207704522 0.6757839258955434 45.085762487608605 947.5571457967714 0.7847798567844141 0.2872796271699851 0.28651027569534787 0.8640018974458114 58.08500254626714 1915.51025406275 1.0149919242367577E7 0
0.18302431489584403 1549.044490679657 25.762965945978376 0.8289227696888938 0.2944414694749647 0.777482330228326 0.8370496301246517 237.50926238945107 532.2959291903697 0.7681815416083844 0.583888900480578 0.6021162615967024 0.258610114899239 25.850194567594688 1204.5245495531528 1.3329017210348638E7 0
0.30961665832608964 1389.4688604144894 57.154220638938575 0.6604214937080567 0.2894961309184315 0.8732266437772777 0.3802695749836156 396.3936972860157 702.9680631156086 0.4136571864627151 0.6085948333164919 0.7640732281922712 0.22015535354775714 264.630905688029 1132.7512097121976 1.4539070831961619E7 0
0.39376523317841006 1131.0130045258804 88.4284855275147 0.8568808938390412 0.6168075017473911 0.31802867534144713 0.9343643858164656 367.2059722678837 613.8182346463516 0.9606495907687521 0.1923685808658691 0.5048840365341775 0.7026334761287675 486.00997680117734 1117.8824348166506 1.6239103011916455E7 0
0.3669995821834412 719.3278342235279 16.75772341464304 0.2402436397635794 0.6450042508502123 0.40218800621940515 0.9562403521381931 327.0375534429896 566.2260415875251 0.6501821608311077 0.41324607898378757 0.21179914243626927 0.6750220064409488 423.8117292417232 1063.9366085717581 1.883578832925832E7 0
0.08161870107638602 1206.033059292256 16.45073923180781 0.47892018070491493 0.38946460577934433 0.8713383107296004 0.08364987188468748 20.781782842426768 699.6875517964514 0.8769860354022033 0.36563513865061137 0.7368585476921453 0.09886210702254987 281.3103559438512 1735.8097205782803 2.0696115227359336E7 0
0.1563449367735228 1662.7008262405027 37.92759877245859 0.6353280933049519 0.21518903099402967 0.8128123194343405 0.7088573136596621 337.31700781610675 1018.252878108586 0.40316616431660746 0.2647570675958567 0.5019054001433865 0.47256255193972735 149.37742647451967 1252.6701891409825 2.085737633097705E7 0
0.2527247618078612 616.9208139085875 87.6184991721949 0.7800728284404045 0.21319074766821214 0.18626240366463262 0.25813601229800676 441.5801522897574 450.29855179493825 0.4111283726436274 0.6027241577928437 0.5449633509923574 0.5477977515337902 449.8160394328397 1657.989941196713 2.2610575469230276E7 0
0.3744205355130702 2306.4811249149056 21.011615774927314 0.8550437738170399 0.46796808209986407 0.37189730255850756 0.43413139277866664 297.31925963339233 1268.2635010753143 0.8797759294727807 0.31958277841985616 0.32250027949478866 0.9404513600442242 263.27430363654923 1966.3682337848263 2.3316323652810108E7 0
0.4830121804922869 1795.6064438320952 41.828457057018895 0.6720684391759595 0.18993152880911504 0.6309769933083094 0.72697719227737 339.82584287284874 977.7342248733942 0.689592135017731 0.19506130528125384 0.2314946269790788 0.20911865122342158 169.3516113211926 1166.0752834396944 2.3804363760635596E7 0
0.05397615646830789 684.2266752329858 93.9897370585143 0.23300496450182007 0.6799348754269153 0.07857745694236287 0.9609821135374647 375.28283972691827 578.4405007941582 0.6590658470224459 0.35555139650150547 0.009981437495439569 0.8786156296102005 174.531580432287 890.0311356894135 2.4521623048323996E7 0
0.9942838188018386 1142.5879846135801 31.447167461476212 0.48871128638391703 0.7880369491660828 0.15641308660305278 0.7831278746038668 134.93477200351612 578.867020289482 0.26042386812852253 0.4152367313679661 0.6055186808914816 0.7640742969774127 110.13908678371737 1754.0598743412133 2.5129501220998637E7 0
0.4169886139163793 1377.4320714784683 42.84675918342599 0.9187185078165542 0.40723197135899214 0.08972941632626116 0.4492909689469031 350.87418021102366 787.7290122223502 0.21373746471593932 0.2504784641070654 0.22937856562565406 0.3569207163958862 218.28181813456615 843.8058848265713 2.8831399139801797E7 0
0.607185365426051 2263.996316058344 60.309887562848736 0.806603906114186 0.45653653517291803 0.7243727641094823 0.5464110454711866 351.6192367683467 1276.0113565747192 0.7459147051909735 0.40188130994188104 0.3818071702000491 0.7622362781896507 105.319640934205 1588.297276514354 2.9493151595246743E7 0
0.9317119431943324 1406.472006502156 54.77093650860055 0.6762740462924015 0.6458756516604441 0.4358351127822515 0.5064497557611808 268.8583153005429 752.9579834158413 0.08076865922796525 0.3107417487293225 0.357020780197216 0.4364511713462851 188.55686173411777 1562.999431544772 3.028528464371612E7 0
0.6607270986737552 1481.4615266801948 44.84081301762094 0.5341913400357456 0.4433047379865691 0.47796680390385216 0.5235865746154358 309.7072713892781 771.3521765344088 0.6954077038324998 0.23817410663382765 0.4550475340719805 0.8118500296985705 144.73823134784342 1622.1191788354204 3.409670492564801E7 0
0.7581749961218048 1134.642752581256 72.42909290248276 0.7547540362341089 0.9904270402584409 0.9764542114669442 0.7478908287584642 358.6528361325955 618.5460833609789 0.6391194772660208 0.4702811620730241 0.8804046280753273 0.7461945950518764 355.82820500675354 1694.2044561077273 3.670375347684406E7 0
0.13973255273679974 2836.5187339728313 84.8782301084841 0.8680768814026832 0.28926790504625877 0.7655815342984027 0.6270489571594068 76.52268581326685 538.1163907416596 0.5328616465501992 0.3805770305813302 0.3943923518639587 0.564515250084709 44.83597398748111 1093.5834077562222 4.08224149858541E7 0
0.5179623061902454 2366.745154394988 60.727166846406064 0.7741526013392531 0.20071017697123256 0.6406489342170786 0.7708173808335439 336.50588815495036 1277.321249836539 0.28640724419263186 0.5366269742040922 0.6790232629019436 0.2326931939966287 80.90683268935288 969.2489790854366 4.325635725797458E7 0
0.9914134386381407 1600.068711067529 42.99254734412546 0.8616697177675371 0.40683090396960936 0.5746226644157245 0.35177619195711035 332.691136018322 965.1981631977906 0.5480610214900616 0.5977282981372921 0.35558796978675156 0.6885563770803236 207.30477887679083 1023.1297078276592 4.455628000111902E7 0
0.4043707619665792 1184.5223536860526 94.63828778802362 0.7283642446015908 0.8981349221354918 0.25810001118689957 0.8186644236687622 410.60837518318124 306.99906361891436 0.6062754942989038 0.011273092323307489 0.5789027325666818 0.34067041011089705 3.5090628382639655 1575.807671192463 4.455652344688087E7 0
0.4698907635724636 2407.128225918105 22.459967176956145 0.9190294968028666 0.7762790256394028 0.4365588616526352 0.5718874690937271 357.9105046459097 753.6485143213903 0.40693962379850934 0.2818531241372281 0.6859833261284144 0.4761004149657554 274.23855716341563 1730.3196257274317 4.6076241701433495E7 0
0.9105456397870847 2142.1946258160488 68.40575883929472 0.7359184132732659 0.38583052326234535 0.48142034935232514 0.5742253038685089 159.9056011078602 1509.505547097659 0.4764523730674652 0.3097475862994567 0.5297292797830424 0.5607765693648317 83.69501373810458 1477.086780834329 4.725334824252713E7 0
0.7839022516320482 2524.6480534483785 10.97197612153786 0.867091870649453 0.5882062683504181 0.7207371723293672 0.5849728363418314 270.0715292417296 1006.5074006407388 0.39763727845503044 0.46494844779968614 0.36942930126132195 0.4677394934641748 104.04932052285247 1605.955762141251 4.805757046955876E7 0
0.4617278661018386 170.23206663913626 18.843383498504302 0.9498324033459972 0.8265419580873179 0.42766653334098126 0.3754479342226901 223.2798938036395 139.41859050787093 0.5727416396996432 0.4798314998738368 0.9941240229446939 0.8683590700720178 210.27305920657014 483.98093777222306 4.832168444563627E7 0
0.7977152173940858 1518.9847551966686 62.96746874825952 0.7375599002500433 0.23212459763354962 0.6484674191715887 0.6305056933139959 200.1826816056144 1152.6685287070454 0.7186593252386759 0.5435869347597195 0.7958849524786893 0.523325513269635 143.87987806980024 937.71870829153 4.92027724435846E7 0
0.7009256046492464 2437.503405563749 32.543148460752825 0.6629004039053619 0.25498443259995535 0.10215978767097728 0.3423867333750486 281.191766168492 1236.6097477663154 0.10847866650348953 0.6173339551263245 0.7300404390264099 0.8918818725602787 78.46293054615853 1509.4512302577268 5.208100309106217E7 0
0.035472399595438464 1937.1306973714827 53.5230851773847 0.8336051797873468 0.4963467212124486 0.2859521551144584 0.5899442554230461 196.31777342075318 1147.4619335967534 0.49889758468837664 0.6268825829044444 0.40359782296030655 0.6333346816098825 299.75248862662204 1073.4931815551656 6.594993498876443E7 0
0.20330425607847902 2034.0846763460154 33.73173340066491 0.5965629315643938 0.2992184683944916 0.5361007160263218 0.3596579717457521 335.36798229532815 1140.809095554584 0.44483224007637645 0.6725836156193817 0.18613919277891716 0.6689688815345514 58.60263987551986 1562.5894921270815 7.042978046180423E7 0
0.25387692282299 1379.020689442024 42.790507664997726 0.7639694358396947 0.2908059017344726 0.6338140003677045 0.6343699211114415 347.5405612896933 790.3515164477838 0.7586126378264246 0.7580178718463071 0.10668487521031195 0.6667451918748586 220.26857416048847 839.7879510674999 7.254642648295084E7 0
0.4854686916183638 1385.8359944051526 47.75005335238987 0.6908849597248884 0.5401003152727626 0.5237794213938782 0.49463951702190084 273.81722558243274 763.5735160199861 0.7883091126843924 0.42555482019651414 0.5290211312765554 0.29639725816496265 236.2061567252121 1016.4508234332824 7.353540850988154E7 0
0.608007785468523 2599.8817198816564 54.23858250348883 0.8306530235165495 0.41633383364674054 0.6852075561742617 0.8651263405116086 358.56772044504856 1312.184255109633 0.43695829766287275 0.4779264293283612 0.2693152347529838 0.7445370657284955 154.7110207672227 1311.6645091936894 7.356611393207872E7 0
0.41665895858000745 2223.56958641417 49.552893838876685 0.5528686992791364 0.2904732294885851 0.15000559360503116 0.6165105753052372 247.5847873883024 928.5395229319104 0.6486442888859717 0.3702431149190368 0.21801317299905287 0.5987368406811148 63.51213704540456 1855.497305809242 7.502772865279901E7 0
0.2228087625105688 2137.1282108844257 44.25203082606077 0.6432171767556738 0.25675466364366195 0.5171842385113681 0.6001311172439323 328.2814793091652 1115.7654769961528 0.4971618781850955 0.12007885171564425 0.8276635995468316 0.5038040798821124 140.4744322491648 1170.2013132258571 7.78111017619981E7 0
0.48910093884887595 1143.9892794526704 84.42176291545891 0.40127411890926407 0.8457244134414028 0.5543999605784184 0.9414078551286196 151.3227634556597 724.9679989440633 0.5946156770533418 0.5801290889715982 0.41600381228789507 0.8911599864853932 169.4548751156033 1661.6674901777242 7.976542645489044E7 0
0.49366261442380255 2528.8745801271352 35.87153615113774 0.9638107160615123 0.624687737186661 0.5775601182738415 0.6636338532203013 317.09102719607097 1434.8981874219905 0.21323304921853314 0.48903136573917144 0.9284899406234941 0.7632395550545116 150.16387172936908 1489.4171140119145 8.014239039591943E7 0
0.8324331265820996 996.3899780364607 82.45414947604601 0.3263695979562029 0.6636663879376922 0.7773234272900655 0.9296391961960895 22.508977138260168 917.0249827796919 0.019292101186667587 0.7005942569357799 0.8043968858107384 0.9776886260637361 239.36817729219217 1471.1817030005743 8.383816569245052E7 0
0.023723874270679013 1437.2263109520368 43.26818006242738 0.764822704418585 0.21988348865564533 0.3426783172917071 0.6810932543767675 354.27175621785716 810.1791163632067 0.17169824204561465 0.09790776454179514 0.07543155400500334 0.16224788789957306 244.95092532935246 880.8946585224776 8.408355147102706E7 0
0.7216938955063309 1759.1261221233856 48.98922506191754 0.791182665904379 0.20756658489849736 0.395126501780628 0.7931045165589049 387.75078028504385 1228.1168160139343 0.672219667039191 0.058868826067859224 0.11034509758673071 0.7704844131952604 464.7251506737535 1826.5580006113803 8.617273559876436E7 0
0.9890774239368564 2642.9728141947426 19.351900503177706 0.6751072472014806 0.21858186338120456 0.5174530972410651 0.49123498479379996 293.31796750785236 1392.2988709059337 0.25315940476515475 0.6378964970905903 0.9503127996479993 0.3707226019468787 198.63212329739943 1084.9703252709423 8.66366649084554E7 0
0.9700385794638567 1820.0520263055255 44.35974540632996 0.7432948187926414 0.3979103471693941 0.44074892250044295 0.5672796048777502 304.3829566715225 907.9008366873325 0.7046228696935799 0.756655979358463 0.38088815532710085 0.18303819515120284 167.07504803571004 1144.8825178879438 8.909144354520063E7 0
0.4907740571654866 2103.6508614106074 62.671010241702405 0.7123641285445246 0.8209145975625036 0.9805645326444821 0.6837846167294291 78.78165331679222 1463.344808817835 0.10051334997751503 0.9176247298983892 0.5272464823678916 0.8159422869225953 240.03935876429514 1860.411803538629 9.015062107610416E7 0
0.6472447854780297 1745.6945232535807 48.16913065867734 0.7996566972434593 0.490097097004471 0.8551104888140518 0.2632600266762684 338.986930550873 803.1194532257837 0.2811107597483164 0.1498562046878215 0.3150536228197138 0.42535517710342036 214.87671701928076 1113.131187127356 9.23395608046438E7 0
0.3366119783913877 2898.3820948511866 13.383547377918866 0.45886383048968443 0.1120065235532416 0.642852865773684 0.4891345531579671 281.25239632002314 1314.2716911175237 0.37947367533909077 0.6579013550995143 0.6895798237762429 0.2404794276962236 184.92496958838512 1879.4612669533797 1.0021318903285936E8 0
0.5443436457510107 1961.9916958380738 36.478774259675575 0.7063003149880421 0.46417702387640086 0.7815440014338737 0.9299987386096966 310.8463750362977 1040.8292436698873 0.32549669003430404 0.3169337491031303 0.36913863642232947 0.6396620723744911 144.30287150371785 1200.2141459821264 1.0140285684186389E8 0
0.6292932415907477 1188.1318520629873 85.6124852075182 0.6083937908378354 0.18538447483827272 0.04642186179102177 0.5948520393620949 169.96542910687248 762.9790238098684 0.1825993507780534 0.4956185369276246 0.2872534277693617 0.05809164262131298 432.2432143951328 1006.3620784671721 1.0281922605003849E8 0
0.0536237148772708 1573.0453244325345 56.075728781217705 0.57214568953172 0.4250894776928893 0.5350330492657969 0.6236333298278414 248.0244849466942 888.4888094746279 0.44144629622051457 0.5519775931886277 0.12176218667185502 0.6282315393834355 187.4248441142809 1308.2535725292962 1.0770755380117708E8 0
0.624602693315538 1379.0150548578563 14.157248622673707 0.49224273824379766 0.63511730658724 0.5627335047048722 0.37211058766896604 445.0541350345364 846.5408612022883 0.12444277723910281 0.1362728565243804 0.9343034337150404 0.2621494397941225 31.630799388585373 1420.693614814467 1.0880989520581754E8 0
0.8058712573613696 1965.798119636489 38.21031340875552 0.7545514454981407 0.6383248606234508 0.347357938522205 0.5980926766939871 148.51812095066373 709.4837720422204 0.5990291931820386 0.1301457052224325 0.7626747756715468 0.8647694895484254 262.16821948262225 1299.8007641564523 1.1119473361621127E8 0
0.35016564994777344 511.91542381134605 21.875882752886547 0.32341204109553195 0.3143994434147544 0.2660245596326868 0.35768877825271883 317.50704225394804 315.0994726255535 0.9819357471060723 0.42256197571447746 0.919134406763776 0.019204890240262434 265.53586322036784 695.1555590723815 1.1380304624010333E8 0
0.5793127821018165 2434.5885086144526 33.01233647824073 0.6559390777643312 0.3025023352083239 0.18394494003995 0.2748467317334518 281.4436736735409 1236.5802115919448 0.02909211435194159 0.5887072666751134 0.6823276476813935 0.760419922961128 77.909457912155 1507.9507700677261 1.1658120864108053E8 0
0.538449051691067 2174.7070400607395 46.825195703686084 0.8179059415081138 0.7786825661567671 0.5333440658173962 0.3510033465900906 437.85016702256024 588.9125084130849 0.7706397941293855 0.23442971918158526 0.7707362263573306 0.7734899936368596 257.60833343103405 1608.856959785196 1.1664965654235871E8 0
0.46550573262626804 1579.6978335617248 52.98668003215156 0.8422806831084986 0.47158572392697645 0.7852967815115143 0.2844111025411918 485.53091077728413 1329.2098421184005 0.5011617622413221 0.29026173724104576 0.8008664707633121 0.21850744625698623 25.402409579552476 896.4883123872555 1.2135484749115166E8 0
0.6015656840263168 2764.82292258417 99.0510096542423 0.7653013056872124 0.359657411403439 0.6951962897888482 0.4515404068550961 434.81199143481757 2449.57564929074 0.9895073122765862 0.7931047439790291 0.9780631053311848 0.734200606431636 458.92379147144044 1444.0728840900374 1.2168840455305795E8 0
0.16316282822612793 1286.0472278032305 39.84493759616669 0.6941876267755617 0.3387315653604344 0.5054163519800157 0.4659643419842994 305.71461279059633 733.3311364336333 0.21353244209564504 0.4075846023485438 0.31994529122033827 0.4573243076030167 207.27153850442411 833.1238185304371 1.2330217046447471E8 0
0.8113299861182431 2248.572708697234 44.28716107379115 0.557271584288083 0.06299474861772503 0.2271727054129219 0.14086589780162218 256.3020936426072 1212.5950144745507 0.5725534216753204 0.5390072110120793 0.6294839121204512 0.26929064773872813 104.93956893829329 1235.9675725436616 1.2923780084259872E8 0
0.3053032767483129 1497.455581113258 8.143023805240166 0.866397790134385 0.9787242950632966 0.46762575679175256 0.6756392071292299 134.32255816161066 876.4132235795272 0.08056113720784223 0.2367676531849835 0.21024346212693182 0.8932136313018754 143.52472294735009 1091.2118741024274 1.363268564124438E8 0
0.7839326033020138 2106.425598234449 37.07004305112713 0.6964838752934447 0.3843777988572282 0.22866929658519983 0.5282389950404572 291.59470330444015 1071.2849807583723 0.7073143510269685 0.5643403213301338 0.5780246425997599 0.7608690343766047 120.30176794862047 1274.3475974124158 1.502978090653687E8 0
0.5476033015013282 1828.2885057793587 43.981358405994484 0.8864435063961873 0.5400902821669039 0.584386273371063 0.3528768347460529 346.6485792339202 974.2216271241787 0.47732918112914746 0.7226131152106263 0.515179668833541 0.42332105231108036 160.01597110764294 883.2676978393806 1.524053734155258E8 0
0.5800991729629776 2310.613962095079 48.80894653600811 0.6456131847252564 0.507487178269723 0.7367504299015851 0.4054502889266768 189.0530583532358 1320.724829930599 0.7741667131171209 0.5185043637576766 0.6422028778071444 0.5543647195740117 210.86780012423839 1503.691973931768 1.567389091393781E8 0
0.28084879230178306 1640.8395106402188 43.37215206847445 0.5908642212097166 0.42388008973656344 0.7080051285310772 0.5809672575175917 280.03611096091555 941.5303222498028 0.41943593624198494 0.47818152788721346 0.518575767429038 0.7050269022532105 190.6727765696411 997.3063658123034 1.6393657235327348E8 0
0.9357358063152269 2443.6868857124937 29.23870605369501 0.39623090783635495 0.01405485246423721 0.8118011236617001 0.3774657972956984 280.5212214997148 1232.1614536091565 0.5632395596348865 0.3258944140793837 0.7271912215713282 0.8299995982471389 79.39192676719273 1506.424069521576 1.6901731682270917E8 0
0.9695194486991638 1630.6675605682262 44.27920145661483 0.8083498672156055 0.5212187850286252 0.3746090896686595 0.6292440362495735 326.37408478152634 902.3523376497134 0.3374064173428022 0.7181097067127121 0.6999944846591197 0.6125210163186822 194.10855775749587 928.3811929084629 1.8746447769544908E8 0
0.07531691759603976 2444.2438739325867 43.9013842081273 0.5702598049611105 0.28241074946893685 0.6440123897511318 0.2831057116337229 221.86864095384485 1049.7288964871486 0.8623041133981831 0.49418640665235164 0.4934485640271232 0.6375144317810322 47.10374453167077 1440.8779721337 1.89597537052524E8 0
0.4381658626365673 2806.4502093071164 27.201902045078246 0.5955133413394088 0.3368089235265471 0.30724009960397375 0.1296162767294776 77.81573626775844 1376.5208877629054 0.6645184299107141 0.2959505052463219 0.9864904284994763 0.6426075678413189 279.13582123293617 1717.995034735219 1.896709171654065E8 0
0.21266873792702123 1552.1071263734352 45.45347858170513 0.8402025596211959 0.4298957454485879 0.5803828176850188 0.6445179349703913 329.9388975394286 825.3118620233776 0.7465697529796831 0.8518642299009285 0.15376762324529544 0.4263920053863457 187.70090246492234 872.0936088499479 1.9565515309615135E8 0
0.9765282081823279 1997.0652807792626 42.79040767481797 0.6303758615045765 0.5492958910470248 0.5614066961418257 0.1759100206148296 291.81105252894145 1019.9180890299745 0.7796641201373375 0.7729406801832601 0.3093469706167614 0.23598532472816613 162.8754747533996 1613.136452039194 2.0589768370904455E8 0
0.9752912593042357 1507.3837459383903 11.78222605427612 0.7031811363360817 0.8893083307102527 0.9223970239346243 0.6881942236162805 389.4862736084815 337.0739185225502 0.006345463481112359 0.18509761888522824 0.15232562431852537 0.9802137475816012 375.3292833306379 905.9352699584508 2.1184132783694792E8 0
0.7506891500470073 2346.7696891528813 34.41716871526584 0.7527997963196322 0.6170127851126084 0.8151283627976622 0.6069360808683906 314.7417703916324 1192.0162202930978 0.37515687394083896 0.7617627950862323 0.8082490033564154 0.2889584852237429 67.18909741450673 1248.0935534726477 2.119589128033219E8 0
0.01612136697331945 1061.1113971869038 46.69518404823692 0.5766853399757861 0.8611441426381673 7.483120080523325E-4 0.22551771048427896 105.30532999237356 561.3703004552068 0.42873254243851094 0.9568903665418492 0.32975426380911954 0.7050070358045698 310.04654028836495 960.0437597158666 2.12505287158887E8 0
0.6627886722257197 2303.2550061995453 83.27972666980497 0.7637822142343538 0.6558540107107547 0.2554260843887913 0.11306968002979959 117.84582285278219 1638.0973926167082 0.31147117564986077 0.4100061025103769 0.7156344151015095 0.08035793387445905 19.082355010892172 1721.3770838036944 2.1362006698418447E8 0
0.9648628805064725 885.8664482279488 95.35638310370102 0.9483792151218114 0.9898764348693744 0.972687944106999 0.43610508491102595 491.5810260104356 700.2057174719902 0.8390431239898636 0.5878443241365123 0.48720358885504333 0.21997724600782773 234.3467077623762 666.6472807800385 2.1820867839010882E8 0
0.7677563110826955 2538.363813005978 50.40006732564203 0.7311983681088153 0.7984955355672669 0.17101934031509594 0.259202816544127 284.22454166913553 1817.0863133857679 0.04062539740081299 0.33612702258011834 0.5257244076947901 0.6346541413374582 225.05237604701102 1473.3002827542061 2.2443710515055296E8 0
0.037565406820404657 2766.8729006430613 45.39855511257373 0.6172812402903003 0.8432513348555974 0.3848278914471535 0.27827080782479946 195.8547133134772 2277.66609324047 0.06331485168358796 0.20177596778231818 0.9755777872487755 0.885817014214411 187.20284080830658 1863.1787113377186 2.2616122976723322E8 0
0.644864131198385 1589.2912480482105 39.87605684041591 0.8118881717294024 0.5409398638346086 0.9344903655327942 0.8263385759047707 328.24586122032713 917.5518134213089 0.7173926848902865 0.5741982310108664 0.3461759581517866 0.36858016733319976 170.2648087363105 877.7081216637387 2.2734903300143114E8 0
0.9292537043840995 2429.0471251613067 33.39388606871404 0.6285302204746916 0.49260868690451415 0.4495931140304791 0.36506211723856846 280.81377528979004 1236.1861469003354 0.02909211435194159 0.7343830908065828 0.486135258585459 0.3107443785742175 76.42655705234353 1503.5041968008006 2.3149104604864964E8 0
0.09928722355085229 1417.6695290101582 31.604897602119728 0.767242596251142 0.4597448285147741 0.3187407559944314 0.3674802510604053 237.39728789116208 763.0266176188865 0.33234065897988296 0.4633657255203845 0.36846205978058044 0.4994740656645429 246.232376623852 948.9244481993849 2.3507174591153413E8 0
0.7067657794083431 1959.6703568552189 28.470747641742435 0.6940295617540413 0.5978074665637445 0.36250288261964875 0.6334157881375655 208.44636555151146 919.9056114261232 0.40973455716467316 0.3950390449938611 0.6514810143426096 0.4354533886649568 129.34963095334092 960.4973362593518 2.369674356313291E8 0
0.30577872333250833 2442.0044561190975 29.651993433336884 0.7433973992683987 0.9088689891728811 0.804927959980954 0.6033074430611935 268.247800665656 1253.758202455087 0.22131424113848036 0.056206298595801285 0.2657793448137841 0.09940076690650528 74.55080346819821 1489.9575033118012 2.65397438892019E8 0
0.7629615762607622 2023.7405544947715 38.36022158690287 0.5498461653215155 0.41160219152986066 0.5969643719649975 0.2626802396982393 320.8294282679234 968.7574293696473 0.6042471643924896 0.2941275489113415 0.13705343463622816 0.25312716064046753 112.18737040352549 1336.9053309521933 2.8115844042327183E8 0
0.4771216012637771 2272.807088126214 72.44377946894811 0.5013050979816058 0.3347224190008487 0.7415135443946577 0.7304232158327024 36.97401582609908 1291.4007142078235 0.12300575038996865 0.35930794046186965 0.18154108515097706 0.34522742516179106 356.16233065360797 1614.0693195779247 2.848403915334553E8 0
0.10593635448076932 1427.5188356352962 44.68828203637795 0.7012007980965906 0.23241232836317371 0.9581171463204466 0.2626769322737149 353.79543984456274 807.4469712272604 0.6313543987842265 0.07139632317147585 0.0981179952904993 0.8467923781229969 240.26315934121038 874.8430807897942 2.907608304757092E8 0
0.011866167190889843 2311.5530469393716 29.059824295652085 0.5613852543007672 0.4135621902596759 0.8758597288678385 0.6123482536047857 287.28719224351556 1139.9846157472864 0.6543710716065334 0.2157443712968556 0.44677861695253746 0.681727131912755 79.2309120756788 1446.41581342734 2.970237696262795E8 0
0.045711352894045376 1426.0680767013198 40.57937144382716 0.7936794434286139 0.46584169026285555 0.10387357101349204 0.7222743908955638 354.6795926974222 807.8843190963057 0.6410102593136097 0.8286705971085984 0.364173139586469 0.7062418130633383 241.95883859280087 873.8038486908505 2.9826313399835634E8 0
0.11484257165941447 1446.7146645229989 12.593161657484176 0.4853783937208604 0.7517748852629844 0.20641371821684826 0.6806242537615993 72.9307395213396 791.0275877897395 0.8161198385265719 0.9279051742219293 0.813258334643589 0.7557371572873561 389.35863834327176 1204.9257688084392 3.043552482465104E8 0
0.2663181562966226 1784.6853706532443 54.72609079918108 0.7617969816053622 0.6573670535560036 0.29312220078717643 0.8528976316371939 260.49518551949797 1133.344123627016 0.2886298073511784 0.4782209422581103 0.8225247329740526 0.17198413994741094 271.33476997549707 952.9356201216478 3.193768679314946E8 0
0.5342827884766301 1581.9428340518964 8.12518039880817 0.7364730537704935 0.47204508709199355 0.7135301384354894 0.22975437500212625 37.655284168274655 1219.9377665429322 0.3395685027232854 0.9356943400072164 0.9028145316146867 0.12207499043795883 243.70089887310243 789.8661081601468 3.280235507969449E8 0
0.8235897876243673 1159.3821749638203 88.527538994333 0.17146600526544703 0.6543549393341151 0.8050156440598625 0.49596665524820255 361.16542755514894 724.7551246446985 0.44862905131013725 0.6579784846432345 0.6529264037211767 0.5257432071261319 234.86716238532685 1659.168910894935 3.2906593311743695E8 0
0.8773503576446993 1901.5568932835974 33.58908783618263 0.6533899809345747 0.34808439104594735 0.6361392196243376 0.47708346248638656 290.81874792217485 858.425836112435 0.590530313018512 0.4345235170841124 0.5043131005640173 0.725406136144348 245.86833158210536 992.2494242759489 3.509613932345E8 0
0.6005756063113443 1312.5035709583685 34.93750502488851 0.7820292691538424 0.30524839812384863 0.5189551284263678 0.39099353259358033 342.60980420613066 769.0474431880325 0.4803387380339736 0.24532111150828628 0.2981759967747945 0.2603851266732682 226.94245571186693 769.0013876581716 3.62716496548008E8 0
0.8890287907656137 1307.3758672314757 53.43880633948217 0.5213467883872583 0.6133896245343062 0.23705335240427544 0.5894381442587409 294.0338300270774 698.6553821901595 0.45042223682454574 0.6912711802451124 0.1498981906589372 0.4278218416084541 264.5582321939429 1270.3931957790899 3.6593806851092684E8 0
0.6461419652503503 2383.1081973891 59.73975468645628 0.6253646822848791 0.5419667628706656 0.4774264704909758 0.3775712119143555 204.52180183695236 596.1763765284475 0.5130736842393576 0.14292531086103205 0.7649310530359205 0.6889228977312847 51.43917779734676 1487.2401601855515 3.7764298863126343E8 0
0.18239457363686662 1794.8625819820263 61.97146796723753 0.7463549264828699 0.6912435915129148 0.3345524216125263 0.1190576075620754 319.9017657596383 1068.7471662443331 0.5213848680525391 0.8602959522411001 0.5264166326457149 0.7767353555036455 244.93402700764682 1100.6495249462394 3.8004332136027634E8 0
0.13032112283149833 1695.0085710516119 49.16477603060082 0.555741660612221 0.5664932500299404 0.6313464977941631 0.6390196463322233 292.26878173317795 907.629123613707 0.7397830684320966 0.2537076370038681 0.5388548858825255 0.45471696887220714 89.22418617963599 1216.5927285249993 3.827887814914504E8 0
0.3347525520053273 2445.354590079245 57.07638611721263 0.8368651034448307 0.756791238182265 0.42989767651487487 0.5288546038331828 238.65763822261508 1013.5995128592537 0.523245288445905 0.1044405071326929 0.539271988330297 0.43536509538109813 139.43359266554504 1219.0754461794816 3.884008167467838E8 0
0.26866767089298516 2164.1183445243582 55.87722390164984 0.427359069280987 0.6475636912653473 0.5441007678837605 0.732770574896608 200.4226118938792 941.2454659757152 0.534396001016518 0.8606886373583356 0.35271634064023855 0.7099571761716963 115.61121947933185 1690.5487195796675 4.006597623147962E8 0
0.11062698202533561 1698.0416401811858 50.45828299370526 0.5701923188432956 0.5993073575950947 0.56007055722887 0.33940400576029717 322.12991394539137 965.7446536741653 0.3778791119062014 0.6345428877914271 0.5214850323407819 0.3907776190780561 207.99507694390465 1180.2940289315868 4.2539774465253276E8 0
0.40430416769630284 1375.9815731233482 42.12378086503092 0.8635120899290243 0.8290794133169257 0.595530085933085 0.081485923293171 351.8040105009274 788.9719425576984 0.2162269952772501 0.30252096923183686 0.5542862239799757 0.5129983588381779 209.99712494712423 844.8056177143608 4.27527593901895E8 0
0.312122427515661 1396.9612293327664 20.753548156742305 0.274349939073244 0.43007000236314724 0.8413710799195198 0.6886559627722378 248.50522961309406 922.9431454672148 0.6399439144733526 0.7560598272790418 0.6991387103486149 0.7037487023622522 108.31517714825978 1587.3290249109214 4.669410256857786E8 0
0.97584404072884 1949.0419483142675 28.738680270334484 0.7083035750587643 0.45170197724847344 0.5479335265899604 0.6657394922029162 246.7727501699431 1324.7405642730423 0.4734956248845742 0.6257986975154307 0.5911976155136878 0.5064786704704254 198.96598710911874 951.055302263251 4.836663788397557E8 0
0.6459825828773859 2778.775892530784 10.611603964188086 0.8116207191603148 0.11181404362117014 0.8633603121511831 0.32624276433372795 89.05062807535167 2094.851545786227 0.30644375282120956 0.4732240808928508 0.4747176938390938 0.30918064312221577 42.35677471373922 741.9253666974823 4.907914241790894E8 0
0.40657240330472033 1398.5778764429003 37.18283066409573 0.7657056062561297 0.6073950434263474 0.7331224712403851 0.3702334016063893 296.82346921300183 919.0340055440413 0.31821396509167466 0.3465591897760022 0.3468098022591181 0.38824614850406475 212.80849832701216 800.1818471041458 4.919383639709539E8 0
0.9102731370770452 1559.7670050474878 68.81486939810985 0.0967987521531574 0.6803619829797397 0.5558587571491326 0.40099286709934634 163.55300855432378 843.9280787267148 0.2538887656202017 0.019715370392141676 0.9801345768966064 0.6059129466303557 235.8253651106905 1822.4287353025131 5.560431673363898E8 0
0.8387820479296126 2340.020293882547 38.77303391657161 0.3856732010493125 0.5698544099451999 0.5798594705987401 0.4928884802134039 331.8281438506237 1204.3609265655944 0.45486592661204533 0.6525900931066387 0.157937047265304 0.2117470295965505 122.01271748825025 1589.07770699326 5.725124918819098E8 0
0.9405076157597163 2647.736584303517 19.98663673774535 0.5287631794730441 0.3454020317794845 0.577881443435382 0.4256915738993842 197.74123636725415 1785.5458935109418 0.44173703814041476 0.5026453579690242 0.5984675891054894 0.190488534532393 78.46324116550957 1312.9358738412216 5.894032053612212E8 0
0.48480321950164496 2377.818810329157 45.50670775914776 0.5972024953645764 0.48288627708211085 0.5181252777431308 0.8323703593899414 226.60349758656588 1183.9834493311428 0.3893747079708697 0.3179689990516798 0.4664429940653672 0.4345902871260015 189.8325920637866 1299.770044852587 5.905594316925929E8 0
0.8307450303840712 1956.2173937436794 25.785114686720455 0.5575565883353696 0.6881847915825954 0.1628468810708123 0.9486593340355475 242.47856281311473 1014.2251606280498 0.8822328406580542 0.4626443971053943 0.48029586943217817 0.1431153510762248 165.63519913182392 1219.326733361636 5.961708656409353E8 0
0.5857623549160731 2215.41915175876 28.779226769157194 0.5233822549039993 0.6464823025278095 0.5485443149784249 0.2915496301807773 305.3668851444203 1108.2706907163322 0.7701723024215135 0.43580495427225163 0.5322463721134613 0.11296236586200967 126.73513513104714 1283.7687777390083 6.132238738331053E8 0
0.4718503073485305 1786.9234617990335 50.02283223869408 0.7967641115982766 0.7415886640764695 0.5098674707169418 0.6643031416429295 313.0265141236691 993.3729490276828 0.5428303131101042 0.6057257179891111 0.3493925731472914 0.26757112716429227 138.19880723868704 800.3245133249893 6.154912323200673E8 0
0.2645543341192108 1836.1678674215264 36.68953907231426 0.6853410705508001 0.7078533504576964 0.5442636173448603 0.6195371239121733 316.6388895217176 1018.902421026633 0.3228656388200012 0.4829092089359079 0.29861110129374385 0.5620392543848994 168.5630153024021 1084.142187044377 6.165325113362468E8 0
0.09912311056022349 2419.383298726915 61.18843411510015 0.7169891568559207 0.46241934831783715 0.3419775172416598 0.11567007317294677 311.6398087662651 1533.8238353961178 0.6447954663918051 0.5183860864044979 0.8901719482704064 0.2976411704552982 124.98630526734678 1180.3615097349802 6.176521804619882E8 0
0.8060230301506448 1788.6155209458998 48.8013679308099 0.7235355145556057 0.671501780890866 0.1383800042804626 0.529321962107911 347.0161529734779 1011.0984731008889 0.2798170108600221 0.18542105266725373 0.6037835382655845 0.6301060185378873 206.5661877191785 817.5092559252028 6.417028467140902E8 0
0.6847281894061111 2080.579166648488 40.58846827447291 0.3555078146275203 0.09447921734210739 0.4576917940756144 0.7976658990634199 490.22568182077384 1246.2913268690718 0.7786959757700724 0.6319207502562978 0.5405212653776518 0.9951281204173403 487.0040901027368 1907.929639646882 6.7905957852047E8 0
0.24282851111266024 1438.0331373114257 53.02611628139019 0.7429692165515991 0.5528411387814002 0.45258552943218183 0.659775002246697 291.0390294719846 954.6422914787764 0.47855332133713163 0.7927068027697957 0.6033922600261912 0.36413291834469425 272.8123281342911 773.3949177660597 6.917581718938041E8 0
0.0327339878919386 1721.1166953166546 41.37946861793419 0.6635840103398458 0.5741352070703682 0.477514790089907 0.3543486649056168 309.6212394027879 900.6293039246914 0.24439506882945566 0.4125180084843723 0.5509518102151905 0.5669015609213559 227.88520147888738 882.8728096626513 7.310646989908938E8 0
0.9952332838710329 2340.783874466489 32.82568960202016 0.38437393314564144 0.7663220566932634 0.7262605523306352 0.401004215254031 252.24273567597282 1202.5895649810705 0.22847264051184774 0.7959263412993155 0.46547443305724434 0.5619098534225339 80.95512387256483 1406.0104542527174 7.326653582995497E8 0
0.8892547257849556 1665.6344958305463 28.155718476625736 0.7628378719463949 0.2642982371655422 0.34058811007315326 0.4976400973478664 333.488963178085 831.3928696696094 0.12405644550177189 0.2717874728368586 0.5654705310676169 0.6927319538804015 158.5158750397797 743.5361169332473 7.371152264361094E8 0
0.3945991716453522 1317.7147928481927 40.877919715920314 0.6491410686672638 0.814566142328352 0.25162868135611866 0.3802149873495676 348.3647504632531 770.0702500774867 0.3334488828311052 0.41988455057256646 0.30599748471457106 0.22761402258771457 192.6407820657815 805.9338874778765 8.062669165688404E8 0
0.7519108147479038 2432.2298921205875 32.2426857999766 0.49068621334652307 0.5409668352394669 0.05073795360654143 0.4471897115737866 281.82510532125013 1234.3035574708401 0.15586840819726067 0.4652822089816717 0.6207348674937413 0.6981046635640814 78.29588046478274 1505.9012204855626 8.067272806252929E8 0
0.8305097384493367 1108.7362921314182 74.72140364599035 0.5575752318427172 0.5331177652410621 0.48342420861321084 0.6322151772680864 333.88914250697155 642.4967079772582 0.254977296131674 0.6355644967957049 0.3897004218825818 0.45555788044316065 207.94364761504852 820.6087549657117 8.212650282271317E8 0
0.13314950969999328 1676.355037266143 63.48720113567576 0.5841018404170286 0.299347505371152 0.19818312852494022 0.5893433426319222 315.22645048127697 942.5821256829402 0.6143662161152315 0.8762873633292505 0.44928320960979184 0.6846891085973581 276.53125004788683 981.6175121299382 8.305563824389216E8 0
0.2831404470767076 2433.4936020484633 32.59498048073695 0.5927302097037537 0.48978941045672486 0.3959127311828219 0.3251680456046511 281.39339209379466 1235.5922762286946 0.12237543486421058 0.7026804486401182 0.4869066397101576 0.3373548211797287 77.85984219523571 1507.1394657788646 8.315998357550979E8 0
0.337922822294612 1813.5834724674544 31.735858791725917 0.4629800849755466 0.47126434793049937 0.44348921754976256 0.41793019794530323 353.6325563599209 1002.3144928784152 0.6148756168392022 0.05081396144868908 0.22550359058624245 0.6381078848406543 222.15713434589483 1253.7893818553518 8.723093380634185E8 0
0.9582987281819667 1781.52487950773 46.25459879022143 0.5880627240578338 0.659512474754222 0.819849892480766 0.8148069772827036 324.55049705356646 1181.0693290524632 0.6818454332266802 0.3863339423194155 0.2577380163513291 0.3123355107436623 140.66813259843872 804.8546062712887 8.86362819738942E8 0
0.06457664197687885 1157.129877316877 68.34542133354981 0.7127789077056613 0.8481110307512731 0.6563160039034373 0.23211386278118354 380.670814865566 600.7445703597932 0.5759101435626715 0.25433234621218115 0.45077287284584244 0.8118959740156598 260.95550221220196 727.3847260581475 9.066634843983725E8 0
0.4561268066428227 1299.4139254127817 16.110515277906067 0.4553009578185426 0.8135162983752523 0.3402677394210972 0.5966725039537196 284.3231419718477 666.0414131741412 0.7324391346101655 0.4947654634458217 0.15965473014577772 0.8014235971198309 105.7902513348146 799.721028534694 9.177717670248339E8 0
0.46867379322907987 2186.021590863753 20.4567895533787 0.9352349965255944 0.5316636252496014 0.44210849950021885 0.17368143119745363 270.4978317964097 410.2613422603388 0.4805613149098552 0.48629429928717727 0.08002577369653473 0.5279866248205028 58.55524959465364 770.0226881953021 9.422804148275449E8 0
0.672318923452571 1567.329138630484 49.21799618669966 0.5184748500310237 0.39932996179710106 0.5816626387627715 0.4764224510379723 349.99087674908986 875.3073522031397 0.628174757523225 0.10801381191699258 0.2907252125743562 0.4550814945645477 212.7080641551676 1012.6317591840378 9.614136972705499E8 0
0.7744747891844806 1742.5412778667678 32.97534017722404 0.4014547962511978 0.9692469788736433 0.3350765218620984 0.5008941101496526 229.6443209979135 1132.249000454088 0.7670416541037807 0.273806454765979 0.5269833978179667 0.4037712763067989 155.16129708607394 1419.1695485565544 9.722950469594733E8 0
0.6424922971182581 2356.796877903723 26.53411028821167 0.5347120248745604 0.9464703873675039 0.6584468785318176 0.28717313714003156 267.9534263161407 932.9315672158223 0.8653312792175464 0.4821871797579592 0.4619450007185667 0.5666831438575735 214.4531674205027 1510.7001799721304 9.727149109809197E8 0
0.023498292269653165 2052.0487442557514 59.96858204034113 0.4865843388970873 0.5916148498105671 0.4995088849022166 0.37656468188130465 319.4089107284635 1254.8021149092583 0.6632732994525397 0.38050946283616893 0.7311000072049607 0.9461974213773443 293.6125536379741 1252.0834175180128 9.779598623726476E8 0
0.6006675012809025 1676.9051759928732 75.62271210249273 0.5140941431093107 0.9767701303785626 0.9420150400838413 0.5239298206103081 71.40050570345775 1252.1896334605365 0.0012199285125224647 0.47265474481253794 0.8625291669244319 0.5072554562356071 422.6470663416704 978.31207531599 9.825601747633375E8 0
0.21536806124556473 1507.634882443724 45.953166143571536 0.6474709905397269 0.2660665950383477 0.40972165318703757 0.26689670033841434 345.47928431424515 888.046788231288 0.30220020482087767 0.5265457042273375 0.5276268048688479 0.18493944444924376 179.08655416781204 840.472452766286 9.940175766962993E8 0
0.6610013877805374 1888.9828458095833 24.744250246422425 0.5818253494918906 0.8837384487748774 0.14220439578740685 0.769016903646516 293.56453187887166 960.2745779016121 0.22799493115077385 0.5032584587832647 0.3791114177133471 0.5712573429700986 118.44034371739986 1203.1396020938441 1.0017414125344424E9 0
0.9681766302932909 1179.1196761503136 42.67354078716312 0.21474693389947042 0.8340181320968197 0.4026243936313872 0.9134168028641401 62.13512926275246 717.3307655949919 0.10318743689693446 0.3587138676489019 0.032343741097360754 0.9630390202893822 381.21258154066714 1007.7314635948127 1.0183271250474277E9 0
0.80810732177578 2137.925025951796 58.30514928720057 0.4532465534535076 0.5397225770522404 0.5412031158322854 0.8307550164004973 358.6350738730172 841.0258312449341 0.8518445155153762 0.4269069245720713 0.320605049161938 0.03429199300837235 50.660943186823594 1716.711868408638 1.0214660057109876E9 0
0.27932927790776096 1802.1827544617663 52.07854174975312 0.550534995121675 0.40590007440922893 0.3064518475299767 0.41058377215833003 330.1535743805151 1000.0902986896039 0.5538381022462655 0.5129783607563083 0.31312318395608474 0.5063327702914139 170.9685210174736 1137.089356038217 1.0702074297856107E9 0
0.8063499970721761 1404.9307192955046 68.34728841273717 0.7631181095181262 0.9527622375438854 0.7257874425786867 0.5546695626490548 110.48218562576852 1236.7954711325153 0.7734392482677613 0.44640060772863654 0.5248932530706336 0.8615963917248215 279.4698025176662 651.9040900108592 1.0752491700255642E9 0
0.5850398273281842 1676.1606605414227 34.66701892062433 0.4715292190852905 0.6145020697577326 0.6285817666752712 0.49863131182030107 226.6687431919607 866.5023724324101 0.41965716439715245 0.2261203595036802 0.17386888190389346 0.730232074823944 76.4107229130034 1185.1688400427302 1.086041796167319E9 0
0.49426374256380445 1437.0052661180146 61.41030549222454 0.10611778243309483 0.4084178984953885 0.27103741820521915 0.8295131163827661 226.42183702409596 885.0880673990273 0.36446382593971266 0.5796734080737809 0.4816269204382785 0.011123959095233666 464.27470541863187 1815.382347204468 1.0898467320730357E9 0
0.7458765291150983 1871.349120223398 52.55153178994342 0.5218862518970029 0.5277516992888439 0.3601605920427247 0.6012584423452405 242.2430304779478 762.9187441691867 0.4836665952868234 0.5903581160996945 0.24897607864471283 0.7045246130398787 245.2570629632529 1012.5989086035057 1.1159283753288665E9 0
0.20748942096852352 1533.3224131274424 35.49737303667295 0.724483643403921 0.37287559937896464 0.3409151607954144 0.42980611915268807 187.0349951847674 783.0570775701976 0.6776666933406323 0.5887759961476209 0.8225900650630908 0.41540628246946343 208.86872561830594 820.6948732173867 1.2401066750058513E9 0
0.6322519542814491 1918.2411018146881 49.13563496203386 0.6898089700670953 0.5016817490285896 0.42193098329896617 0.5090838489790481 244.4957853726675 798.256325371945 0.3473417374796428 0.3543366049434854 0.37855291319186 0.5950917853491128 277.59429470025304 817.0837369531571 1.3012680223688545E9 0
0.28031733493418853 1377.135801914645 43.217476519084386 0.6146825756012069 0.1875152068984633 0.5980634181736917 0.8353172745433897 354.16287642397015 788.2511010027162 0.38411553373561413 0.47002800492853614 0.6636633679405537 0.023131718876246155 218.9065560111496 842.3777899473444 1.3076083605441167E9 0
0.393830272447 1764.0359942087882 39.612047147380224 0.23414010141783095 0.8635077081481797 0.6732808136396612 0.3312453881215493 297.5437524151608 1055.1340557378028 0.7465318490910464 0.7845519673344514 0.5973166261417328 0.3186224835087719 166.023285359051 1043.334328754872 1.3199989976840632E9 0
0.3444321116448209 2556.7767171764676 17.5333476710462 0.47895351072696646 0.48633249685917534 0.2457020979552828 0.8568531738764917 192.11066871391205 815.0096215597434 0.7320773793348213 0.393490435747878 0.7329010851291724 0.15462603118186255 195.1633018556431 1548.1851451625212 1.3448018619947004E9 0
0.35951853020413393 935.8254235677448 70.4882270763181 0.3284291587066892 0.5414681584807854 0.48266651701142793 0.2722563548856652 293.7454038450759 542.8724579495583 0.7567076361654276 0.5784044563887039 0.5552782212724231 0.3401371209443108 132.6429821612682 726.5827953882545 1.370695667988389E9 0
0.128534255480535 1407.5077892488919 35.297633101552556 0.4858954938600312 0.9049005603259076 0.45962858985284527 0.3427501228978351 177.88750613595636 774.6780468003644 0.33588593352640583 0.4479007973026964 0.542206524165352 0.9035805248954145 214.624184233627 913.8817285931308 1.393330643576555E9 0
0.7656212369034782 2090.4833660828053 16.43338761513496 0.5054672601636334 0.7865386080110499 0.6443336821453075 0.3025379145688008 381.2331448057638 1305.118077731302 0.1612710842496216 0.4821126181534747 0.5192154948920349 0.39454351243795505 205.17954652420357 1028.5112897453378 1.4370300797810287E9 0
0.5480662132949256 1564.728765624328 46.5222949646206 0.5845226679071265 0.41818095803835686 0.4634064998892897 0.4542537860260485 238.18941027594954 799.6104150808758 0.8029324279326242 0.4783991506309429 0.424493902925539 0.5261513656352939 105.34641479663912 1023.154780367451 1.4411131759531908E9 0
0.7990852847116434 1695.2752532229044 43.80081733323118 0.5573411127691839 0.46968273747670386 0.6450196483033863 0.4748727173805775 276.1931546223193 962.5625735501592 0.6628926804895474 0.7678732851901962 0.8086839471234185 0.5152219474049747 148.49701147628252 972.713481161802 1.492860148513307E9 0
0.601549947159197 1843.518256614213 36.660151138941615 0.46973064233298734 0.6842273992000099 0.68779763873857 0.571902158805379 313.28249033255645 999.378460367891 0.6577005300062515 0.28882052527226804 0.3608660952472096 0.20815139817789768 154.81452843942427 1064.8935944887717 1.516572918772219E9 0
0.8613438091735267 2436.709794137683 29.377359091816526 0.2177427898900729 0.851587046994265 0.3531332547443283 0.598389325434374 281.9660806134079 1230.2137372315406 0.7475570789045645 0.5267679531912772 0.3846828603746657 0.16500220187762213 80.25517286122154 1506.9557581324316 1.5885209865537393E9 0
0.5162488357236881 1369.3597004368874 29.399112148100663 0.6468747934184453 0.21475973659653616 0.34043283628659876 0.7289677286517322 332.50963494638063 749.1087791566257 0.852629391901345 0.7786357443698988 0.23852257926335543 0.39658295638333385 216.59107946470812 861.3474301791189 1.655679831613394E9 0
0.3341969084962043 1376.127878208371 39.962379681954445 0.6421546713279518 0.500824504740856 0.0950957239658643 0.09955784300380871 351.9527652563473 790.7827681870416 0.389115194178042 0.408551225072061 0.7997911885286534 0.3698778620445634 219.62867116489767 843.563417518907 1.6571801529981298E9 0
0.021061322718572306 1955.1019974164458 42.95013431407335 0.5894216836905479 0.8527227465088604 0.21333723151217576 0.6665882832966012 276.8798107814721 1390.1762712664795 0.23810269571349124 0.5098475507538307 0.6276400145063878 0.6462805360141879 212.85284038167998 1069.2547331762341 1.6691055414100845E9 0
0.9612611915345538 1733.3743396913817 31.57953470508607 0.384900601878564 0.6293488414649507 0.5577941175838841 0.5484210716783307 196.1514318109724 946.6589936912596 0.6651568873672864 0.571848264437709 0.620804875512408 0.5695021065313611 225.4363615814251 1165.3968411750009 1.712998484187101E9 0
0.781954032293146 1912.145569070667 21.166983334414034 0.37516174456893936 0.4046875580114372 0.7725870195665587 0.49287900957050246 324.48467257579574 1077.9137348393165 0.43637880152858133 0.08079382741185707 0.32007751192071454 0.5303615448414624 147.09555856962777 1266.7222231983371 1.7245083310805526E9 0
0.09464530722175868 1594.0591172015322 42.76453934235798 0.602578816697753 0.6014954556562517 0.16899773280566044 0.730911218524089 271.53052303355986 919.4732616169407 0.1652705633046362 0.683657290515179 0.34772035457905764 0.3837289483750914 210.5764776749441 935.3894921076237 1.7514438016496336E9 0
0.48313580149852664 1684.909815825158 44.64651018925823 0.5289027243063315 0.7239214057824073 0.3540281163387542 0.6371923216103881 275.4098778025653 973.4772989475828 0.36175435327468647 0.4972638109742795 0.14244225489497936 0.3044449488779117 156.93314360162896 921.543507115639 1.7540416788960555E9 0
0.8837196281458864 2249.718128151871 26.549717821945002 0.47462043233626894 0.7041590529508697 0.36781548182542884 0.38851010758061355 280.68046945136183 1633.540829278148 0.4971084698700889 0.26108946583491194 0.39824783258172874 0.5225334744634714 187.45869709458128 1408.5294422500808 1.8309108925137177E9 0
0.9891005138928842 1602.2475358295865 95.27095072141854 0.6396251588966101 0.5816504929455991 0.7266548659908301 0.5664269294045962 255.56985189979162 787.253795652152 0.4088271772454344 0.665607125757005 0.19248117850304675 0.4381218103747561 417.2079305160416 889.4736719972998 1.8653209450903225E9 0
0.8214442783807162 1564.3539886221413 26.264049603111843 0.43998307234175527 0.6260307629494086 0.6392747507097741 0.6420954834436177 324.44729944858636 985.9584432326666 0.5065836969968693 0.5007570116481291 0.4347262007351136 0.5433314118493411 253.49150900504662 877.941667723025 1.9133531679465213E9 0
0.18188711981862404 1396.0584024186664 43.694361353154555 0.4601278921061864 0.8227775898468785 0.3970294911775383 0.23810981368183134 261.17423849878026 771.1664951032396 0.6925121818327005 0.33078808990425523 0.35117468331131363 0.7929706737609237 195.48131007689133 876.7626739628099 1.9222682286206677E9 0
0.16392194580855923 2480.45093543865 12.11788486084041 0.43729770990007644 0.6700986052719407 0.8411192541610595 0.44624661687450423 369.69796298663175 1158.5649143949713 0.6110276122550592 0.918984232346228 0.7286752463242707 0.6790385234427183 88.76086067551549 1254.7460143304902 1.931526755309835E9 0
0.511798730699388 2429.386978527655 29.850715859982444 0.13768155037811647 0.7449181075732064 0.11036256119507626 0.9512691945145152 279.955204121064 1219.4389247567242 0.9381024992951359 0.7564824522107025 0.9532546444346224 0.2758695878679779 75.84665206874013 1496.1611423104061 2.059988099563987E9 0
0.23984488106779656 2429.386978527655 29.850715859982444 0.13768155037811647 0.7449181075732064 0.11036256119507626 0.9512691945145152 279.955204121064 1219.4389247567242 0.9381024992951359 0.7564824522107025 0.9532546444346224 0.2758695878679779 75.84665206874013 1496.1611423104061 2.059988099563987E9 0
0.01635779342318089 1714.5480835620474 25.12925434160735 0.43802153921719805 0.37764994421838327 0.7507690462196412 0.835115243528073 330.3487206196427 947.0207560459504 0.7308283139112455 0.6488155323565318 0.2248806398374173 0.7239783721739849 216.43248620354765 952.0518971932925 2.117111106102771E9 0
0.46947863810259827 2028.3057950222938 11.632404522615765 0.06365803338607401 0.8898197118594393 0.9393946211905109 0.312218908649037 22.879424804137646 1170.0467488286351 0.4143575243003239 0.7550246853100407 0.7860565863737848 0.6954925812742966 11.6751869338122 1765.1786296292578 2.349280866423563E9 0
0.5027206827963939 2615.6006393492344 22.89305502312319 0.20465534213926653 0.9195108832376847 0.2761733235247053 0.22755468200162815 351.8172143627263 1336.4478708163606 0.8651162485845083 0.4995729827011372 0.7730788868125563 0.6240209056199384 146.55899551823833 1775.7753636899072 2.475151126704153E9 0
0.42976178592266534 2490.0270396139504 43.94288036857024 0.4591991138193771 0.8567177289480274 0.15602649641753769 0.23414969242720773 314.18770580919215 1361.6913502284547 0.16084330101462305 0.25613932297721254 0.400194107553997 0.19658987641566672 152.95824771370823 1518.9295256882874 2.580494085246641E9 0
0.8808074286502879 2394.833095619259 45.42225332417796 0.7444264383015191 0.6581583975677651 0.7196821178598688 0.04400160228379734 232.67932665221684 1709.0215367041842 0.13822616940619384 0.3054451301752853 0.7959238385538572 0.7518321807779264 146.16029404297518 711.6594698900345 2.6692565366386085E9 0
0.45691726280449696 1832.4973232327557 42.106376748443466 0.28129519083648047 0.6909532537139024 0.36649813634097395 0.4472544549645601 331.5335124019122 1076.3130053482596 0.30148118722334105 0.46722386210741257 0.4277994759328574 0.3237121045929361 205.3185541012013 1120.7284810929707 2.8106962246085334E9 0
0.9905126156473177 2061.435255847992 42.21440128254055 0.46766883765974077 0.7477240617646822 0.5389245859090543 0.24215743031071074 301.902350054589 1154.4949665807542 0.45687097568211527 0.560317809694904 0.5525504328174617 0.19304444130116286 162.6571583744055 1112.9266493842974 3.112550208451211E9 0
0.4671378155578475 1743.0863519068962 39.61092948484747 0.43205227406319635 0.5391611957349584 0.6833623557875816 0.4017885030780002 352.4257728906325 995.9227902571254 0.8508830827291152 0.4360292398039257 0.6190191500790463 0.22051861463892916 165.3270104898079 953.344336346066 3.1243001181456933E9 0
0.19133461192922685 1982.1680062121118 47.27464432955938 0.5570817668855825 0.5549804616512495 0.45775106503958374 0.7655632583963567 271.52020771128673 583.3147608276284 0.8043874963862641 0.13594135273079466 0.4080583195345001 0.21012419724611053 176.47775959100156 871.250035242581 3.4223987801454597E9 0
0.9547433067353556 1667.880311771562 71.8433016976792 0.5013606450774349 0.3281458634948799 0.6689557770052982 0.6774042537332569 189.3184314467205 1269.7659392320215 0.3264176059833759 0.36117615921916735 0.41305234123914447 0.8043404917848579 312.10441978463007 849.1385851244148 3.478213036537512E9 0
0.6630398093212048 1582.9707168184284 46.66860307014268 0.5867343311578381 0.765366351486883 0.5274116402953898 0.22468171002949802 348.87350329721085 1073.43004105811 0.8455379812891273 0.24873486701804287 0.13211897175415038 0.16613659987133023 210.49355192776227 724.3668545697756 3.481255012054821E9 0
0.9812700654177484 2163.69027439021 58.219036564748194 0.3802007964794479 0.8167520760806629 0.5763325824577157 0.3475287937899937 363.0142676315818 939.5118866659482 0.33040630288132294 0.2737256754758763 0.26041411621899274 0.5336909086087148 139.81541967723703 1005.8075438019191 3.7498097175568833E9 0
0.3258493169208222 1320.1010879921857 41.887876739947295 0.5353564611931598 0.3945636041004022 0.5159651751718308 0.7641515326066375 347.9301146889726 741.9570888145561 0.355543744058989 0.387872579347416 0.5973871176536791 0.6989991065524574 225.08752886656364 821.7515445132669 3.7518174655701385E9 0
0.061520954410955064 1458.1551781421476 38.657891469305916 0.22930355201766922 0.698537511024313 0.4030820469698625 0.43200960575072156 377.2821860537615 828.1649980506622 0.8087423792367259 0.33840587513561304 0.5911804470944381 0.1248142476696599 262.35634706888703 931.3504593397984 4.104252862063473E9 0
0.8291826579554722 2086.2107658566606 22.559327358308444 0.6783198607634837 0.5854989342659754 0.2518432131552508 0.5819556248140282 209.2777294704503 464.82828805328325 0.7420698794285234 0.7831144036426984 0.06234627081785105 0.5424864717575983 229.04261882120693 779.3772984219377 4.104346371826898E9 0
0.7342810933320328 2238.9602657218693 26.61695123120637 0.27783249162157075 0.32254719558198 0.4277254931146508 0.5848199485147266 174.6223617695432 1180.072877562933 0.5888274773099751 0.28677948956850235 0.4058274214410412 0.6304375418169795 178.1573139088971 1608.0407362395158 4.11005816303106E9 0
0.6239835460353109 1542.433569443402 38.00488985279797 0.0988886799490187 0.6766943484088017 0.8313475403661167 0.6080072738180121 292.1539277708222 923.242079374987 0.766369411879304 0.3276821935502089 0.3369543738426993 0.872454490749614 184.11237297784976 826.5554627176821 4.2371370592051864E9 0
0.48181178573561523 1569.7184699658483 44.38672170281088 0.5670311720864756 0.23889119234037098 0.13625228424186495 0.7046353885383236 346.03912178452055 951.9526167377871 0.8430003573746724 0.30670561365540205 0.37379604605054584 0.5729332788916732 201.13523048285094 894.505200782852 4.2524568297603784E9 0
0.039879747166316704 2604.465268768279 53.33411158666101 0.6207366561557732 0.6904566224794536 0.8517174519865699 0.5958713520570464 394.39122383794376 1376.6004326429793 0.22483487917894668 0.14888324001346573 0.4711751430189506 0.3189380173155239 293.0757424483512 820.6873352977558 4.254957414062232E9 0
0.2718929676962739 1607.06786230013 39.086301354376246 0.24676471315594392 0.6992564557024324 0.5408496724459285 0.22136617371791922 361.9282968859836 871.2705162581597 0.3605553015689435 0.4945270654062963 0.367132025297762 0.4091716997197165 137.13135834311618 1021.8138281075209 4.276184133943284E9 0
0.27340799228771495 1590.46368190564 43.07902656094463 0.43319147856471313 0.6727001139363536 0.49946792223331704 0.3862282752775569 249.54768362653505 780.4210491953302 0.13064225641501903 0.45573021626707966 0.6681702897893076 0.39204333776670164 94.2849838679003 749.8365170516003 4.2958412005352E9 0
0.020424468642257332 2484.9544268154673 39.25471377609493 0.431757899156692 0.5285525293690101 0.20717711561138555 0.7765927595397966 322.0520886724766 1127.3239927767174 0.3996418263140557 0.3146173430654233 0.6920477032692895 0.058610929062750436 132.8040010578581 996.6030095711909 4.332610514494268E9 0
0.2662758773181396 1533.1450908436987 44.98201466106518 0.3370500240210822 0.6635840210063917 0.41609219121945307 0.43751396159986655 330.6709980805539 777.536265020909 0.6025723284036482 0.18413043713781763 0.20365065119601072 0.7482609501733574 192.3675100674543 907.7439006433003 4.364831843415436E9 0
0.1879583351785672 1915.888062120988 44.934335394534756 0.5700290203211973 0.6418952003937586 0.6755563632087948 0.5427644003303509 348.57689819535875 1081.2573739807845 0.30503917473093833 0.4592842384078366 0.16329981895981874 0.2888753672042999 167.6065348722425 873.7146362262031 4.436337751426843E9 0
0.750419952067435 1566.1096904640592 30.788973734928263 0.2829313509570068 0.4515286068563821 0.4691832210665155 0.600458181060854 322.2690388282959 788.7276481235425 0.42049498567044696 0.3972436972334905 0.07589029970786612 0.5636012831041096 134.4105065044409 1183.5743636771733 4.481259884276691E9 0
0.1752003154587206 1448.6701542851529 44.181256317625554 0.36867645454823467 0.5322716925470263 0.43683317748496664 0.77775045654958 351.70225567184497 801.0135791514779 0.5071378798130521 0.4376484307308723 0.7897841758153181 0.6491434506958607 153.18418329216894 829.2622268511402 4.499920601030347E9 0
0.9955033471046731 1723.0290512216143 45.66169143695301 0.3754855092891083 0.7110874296264809 0.754613304768299 0.8264913614291474 244.37735320809242 1065.6741767715707 0.8234801694267172 0.2701131636862028 0.10504131108256962 0.7017627050866154 243.58186177089186 951.10001822432 4.675854175892411E9 0
0.6454541770769707 1997.7871495726836 24.532813737763057 0.3433738492992727 0.5564342219862569 0.3283027144026921 0.47930151140809685 233.09567107260457 1049.1047734679905 0.48736083162771804 0.5901233925508531 0.26043121102352684 0.7195725227268122 197.17419705878615 1011.3900510860585 4.823900671182647E9 0
0.4075330621502966 2243.38031834511 35.867761352915245 0.17452366615932627 0.7429339397407598 0.6871530584477032 0.9742777082656656 205.9721483008732 1125.8705037176549 0.26244240525801404 0.028842192151403805 0.625215443824543 0.13944838056662437 7.7609423622391756 1215.8328820418992 4.910336778269245E9 0
0.5817413595781445 1804.9607339574118 34.52554698878004 0.24528795449793117 0.6525089838422032 0.4350214368089118 0.6621840820283308 292.7670230009373 845.1501798953993 0.5466701557926135 0.3779807797614212 0.49098010315619933 0.4872898511484813 171.45141239862969 1041.7715150143993 5.615828123155309E9 0
0.8953596317123333 1626.6448645175078 49.20046378203112 0.4298652093594486 0.547897833792786 0.5808794773026323 0.6357154891788408 311.27870799399614 872.2790464612933 0.751310520523288 0.28960523075592753 0.8450099404098018 0.4841321603662112 199.91464416607357 850.3689212334546 5.729752156920269E9 0
0.47088151847106285 1708.371425822307 43.28176447033901 0.44589479763909534 0.6784921252039363 0.5920081351450339 0.647400501268364 344.21420678361477 647.5753836013878 0.4978535975507457 0.5619856387635872 0.1584285063749823 0.6109131494945299 152.59073671221958 742.4909161471624 6.360992738351239E9 0
0.2100670632571624 807.4637466376762 52.796891844742724 0.2886826093164784 0.539816793654621 0.14864823943746325 0.43781918895447003 155.82545227674518 463.84350270973255 0.4447214011038456 0.35222704989147613 0.33934154825349827 0.1833316189799583 118.66106285917162 634.8678883809503 6.433692655915002E9 0
0.0883213239110292 2108.7548185594924 51.225903867507924 0.5407623556056557 0.5968490262764595 0.15982311477310587 0.7131253192008619 272.9726489370045 1091.8640731667572 0.74078835583113 0.5064430118394171 0.7366894541255248 0.24767920368085564 95.72842512361507 946.8399436875858 6.453731806388606E9 0
0.5703854801956 1977.8103498105174 36.60460360022293 0.36506518150609973 0.5390812403584893 0.5694782769163618 0.33346793631291205 255.7912211568124 821.7333876995393 0.3560675819403495 0.43237807588944466 0.20824576349917703 0.3333478967410585 216.5921407166288 922.4703618754788 6.468529040900244E9 0
0.4935684025531699 2435.6843097863607 37.790048327600736 0.3612538684203986 0.961887120504864 0.4273822908425215 0.6722269542432433 313.69051953577247 917.2920377284622 0.347067331744045 0.41122425240320787 0.8272083565709643 0.5783765363196453 100.40403904631894 868.3216702918385 6.786462649954766E9 0
0.026510722971510137 1363.7222373152938 45.55760497236441 0.5563695453980383 0.35735684254629985 0.2119536106975153 0.528501723420642 261.0097833604291 741.1612244803194 0.6231461757454957 0.11934454665811894 0.40608782569733926 0.7770440327715495 178.7033340301432 751.3782868533128 7.107678956903436E9 0
0.6346259248351255 2148.681296445489 31.8200062234866 0.4499734604679501 0.7578627747644814 0.12539934909689748 0.4865324118305165 258.52992882126557 679.7341133705984 0.5190628576756374 0.5333196831707078 0.21392993151014356 0.353708280924234 204.8712446289519 887.7508203728263 7.138223321944322E9 0
0.7863673055347885 2175.31867625248 42.84446489677449 0.40567879896787 0.6697721643943948 0.661722909355275 0.6116614878598379 271.521439923855 1012.2596389045085 0.3297374782003655 0.38665643713295034 0.20484541361839664 0.569973138560421 148.9123713656706 825.2990331411935 7.214584937417393E9 0
0.13378909584333742 2471.183762091504 32.86327147707265 0.2424188083890696 0.6999145751513283 0.7341354235642338 0.49968326319099665 240.70740208373076 1598.781458162955 0.4444251782460093 0.24969841901335088 0.3572333955502371 0.31470819081501084 56.66504476690726 1199.823920354055 7.897177910295995E9 0
0.08167898348936176 2101.9344903144483 27.081160641566072 0.37354979315757475 0.7992456842389242 0.37402674894271604 0.4900979612131502 270.93281879768256 759.7449445114247 0.7988701089334322 0.6893614215981916 0.6412346154108666 0.4299869205692299 125.22522640652002 733.0297977162385 8.880734361965488E9 0
0.9785298691675351 2475.7061643332154 51.33304280520096 0.5051864359651428 0.1023246693979855 0.2084745163164992 0.6458181683806488 219.35169205148588 678.2866974116683 0.6094869961080311 0.7493223206633512 0.5500944356587782 0.20820058649446455 174.808001826698 1108.954602151077 9.021707200672394E9 0
0.43231998738488575 2859.115267032558 42.21846061671914 0.16504217501566779 0.9706796620199243 0.007460608463011828 0.8971338256714303 417.39425474468976 1564.8050890065178 0.20296739442312595 0.20179189834280864 0.14182966115482107 0.5749372779471362 70.17838379269004 77.69187629150198 9.176541694719723E9 0
0.33926203461049576 1958.0327764837193 38.17614299664037 0.5820286985113186 0.3557528282984524 0.6948257754167018 0.44029329391642713 248.4982328782839 1181.4688824937823 0.3720797123655628 0.5009790359391791 0.4532305521165381 0.6093084075173674 199.8623369299975 810.4181900924428 1.000186877160509E10 0
0.9086298791081439 2660.123438224189 20.38923358631191 0.17711159847798996 0.8679272340833635 0.6701525554876874 0.45837282184498235 212.2332020592595 1306.7444154032116 0.6434307733756639 0.49740984529474286 0.5653536363306494 0.4790179832108318 191.69714961919317 927.0889110625768 1.2365524171225328E10 0
0.26683486842125215 1731.688624158983 47.735435493805944 0.37888351942003434 0.379924463645019 0.2773604970129033 0.5740045473524362 263.6325583070011 1024.829200349806 0.43856084835179365 0.570155260308284 0.2780529508705664 0.43912062460144263 215.75625131705004 825.6461632732387 1.2624678731686289E10 0
0.43470565114632254 2122.737232913725 42.9694851376798 0.5656045200295905 0.39424564770777043 0.5295381586590405 0.7068218328344787 372.7247340618528 1120.605395316393 0.28704170825287145 0.5330621242689042 0.24248029437352092 0.5549103851691077 127.11059832263763 730.2319139342121 1.4022732998678913E10 0
0.5785127421885319 2492.695114836739 17.69258741427279 0.6433636931471541 0.17005964849314167 0.28371315134260955 0.44332383505465034 178.48389830659488 1824.396079282546 0.29155829496537744 0.6919716581927897 0.5421700606583342 0.5161492502018215 170.2614231312343 747.1625849094554 1.429842428286502E10 0
0.5326278900154925 2316.26885984594 38.28651943945638 0.36356421050747106 0.06914649985337125 0.8802122298718804 0.9361021891030302 191.4207311906041 2302.3857288627123 0.5390008615867581 0.31314505312460233 0.7455826949478612 0.368995486689973 37.485717678706344 17.801676688401045 1.522590401593813E10 0
0.6047537743623077 1239.47227737328 45.40529669418117 0.29237145574199747 0.031755929037718136 0.6717006157849277 0.3778985147502544 278.3548416314164 858.3860255573045 0.798526019581733 0.7331455410859129 0.9331396315374615 0.6564277925780981 341.67580215555574 1758.0851586236606 1.6594399662155571E10 0
0.3783112654047034 1373.111104504355 46.626651977425695 0.34775661316089745 0.31600331299585266 0.5050823997122921 0.8517931699997684 314.32964929274834 947.4480881292741 0.8228575676426994 0.25181304391014453 0.785204662661061 0.7435513616381642 359.73940109035215 687.9804477843138 1.668150993981706E10 0
0.0714271937475417 1648.6395342285018 52.858491642540656 0.3827177686399473 0.285858129057251 0.2907502688935354 0.10898759252622886 320.4721308995999 1173.7370355609287 0.23562583866153503 0.5912439124851214 0.2992005464534594 0.6334605961936188 131.6846979436304 1004.4465304963327 1.7000961761252703E10 0
0.7759103485341736 1906.2157315779561 53.582484901281504 0.423168034048949 0.6979506646185271 0.2581221071106834 0.38109276411410853 367.347851702909 1060.580759485023 0.21450181691096118 0.43305670850523437 0.6478707835940223 0.6073971779321867 125.65947958477189 663.445259980305 1.975290145026701E10 0
0.4542030394282458 1973.488831177943 43.30876727439699 0.5366988991509724 0.30885017234088535 0.4857581113885076 0.49352586067695176 332.8375411747523 1525.6464602811898 0.5040104491566406 0.2991710287445201 0.5283305730104161 0.7162928898950697 195.77511145708675 694.094238317346 2.641954483602305E10 0
0.9188922670668075 2656.2231181744432 41.11329992443995 0.2624950177999891 0.6146298100362093 0.24757098805522865 0.5263320518584261 250.23338994358235 2105.439815517906 0.6375009006007881 0.17568403730332288 0.4333288700671435 0.6562404109358102 75.20396228837255 669.8950536666198 2.8610731899863052E10 0
0.3783874347467183 1877.2162239680579 42.27242338643303 0.47104387635590533 0.25680754640616 0.34595524928753607 0.25397891009090007 295.47936104512394 721.9883094584327 0.27475705481168183 0.7788102725011093 0.5548288232068699 0.5828183979892518 194.4546775221742 836.0725791630022 2.8714884396105137E10 0
0.42069023153767726 1763.4313874577972 48.094582427412625 0.11955148438090202 0.38324662929749137 0.5029063059513799 0.2617585842409827 318.8146945352656 598.8060389940828 0.21362071994673318 0.428189751739077 0.3610896439196373 0.6059728445814043 299.9300062919198 795.7393415116039 3.916625291943526E10 0
0.4254787278019371 1557.4344716101634 34.189296176057304 0.06822824957358897 0.32738466593861254 0.15009963190795142 0.4389314504622242 168.7488537783442 846.7077177021363 0.30198402184518813 0.5524717911557833 0.5225084430417676 0.13105146888020244 158.04892426928052 1058.7923970888519 4.061359671368688E10 0
0.47711972509047207 2645.613831369513 46.218448636700145 0.20636563646911713 0.3303919717362719 0.7462888035162291 0.4543044638964739 194.15561551089485 1702.5077159090145 0.30409737950851895 0.709348940398995 0.8020954749132473 0.5081702637479583 314.9817111982625 778.538953121746 4.7943058391601166E10 0
0.6789187942246232 736.801248747153 56.227411087695685 0.3997268189668062 0.3269788897080025 0.7509319510877701 0.361785857327091 297.35816816501494 421.1663887412558 0.48664465203167245 0.6166706813594437 0.6653474824918901 0.5931834140721636 102.63940684184341 550.0094752505557 4.818044591932463E10 0
0.11474476402156719 1479.6985206219229 39.08026605312914 0.13393700954461168 0.2043021788916317 0.5726656512487865 0.5733851068056768 381.29990729967943 831.292468164794 0.37209555655740156 0.19349988074407104 0.47834163129327006 0.7412567744690274 267.3800975370258 1009.7898754771634 5.303099061577149E10 0
0.8548887807758403 2266.7191886436362 16.560780546327628 0.7553798709867093 0.053295439360706395 0.25209060299282476 0.42445984238028767 319.70250672389255 1273.4986409855412 0.38578006623469663 0.5926079708599947 0.4901481303472511 0.4285733390956483 104.15255335214903 1306.4876182972696 1.1716835739593492E11 0
1.0 1639.780862756139 84.97236594284253 0.38404049096405535 0.8640234859878796 0.8710932285226385 0.5620531951448161 251.86785310691002 2957.083747386623 0.09215213655975338 0.06865015630647286 0.4536265223932777 0.2901815997795316 0.8434378067959658 1527.3294415059652 1.7976931348623157E308 0
1.0 1952.459475219773 68.54271366459204 0.7075765423255522 0.010741888457568485 0.70715713277872 0.34912615595023394 442.6098871988576 1306.1332724874844 0.36880788699192135 0.9388122058698549 0.1275957511699852 0.12032147014056344 152.89714086121487 1745.6826114940209 1.7976931348623157E308 0
1.0 422.04333211064744 39.76692676845422 0.15554826588558357 0.6609855703161734 0.5351156141129385 0.5280887342926208 151.7860733574631 2827.2900177884944 0.42316470419699004 0.04957098172944557 0.8859805984180554 0.9901979533186527 409.4183792396848 387.26461832008096 1.7976931348623157E308 0
1.0 1340.0104907353443 58.92084198984664 0.12423767103288336 0.8195507906297563 0.419151371693458 0.4894802790335326 298.8978874322283 760.8402414808647 0.4341166248340345 0.23474480029287786 0.7619025415210436 0.523859901924188 492.6564664211093 1142.3300835828327 1.7976931348623157E308 0
1.0 550.0673753501679 3.9099766092556356 0.5870437909657644 0.7257003549956449 0.8761331964773408 0.9230373061834946 483.6669991673791 1684.1675479550397 0.9175325941838355 0.4064113026392749 0.2008165147713667 0.8386276805154701 235.13713403360092 1365.0346876747128 1.7976931348623157E308 0
1.0 2816.267550721625 5.421902551340938 0.5466263361969886 0.5335405968054403 0.05176604820576114 0.6688593446093933 152.1949905643961 1085.0957076660063 0.07310569793816202 0.38633280061696523 0.5650973262953246 0.05830432633807943 399.4914754031346 672.3945270230512 1.7976931348623157E308 0
1.0 1743.5653891139916 26.35382603366039 0.2861351838339094 0.5721445000990932 0.7076421055076308 0.3495679502752264 136.02126425937297 2417.9216894910073 0.8526711472034255 0.17903892290919254 0.7253131321469696 0.7647891831321728 4.696988293207638 833.3741034801839 1.7976931348623157E308 0
1.0 2617.0473164056793 84.19470229531272 0.1553460415425276 0.5073903889605533 0.4697151300562109 0.218657900032051 57.4304807068024 1445.7247594001376 0.6066109279398775 0.35084298455086066 0.7137780904093681 0.08103087241606112 276.6431893304559 896.9536945026219 1.7976931348623157E308 0
1.0 2245.647590622106 41.77722412875398 0.4412868236004325 0.6692380505752047 0.743869957785496 0.7833067097944241 337.8500697851311 2389.0793846281663 0.5591752343673616 0.46907227354754694 0.01447623792724889 0.5088362534866774 80.17158620156661 1772.6518655822476 1.7976931348623157E308 0
1.0 629.5651474828001 79.31870254286154 0.704624031849327 0.08375267827433747 0.915781025737588 0.6340016973880283 120.75058030849894 1478.3689939241297 0.37942605949367475 0.9458937043545513 0.9097357945229939 0.6100740894710774 15.493406709093826 1016.3840685466537 1.7976931348623157E308 0
1.0 1623.8545903126535 65.88558691030237 0.7079329186604402 0.8865368265364321 0.8912226460463103 0.26926714831395354 344.69542397189366 1320.0185422471657 0.6292723184161474 0.00941577581424461 0.10705824666644503 0.9569894317120807 167.22670374022698 1476.616430044558 1.7976931348623157E308 0
1.0 1794.326049095726 99.55389843286382 0.4125656382686494 0.9942033084200768 0.22208188959683742 0.6954798038265485 423.7976726831935 274.11649074327465 0.81269561942464 0.7002244701745522 0.13289843474645324 0.0023056021157567036 445.72009909229445 1652.1603915474377 1.7976931348623157E308 0
1.0 1700.5186607401533 5.823013506159387 0.21624882024348907 0.29404982558050263 0.31847123176180486 0.033752455424040505 418.4408795504789 1981.2645872393437 0.3429247244138897 0.7466314564718263 0.2576611605015554 0.0646735759321539 122.78458023298694 1379.0456545763054 1.7976931348623157E308 0
1.0 2834.2316056336313 6.264083308314286 0.6800562917042493 0.4747179067221 0.9336678467413692 0.025619002189626237 355.95480683737014 1757.2122631024727 0.7583399169060236 0.30830432985973594 0.8537024197003341 0.09823022493364435 125.81785433201387 1918.8411431788131 1.7976931348623157E308 0
