 17/06/2016 12:40:22 |                  Run 1                 Run 2                 Run 3                 Run 4                 Run 5                 Run 6                 Run 7                 Run 8                 Run 9                Run 10                Run 11                Run 12                Run 13                Run 14                Run 15                Run 16                Run 17                Run 18                Run 19                Run 20                Run 21                Run 22                Run 23                Run 24                Run 25                Run 26                Run 27                Run 28                Run 29                Run 30                Run 31                Run 32                Run 33                Run 34                Run 35                Run 36                Run 37                Run 38                Run 39                Run 40                Run 41                Run 42                Run 43                Run 44                Run 45                Run 46                Run 47                Run 48                Run 49                Run 50                Run 51
       0.0001*MaxFES =      528564930991.8985    505852862142.48224    503736328351.55536    419831796910.74615     553371884000.3734    474934172332.91284    477765849755.44556    441255943799.04596    529795588504.82825    397221925330.44543     478942749925.3229     488529995126.8169     459320762113.2649    514264659743.39087    518351624004.45984     521965614421.3068     555400320901.6688    529909018608.93353     468972246229.7265    545406036539.58264    505764499932.16235    464500917004.24725    458539841993.88556     551417914373.6304     494423897185.8058     512824525205.2033     518959375800.9775     486960988932.7521     411739696192.2062      471806050316.325     577501006752.8098    452242439982.40985      530640532069.225     514831545374.9687    485784851086.02606    531484261004.86926     492109275581.7415     515038954781.5311     481217767159.8457    508823824070.76733      549362803116.057    525612086174.67365     453176922440.2941     529504151589.7403     464826347478.3606     566229343614.2577     507370656647.5627     534060905409.3847     531266977583.7721    529562143493.36475     531116928855.5348
        0.001*MaxFES =      194284978590.9027    195173191415.35205    207347185968.16342     209088422278.6083     197479439676.2923    192060492722.85535    193576802836.70663     170268101863.9517    188777852015.67578    145243571597.52786     192768244979.5025    177683784622.50638     174376183345.3363    170482056998.91986    206221411177.46286    191798824276.65118     180448934605.7116    189624886062.19034     192116218935.1905    145959016649.86627    166170329178.09225    167483326507.64304    164530846675.40823    185092351188.07233     142339540227.1171    190419484810.84833     191934296264.3302    200673380632.28217    169536108195.05283    185275398138.14417     185510972871.9166    165824792820.07065    205255339326.51492    198927280531.49896    204309342393.93948     180175047291.6826     181243143986.6718     181712650887.2553    191868307210.59705    188475930807.46295    185232004094.14026    158365134434.72345    223936259011.34134     180280398204.0647    163156113616.97113    179937073572.16678     210083790945.3117    191726283914.28964    176110450603.84836    198650892951.90872     203895523726.8485
         0.01*MaxFES =     237365622.85878783      322931920.759675     596605906.1446272    432367633.79186654     384379201.1315189     588082912.1346214     493162176.9906189    435802641.78312683     274723849.1972879     276279620.7288766     416200057.3451751     541859336.8018848     506931100.9476208     280717972.4159533     320473365.7514793    366586788.93252975     450992594.0583344    440240550.12269384     393119151.6595545     325237469.2113972     383533857.5859157     349604766.6932189    231895838.15063384     658264847.4459716     284564127.5191034     453528733.4538496     513425179.0626763    186381348.57665113     428759644.4879216    309708839.22713023    240624179.42362225      416273544.401895     442117460.0803241    343542220.15234095    434279683.04343987    430140992.28638226     261601647.9596044      739811577.177276    382482374.25388914    191924056.21815035     362123096.4923976      543795188.942666     364966000.5746909     391384671.6380954     241488139.4547506     307271788.6656748     615782583.2790377     388611075.0924028     438296133.1390783     343817745.3571362     668310248.4997786
         0.02*MaxFES =     201603.36710918136    304797.13989738777     764204.5210208045     547185.8003361919     538173.7744869819     579409.6511269767    293668.59261130623     602316.0072413253    249810.67451597124     533063.9320911216     492990.0193877022     988101.5603514649     485060.0762227331     275300.8130194155    341078.67332662933    373998.83854755526     483625.5047435603     416119.8377070749     426335.8207714544     346261.3131742587     278810.4112287995     545224.3300888326    254838.94486153976     895057.4506413898     504262.2961494011    434438.51820478303      685221.112804325    193672.71749038875     386478.5156064368    248961.97032935047    183685.73434521936     341105.7873811664    1061397.4607751018    374048.45356444735        413312.6964274     438175.9651413483    328567.26630604913     998079.1524824509     536286.5310308671    215210.74399117578     321207.2627123741    482789.79381319834    349877.23110837577    340705.16428189055     253985.0079200951     538916.8266506273     517030.4944817135    190010.18151278535    423836.53714018385     880324.8587730309     888660.0759187842
         0.03*MaxFES =     300.33378774676044    1035.9840497348823     797.2931082760089     2438.481836077428     1920.057464104115     6809.489352973308     6128.962868041364     794.0603043106645     4669.297824935698     4763.534170508688    1486.5422583759503    1430.5404000914202     5283.948708874717     377.6583322298122     2419.902646385257     3229.674310104822    2426.0160756155037    2416.8742072567984    1069.8243118496302    1271.0939906076508      408.592792410823    2315.3106004760084     644.8709164727093     3053.291865912174      666.129175822731     1062.963857848066     4066.907242718009     3514.757168412111    1034.2117280633527     423.9351262270286    245.16960987819994      751.594692811893     848.0076756352846     557.8298350708495     285.2733387091223    3188.8694971528103     1488.253613419093     2032.219147187152     809.0262358181656    1591.0404166287697     7667.520345454769     763.5511688426459     863.5346813274618    3727.1794639220916    1319.6305555639874     5325.724047917379     4606.851249056299     626.5378233436838     913.0275215299678    1679.8470994090221    1140.4121132877833
         0.04*MaxFES =      101.7225692944236     689.4583536528497      1.31627506525786    1799.7651861498234    1388.9808230139126       6065.2303973437     5862.035620057633      1.02399051410532     4421.277024877234    3892.8292580503557     669.0682606591697     311.9814683817977     5012.577222441432     105.3005199393682    2095.6055013556384    2833.4015661848757    1442.0897222119406    2067.3334781024146     583.6265840654041    1026.6396318252237      167.841534775301    1694.8449333317565     365.9765822442544      2312.52350638039    135.11374411505733     668.9173238615116     3629.439896069572    3283.6678055745024      469.027286067326     163.0871784237029     25.83875285844422     395.8020994225697      69.3289415108626     151.3861169489131      56.8174346804739    2683.7253095485758      759.992732698664      4.59430732634107     447.8703145191818    1279.4469071624587     7378.355924875188     248.0253245228607     606.4853552492457    3299.2355025507163     989.9266423053093     4833.037110077379     4045.898301874549     342.7299556727157     536.4821129146441     538.8259439620966     424.5060780225688
         0.05*MaxFES =      101.4758522842573     689.2208063756885       0.2900344088398    1799.3022135896042    1388.4019170950846     6064.349427505081     5861.770837975194      0.31760675581288     4421.012527104472     3891.744654552421     667.9898188981848     310.6254000467426     5012.222242451321    105.02558526352954    2095.3420852143004    2832.8732848004415     1441.481199274073     2066.745867904066      583.098625472385    1026.3836355861592    167.52776329711105    1694.1893719511847     365.7698190143799     2312.033755921497     134.0213630264203     668.2350593969704     3628.900525028793    3283.4097638837407      468.106877178365     162.7496187044187     25.62288900828284     395.5432855434756      67.6498048982728    150.59800568599474      56.5966520591312    2683.0564417450446     759.3416496522349      0.44869759494415      447.538951170403    1279.0076896916053     7378.040190738105     247.6374265284437     606.2879594893329     3298.918368984547     989.7142082761457    4832.4128286203395     4045.017023160948     342.4114518404917     535.9480240362045     537.0648057804171     423.4476857258193
          0.1*MaxFES =     101.46954748992425     689.1793549525336      0.28841996802905    1799.1921554169517    1388.3125101686894     6063.973327708335     5861.406609182537      0.31671033759878      4420.71579230511     3891.503592315805      667.949720421252     310.6050917696754      5011.91426641912    105.01866608420715      2095.20854295009    2832.6942709575383    1441.3930770023364    2066.6179662145187     583.0645115755692    1026.3212070623597    167.51750993027355     1694.084434289537     365.7477894806914    2311.8934630357257     134.0119645562073     668.1910369416763    3628.6817931425876    3283.2122106301827     468.0749130234942     162.7397635435622     25.62111043642835      395.517957581409      67.6440354537787     150.5877819327289      56.5925877326459       2682.8992926226     759.2948788941436      0.44510011355464     447.5098392618611    1278.9289364202207     7377.586820504192     247.6220072862416     606.2459059667982    3298.7088615933712     989.6561207517184     4832.112353926841     4044.768917855879      342.389960487189     535.9162150655914     537.0303803483763     423.4200684217826
          0.2*MaxFES =      101.4572693191273     689.0938542644569      0.28838402869155    1798.9740205974947    1388.1409622927733     6063.222621572177    5860.6712561708255      0.31667216723068     4420.157795052059    3891.0359998870636     667.8677597266712    310.56790746134914    5011.2955209996935    105.00537926370976    2094.9448662049203    2832.3453691568934    1441.2144296287079    2066.3521539095846     582.9927868246828    1026.1973804636027     167.4970681105299    1693.8778962311605     365.7039849365301    2311.6005865014627    133.99548170664843     668.1102098986306      3628.24077940263     3282.807540924941     468.0165860512574     162.7196376419706     25.61805273179527     395.4691562847727      67.6356396133707    150.56934144692184     56.58567527380865    2682.5670915162978     759.2001069777339      0.44504418529795     447.4556958888179    1278.7703609105774     7376.670076239481    247.59127699483565     606.1695843140543    3298.3099278535783     989.5333885386467     4831.522692946689     4044.283334751355     342.3464012723102      535.852030623533      536.965875668397     423.3683997789614
          0.3*MaxFES =     101.44473890513257      689.008476591441      0.28834740822833    1798.7546366712872     1387.968494780563    6062.5023653833605     5859.940289980938      0.31663210239108     4419.597335402247    3890.5387881239026     667.7899842873969     310.5285385858957     5010.675143681499      104.992680154106    2094.6905503871762    2832.0017592011277    1441.0356069071595    2066.0956667003898     582.9216052872404    1026.0721188995858     167.4768611234498     1693.664049426236     365.6575407134821    2311.3264068067297     133.9790999440599     668.0249270243515    3627.8040546100865    3282.4150128307165     467.9583777424998    162.70046240619735     25.61492083261072     395.4191999726582     67.62726154363725    150.55074131447464     56.57894307636616     2682.234280144625      759.105775514049        0.444989624199     447.3997197510987    1278.6172314120836     7375.773282839469     247.5611720928562     606.0939450749352     3297.891853894656     989.4147024441022     4830.939548034703     4043.754462655036     342.3034695585702     535.7857929010404     536.8980914872848      423.317598742042
          0.4*MaxFES =      101.4318272998735     688.9264087622023       0.2883123233067    1798.5376207591275    1387.7959618761815    6061.7770297481575     5859.237127003835      0.31659342636772     4419.063186095771     3890.051772565831     667.7095025748896     310.4892752842978     5010.036785978438     104.9800380639594    2094.4258022499675    2831.6650929094358    1440.8521428132858     2065.848010504328     582.8526254417203    1025.9421253059106      167.456453284089    1693.4472158831707     365.6125750544577    2311.0278729356432     133.9626393100807     667.9389294317549    3627.3638637749455    3282.0084857867037     467.9011977175776      162.679531152005     25.61181547407847     395.3698810379808     67.61884520088614     150.5320015889371      56.5717507868561     2681.914040413662     759.0123224214033      0.44493658351294     447.3441425499093    1278.4623103492036     7374.869166938226     247.5303952402252     606.0207443744987     3297.497283170853     989.2933821161057     4830.326064187142     4043.251360051049      342.261284799552      535.717167446476     536.8320817451814     423.2649472699856
          0.5*MaxFES =      101.4194894485199     688.8429511285809      0.28827652519234    1798.3153731094567     1387.624343083426     6061.036625500724     5858.525489404848      0.31655496322705     4418.524369655547      3889.57145882981     667.6300641676468     310.4516844453659     5009.425409621903    104.96741495095716    2094.1619479224228     2831.324328463963    1440.6792982194265     2065.593077555555     582.7818895200363    1025.8166300865066    167.43611536130686     1693.237510913817     365.5667207056547    2310.7363603297254    133.94601395696935     667.8574830427605    3626.9127259607967     3281.601942505191      467.842572891289     162.6591720958511      25.6086019396724     395.3218857997402     67.61057262495524     150.5135203276518      56.5645663585886     2681.577848456489     758.9169271084988      0.44488160241303      447.288587351997     1278.304803338769     7373.941371949198    247.50003005258486     605.9472830189883    3297.1014628921475     989.1734523070115     4829.731956672585     4042.743884745307     342.2175756786596      535.651639007157     536.7653984824976     423.2125236810375
          0.6*MaxFES =     101.40692765054104     688.7589720954628      0.28824167052423     1798.101734271002    1387.4519638859824     6060.313394464644     5857.770584562731       0.3165146914924     4417.973109500128    3889.0929156289394      667.546895712145     310.4127923536559     5008.799257842861    104.95429745074495     2093.900698013236    2830.9837123418033    1440.4979542691565    2065.3316192816974     582.7096484315466    1025.6958271854628     167.4164515810398    1693.0251433086496     365.5212144024883      2310.45366186926      133.929144529072     667.7751926750931     3626.467506311949     3281.182615313118     467.7841515101898     162.6394649621053     25.60546787784133     395.2747507754068     67.60212996239943    150.49516310117076     56.55749405455174    2681.2665266040563     758.8206140409328      0.44482676965387     447.2337280878003     1278.147975269657    7373.0577397524075    247.46873380990087     605.8747289042301     3296.709150374826     989.0514657388187     4829.155528235412      4042.25320945538      342.175472755945     535.5842471647583     536.7005515298806      423.160489579604
          0.7*MaxFES =      101.3947351328642     688.6759803497047      0.28820580934854    1797.8802644000687    1387.2832819693879    6059.5658191056955     5857.033700728666      0.31647772488574     4417.438055142928     3888.629768111116     667.4642837085449    310.37553811835727    5008.1758746109945    104.94136683166795    2093.6542727953624    2830.6438660664203    1440.3184470694487     2065.081774141181     582.6391195908881    1025.5723525518765     167.3965457642113    1692.8262775285443     365.4751631381698     2310.160857261103    133.91228646680065     667.6958723363535     3626.013967312759    3280.7773904942073     467.7268944906768    162.61888411720406     25.60240923697285     395.2266744222358      67.5938017657942    150.47718290580656      56.5503792912103     2680.932672538055     758.7282804381304      0.44477174082172      447.176969727348    1277.9917328098998     7372.159044628787        247.4391983339      605.799924883711    3296.2955274129185     988.9246218672088     4828.567652936986     4041.779936734514     342.1333789549452     535.5189858776291     536.6347628960438     423.1081689345217
          0.8*MaxFES =     101.38242429353124     688.5916535733061      0.28817056304922    1797.6570872865896    1387.1125987832152    6058.8054686979995     5856.330962919315      0.31643746832538     4416.909351531959     3888.149958076298     667.3848362855266    310.33814533673507     5007.548612392764     104.9283369678476       2093.4020647749     2830.301109415075    1440.1384583455301    2064.8232479261846     582.5666564962831     1025.441500914929    167.37573910249773     1692.625308945957     365.4299584350601     2309.881545803291     133.8952634077692     667.6138204807154     3625.567844156738     3280.383436641717     467.6724433586242    162.59853544734267     25.59931106447263     395.1788293937221      67.5854843253238     150.4583401007489     56.54327493732256     2680.619140389206     758.6362437041272       0.4447168520539      447.120228579928    1277.8397311890305     7371.266272324224    247.40904203334094     605.7234432823782     3295.893406312037     988.8025106828673     4827.979570509161     4041.260238142793     342.0899918177076     535.4556750796328     536.5658403516973     423.0543130165472
          0.9*MaxFES =      101.3698016757072     688.4999860338947      0.28813288088858    1797.4342409738958    1386.9386148095296     6058.045035659805     5855.608525917024          0.3163988534     4416.372552112414     3887.667781723786     667.3021134485557     310.2998226589795     5006.922621245171    104.91548771998316    2093.1406598146777    2829.9564304605656     1439.958220155653     2064.563279814457     582.4938627048459     1025.313934199875    167.35517894222573    1692.4118711836827     365.3844309068721    2309.5925694672624     133.8794087719159     667.5333055830416    3625.1082392711833    3279.9682765060647     467.6138956439661    162.57867886376454      25.5962918895757     395.1301223374586      67.5774409074175    150.43992676787525      56.5364740504797    2680.2847604932253     758.5422736179702      0.44466335063288     447.0651569283206    1277.6803959219706     7370.346631762958    247.37816549722356     605.6506158132867     3295.478711083616     988.6807221926433     4827.382389008749     4040.755512414196     342.0482954472125     535.3893494720135     536.4995410977567     423.0028727320309
              MaxFES =      101.3574683841581      688.417474583415      0.28809746402686     1797.211676886449    1386.7678934156027     6057.308309015054     5854.903862805828       0.3163597556329     4415.820463912663    3887.1859926124116      667.219058867122     310.2625453035847     5006.290661362246    104.90287869381086    2092.8949753039155    2829.6096960992304     1439.781891900026    2064.3071693494135     582.4232045086244    1025.1864198328503     167.3345853010127    1692.1998793033301     365.3381304598911    2309.3003304276535    133.86254208575366     667.4549346006368    3624.6756176856543     3279.561255003058     467.5544527233944     162.5588197256419     25.59316714993784     395.0800742630607     67.56905042723156     150.4218782497793     56.52970616073225    2679.9607535775813     758.4494638170222      0.44460990696373     447.0114612128828    1277.5251528705983     7369.414669180473    247.34798104062355     605.5767960563431    3295.0784876933003     988.5621134835685     4826.777992786573    4040.2380679121325     342.0051436194678     535.3238907252723     536.4331212790595     422.9494355574852

                  Best                 Worst                Median                  Mean                   Std
      0.28809746402686     7369.414669180473     667.4549346006368     1612.756660085141     1847.592895930818

