 17/06/2016 15:46:15 |                  Run 1                 Run 2                 Run 3                 Run 4                 Run 5                 Run 6                 Run 7                 Run 8                 Run 9                Run 10                Run 11                Run 12                Run 13                Run 14                Run 15                Run 16                Run 17                Run 18                Run 19                Run 20                Run 21                Run 22                Run 23                Run 24                Run 25                Run 26                Run 27                Run 28                Run 29                Run 30                Run 31                Run 32                Run 33                Run 34                Run 35                Run 36                Run 37                Run 38                Run 39                Run 40                Run 41                Run 42                Run 43                Run 44                Run 45                Run 46                Run 47                Run 48                Run 49                Run 50                Run 51
       0.0001*MaxFES =      21.54800406709546      21.5072810021886     21.53044729963443      21.4872077695301      21.5169875694613     21.55950892562805      21.5228877622697     21.49353163984637      21.5432084201041     21.54025677133114      21.5287088719314      21.4923555614049     21.53789072111044      21.5362255302208      21.5355053347444      21.4845782755078     21.48390276689184     21.48665004683977      21.5396227885185      21.5069276223189      21.5542769078282     21.52961235633416      21.4704309845232      21.5550851804664     21.50579804177283      21.5470700724063     21.46114072991077     21.52285964969315     21.53298094728507     21.51879131390746     21.57979018268003      21.5644146948012     21.52933106291687     21.54737057119866     21.58204384376444      21.4827734476975     21.45591301320405      21.4980703558935     21.55187203029817      21.5622409657785       21.523909738261     21.48498817236487      21.5195757127434     21.52114013264116     21.49948951205556      21.5402824285319      21.5500486247755     21.56718171521277     21.55649571410856     21.45279676746907      21.5074661786852
        0.001*MaxFES =       21.5044089893441      21.5012893248975      21.4953376415481      21.4872077695301      21.4675157635882      21.4332208869226     21.46549779153725     21.48000063010903     21.43831630772286     21.41802796952754      21.4543624995994      21.4792237264156      21.4647220880138      21.4521330819821      21.4335485856414      21.4845782755078     21.48390276689184      21.4727192547516     21.45815763564633     21.47248735782773      21.4459354871393     21.48502329785174     21.45369392648684     21.44807818449783     21.47048436963144      21.4856980393666     21.44633957828944      21.4523762220395     21.38908570754023     21.43429136137297      21.4540340583686      21.4760919973963      21.4773179927637      21.4388856966549     21.43356487341515      21.4827734476975     21.45591301320405      21.4477487912467     21.47385809650564       21.483157474846     21.49802824572646     21.47790988506904      21.4689646264581      21.4489269833915     21.49786936875665     21.48448276379065      21.4666481275758     21.47786138941325      21.4265187508539     21.45279676746907      21.4878956802494
         0.01*MaxFES =       21.3725668497688     21.33023307310185     21.40371919668235     21.35216306817716      21.4254910334332     21.39873294818534      21.3797569538908     21.31644481213664     21.39402302782696      21.3296161753816      21.3631639736339      21.3455779624843     21.43258303225286      21.3577920499728      21.3296185264822      21.4147060501811      21.3713273185139      21.3546746215476      21.3912284570773      21.2650219564969       21.268349616004       21.411264511335      21.3509397573307      21.4118519236845       21.310144566403     21.32841931518215     21.39310890885474      21.3816383802309      21.2855979871893      21.2973060983192     21.41782382774994      21.4180585922561       21.399397576992      21.3525589498447      21.3860572125035      21.4197421901685      21.4062644017138      21.3698674204524      21.4025379731719     21.39695170641147        21.41050661131     21.36263392715387     21.41303357931724      21.3763523609531      21.3682760073934     21.40230745912413      21.3918957022641     21.38415254086897     21.37863196070714     21.40760743822494     21.38152517385697
         0.02*MaxFES =       21.3725668497688     21.33023307310185     21.38222122645686      21.3521428541171     21.39920952191477     21.37396175874005     21.37975695360376     21.31644389719685     21.39402302782696      21.3296161753816      21.3631639736339      21.3455779624843      21.4111265332763      21.2710578575278     21.32961852648174      21.4147060501811      21.3713273185139     21.35174668805615      21.3576914509234     21.24719875821364     21.26741102154267      21.2717574266051      21.3509397573307      21.4118519236845     21.30932272595305     21.32841931518215     21.38574572490734      21.3205108979441     21.28559553256065      21.2973060983192      21.3729390938208      21.3830874801073      21.3653829646294      21.3525589498447     21.36030125142025       21.340499926516      21.3055038790733      21.3698380515999      21.3133850614312      21.3455068801994      21.3684187135482     21.36263392715387       21.385317589381      21.3763523609531      21.3682760073933       21.402230816045      21.2850717187628       21.348506108285     21.37863196070714      21.3743114462925     21.38152517385697
         0.03*MaxFES =       21.3725668497688     21.33023307310185     21.38222122645686      21.3521428541171       21.368160264348      21.3443165716925     21.37975695360376     21.31644389719685     21.39402302782696      21.3296161753816      21.3631639736339      21.3394302274163     21.37652451424765      21.2710542820195     21.32961852648174      21.4147060501811     21.37132731851386     21.35174668805615      21.3509534130472     21.24719875821364     21.26741102154267      21.2717574266051      21.3509397573307     21.29444819448497     21.30932272595305     21.32841931518215      21.3647112665575     21.32051089537566     21.28559553256065      21.2973060983192       21.357751899647      21.3830874801073      21.3653829560255      21.3525589498447      21.3077282361205      21.3354539870604     21.30550387907005      21.3698380515999      21.3133850614312     21.34550688019067      21.3684187135482     21.35906029137755     21.28505659281024      21.3763523609531      21.3682760073933     21.37016659642666      21.2850717187524       21.348506108285     21.37863196070714     21.37431139126875     21.38152517385697
         0.04*MaxFES =       21.3725668497688     21.33023307310185     21.38222122645686      21.3521428541171       21.368160264348      21.3443165716925     21.36246645552484     21.31644389719685     21.39402302782696      21.3296161753816      21.3631639736339     21.23718820729516     21.37652451424765      21.2710542820195     21.32961852648174      21.4093388369199     21.35129030445773     21.35174668805615      21.3509534130472     21.24719875821364     21.26741102154267      21.2717574266051      21.3509397573307     21.29444819448497     21.30932272595305     21.32841931518215      21.3647112665575     21.32051089537566     21.28559553256065      21.2973060983192      21.3219756699948      21.3591637509394      21.3653829560255      21.3525589498447      21.3077282361205      21.3354539870604     21.30550387907005     21.33375261420434      21.3133850614312     21.34550688019067      21.3126874944676     21.33130898218377     21.28505659281024      21.3763523609531      21.3682760073933     21.37016659642666      21.2850717187524       21.348506108285     21.37863196070714      21.3495220397557     21.38152517385697
         0.05*MaxFES =       21.3725668497688     21.33023307310185     21.32164108903123      21.3521428541171      21.3625312028616      21.3443165716925     21.36246645552484     21.31644389719685     21.37427551650035      21.3296161753816      21.3631639736339     21.23718820729516     21.37652451424765      21.2710542820195     21.32961852648174      21.4093388369199     21.35129030293723     21.35174668805615      21.3509534130472     21.24719875821364     21.26741102154267      21.2717574266051      21.3509397573307     21.29444819448497     21.30932272595305     21.32841931518215      21.3647112665575     21.32051089537566     21.28559553256065      21.2973060983192     21.32197566999025      21.3591637509394      21.3570306886501      21.3525589498447      21.3077282361205      21.3354539870604     21.30550387907005      21.3337522332524      21.3133850614312     21.34550688019067      21.3126874944676     21.33130898218377     21.28505659281024      21.3763523609531      21.3682760073933     21.37016659642666      21.2850717187524       21.348506108285     21.37863196070714     21.34952203643377     21.38152517385697
          0.1*MaxFES =      21.34022210553206     21.33023307310185      21.3152102074349      21.3521428541171      21.2681922625974     21.32749363374523     21.36246645552484     21.31644389719685     21.30985797519395      21.3152762647279      21.3631639736339     21.23718820729516      21.3168630611136      21.2710542820195     21.32961852648174      21.3499756403377     21.35129030293723     21.31936516933797      21.3509534130472      21.2471987582136     21.26741102154267      21.2717574266051      21.3509397573307     21.29444819448497      21.2895231526965     21.30882932846396     21.36471126655744     21.32051089537566     21.28559553256065      21.2973060983192     21.32197566999025      21.3591637509394     21.31874749498746      21.2618123818261      21.3077282361205     21.30281523829694     21.30550387907005      21.3337522332524      21.3133850614312     21.21142713227056      21.3126874944676     21.33130898218377     21.28505659281024      21.3763523609531     21.31826115578065     21.33249554510905      21.2501789788767     21.33731803286844     21.33222286965815      21.3495220364337     21.38152517385697
          0.2*MaxFES =      21.21186387856227      21.3212034833742       21.263486659805      21.3521428541171      21.2681922625974     21.24392548603805      21.2967768448466      21.2817528016455     21.22756617732034     21.30178471365446     21.22805845024703     21.23718820729516      21.3019253403124     21.24741171261786       21.262107381426      21.2762564923903     21.30789571192736     21.31194837871664      21.3279433476021      21.2471987582136     21.26741102154267      21.2717574266051      21.3509397573307     21.29444819448497     21.25682802382244     21.24193174377365     21.31404437133614     21.28794702835177     21.28559553256065      21.2973060983192      21.2636868112925      21.3148774242144      21.3187474949874      21.2618123818261      21.3077282361205     21.30281523829694     21.30550387907005      21.3337522332524     21.21187279780844     21.20697534756965     21.24244251682467     21.31797104308646      21.2625343543008     21.27750214549144       21.228517115313     21.33249554510905     21.22134186674344      21.3124327327079      21.2886831850119      21.3495220364337      21.2739609578215
          0.3*MaxFES =      21.21186387856227     21.28906508842647       21.263486659805      21.2693215401351      21.2282703854607     21.21066088025765     21.27262978706347       21.186094438733     21.21928615724545     21.22727510849046     21.22805845024703     21.22337541370183     21.27441388888406     21.24741171261786      21.2426580699712      21.2762564923903     21.30789571192736      21.2760576839953     21.26402735218517      21.2471987582136     21.25273150750184      21.2009678174029      21.3080098388635     21.29444819448497     21.25682802382244      21.2419317437736      21.2445132740638     21.28794702835177     21.28559553256065      21.2973060983192      21.2636868112925      21.2479468496043     21.23392569541477      21.2618123818261     21.28404593372335     21.24198965682103     21.30550387907005      21.3337522332524     21.21187279780844     21.19388589779766     21.24244251682467       21.288817045965     21.22028124063024      21.2602393584988       21.228517115313     21.33249554510905     21.21212807219933      21.2741488647992     21.22006268854193      21.2636207885888      21.2739609578215
          0.4*MaxFES =      21.21186387856227     21.28906508842647       21.263486659805     21.26449964903446      21.2208370034511     21.21066088025765      21.2726297870634       21.186094438733     21.21928615724545      21.2272751084904     21.22805845024703       21.201268238689     21.27441388888406     21.19786148542653     21.20707215170705      21.2762564923903      21.2892115758311      21.2760576839953     21.26402735218517      21.2471987582136     21.21379154573174      21.2009678174029      21.3080098388635     21.24267997197865     21.20546525880843      21.2419317437736      21.2445132740638     21.28794702835177     21.28559553256065     21.27949037826346      21.2636868112925     21.21528899714474     21.23392569541477      21.2618123818261     21.24968874388486     21.24198965682103      21.2657066793687      21.2350156385197     21.21187279780844     21.19388589779766     21.24244251682467      21.2236510064006     21.20238895336684      21.2602393584988       21.228517115313     21.29109507548355     21.21212807219933     21.24298313943416      21.1966804214497      21.2636207885888      21.2739609578215
          0.5*MaxFES =      21.21186387856227     21.28906508842647      21.2442337612979      21.2122085209635     21.22083700345104      21.1828699182323      21.2369433853048      21.1499622958462      21.1856108164677      21.2272751084904     21.22805845024703      21.1872701685936     21.26178804407795     21.19786148542653      21.1989092530866      21.2762564923903     21.14809834742005      21.2760576839953      21.2016920758484     21.16703469056864     21.15992570520456      21.2009678174029      21.2796197958659     21.24267997197865     21.17307769844405      21.2419317437736      21.2445132740638     21.25204320029496     21.28559553256065      21.2538691652944      21.2371699444643     21.21528899714474     21.23392569541477      21.2211264084124     21.24968874388486     21.24198965682103      21.2657066793687      21.2350156385197      21.1817911960207     21.19388589779766     21.24244251682467      21.2236510063999     21.15710193436746      21.1768399157785      21.1983757686725     21.29109507548355     21.21212807219933      21.2086110448979      21.1885281943968      21.2636207885888      21.2739609578215
          0.6*MaxFES =      21.21186387856227     21.25972304065715      21.1944172537386      21.2122085209635      21.1840467077933      21.1828699182323      21.2168370730448      21.1499622958462     21.14426670395125      21.2272751084904      21.2120308744685      21.1872701685936      21.2362588273794     21.19786148542653       21.169615394404      21.2762564923903     21.14809834742005      21.2524029477362      21.1757516027917     21.16703469056864      21.1599257052045      21.1472981925205      21.2318555198555       21.238879110718      21.1554221503634      21.2419317437736      21.1646263087441      21.1994025738615      21.2618891268935      21.2538691652944      21.2371699444643      21.2152889971447        21.22897252493      21.2211264084124      21.2265939059148     21.20574501394174      21.2657066793687     21.21724765157114      21.1817911960207     21.19388589779766     21.24244251682467      21.2236510063999     21.10170068019323      21.1539260500757      21.1611048939646      21.2342877458134     21.21212807219933      21.1739282376662     21.16764534493154      21.2636207885888      21.2414200597398
          0.7*MaxFES =      21.21186387856227     21.25972304065715      21.1745857501209      21.2122085209635      21.1840467077933      21.1828699182323     21.19050807774613      21.1221287857482     21.10667275112746     21.20560982740545     21.18752049518537      21.1872701685936     21.22845212985897     21.19064843781666     21.15584647271703      21.2221868460713     21.14809834742005     21.24665557818514      21.1757516027917     21.13549445599546      21.1368644958427      21.0831286091682      21.2318555198555     21.15198466122166     21.15265428560946      21.2419317437736      21.1646263087441     21.19940257386145      21.2458108940903      21.2538691652944      21.2371699444643     21.20254277910186      21.2038432289808      21.1750450803942      21.2265939059148     21.20574501394174     21.22034622636596      21.1711903586221      21.1817911960207      21.1900993817343     21.24244251682467      21.2236510063999     21.10170068019323      21.1324813323356     21.16029769429434      21.2342877458134      21.1495735667693     21.14506819891477     21.15679566769944      21.2396425508003      21.2297894865106
          0.8*MaxFES =      21.21186387856227      21.2034749294431      21.1463498465849      21.2122085209635     21.12785945987076      21.1718704280058     21.19050807774613      21.1221287857482     21.10667275112746      21.2003230199799     21.18752049518537      21.1872701685936      21.1514387024629     21.19064843781666     21.15584647271703      21.2221868460713      21.1397347844583     21.18519718304094      21.1757516027917      21.1030983297119      21.1368644958427      21.0559138816242      21.1543605301647       21.118234235862      21.1205225275344      21.2068825763618     21.13234323675744     21.19940257386145       21.209024240781     21.25386916529436      21.2371699444643     21.18028691262975      21.2038432289808      21.1750450803942     21.20012443126996     21.20574501394174     21.22034622636596      21.1711903586221      21.1817911960207      21.1681840926925     21.24244251682467      21.2156598701295       21.039035934992     21.11034408196474      21.1337754426716      21.2342877458134      21.1495735667693     21.14506819891477     21.15679566769944      21.2148968761767        21.19738080974
          0.9*MaxFES =      21.21186387856227      21.2034749294431      21.1463498465849      21.1878799654895      21.1081143368584      21.1718704280057     21.19050807774613      21.1146016842735     21.10667275112746     21.18832406468255     21.18752049518537      21.1872701685936      21.1514387024629      21.0966859438999      21.1298070735803      21.2221868460713     21.12876508970675      21.1678958369462      21.1757516027917      21.1030983297119      21.1368644958427      21.0559138816242     21.13962075535403       21.118234235862     21.07968591690496      21.2068825763618     21.13234323675744     21.19940257386145     21.18738682783277       21.182581104369      21.1923650727135     21.18028691262975      21.2038432289808      21.1750450803942      21.1800659604745     21.13048677997836     21.19064174933476      21.1711903586221      21.1817911960207     21.12842351697464      21.2214664449455     21.21565987012946       21.039035934992     21.11034408196474      21.1337754426716      21.2342877458134      21.1495735667693     21.14506819891477      21.1081284086481      21.2148968761767        21.19738080974
              MaxFES =      21.19884645176467     21.18860645482823      21.1463498465849      21.1878799654895      21.1081143368584      21.1226820079936     21.16430163698664     21.06059035555444      21.0838594872573      21.1581387652524     21.14585927746884      21.1661166827739     21.12949850225715      21.0966859438999      21.1298070735803      21.1946159069429     21.12876508970675      21.1678958369462      21.1757516027917      21.1030983297119     21.09768876780106      21.0530077206105      21.0800579724737       21.118234235862     21.07968591690496      21.2068825763618     21.13234323675744      21.1655942333238     21.18738682783277     21.18258103791106      21.1923650727135     21.18028691262975      21.2038432289808      21.1249053930561     21.12248046566964     21.13048677997836     21.18988898218936      21.1449045869758     21.16495968111553     21.12842351697464     21.22146644494546      21.1926265453811       21.039035934992     21.10648295080455      21.1337754426716     21.21476460684306      21.1495735667693     21.14506819891477     21.10812840864804      21.2148968761767        21.19738080974

                  Best                 Worst                Median                  Mean                   Std
       21.039035934992     21.22146644494546     21.14585927746884    21.146405303659975  0.044748814438702225

