 01/11/2016 18:48:11 |                  Run 1                 Run 2                 Run 3                 Run 4                 Run 5                 Run 6                 Run 7                 Run 8                 Run 9                Run 10                Run 11                Run 12                Run 13                Run 14                Run 15                Run 16                Run 17                Run 18                Run 19                Run 20                Run 21                Run 22                Run 23                Run 24                Run 25                Run 26                Run 27                Run 28                Run 29                Run 30                Run 31                Run 32                Run 33                Run 34                Run 35                Run 36                Run 37                Run 38                Run 39                Run 40                Run 41                Run 42                Run 43                Run 44                Run 45                Run 46                Run 47                Run 48                Run 49                Run 50                Run 51
       0.0001*MaxFES =          3170.25658493         5957.33434866         3457.55503804         3407.14484292         4181.26988061         3733.61873259         3204.19304872         3839.30526494          5129.7507784         4112.26093521         4502.86622538         3554.55835873          3877.2553921          3697.5659672          3953.9390464         3210.82779953         3296.10985822         3787.75871332         2848.82083568         4871.17684169         3564.64773318         4629.65095901          4274.7158994         4671.32483873         3137.03020296         3950.62678932         2927.14838332         3585.47436525         5295.92532352         3721.26785989         3184.87364322         4944.48871504         3906.08442436         3344.78134607         3880.97732201         4802.91385558          4039.4653196         3591.75443254          3458.5319593         5317.23231705         3201.80539205          4536.8546287         3695.01386297         3369.96822442         3221.48119922          3405.1473765         4063.53048485         2938.19991028         2715.19054367           3846.453407         2880.99790084
        0.001*MaxFES =          2461.66852762         2503.44890468         2365.05923416         2505.47174126         2341.57289202         2494.33077093         2566.78234915         2413.23905258         2583.73441741         2401.85712747         2462.00980649         2447.46648225         2531.49070279         2490.77506681         2341.23560145         2241.72692529         2414.42209533         2374.14293672         2449.80928517         2311.89861893         2271.20359139         2348.67926068         2582.69181174         2419.51735717         2334.61184372         2648.67372271         2626.05939416            2447.24539          2496.7860181          2403.0354802         2305.28784041         2616.20015706         2357.91729429         2415.37259666         2528.43893427          2453.8711597          2565.9589875         2421.52503899         2531.19925045         2501.50943291         2564.49805656         2485.97259493         2510.40370344         2398.49825395         2459.03150662         2415.53857878         2363.95877634         2316.62767473         2414.60762313           2370.675637          2548.5108385
         0.01*MaxFES =          1264.57735911         1324.22682368         1235.00139474         1415.61946103         1280.88450925          1202.8418868         1147.38230507         1347.63108119         1368.20039459         1373.11082398         1320.74059558         1319.75907341         1342.24902175         1201.22970528         1322.35476435         1171.44643923         1189.51578103         1216.18207668         1446.46198635         1197.55564681         1030.12897874         1274.93624539          1217.8438407          1252.8167945         1169.76639795         1273.21282315         1274.20335614         1222.34541018         1378.89377465         1438.89588442          1202.6126192         1322.97447232         1083.27376113         1382.98077386         1248.62740692         1269.23209546         1441.85484595         1167.17943571         1388.15366692         1295.43273219         1411.35424614         1319.75941826         1199.35462597         1161.89943697         1238.17019563         1201.93063646         1416.36128221         1181.03527957         1303.64374886         1281.48558635         1225.44563859
         0.02*MaxFES =          1059.87069679         1262.97058255         1160.83742125         1316.98132474         1205.07966127         1131.60756977         1068.92367407         1203.63105238         1276.64586527         1238.93630124         1228.55016616         1232.24119062          1272.2665468         1130.55173486         1241.05733408         1076.10305566         1097.23277535         1149.30850426         1386.19187017         1111.25075642          944.33142667         1215.55820661         1130.50679401         1174.78878789         1069.78332457         1202.32435061         1191.79576003         1131.00451729         1269.48702888         1305.62487387         1123.59271466         1243.41404721          995.81523022         1340.12654865         1171.61921492         1174.00263159         1280.11732222         1046.96292291         1316.23526827         1222.38959028          1327.8141586         1226.67515678         1114.87540761         1083.79545416         1151.48383259         1122.40885633         1326.13220576         1120.80357047         1229.45374215         1230.86220437         1167.54128235
         0.03*MaxFES =           1051.8369148         1258.27281882         1158.68974151         1309.05330801         1201.34331859         1127.08004307         1066.06948732         1195.70446864         1274.85468209         1232.52179238           1221.191285         1229.71722733         1268.34070265         1124.46719576         1236.08677809         1072.46912013         1093.07819165         1143.81785679         1380.92830109         1108.34717896          940.35144363         1212.64681758         1128.03397686         1171.08962035         1064.41151274         1196.53584678         1188.23064855         1123.56719101         1260.65328643         1297.95144404         1120.07667121         1239.63169188          989.84055694         1337.34109395          1168.5842857         1168.82712507         1273.78405945         1043.29514806         1311.95228389         1217.25417518         1325.06729508         1215.94256628          1111.3588712         1079.61698663          1147.4865532         1118.66537785         1322.95015247         1117.74592929         1227.55227875         1227.02251755          1164.0821174
         0.04*MaxFES =          1051.42753707         1257.83241171          1158.6117506         1308.62335587         1201.11454597         1126.85826472         1065.87895427          1195.3282415         1274.71807065         1232.15034977         1220.67756171         1229.52188878         1267.72371066         1124.22421014         1235.90600946         1072.18656747         1092.86338124         1143.58292984         1380.72226499         1108.02127314          940.06522835         1212.46120378         1127.92638382         1170.92192403         1063.99059149         1196.25407844         1188.03234872         1122.83816806         1260.01062839         1297.25973276          1119.8940362         1239.45112746          989.30874512         1337.20358093         1168.29429307         1168.54624995         1273.59403342         1043.01420186         1311.58129222         1216.95131122          1324.9350329         1215.55944611         1111.12229382         1079.21053544         1147.31917005          1118.4421686         1322.82398958         1117.64616095         1227.38717248         1226.77090631         1163.90971393
         0.05*MaxFES =          1051.40750986          1257.8036975         1158.60806597         1308.59382961         1201.09694342         1126.83971003          1065.8656717         1195.31221186         1274.71068493         1232.12359042         1220.65191174         1229.51207501         1267.68396519         1124.19954634         1235.89586073         1072.17410748         1092.85062774         1143.57083744         1380.71206984         1108.01121225          940.05472559         1212.45352953         1127.91577838         1170.90973769          1063.9623638         1196.24133984         1188.01568893          1122.7588354         1259.98070665         1297.22009494         1119.88384215         1239.44337425           989.2769842         1337.19515838         1168.26969916         1168.52776301          1273.5807543         1042.99800766         1311.56765633         1216.93433816         1324.92276796         1215.53950076          1111.1104973          1079.1811157          1147.3089793          1118.4344663         1322.81955221         1117.64038594         1227.37886545         1226.76034994         1163.90002389
          0.1*MaxFES =          1051.40690028         1257.80291454         1158.60791075         1308.59281813         1201.09560071         1126.83888138          1065.8650069         1195.31085133         1274.71051234         1232.12222889         1220.65109447         1229.51171219         1267.68199158         1124.19849581          1235.8951504         1072.17343092         1092.84989086         1143.57037438          1380.7117564         1108.01072693          940.05432625         1212.45325373         1127.91499024         1170.90914812         1063.96129926         1196.24080195         1188.01424934         1122.75519654         1259.97911077         1297.21790999         1119.88301309         1239.44274924          989.27576848         1337.19484732         1168.26848745         1168.52595363         1273.58027394         1042.99728894         1311.56708034         1216.93361197         1324.92193154         1215.53855444         1111.11014179         1079.17854337           1147.308813         1118.43369643         1322.81943388         1117.64017367         1227.37863709         1226.75940494         1163.89975868
          0.2*MaxFES =          1051.40690028         1257.80291454         1158.60791075         1308.59281813         1201.09560071         1126.83878925          1065.8650069         1195.31085133         1274.71051233         1232.12222889         1220.65109447         1229.51168448         1267.68199158         1124.19849581          1235.8951504         1072.17343089         1092.84989086         1143.57037438         1380.71175639         1108.01072693          940.05432625         1212.45325373         1127.91499024         1170.90905996         1063.96129926         1196.24080195         1188.01424934         1122.75519654         1259.97911077         1297.21790999          1119.8828867         1239.44274924          989.27576848         1337.19484732         1168.26848745         1168.52595362         1273.58027394         1042.99728893         1311.56699718         1216.93361197         1324.92193152         1215.53855444         1111.11014179         1079.17854337         1147.30881299         1118.43343572         1322.81943388         1117.64017367         1227.37854236         1226.75940494         1163.89975868
          0.3*MaxFES =          1051.40690028         1257.80291454         1158.60791075         1308.59281813         1201.09560071         1126.83878925          1065.8650069         1195.31085133         1274.71051233         1232.12222889         1220.65109447         1229.51168448         1267.68199158         1124.19849581          1235.8951504         1072.17343089         1092.84989086         1143.57037438         1380.71175639         1108.01072693          940.05432625         1212.45325373         1127.91499024         1170.90905996         1063.96129926         1196.24080195         1188.01424934         1122.75519654         1259.97911077         1297.21790999          1119.8828867         1239.44274924          989.27576848         1337.19484732         1168.26848745         1168.52595362         1273.58027394         1042.99728893         1311.56699718         1216.93361197         1324.92193152         1215.53855444         1111.11014179         1079.17854337         1147.30881299         1118.43343572         1322.81943388         1117.64017367         1227.37854236         1226.75940494         1163.89975868
          0.4*MaxFES =          1051.40690028         1257.80291454         1158.60791075         1308.59281813         1201.09560071         1126.83878925          1065.8650069         1195.31085133         1274.71051233         1232.12222889         1220.65109447         1229.51168448         1267.68199158         1124.19849581          1235.8951504         1072.17343089         1092.84989086         1143.57037438         1380.71175639         1108.01072693          940.05432625         1212.45325373         1127.91499024         1170.90905996         1063.96129926         1196.24080195         1188.01424934         1122.75519654         1259.97911077         1297.21790999          1119.8828867         1239.44274924          989.27576848         1337.19484732         1168.26848745         1168.52595362         1273.58027394         1042.99728892         1311.56699718         1216.93361197         1324.92193152         1215.53855444         1111.11014179         1079.17854337         1147.30881299         1118.43343572         1322.81943388         1117.64017367         1227.37854236         1226.75940494         1163.89975868
          0.5*MaxFES =          1051.40690028         1257.80291454         1158.60791075         1308.59281813         1201.09560071         1126.83878925          1065.8650069         1195.31085133         1274.71051233         1232.12222889         1220.65109447         1229.51168448         1267.68199158         1124.19849581          1235.8951504         1072.17343089         1092.84989086         1143.57037438         1380.71175639         1108.01072693          940.05432625         1212.45325373         1127.91499024         1170.90905996         1063.96129926         1196.24080195         1188.01424934         1122.75519654         1259.97911077         1297.21790999          1119.8828867         1239.44274924          989.27576848         1337.19484732         1168.26848745         1168.52595362         1273.58027394         1042.99716415         1311.56699718         1216.93361197         1324.92193152         1215.53855444         1111.11014179         1079.17854337         1147.30881299         1118.43343572         1322.81943388         1117.64017367         1227.37854236         1226.75940494         1163.89975868
          0.6*MaxFES =          1051.40690028         1257.80291454         1158.60791075         1308.59281813         1201.09560071         1126.83878925          1065.8650069         1195.31085133         1274.71051233         1232.12222889         1220.65109447         1229.51168448         1267.68199158         1124.19849581          1235.8951504         1072.17343089         1092.84989086         1143.57037438         1380.71175639         1108.01072693          940.05432625         1212.45325373         1127.91499024         1170.90905996         1063.96129926         1196.24080195         1188.01424934         1122.75519654         1259.97911077         1297.21790999          1119.8828867         1239.44274924          989.27576848         1337.19484732         1168.26848745         1168.52595362         1273.58027394         1042.99716415         1311.56699718         1216.93361197         1324.92193152         1215.53855444         1111.11014179         1079.17854337         1147.30881299         1118.43343572         1322.81943388         1117.64017367         1227.37854236         1226.75940494         1163.89975868
          0.7*MaxFES =          1051.40690028         1257.80291454         1158.60791075         1308.59281813         1201.09560071         1126.83878925          1065.8650069         1195.31085133         1274.71051233         1232.12222889         1220.65109447         1229.51168448         1267.68199158         1124.19849581          1235.8951504         1072.17343089         1092.84989086         1143.57037438         1380.71175639         1108.01072693          940.05432625         1212.45325373         1127.91499024         1170.90905996         1063.96129926         1196.24080195         1188.01424934         1122.75519654         1259.97911077         1297.21790999          1119.8828867         1239.44274924          989.27576848         1337.19484732         1168.26848745         1168.52595362         1273.58027394         1042.99716415         1311.56699718         1216.93361197         1324.92193152         1215.53855444         1111.11014179         1079.17854337         1147.30881299         1118.43343572         1322.81943388         1117.64017367         1227.37854236         1226.75940494         1163.89975868
          0.8*MaxFES =          1051.40690028         1257.80291454         1158.60791075         1308.59281813         1201.09560071         1126.83878925          1065.8650069         1195.31085133         1274.71051233         1232.12222889         1220.65109447         1229.51168448         1267.68199158         1124.19849581          1235.8951504         1072.17343089         1092.84989086         1143.57037438         1380.71175639         1108.01072693          940.05432625         1212.45325373         1127.91499024         1170.90905996         1063.96129926         1196.24080195         1188.01424934         1122.75519654         1259.97911077         1297.21790999          1119.8828867         1239.44274924          989.27576848         1337.19484732         1168.26848745         1168.52595362         1273.58027394         1042.99716415         1311.56699718         1216.93361197         1324.92193152         1215.53855444         1111.11014179         1079.17854337         1147.30881299         1118.43343572         1322.81943388         1117.64017367         1227.37854236         1226.75940494         1163.89975868
          0.9*MaxFES =          1051.40690028         1257.80291454         1158.60791075         1308.59281813         1201.09560071         1126.83878925          1065.8650069         1195.31085133         1274.71051233         1232.12222889         1220.65109447         1229.51168448         1267.68199158         1124.19849581          1235.8951504         1072.17343089         1092.84989086         1143.57037438         1380.71175639         1108.01072693          940.05432625         1212.45325373         1127.91499024         1170.90905996         1063.96129926         1196.24080195         1188.01424934         1122.75519654         1259.97911077         1297.21790999          1119.8828867         1239.44274924          989.27576848         1337.19484732         1168.26848745         1168.52595362         1273.58027394         1042.99716415         1311.56699718         1216.93361197         1324.92193152         1215.53855444         1111.11014179         1079.17854337         1147.30881299         1118.43343572         1322.81943388         1117.64017367         1227.37854236         1226.75940494         1163.89975868
              MaxFES =          1051.40690028         1257.80291454         1158.60791075         1308.59281813         1201.09560071         1126.83878925          1065.8650069         1195.31085133         1274.71051233         1232.12222889         1220.65109447         1229.51168448         1267.68199158         1124.19849581          1235.8951504         1072.17343089         1092.84989086         1143.57037438         1380.71175639         1108.01072693          940.05432625         1212.45325373         1127.91499024         1170.90905996         1063.96129926         1196.24080195         1188.01424934         1122.75519654         1259.97911077         1297.21790999          1119.8828867         1239.44274924          989.27576848         1337.19484732         1168.26848745         1168.52595362         1273.58027394         1042.99716415         1311.56699718         1216.93361197         1324.92193152         1215.53855444         1111.11014179         1079.17854337         1147.30881299         1118.43343572         1322.81943388         1117.64017367         1227.37854236         1226.75940494         1163.89975868

                  Best                 Worst                Median                  Mean                   Std
          940.05432625         1380.71175639         1188.01424934     1181.367956877255      93.3914768481546

