 20/06/2016 09:15:55 |                  Run 1                 Run 2                 Run 3                 Run 4                 Run 5                 Run 6                 Run 7                 Run 8                 Run 9                Run 10                Run 11                Run 12                Run 13                Run 14                Run 15                Run 16                Run 17                Run 18                Run 19                Run 20                Run 21                Run 22                Run 23                Run 24                Run 25                Run 26                Run 27                Run 28                Run 29                Run 30                Run 31                Run 32                Run 33                Run 34                Run 35                Run 36                Run 37                Run 38                Run 39                Run 40                Run 41                Run 42                Run 43                Run 44                Run 45                Run 46                Run 47                Run 48                Run 49                Run 50                Run 51
       0.0001*MaxFES =       4809.68143873235     7996.081572282354     7514.439354040816     6724.643231685285     8538.844569962042    10099.383339048944     6340.077909434738     6090.573192521099     1873.549097515599     4246.146532079004    13005.631827749929    12886.504143748942    10120.986630987873     2734.661164914418    6212.3277608076605     7553.999811813574    6697.7500016789545     4300.149274881881      9561.65539813158    11601.620248075433    5648.9993106798265     6153.758383483471     7413.718868029704     8798.041159351216    11143.287827644777     6023.793946876264     5136.666998719456      9833.15624823282    10310.552483426894      8180.53864038581     13480.87613288455     6439.783124541658     6357.298166926479     7254.694867723574     3827.349193364713     4697.994752852536     7433.642747803664     7921.763511850122     4529.854987827701    10550.708705125357    12612.495935568191    10071.286864137055     3662.765968604306     12020.03265915915    4838.8325347608925     4341.829278855262        5411.147420344     3456.401073537985    3553.0466953522755     5978.171604889011    10053.351180140591
        0.001*MaxFES =      697.8984124030626      862.018275634832      826.519907054775      795.035037161122     839.4749914435524     621.8747230521376      812.455796442003     629.2858885764672     615.1533835091006     890.3873636497265     781.9145877671403     772.9009775696027     789.5861527812285     716.8995647754602      830.768756589372      668.249565019197     611.5268768434437      696.925232994146     591.7825772110727     626.4855168500148     709.2489349553016     624.7412838446944      671.221429577685     672.5448642906817     1059.563384975734     746.3935100838967     726.5017661919803     741.9888755610418     757.3032609221045     599.5065156461637     620.7755446540116     877.0179715199456     614.3857206708149     850.9481653988923     595.7392770748374      806.499287564682     711.6032721383604     722.4212270077376     594.4800398091038     613.3552107197252     792.8677609358583      778.470040156051      758.231079144522    1044.7510682817747     613.3927726904062       710.31152045615      676.509402116471     773.4934155413603      857.070822326891     643.2596363299963      736.576867906071
         0.01*MaxFES =       480.415920331869     479.5953789844611     482.7720521222063      486.576394792702      480.776127804827       484.03880380759     477.8912558438676     476.3208247327486      482.955264251015     486.0224658597049     480.9474607277461     478.2935307766993     479.0366592273467     487.5329956002286      484.255857478798     482.6525969699323     478.7797109011865     479.4467900436318     485.3282348937705     485.3583689445254     478.4637234726124     477.9168887713445      486.083641126454     479.6524651619625      490.920470417196      490.826781620607      469.826288717276     480.0515816419174     480.9760331812722      476.497195269716     481.0639449569378     482.9840670684216     483.4153058003512     468.7022373355453      488.505047935841      480.484495356314     478.7326130646545     473.8038280385838     481.3773218655658     493.7339378458787      476.204268707555     475.4453522283588     478.5543376652085     487.7490279037556      484.267871713332     478.0201001222772      490.002522011891     483.1321771122161      486.101744751607     475.7118587528146       477.82694794609
         0.02*MaxFES =        469.61166235814     476.6018884755863     465.2737100581721     481.4545300537072     480.7761278044625      472.192414661236     473.4281532955347     476.3118085249791     471.8618877759818      477.743754785565     480.9474587046689     467.0777034477505     470.0648791434146     482.7820153381942     478.9622192236397      479.306019971436      478.779710901174     474.9002973209788      468.010565883107     479.1291189319095     466.6864060345595     477.9106075321104     478.6901635684153     476.8809547604833     483.2729793305266      486.013132116897      469.826288657287     474.6935894859312     480.1882775886584     474.1192404824067      481.063636523884     469.4672414978772     478.7700010051365      468.702237335497     482.1671421087485     471.7075966744858     473.7211606209416     469.9028618446946      470.947223018868     488.5217268144065      472.736759738391     475.4257124269745      478.554215673603     471.9791076658205     474.8692852486358     466.0776433865574       478.83353986289     479.8398992076277     478.2639885076946     475.7118540676236      469.524163647066
         0.03*MaxFES =      469.6116623581138      476.601888475584     465.2737100581658     481.4545300536997     475.3464190635073       466.00119612115     470.6198526135872     476.3118085249791     471.0283522160885     477.7437547855614      477.083447223275     467.0777034477496       470.06487914341     471.1922526413962      472.675567293094     477.5221561019966     471.7710016207407     466.3630210631459     467.6306152072655     475.1218875364812     466.6864060328965     477.9106075321104     469.9985741279888     470.8211266212897     480.7800414864228      483.108038033637     469.8262886572784     473.0790378065014     471.9480379433112      466.141698240047     479.7421103539523      469.467241497875     474.8806488242294     468.7022373354926     468.4395452662484     470.8876582449443     473.7211606209376      469.583328958541     470.9472050893585     480.0713631325862      466.505001449308     472.2056039888694     471.5655725678857     468.2507034426155     474.8692852486329      466.077643386543     473.5911769427557      470.884110823289     478.2639882650255      470.806360876104     469.5241636470553
         0.04*MaxFES =      469.6116623581092     476.6018884755642     465.2737100581576      481.454530053696      475.346419044192     461.4972180304972     468.6607705489405     474.1282160012486     465.9500476010521      469.778641022258     472.6745507064736     467.0777034477492     470.0648791434076     471.1922526136227     469.1689690228927     477.5221551331492     471.7710016207302     466.3630210631427     463.9870041392287     475.1218875364805     466.6864060328767     465.3641299150565     469.9985741279866     470.8211266212863     480.7800414863873     483.1080380336348     463.5235590899115       470.34003610875     469.1166789329718     465.6544912897261      479.742045468405      469.467241497875      474.763806191408     468.7022373354866     468.4395452660879     470.8876582449423      467.749820077868     466.5775491438658     469.0731293704393     476.3188300848071     466.5050014493063      467.113026470437     471.5655725678837     465.4941836685284      469.926719257426     466.0776433865371     473.5911769427496      470.884110823287     478.2639882650242     470.8039320966084     469.5241636470432
         0.05*MaxFES =      469.6116623580829      474.669445017616     465.2737100581558     479.7972230113414     472.6125480466835     461.0780835230723     468.6606729900338     472.2322282036744     451.2737553972838     469.7786410222443     471.7195152478691     467.0777034477483     470.0648791434028      471.192252613616     469.1689689702282     473.7703586313273     471.7710016207252     464.1115533719108     461.8196276997817     471.0980738334147     466.6864060328733     465.3641299149417     469.9985741279852     470.8211266212809     468.8175243582364     479.2251889096651     457.2023497324496     470.3400361087497      469.116565144674     465.6544912897216     479.0634313718322      469.467241497871     471.9251777717814     462.7337086037478     468.4395452660476     470.8876582449423      467.749820077862     466.5775491438526     469.0731293704353     476.3188300848021     462.6124501943386     467.1130025779185     471.5655725678776     461.4367371202695     469.9182465470253     464.0613413057633     473.5911769427407     463.6529817035853     478.2639882650242     470.8039320966063     469.5241636470405
          0.1*MaxFES =        461.03613635579     471.2212863548812     460.2891150034507      475.515745274376     471.7394235932854     457.8421041073107     465.3957788542266     468.2634342068206     451.2737465322216     467.3593687502862     465.5593407816318     467.0777034477385      461.733457696556      469.446496807307     454.2803505640386     468.9691736211269     451.0058656054937     462.2285933351836     456.6583900583823     464.9161331001387     456.4216191841251      451.147989552388     467.3192189736214     462.6587517076428     464.3744556281779     469.0621631258987      450.441825923485     469.0399805318834      468.379126266463     453.4871717932433     476.5138057421032      467.977817718171     467.5168023488388     455.4550482175296     463.6367042642792     462.6694528468001     458.1130658624402      466.577549143818     464.7329198945918     456.3684247925119      459.243342160315     462.7890472944955     462.9985431977282      452.808329043924     461.1486183756188     459.1958713436031     473.5911769427094      463.652981703533     458.5033819232226      470.692771981483      465.649580527162
          0.2*MaxFES =        454.70412417312     457.4120815261958     456.4591192176347     455.4574202682406     462.5453743487706     441.4965338726245     458.6301969506937     464.6983864445258     441.0256648310196     453.8578919223298      456.746125458836     463.1768127088103     450.6635261327826     464.0309913748613     449.9671874487528     462.5410681114977     445.0511503783516     459.0190951711068     453.6393906552019     460.2163782540028     456.4216191840808     450.2309236139286     464.8354105692104     455.5040283884791      460.970993484658     463.4971398117978     439.7951554726142     466.2144410750052     462.7372810097886      448.677147155965      467.792098089234     462.4624385982384     446.9847983795694     450.4804633789195     457.0090946575856     457.4456581770253      452.216083561923     460.5551067076003     456.4680470547823     451.0574865200365      454.418635174031     458.4208518901858     456.0020189574877     452.4770729876607     456.2714961268728     453.1146159332116     468.7003090283642     462.0415663062972     454.6332538614793     462.5365693082313     447.3913331751369
          0.3*MaxFES =       448.288650943523     450.3130253624552     455.7077267127122      451.764368792523     460.0975014976298     439.4281026767612      453.416015825388     455.2618517543924      437.328931619746      452.285214436206      454.149577392143      461.003086493039     446.0410824028886     459.2081246261496     443.8361935944167     460.7577752725617      444.471552245735     452.8931663975095     452.6921778052015     457.8928152893827     452.6606906047732     446.3651630779427     462.9568335097088      455.504028388461     452.2783875189093     458.7988995099695      439.511895614451     463.0293523746034     456.4276468026214     436.7968030558127     459.0232160441094      460.539897364621     445.8205296630822     443.5543194617649     452.3430026411538     451.0671305558474      451.996569852607       449.82415254178     456.4680470547667      440.038619549609      454.418635174009     453.7048304289324      445.563294759479     449.4644619037247       450.08865032947     453.1146159331543     464.8498232673585     448.0478927808172     451.5101607779725     453.5312115388251     447.3913331748854
          0.4*MaxFES =       447.225248095599     443.6574932732738     453.7707580377728     446.1397229350573     457.8476652073325     435.2883007492037     449.3636920258405     449.1395179588749     432.1816204788736     450.2899540775506     450.6172194349385     459.8897092529521     441.9502312714208     449.3221684610567     443.8361935943867     459.7327253491967     435.8839305378892     452.8931663974527     451.4825480625423     457.8928152893454     451.6630709013828     446.3651630778584      460.409433086527      455.504028388216      446.502264089177     456.3811300687173     434.6157506208324     463.0293523745995     450.0468803984168     434.6787628608618     459.0013864539137     457.2751707628138     442.7077974892945     441.8097995420865     452.3430026411434     448.8814501272332     447.8693369205575      447.586261576988      456.468047054761     437.5688517810236      452.915727584521      451.578594961663      445.563294759479     445.9516642330364       449.61911400776      442.863811223086     464.8498232673214      443.549227388251      449.814303076045     451.9301523398285     438.2181419301958
          0.5*MaxFES =      446.9212420760991     443.6574932732299     448.1541921812732      442.459868255869     456.7159532557835     435.2883007491628     449.3636920258145     449.1395179588494     432.1816204788522     449.5672487717768     449.3862829585505     459.8897092529337     439.4227579988715     449.3221684610544     442.3708144665986     459.7327253491937     435.8839305378317     449.1978422660677     451.4825480625416     446.4605138861814     451.0087974777543     444.1262229322701      459.602412361743     449.6734314126375     442.6301342402926     453.9728386010493     432.6897746898399     462.5589814093396     450.0468803267902     434.6787628608186     456.6129493351193     455.9146923542885     442.1571095540558     441.4390193812662     446.6981992379888     445.2039879455228     447.5100330630153       443.20435198336     453.3887951894385     436.0480442475755     449.9742657300799      450.993376020587     442.1146728652614     444.5376112825672     448.0963508607633     441.5092648790228     464.8498232672496     440.6528502364574     448.5118773817103     450.9952188672605     438.2181419301598
          0.6*MaxFES =      445.4072310708443      439.788479150929     446.9714478124492     442.4598682557635     455.2749336404331      435.288300749125     448.5734610257305     449.1395179588494      430.466670116802     448.8369399629782     448.6183468646868      456.825426236613     437.2694074310257      447.345793822391      442.338486813162     458.7960163529142     435.8839305377667     446.6971475697435     450.7471479576554     446.4605138849124     450.1461604128594     444.1262229322301     459.6024123617349     443.0358211089408     442.6301342402392      448.874941015894     431.1972398900841     461.1435962922114      450.046880326732     430.8564023516656     455.0675776099943     455.9146923542867     439.4709478464306     439.1746718704271     446.6981992379492     443.9100073624968     446.7893284440752     436.3842705012441     453.3887942050683     433.4350396353807      446.824117550299      449.927382895633     434.1918615659906     442.3757587663567      446.622717667016     438.9148464488405     464.8498232672287     437.9458140188638      444.773599276104      448.950879961425      434.714131779605
          0.7*MaxFES =      445.4072310708389     438.9292715948957     446.6048139525042     440.9342197549058     454.8413414917773      433.997656485803     447.4274094278421     448.0870088951342     429.9434755599923     448.8369399629742     447.0387231793445     455.4907944075362      434.242538334132     446.6993514914607      441.144129528223     458.7960163529135      435.883930537693     446.6971475697003     450.7471479576543      445.613269801508      449.318275980343     441.9979275874398     456.7326625150718     443.0358211089408     442.6301342402035     448.8749410158414     428.0098548727979     460.8384708419746     448.8244382000057     430.8564023516496      452.725577641392     454.9948265258342     439.4709478464006      439.174671870327     446.6981992379492      442.396964800802     445.9621564681493     430.7347839330146     452.1141937589505     431.6762832894872     446.8241175502803     449.7159240013534     429.6496125380286     438.6738925330876     446.6227176670063      438.914846448828     464.8498232671893     435.0883319505183     442.5438526479425     447.9945964845026     430.4318857761245
          0.8*MaxFES =      444.7646327767088     437.9507298617898      443.495740216381      440.220838460738     454.0497068922466      432.258331585207      446.627404351812     447.7002522208197     427.7099072946364     448.1965301257296     442.4138248932923     455.4907944075344     434.2425383340656     446.2629559066927     441.1441295282102      457.167258459691     435.8839305376537     442.6572793330931      449.783717551429     442.8419148318683     449.3182759803353     441.9979275873952      456.732662515069     443.0358211089408     440.2280483698908     448.8749410157816     428.0098548727601     457.5627856406948     448.8244381999857      430.856402351637     452.7255776413886      453.654785228792     438.3183402502195     439.1746718702707     441.2437201080752     442.2173290412459     445.7719407284053     428.6071147474593     450.1143676680206      430.107933151371     441.4141701028154     449.0494127040197      427.496100783523     438.0501591901966     442.7059817165964     437.8608944723155     454.4280289116048     435.0883319504928     442.5438526479365     447.7030442260034     424.9300185484858
          0.9*MaxFES =      444.2956745198658     437.9507298616838     443.4957402163548     439.3334390088303      451.769519452428      431.727131645759     444.8458793340749     444.4627594855224     427.7099072946341       448.19653012572      440.490221167316     455.4907944075335     434.2425383340112     446.2629559066904     441.1441295281693     457.1672584596504     435.8839305376018     442.6572793330308     448.1609988132107      441.744609356003     448.4761090961047     441.9979275873316     456.7326625150686     443.0358211079952      440.228048369855     448.8749410157286     428.0098548727526     454.8277815928323     447.7791265198227       430.85640235162      452.725577641384     453.6547852287188      438.318340247164     438.2426170114745     441.2437201080752     438.2182321700357     445.4617794601413     428.1510490671174     450.1143676680203      429.278730015887     441.4141701024228     448.2786907867167      427.348671469541     437.2808844225042      442.705981716595     437.0873242170362     452.5704157804523     435.0883319504928     442.5438526479365     446.4783835758517     424.7599144751232
              MaxFES =      443.7476011827787     437.8547816052228     443.4957402163095     437.7118407868652     451.7695194523515     431.3117500980356     444.8458793340183      441.948142356941     427.7099072946341     447.3609479008583       440.49022116731     451.9481026028961      433.964471989335     446.1619884732606     441.1441295281654     457.1672584596306     435.8839305375477     442.6572793329237     448.1609988132025      441.059160915617     447.1500282216064     441.0218275086686      453.251439063326     442.3871125096432     440.2280483698382     448.8749410156443     428.0098548727344     453.8959440703252      446.389206505185     430.3831487232126     452.5183248011613     453.6547852286033     437.8236593293186     437.3472713540586     441.2437201080752       437.91859852294     445.4617794601372     422.1148872433955      449.538802378448     429.1674134469501      435.091963602365     448.2786496525393      425.855119676892      434.914768624982     442.7059817165893      437.087324217016     450.9121549621277     433.1170305555856      442.465728037958     445.8995410502357     421.5852999600095

                  Best                 Worst                Median                  Mean                   Std
     421.5852999600095     457.1672584596306      441.948142356941    441.22917660465635     8.393295566041292

