 24/07/2016 16:44:06 |                  Run 1                 Run 2                 Run 3                 Run 4                 Run 5                 Run 6                 Run 7                 Run 8                 Run 9                Run 10                Run 11                Run 12                Run 13                Run 14                Run 15                Run 16                Run 17                Run 18                Run 19                Run 20                Run 21                Run 22                Run 23                Run 24                Run 25                Run 26                Run 27                Run 28                Run 29                Run 30                Run 31                Run 32                Run 33                Run 34                Run 35                Run 36                Run 37                Run 38                Run 39                Run 40                Run 41                Run 42                Run 43                Run 44                Run 45                Run 46                Run 47                Run 48                Run 49                Run 50                Run 51
       0.0001*MaxFES =           706.18278101          668.11604163          654.44874127           725.0989043          767.05901573           861.6743432          700.40607896          738.09955325          673.21174157          822.08171554          656.96586813           685.3662963          700.14485471          715.41409305          841.14559931          804.54850179          656.56037292          711.49775295          772.90932294          706.60829062          641.19646001          725.40658661          827.11226871          664.79251039          691.00185229          702.19589287          695.65176275          752.79451415          746.96669742          708.26788162          740.00865421           772.6522599          591.60039828          683.81009243          671.15964564          640.82825917          778.75718856           764.4407145          676.85630409          691.63496459          755.78945195          707.16610815          732.21159518          709.73725506          602.09578819          810.88789922          661.68155347          713.59048422          745.51970517          684.43241248          811.03941256
        0.001*MaxFES =           354.00014263          426.71438595          419.20591863           388.9467229          465.77801084          472.27759074          420.14148448          480.18336055          485.39862435          494.40098845          478.44110264          425.31860971          431.27791396          463.28349988          456.24037648          486.87528698          454.64744891          406.46437369          465.42066156          436.13870261            424.243714          381.04813189          478.44458425          465.20801328          395.50779099          440.14343363          457.69682885          512.74240031          395.08822553          440.55646671          408.61042149          463.94869246           424.4539898          418.00332882          467.99169173          369.44085357          412.85505379          457.46716435          440.25582339          440.18259271           486.7024025          489.92527636          475.67013482          486.91848292          422.78129999          410.33549082          463.32031036          443.59176092          426.34387264          505.61217975          478.70864851
         0.01*MaxFES =           231.14769227          200.38996309            222.374147          255.06664322          231.86275385          211.88914646           248.4000887          223.49778275          247.84700432          260.30212124          233.55395196           254.5682997          246.20390219          205.86517021          251.46601656          256.84303562          217.78320843          237.86042457          239.15376485          196.86280433          240.15245687          229.19104126           228.9348203          240.67309362          225.25963322          228.28006661           209.5126489          219.27906147          209.50554464          235.73807341          222.54415333          197.19762645          225.84112916          226.36133585          225.50082898          218.23956547          241.90216383          206.23350259          189.64879596          235.82691894          248.18283525          216.65055898          227.14859176          226.74723874          210.13306077          229.04298036          234.39185488          227.58608347          234.17294342          265.03869612          240.56487829
         0.02*MaxFES =           194.37537984          200.38393931          180.19058886          239.88253137          217.90445023          211.87274976          211.49071372          194.07087001          192.20416029          230.34236384          205.80567231          183.86518563          241.23358091          177.59236474          225.10673124          213.66896309          180.23498751           224.1259286          190.53770668          165.32779808          217.39727501           186.6429601          227.44175799          219.46488023          210.37888071          205.43832536          202.30643772          219.21647506          204.80657683          209.08054989          182.69569604          174.71597115          206.43607365           205.5835852          212.29194695          196.02622377          212.21168701           190.4828325          189.35551002          186.89697537          205.15102863          200.44382228          218.34112911           226.7467223          184.44687791          194.09722809          191.25050634          181.50475166          226.18296815          253.90455447          214.69275287
         0.03*MaxFES =           194.18678022          181.14993922          174.31081271          229.20279884          206.72532015          197.45616396          211.49071371          149.05384387          191.47692447           230.3420943          196.78141106          183.86063276          213.76002266          154.45639968          224.30413266          208.32311005          180.15305611           203.5630609          190.53770584          136.02093795          204.31916008          182.16588286          207.48105682          216.26237069          190.59222554          205.43549327           202.3064377          195.60667064          202.50552568           180.4903246          158.94068885          174.71377248          193.62429998          157.52405166          158.01083529          190.62485647          208.77156668           152.3160723          189.35551002          185.42334366           184.2993978          191.90836829          204.27616188          208.60801982          184.16068176          184.73451817          185.99500262          150.96640857          224.00863435          216.53794677          214.69262252
         0.04*MaxFES =           173.44812184          177.12588962          174.26380034          208.15728022          206.71742392          181.11524483          210.89743183          126.34088955          173.01009521          215.14128089          163.00368643          183.86063276          184.29682941          153.08778835          219.29789549          208.32311005          153.38178768          203.33773376          190.53770584          133.91945537          184.31653208          179.48145154          203.79172815          214.63684369          180.19982475          205.43549327          187.86168322          195.60667061          194.08423302          159.90897045            158.934901          130.27975994          191.85203266          148.38338602          158.01081627          178.99032804          187.76476438          152.31571018          189.35551002          185.42334366          184.29939759          166.68868754          204.27616187          206.81228378          148.77068515          184.73451817          166.53810527          146.78696668          194.80301005          216.53794425          214.41230873
         0.05*MaxFES =           173.44811449          167.47495873          169.03988754          182.21255481          176.50049111           181.1152447          200.96082952          110.78668238          153.59299975          202.77166294          163.00220061          165.06431895          183.99473516          153.08778835          219.29783464          208.32311005          153.38178732          172.02162998           167.5174383          127.59822401          170.72175658           148.0202418          201.23914762          214.63684369          180.19253619          182.48319242          179.63701821          145.15848672          160.39166735          128.48869017          153.09910642          130.27915611          184.13008512          148.38338602          158.01081627          151.09149142          186.63534278          150.37752704          181.24144676          168.32048628          172.58113462          147.91614734          204.27616187          206.80416489          133.53572796          184.73451817          166.53717392           142.7725152          160.86271158          200.58650806          191.93639963
          0.1*MaxFES =           136.24923817          144.27590989          123.42624648          146.44545639          115.43768894          150.77218028          149.87983484           69.37029593           127.4575956          166.90158049          153.79701567          112.47990162          139.16043948          126.41256679          188.38672585          160.55764422          138.11558178          164.27660333           145.1351556          100.11631894          154.58770169          133.49363785          163.32844348          182.23567116          136.87141405          140.33084983          159.22793249           145.1497471          107.18542751           37.40391292          126.97853715          122.20949662            130.336043           138.7143638          141.80484255          144.95813757          158.39485826          138.04057102          127.67246501          151.77218264          136.72982183          127.37961834          187.48642335          165.89017636          115.73721009          144.02669566          163.57415116          107.42764014          127.21955696          192.44249002           156.4891787
          0.2*MaxFES =            99.62984585           99.51468373           105.9738864          122.67233423           86.45633506          125.93695522          138.91373396           44.77310625          101.54707265          138.26656491          124.48260993          104.01354721          100.56667378           94.09741027          169.71853309          138.77856261          119.59011422          129.21007903          140.79091482            68.0281187          109.45338447           107.4635382          130.27430034          143.40375058          105.08474045          104.80140916          151.39193729          117.16307647           79.47013661           36.81345489          106.79879782           92.59923153          130.01621361          112.13531258          112.09094837          129.13392457          134.67740732          107.67341033          127.51247515          137.94739279          126.30518371            85.8576181          135.41309235           151.6369744           94.77746278           120.0684864          132.08953936          102.87153474            84.7675958          134.30519877          127.23322928
          0.3*MaxFES =            77.59730057           90.06684626           79.58306302           101.2450513           58.08582779          105.72132604          127.75981317           44.77309707           82.58701352          118.07156893           90.45851305           82.07883779           80.13960037           85.23777358           72.07590564          105.52519308          101.74569638          104.73482862          104.27842139           32.37638985          102.60958938           87.00321257          111.90672099          120.71284994           89.71132049           90.50754261          144.14031013          112.62411524           69.45163101           36.81345489            85.9200332           78.60268403          130.01621078           91.57306117           98.99057744          114.85433544           110.5839906          103.66272302            86.7632739          122.75083485          103.44434396           63.92985267          111.76021611             93.780356           69.66864584          105.15895436          115.81005736           39.87284333            71.3176055          103.66705169          111.09903179
          0.4*MaxFES =            65.50529047           80.86663677           35.39721059           96.57161375           44.09564465           99.12154991          127.75981317           44.77309707           65.66602138          105.96894255           86.74076455           73.50590403           48.91870786           81.96307755           48.87007109           96.69669965           91.83201525          104.73464558           95.94435067           29.84889623           88.16709713           73.75760666           84.15534188          102.17137691           68.33443402           80.00460191          113.17049643           96.09803041            65.6237235           36.81345489            79.7358469           65.73880087          101.25390269           72.99804442           87.37830407           93.43842246            94.1685892           98.90186385           84.15022434          122.75083485           91.52767115           56.76256866           99.78322349           86.79066912            47.8550173           97.96608074          101.16536637           38.80334971           62.73814271            100.247845          101.53693956
          0.5*MaxFES =            64.00515008           74.48474497           29.95397376           89.35609099           41.88610786           89.48764812          118.96970733           44.77309707           56.16337356           97.27888645           71.12590124           66.00681194           45.76807643           78.28964732           45.30531869           86.46347048           87.16814645           95.32702698           85.83137303           29.84875157           85.26015176           70.25291607           73.72058526           85.62677475           62.30267811           69.63103496           98.45063805           84.24247158           57.68181698           36.81345489           67.18351555           62.70521991          101.17940805            64.6525735           79.20108962           86.73806916           89.48632596           88.22192878           69.80286609          109.50644889           82.04394115           52.33252528           85.12991105            71.3754229           38.72332452           87.70051075           79.51270179           38.80334777           61.78012837           93.69204133           92.27375899
          0.6*MaxFES =             56.6158793           72.89839195           29.84982809           86.08858892           41.78823226            85.6635727          110.41923277           44.77309707           49.45240148           90.96777916           61.71644653           60.93418237           45.76807633           75.75597609            44.7970842           81.98083446           81.03748492           87.57471566           82.69475887           29.84875157            79.5200243           63.96827312           63.83301586           82.65239789           58.26935034           63.24068878           86.25215244           75.31084012           55.10962335           36.81345489           64.08251776           59.57027568          101.17940523           60.07288818           71.72442414           78.06227708           87.48771057           86.04189954           65.59061577           82.65138453           80.45746211           51.23153262           77.13334113           68.20678274            37.8128073           75.20530567           73.58942833           38.80334777           61.68876845            90.5639569           91.11385511
          0.7*MaxFES =            49.74336069           70.82521378           29.84875784           77.06363827           41.78822494           76.26973461           97.05279704           44.77309707           49.36563798           83.96053775           61.71644653           58.20439314           45.76807633           70.75195674           44.77415179           78.96915525           76.07170914           80.27010688           79.19322449           29.84875157           72.07560152           63.96827271           57.37871791           81.16863109           56.80757739           60.75047512           86.25215244           74.84914985             52.633842           36.81345489           61.71731712           54.95036087          101.17940517           53.03691961           63.33174916           78.06227708           83.67075612           78.53273468           65.59052551            65.4011986           78.48984004           49.21333332           73.26872857           60.35107462           37.80844199           67.42060102           70.24756811           38.80334777           61.68738268           88.76301626            88.2751642
          0.8*MaxFES =            49.74336069           69.84941918            29.8487566           77.06363808           41.78822494           69.50572494           89.52961215           44.77309707           49.36563778           77.59034167           61.71644653           58.20033455           45.76807633           62.65609846           44.77320882           72.26030225           71.95335754           80.27010688           77.48098488           29.84875157           67.94254958           57.56830079           51.84298631            72.9495017           54.59813616           55.85704523           86.25215244           62.50086191           51.06786001           36.81345489           58.33737484           54.86641716          101.17940509           48.65970062           63.33174916           74.97584518           81.36954568           78.53273468           61.74574604           60.74844009           73.58362275           44.71381204           71.97665733           52.71052596           37.80841904           65.51313308           67.91527774           38.80334777           61.68735618           84.47615451            76.4854163
          0.9*MaxFES =            49.74336069           69.84941918            29.8487566           71.36680316           41.78822494           65.73842746           87.78776502           44.77309707           49.04849881           73.80115399           61.71644653            58.2003343           45.76807633           62.65609846           44.77311252           68.29120537           66.37331243           80.27010688           73.92433802           29.84875157             62.578588           53.08947023            50.8743391           67.52854373           52.54602392           52.87201854           82.65303859           58.34119872           49.18089496           36.81345489           58.33737484           51.88833516           81.15569767           48.65970062            62.4480997           68.90831379           79.44643038           78.22354148           54.97229097           56.84502288           72.42881075           44.71381204           66.37201101           49.35155965           37.80841899           59.18649728           66.00610215           38.80334777           61.68735567           82.89864913           58.47796877
              MaxFES =            49.74336069           67.56980809            29.8487566           65.49681602           41.78822494           60.87894503           79.70587239           44.77309707           46.45426285           69.91163878           60.26272534           58.20033425           45.76807633           58.82207747           44.77310257           68.04757869           66.37331243           76.02448235           73.28888311           29.84875157            62.0285011           53.08937696           46.70313599           67.52854373           51.65844512           52.05687861           82.65303859           56.13272836           49.18089496           36.81345489           58.33737484           49.72820269           66.86218569           46.58184627           60.26802425           66.08184449           79.44643038            75.6988563            50.2384211           53.18554396           72.42881075           44.71381204           66.37201101           44.48332125           37.80841899           58.87122575           64.98079145           38.80334777           61.68735566           78.92697295            56.9813662

                  Best                 Worst                Median                  Mean                   Std
           29.84875157           82.65303859           58.33737484     57.41002487588237    13.136358449796742

