 24/07/2016 19:28:36 |                  Run 1                 Run 2                 Run 3                 Run 4                 Run 5                 Run 6                 Run 7                 Run 8                 Run 9                Run 10                Run 11                Run 12                Run 13                Run 14                Run 15                Run 16                Run 17                Run 18                Run 19                Run 20                Run 21                Run 22                Run 23                Run 24                Run 25                Run 26                Run 27                Run 28                Run 29                Run 30                Run 31                Run 32                Run 33                Run 34                Run 35                Run 36                Run 37                Run 38                Run 39                Run 40                Run 41                Run 42                Run 43                Run 44                Run 45                Run 46                Run 47                Run 48                Run 49                Run 50                Run 51
       0.0001*MaxFES =           973.31698262           1589.110584         1515.41110476         2594.74215078         2231.39798789         3001.55938306         1142.63442893          685.02612712          2028.7612762         4594.84966802         1804.74296014         3488.45520165         2504.58364056         1804.03293374         4202.46555094          749.18073038         2333.30688558         2020.69575172         2092.68813579         1611.45650129         2765.73318746         2434.16080836         1434.20277717          663.76970149         2962.50104634         2629.32025165         1991.71136581          1137.3947778         2080.25053631          627.96776373           2088.174247         2225.90274517         2477.83761856          889.51526548         1045.12252108          2018.2711526          2234.8211602         1797.69666146         2459.81016208         1520.80269899         2379.20737777         2440.01829967          725.19355035         4251.67115476         1520.09491093         1049.81386368         2675.80513406         2878.56030911         4410.43535276         2670.16817193         1173.00785506
        0.001*MaxFES =           579.68858857          220.04066867          340.45243796          223.70652374          493.80857588          480.01814694           391.3493588          476.39064046          854.65836485          482.05532446           361.3385244          366.08420871          356.41650765          383.19166244          326.89388542          434.53777704           329.0079572          407.43974643          367.41435317          443.06615275          394.07289785          312.39618964          417.45824113          309.66025501          437.40205412          563.60935522          139.12139607          401.59406631          413.57809812          584.52271682          481.89803854          357.44346356          366.53840066          469.83475783          548.31906101          319.20629202          489.34101972           264.2040658          448.90298206          211.91106877          441.41952221          522.22553174           542.8028743            462.013026          377.11574382          325.24878278          348.34101247          342.82737512          482.37776395          371.42493861          342.03990096
         0.01*MaxFES =            18.85712008           19.83216333           24.92592193           24.17794839           21.31985508            20.8708119           24.29380492           20.30059318             22.844035           26.08766465            21.9551918           21.92769421           22.46193623           20.70949699           20.93968954           20.49048883           19.71103395           20.00764997           21.37032557           20.66242172           18.28582922           23.31619651           26.31770833           22.24328478           20.55486476           22.59200781           20.97991988           21.57716292           20.50106887           22.25271981           23.23880211           17.60552068           20.27178228           23.32754679           22.08186787           23.51080136           17.75273142           23.35254285           24.14553606           22.49795515           16.00507341           31.08133515           21.49269849           18.21208096           18.41496207           20.10481909           21.46175808            22.2862457           19.02522687           21.63548996            20.1698176
         0.02*MaxFES =            17.00982826           17.66848529           21.19382311           19.61973793           18.42463425           17.40719711           21.75297061           13.25953563           20.91876016           21.48276775             18.529823           18.22364041           19.07575197           17.86404602           16.76457689           18.14049648           15.52073717           19.17452795           20.08762038           15.28783813           15.77202827           19.64585046           17.35757414            19.2253207           16.11352959           18.94272874           17.25310456           17.45960948           17.77269382           17.21111838           16.75687265           14.74319436           17.26667369           19.34865698           19.92725555           18.97452108           14.92066701           16.62766657           20.50110932            19.6417142           13.39540899           15.99340639           15.36442225           15.86289612           15.22291717           17.53417054           18.26049892           18.23081572            15.5246675            16.2514757           16.04746083
         0.03*MaxFES =            16.38373014           17.64892121           20.53453349           19.24797521            17.6812785           16.55330027           20.80741858           12.29374269           20.26292102           21.08026047           18.39305992           17.87671499            18.7221622           17.59034641            16.2261857           17.72302003           14.60897085            18.7472936           19.49074068           14.78429517           15.29745219           17.87777066           16.95088898           18.78927451           15.56832176           18.38411623           16.60910333           17.00705171           17.40327984           16.09677673           16.34550887           14.20336835           16.49041592           18.96713002           19.36541322           18.28327309           14.40970924           16.28942218           19.78895526           19.07482949           12.82780193           15.48373631           14.85078986           15.78467833           15.02889892           17.32445872           17.15437759           17.75440569           14.96536181           16.15428793           15.43898959
         0.04*MaxFES =            16.24903175           17.31815479           20.50242495           19.13442991           17.56652837           16.42252974           20.62517239           12.23685685           19.80681499           21.05924375           18.27534107           17.87668209           18.42612761           17.40181586           16.16862134           17.61798643           14.50214528            18.6623518           19.48757819           14.72773917           15.20592548           17.45131809           16.90935162           18.77554763           15.40012837           18.20885142           16.43551124            16.6419998           17.09605518           15.80233563           16.21618665           13.98994803           16.26917176            18.9523437           19.35997972           18.12760167           14.21169452           16.20960936           19.68221474           19.03852964           12.53128267           15.45627272           14.63323846           15.62311827           14.88957645           17.20114741           17.02515956           17.71801519           14.69854925           15.69850445            15.4168119
         0.05*MaxFES =            16.22658582           17.31771535           20.49841174            19.1215111           17.55912232           16.41070478           20.61845911           12.23211669           19.65225511            21.0554982           18.21220354           17.87668209           18.36058631            17.4000829           16.00495573           17.60658742            14.5019929           18.57038103           19.32492532           14.72187752           15.19819164           17.42803122           16.90301204           18.77210195           15.38568718           18.08922199           16.42070293           16.45564416           16.95276961           15.78954209           16.21616859           13.82419516           16.07193065           18.95197245           19.34502574           17.91327251           14.03804392           16.19793388           19.60318136           19.02764937           12.53050152           15.44883272           14.60542635           15.62311826            14.7954172           17.09518611            17.0152469           17.71434008           14.65218876           15.49110898           15.40921943
          0.1*MaxFES =             16.2187567           16.91310414           20.49526231           19.11664539           17.55638976           16.40523688           20.61459126           12.22939732           19.55888011           21.05069475           17.92365527           17.52510963           18.34906568           17.06915968           15.85427235           17.60198667           14.46727628           18.22668042           18.78600913            14.7173076           15.19497554           17.41331778           16.90017148           18.77032958           15.38401868           17.87569232           16.41866714             15.960388           16.88861605           15.78450443           16.14515708           13.52517868           15.97959492           18.94831593           19.06203605           17.64059415           13.91071081           16.19521159           19.38556112           19.02059113           12.20348757           15.44272189           14.59084963           15.53077289           14.77670966           17.06010917            17.0101694            17.7131047           14.64617455           15.35842235           15.38758477
          0.2*MaxFES =            16.21847162           16.73018981           20.49361526           19.11497588           17.55621269             16.404341           20.61309987           12.22924278           19.47757931           21.04839724           17.77089791           17.47448041           18.34878378           16.78500152           15.85245793           17.59730743            14.1912733           18.21889427           18.72649108           14.71655799           15.19357619           17.41317017           16.89986826           18.76807677            15.3839155           17.87393525           16.41600946            15.7794211           16.88441399           15.78349283           15.62478206           13.52318393           15.97786222           18.94423967           18.98451469           17.63997555           13.90917165           16.19470411           19.12775831           19.01979882           12.06397544           15.43565319           14.58990432           15.44998435           14.77545865           17.05873321           17.00971703           17.71203708           14.64578998           15.35733832           15.38533223
          0.3*MaxFES =            16.21842539           16.72815704           20.49361526           19.11483715           17.55619077           16.40414261           20.61242686           12.22924214           19.47725237           21.04839724           17.63190077           17.47424066           18.34877547           16.75939919           15.85239697           17.59720045           14.08526617           18.21889427           18.47340267           14.71654851           15.19338529           17.41317017           16.89984594           18.76807668           15.38386299           17.87389696            16.4155965           15.77875543           16.88429642           15.78349283           15.62387572           13.52318393           15.97782504           18.94423767           18.92953852           17.63990416           13.90901949           16.19467543           19.09450852           19.01932172           12.06340477           15.43492818           14.58990432           15.20284538           14.77528766            17.0587149           17.00962016           17.71203518           14.64577458           15.35642765           15.38505645
          0.4*MaxFES =            16.21842539           16.72781663           20.49340161           19.11483715           17.55618179           16.40414261            20.6123005           12.22924214           19.47724171           21.04793814           17.62746912           17.47424066           18.34803731           16.75938949           15.85221719           17.59697839           14.04041802           18.21889045           18.26668395           14.71654851           15.19330674           17.41290311           16.89947137           18.76807668           15.38386299           17.87388726           16.41542714            15.7786343           16.88409974           15.78347201           15.62387572           13.52318393            15.9778047           18.94322989           18.77080391           17.63988151           13.90877271           16.19465279           19.09450852           19.01925548           12.06335811           15.43459187           14.58990432           15.14884697           14.77528766           17.05871155            17.0093642           17.71203518           14.64577458           15.35642765           15.38503813
          0.5*MaxFES =            16.21842539           16.72778032           20.49337116           19.11483715           17.55618179           16.40408887           20.61225197           12.22924214           19.47724171           21.04793814            17.5920733           17.47422826           18.34803731           16.75938948           15.85219273           17.59644481           13.94323796           18.21889043           18.26646348           14.71654851           15.19330674           17.41255433           16.89943059           18.76805911           15.38386299           17.87384112           16.41542714            15.7786343           16.88406201           15.78340092           15.62387572           13.52318393           15.97780167           18.94322989           18.73116512           17.63987312           13.90825215           16.19464979           18.88768439           19.01910072           12.06331844           15.43450423           14.58990432           15.14882656            14.7752774           17.05871155           17.00935818           17.71203518           14.64577458           15.35642765           15.38476367
          0.6*MaxFES =             16.2183981           16.72776841           20.49337116           19.11483715           17.55616866           16.40401359           20.61225197           12.22924214           19.47724171           21.04793814           17.58953906           17.47421921           18.34803731           16.75938948           15.85207514           17.59634576            13.8527638           18.21889043           18.26646348           14.71654851           15.19330674           17.41255433           16.89943059           18.76805911           15.38386299            17.8738213           16.41542714            15.7786343           16.88401863           15.78340092           15.62361575           13.52318393           15.97779038           18.94322989           18.73116512           17.63986467           13.90813992           16.19464941           18.86722441           19.01910071           12.06331838           15.43446145           14.58990432           15.14882655           14.77516061           17.05871155           17.00935818           17.71193808           14.64577458           15.35618026           15.38476367
          0.7*MaxFES =             16.2183572           16.72775387           20.49337116           19.11479372           17.55615445           16.40401078           20.61225197           12.22924214           19.47723197           21.04793814           17.58908559           17.47421921           18.34778732           16.75938948           15.85207514           17.59632481           13.85271572            18.2188904           18.26646348           14.71654851           15.19326745           17.41214207           16.89943059           18.76805911           15.38369846            17.8738213           16.41542714            15.7786343           16.88400333           15.78331609           15.62250314           13.52318393           15.97779038           18.94309645           18.47905816           17.63986105           13.90813992           16.19464738           18.86705077           19.01910071           12.06331671           15.43439254           14.58990432           15.14882655           14.77516061           17.05871155           17.00930482           17.71193012           14.64577458           15.35610109           15.38476367
          0.8*MaxFES =             16.2183572           16.72775387           20.49325657           19.11474726           17.55615398           16.40400453           20.61225197           12.22924214           19.47723197           21.04793814           17.58897344           17.47420927           18.34778732           16.75938948           15.85207514           17.59626837           13.85271572            18.2188904           18.26646348           14.71654851           15.19326745           17.41214207           16.89943059           18.76805911           15.38369485           17.87380181           16.41542714            15.7786343           16.88397032           15.78328837           15.62243227           13.52318393           15.97779038           18.94307624           18.45220771           17.63986031            13.9080232           16.19464738           18.85965735           19.01910071           12.06331629           15.43439254           14.58990432           15.14882655           14.77516061           17.05871155           17.00930482           17.71192681           14.64577458           15.35610109           15.38457811
          0.9*MaxFES =             16.2183572           16.72775387           20.49325556           19.11474415           17.55614298           16.40398468           20.61225197           12.22924214           19.47723197           21.04771891           17.58893623           17.47420927           18.34761387           16.75938948           15.85207514           17.59606416           13.83713335            18.2188904           18.20354431           14.71654851           15.19324134           17.41211567           16.89943059           18.76793179           15.38367554           17.87380181           16.41542714            15.7786343           16.88397032           15.78328837           15.61706156           13.52318393           15.97779038           18.94307624           18.45173533           17.63986031            13.9080232           16.19464738           18.85155552           19.01910071           12.06331586           15.43438137           14.58987286           15.14882655           14.77516061           17.05871155           17.00930482           17.71192667           14.64577458           15.35610109           15.38432466
              MaxFES =             16.2183572           16.72775387           20.49325556            19.1147095           17.55614298           16.40398468           20.61225197           12.22924214             19.477224           21.04770781           17.58893106           17.47420927           18.34761387           16.75938948           15.85207514           17.59606416           13.83627866            18.2188904           18.09150606           14.71654851           15.19324134           17.41191568           16.89940665           18.76793179           15.38367551           17.87378458           16.41512231            15.7786343           16.88397032           15.78328837           15.59458207           13.52318393           15.97779038           18.94307624           18.29145545            17.6398601           13.90800009           16.19464738            18.8506454           19.01910071           12.06326474           15.43437501            14.5897391           15.14882655           14.77516061           17.05871155           17.00930482           17.71192667           14.64577458           15.35610109             15.384302

                  Best                 Worst                Median                  Mean                   Std
           12.06326474           21.04770781           16.75938948    16.703390894901958     1.991006536219579

