 19/06/2016 00:26:38 |                  Run 1                 Run 2                 Run 3                 Run 4                 Run 5                 Run 6                 Run 7                 Run 8                 Run 9                Run 10                Run 11                Run 12                Run 13                Run 14                Run 15                Run 16                Run 17                Run 18                Run 19                Run 20                Run 21                Run 22                Run 23                Run 24                Run 25                Run 26                Run 27                Run 28                Run 29                Run 30                Run 31                Run 32                Run 33                Run 34                Run 35                Run 36                Run 37                Run 38                Run 39                Run 40                Run 41                Run 42                Run 43                Run 44                Run 45                Run 46                Run 47                Run 48                Run 49                Run 50                Run 51
       0.0001*MaxFES =     22410.873444024743    13558.217972959412     16151.15249356282    15812.532994412642     18979.00340727671    14573.622456014456    18250.552270601547    24073.442593665957    15991.395483749955     19681.45647600501    10088.505447595131     19431.98801742592    14085.865674026765     22941.47338869351    13876.449176480615    16563.439054017137    16563.068226444506    10868.157507293772    13953.403861026596    14375.379747466823    21224.593595872302     15441.12379426208    17037.544682646756     15379.40658160838    18285.163839017325     11575.89604365544    15801.419794818434     17911.50054372416    19204.998729563926    12495.583105312315    12408.063886964199    13302.223721248421     13048.00943624377     16702.18173955443    12590.489225036865      12280.5361891042     15861.33132786267    21006.646639695027    19432.727676333838     12033.56439706418    12299.146045455667    15309.237979114196      20686.7770913106    19016.891746097244    11085.484886922843    17179.369553250148    18439.762883473897    18462.457273009444    10788.088537709606     13822.35095187188    11522.842975102218
        0.001*MaxFES =      1697.261321933329    1739.7185692085823     1474.427847373602     1767.544058958315    2315.0841612083377    1898.1712167689525    1921.8171894276093     1333.324909497054     1413.677790026627     1661.542329795842    2338.7082054298876     2477.101850769377     1570.801013921387    1749.2413101067905     1988.712700403049    1521.2039979331194    1764.3601634079387    1569.9411500089636     1929.171555500457     1558.169580286177     1854.581960309364    1575.0950381743287    1772.1370582871896    1338.7321112393427     1877.375390662966    1511.7842487979806    1798.3997239574464    1327.5630967829088     1696.382297636519     1620.611999965122     2166.656126903382    1853.4478741076946    1797.7358685938275     1487.134433948436    1875.1537335727007     2136.654247069937    2160.0001823714506     2211.335046561084    1989.9301710045806     1627.040361365902    1592.7532869898714     1547.756463753834    1160.9063673681267    1748.7739199691378    1336.9968742691144    1649.3858610572897    1802.4683086410355    1793.1102290823405    1580.4798637044096    1731.6512399188077    2421.6400464054996
         0.01*MaxFES =      193.3743512758651     154.3600410815818     207.4373974226418     195.1758772230972     194.8058364195035       217.17069537729      135.741446945461     215.3582587115277     197.6846350139472     210.0675207835952      210.032104287703     135.8921198903699     213.9884138419361     200.9749689032985     214.2429021774624     193.9788710227203     181.2492267232116     205.6326071217729     195.2025714649405     181.4200463170873     209.2888479098365      95.9987374019664     137.1124284899804     182.9158798138931     154.6114020606994     165.5682212789845     196.6737254253877     162.6967635050162     143.3843577310746     196.0033526382161     231.4921798830152     209.3724037126551      97.2278235233032     203.0387068968953     201.6808107836462     138.5889780530008     168.9054883710296     129.2129950065922     194.7882373465809     197.1643717383502     207.2621180280426      81.0042810285706     145.1151699595788     212.2532951060712     146.9057136275878     136.4635044808315     203.3564023365241     204.3062875569857     209.9944648251309     154.5543055277947     177.0147745560442
         0.02*MaxFES =      183.7336767755853     128.8066477036443     198.9920817671932     184.9944315350734      190.200968230051     204.5612228534089     117.4164832766147     123.6224046937971     192.1773868812322     192.1616819792907     200.3801579541175     130.4502363020704     204.8522826122763     195.8301841325526     193.7108156367653     190.5133673893063     119.4777543069716     192.9838031152744     191.4525386984258     171.9777015254867     185.3334386677034      49.6797134369698     119.2757526814604     123.5853928888497     132.0801815359549     131.2846308967493     191.3346109490103     139.9620553079725      126.949467743096     189.2603759800606      201.634922608453     184.7873889430439      66.4509508710761     197.0878503936531      188.632232231033     129.5611699141472     139.9699834712063     118.8789264668137     186.9582292891512      190.384234424544     190.2954329112033      60.3750199812151      54.6706368214941     198.2620853630846     125.2841616405988     111.5149976213286     198.1855313947929     193.0849966357903      189.105803166376     132.6883248144245     118.4345360016507
         0.03*MaxFES =      183.7147745253994     128.7850277240001     198.9768669483307      184.968977177441     190.1941634790003     204.5135466902665     117.3870592978419     123.3517480415326     192.1672003615563     192.0607067202902     200.3665706523125     130.4353937636361     204.8220249741969     195.8143081912497     193.6709163231144     190.4944937255434       119.36187676912     192.9670968676535     191.4476307391667     171.9609969986054     185.2822968107057      49.5980453542505     119.2358806831069      123.458286845463     131.9570515374778     131.2604369225618      191.321515182555     139.7162474490761     126.9117285474019     189.2532643424472     201.5251577076655     184.7401742786178      66.4112246026798       197.07017175519     188.5564329286904     129.5434097393425     139.8050124407184     118.8696816050664     186.9327548084848      190.364079812281     190.2585830224135        60.33282803301      54.3055996854632     198.2154239863912     125.2614478265134       111.48961871271      198.179985589514     193.0596206697361     189.0659142658251     132.6106440857632     118.3523896582075
         0.04*MaxFES =       183.714690622475     128.7849083674208     198.9767611509678     184.9688942002809     190.1941119894847     204.5130771962575     117.3869367218065     123.3509171428182     192.1671891169889     192.0601193704799     200.3665224662703     130.4353533775158     204.8219443702862     195.8142526423044     193.6707506436259     190.4944116176736     119.3606047915778     192.9670568677059     191.4476287284419     171.9608919039109     185.2821253201012      49.5976153309133      119.235658358432      123.457193101574     131.9567674576454     131.2603519524284     191.3213742065277     139.7151005853142     126.9115781533584     189.2532513072101     201.5249810395126     184.7398693843428      66.4110233840524     197.0701176088585     188.5563059842052     129.5433546090808     139.8040040475641     118.8696369775752     186.9325118481272     190.3639721533666     190.2584244378438      60.3327179538231      54.3048229729344     198.2150970962532     125.2612915008723     111.4895405154982     198.1799790690305     193.0592973289544     189.0657862946623      132.610296253196     118.3513530296616
         0.05*MaxFES =      183.7146906221069     128.7849083669672     198.9767611505102     184.9688941993782     190.1941119892323     204.5130771873723     117.3869367212855     123.3509171397964      192.167189116793     192.0601192550251     200.3665224659381     130.4353533772743     204.8219443698216     195.8142526419565      193.670750642422     190.4944116172029     119.3606042726386      192.967056867546     191.4476287282712     171.9608919034058     185.2821253186356      49.5976153297845     119.2356583576225     123.4571930598033     131.9567674544186     131.2603519519784     191.3213742061524     139.7151004152154     126.9115781525617     189.2532513070137     201.5249810388887      184.739869383173      66.4110233821563     197.0701176082779     188.5563059834778     129.5433546087786     139.8040040383197     118.8696369769947     186.9325118471776     190.3639721529828     190.2584244342773      60.3327179532725      54.3048229540268     198.2150970954979      125.261291500655     111.4895405151625     198.1799790689295     193.0592973279988     189.0657862921598     132.6102962496202     118.3513526658129
          0.1*MaxFES =       183.714690621598     128.7849083664146     198.9767611498905     184.9688941990008     190.1941119889264     204.5130771861664      117.386936720284     123.3509171394278     192.1671891165752     192.0601192545682     200.3665224653943      130.435353376999     204.8219443694309     195.8142526415812     193.6707506420439      190.494411616573      119.360604271891     192.9670568672547     191.4476287277497     171.9608919026141     185.2821253163637      49.5976153294355     119.2356583570361     123.4571930593037     131.9567674539752     131.2603519515324     191.3213742055543     139.7151004137016     126.9115781519636     189.2532513064778     201.5249810383107      184.739869382736      66.4110233815279     197.0701176074058     188.5563059822412     129.5433546080288     139.8040040374736     118.8696369751037     186.9325118468213     190.3639721524735     190.2584244334357      60.3327179522321      54.3048229532128     198.2150970951197     125.2612915001185     111.4895405144796     198.1799790679013      193.059297327881     189.0657862913274       132.61029624777     118.3513526648462
          0.2*MaxFES =      183.7146906204206      128.784908365046     198.9767611488182     184.9688941983652       190.19411198812     204.5130771834326     117.3869367181387     123.3509171392161     192.1671891160184     192.0601192541089     200.3665224646998      130.435353376376     204.8219443691919     195.8142526407514     193.6707506411624     190.4944116156607     119.3606042695287     192.9670568665249     191.4476287268765     171.9608919008215     185.2821253110768      49.5976153286957     119.2356583558139     123.4571930582465     131.9567674527874     131.2603519506067     191.3213742045593     139.7151004103306      126.911578151022     189.2532513056018     201.5249810365898     184.7398693819912      66.4110233807053     197.0701176064802     188.5563059805932      129.543354606624     139.8040040355181      118.869636973148     186.9325118464874     190.3639721515433     190.2584244323788      60.3327179507179      54.3048229516672     198.2150970945088     125.2612914994731     111.4895405135771     198.1799790657024     193.0592973278167       189.06578629003     132.6102962450111     118.3513526638609
          0.3*MaxFES =      183.7146906196181     128.7849083639259     198.9767611478054     184.9688941979845      190.194111987217     204.5130771816281     117.3869367159483     123.3509171391099     192.1671891154703     192.0601192533097     200.3665224638814     130.4353533749966      204.821944368187     195.8142526398533     193.6707506398708     190.4944116148216     119.3606042673687     192.9670568658465     191.4476287260678     171.9608918991732     185.2821253062316      49.5976153283062     119.2356583549139      123.457193057309      131.956767451008     131.2603519495494     191.3213742040454     139.7151004076229     126.9115781495186      189.253251304527     201.5249810346149     184.7398693810903      66.4110233797678     197.0701176055912      188.556305978725     129.5433546050909     139.8040040338468     118.8696369694862     186.9325118461232     190.3639721505767     190.2584244306734      60.3327179481389      54.3048229492246     198.2150970937246     125.2612914983962     111.4895405127573     198.1799790638614     193.0592973277555     189.0657862884553     132.6102962423391     118.3513526611436
          0.4*MaxFES =      183.7146906180972     128.7849083632252     198.9767611470631     184.9688941973561     190.1941119863467     204.5130771796072     117.3869367139553      123.350917138959     192.1671891151227     192.0601192526519     200.3665224630001     130.4353533743325     204.8219443668935     195.8142526389389     193.6707506387231     190.4944116142028     119.3606042653544      192.967056865406     191.4476287249987     171.9608918974444     185.2821253029525      49.5976153277101     119.2356583542146     123.4571930562286     131.9567674496977      131.260351948637     191.3213742032772     139.7151004059588     126.9115781487758      189.253251303169        201.5249810337     184.7398693802332      66.4110233784071      197.070117604402     188.5563059765509     129.5433546035285     139.8040040327639     118.8696369656276     186.9325118455249     190.3639721498724     190.2584244289415      60.3327179469397      54.3048229472101     198.2150970932887      125.261291497828     111.4895405117517     198.1799790615415     193.0592973276767     189.0657862874667     132.6102962400421     118.3513526589957
          0.5*MaxFES =      183.7146906173436     128.7849083619225     198.9767611458492     184.9688941966584     190.1941119853257     204.5130771779118     117.3869367113059     123.3509171385557     192.1671891146054     192.0601192523606     200.3665224624312     130.4353533731306     204.8219443656276     195.8142526383112     193.6707506380183     190.4944116137918     119.3606042638181      192.967056865003     191.4476287240853     171.9608918957266     185.2821252981576      49.5976153269823     119.2356583531352     123.4571930551356      131.956767448529     131.2603519472759     191.3213742022047     139.7151004041457     126.9115781479002     189.2532513023883     201.5249810319058     184.7398693791548      66.4110233766489      197.070117603367     188.5563059745734     129.5433546025324     139.8040040316547     118.8696369616275     186.9325118449747     190.3639721490686     190.2584244277353      60.3327179448418      54.3048229455732     198.2150970927332      125.261291496745     111.4895405108766     198.1799790594091     193.0592973275759     189.0657862857854     132.6102962372904     118.3513526572794
          0.6*MaxFES =      183.7146906162286     128.7849083613664     198.9767611449216     184.9688941961465      190.194111984377     204.5130771759468     117.3869367094337      123.350917138444     192.1671891139955     192.0601192517561     200.3665224613463     130.4353533722024     204.8219443641486     195.8142526375821     193.6707506370619     190.4944116132021     119.3606042620111     192.9670568645839       191.44762872342     171.9608918938598     185.2821252938045      49.5976153260307     119.2356583521159     123.4571930539742     131.9567674462385     131.2603519466669      191.321374201211     139.7151004015591     126.9115781465674     189.2532513006724      201.524981030849     184.7398693784105      66.4110233755612     197.0701176012717      188.556305972864     129.5433546016382     139.8040040308133     118.8696369585741     186.9325118447638     190.3639721479583      190.258424426199      60.3327179430482       54.304822943013     198.2150970920081     125.2612914958795     111.4895405098982     198.1799790571174     193.0592973274745     189.0657862846017     132.6102962350279     118.3513526559561
          0.7*MaxFES =      183.7146906148912     128.7849083606568     198.9767611436031      184.968894195554     190.1941119835521     204.5130771740014     117.3869367072717     123.3509171382955     192.1671891132892     192.0601192504968     200.3665224603471     130.4353533713838     204.8219443633081     195.8142526373094     193.6707506361967     190.4944116125362     119.3606042589278     192.9670568633628     191.4476287224977     171.9608918922883     185.2821252885432      49.5976153255149     119.2356583512989     123.4571930532303     131.9567674452938     131.2603519461101     191.3213742007983     139.7151003988482     126.9115781454319     189.2532512995775     201.5249810288416     184.7398693772685      66.4110233747884     197.0701176003402     188.5563059710017     129.5433546003226     139.8040040298026     118.8696369556571     186.9325118442927      190.363972147227     190.2584244245425      60.3327179410023       54.304822941498     198.2150970914655     125.2612914948027     111.4895405087739      198.179979055639     193.0592973273557     189.0657862839757      132.610296232697     118.3513526537687
          0.8*MaxFES =      183.7146906137884     128.7849083595954     198.9767611425481     184.9688941951063     190.1941119823937     204.5130771718941     117.3869367048692     123.3509171381993      192.167189112807     192.0601192495657     200.3665224594572     130.4353533700641     204.8219443629253     195.8142526363818     193.6707506354628     190.4944116119592     119.3606042569957     192.9670568627796     191.4476287220925     171.9608918909446     185.2821252840747      49.5976153250622     119.2356583506148     123.4571930523003     131.9567674439322     131.2603519452928     191.3213741999571     139.7151003959913     126.9115781440637     189.2532512987257      201.524981026351     184.7398693768193      66.4110233739937     197.0701175993495     188.5563059691326     129.5433545990733     139.8040040284768     118.8696369511385     186.9325118439742     190.3639721464658      190.258424423408      60.3327179388449      54.3048229394733      198.215097090847     125.2612914941666     111.4895405077368     198.1799790530473     193.0592973273042     189.0657862822801     132.6102962302368     118.3513526520064
          0.9*MaxFES =      183.7146906123254     128.7849083590947     198.9767611418503      184.968894194298     190.1941119815651      204.513077169242     117.3869367028415     123.3509171380308     192.1671891125864     192.0601192491389     200.3665224587733      130.435353369078     204.8219443625268     195.8142526359183     193.6707506348529      190.494411611036     119.3606042544646     192.9670568618382     191.4476287210599     171.9608918891523     185.2821252806164      49.5976153246547      119.235658349508     123.4571930513612     131.9567674426848       131.26035194449     191.3213741987506       139.71510039294     126.9115781428063     189.2532512981807     201.5249810251717     184.7398693761468      66.4110233728809      197.070117597649     188.5563059671813     129.5433545982206     139.8040040269943     118.8696369484023     186.9325118433552     190.3639721455247     190.2584244212957      60.3327179372179      54.3048229371914     198.2150970903401     125.2612914935511     111.4895405063146     198.1799790511434     193.0592973272649     189.0657862806888     132.6102962283594     118.3513526504438
              MaxFES =      183.7146906110642      128.784908357888     198.9767611413633     184.9688941937318     190.1941119806529     204.5130771674519     117.3869367012103     123.3509171377063     192.1671891122705     192.0601192488637     200.3665224579439     130.4353533684431      204.821944361561     195.8142526351577     193.6707506341186     190.4944116105842      119.360604252885     192.9670568609068     191.4476287198395     171.9608918872173      185.282125275633      49.5976153240755     119.2356583482307     123.4571930503355     131.9567674416669     131.2603519436581     191.3213741977816     139.7151003909239     126.9115781419184       189.25325129725     201.5249810244292     184.7398693755083      66.4110233714638      197.070117596221     188.5563059655217     129.5433545968112     139.8040040255921     118.8696369431025     186.9325118430318     190.3639721447953     190.2584244192805      60.3327179357912      54.3048229352135     198.2150970897611     125.2612914925583     111.4895405056099      198.179979049271     193.0592973270623     189.0657862796216     132.6102962259721     118.3513526496641

                  Best                 Worst                Median                  Mean                   Std
      49.5976153240755      204.821944361561     184.9688941937318      158.242988640169     43.16569183902963

