 20/06/2016 12:49:37 |                  Run 1                 Run 2                 Run 3                 Run 4                 Run 5                 Run 6                 Run 7                 Run 8                 Run 9                Run 10                Run 11                Run 12                Run 13                Run 14                Run 15                Run 16                Run 17                Run 18                Run 19                Run 20                Run 21                Run 22                Run 23                Run 24                Run 25                Run 26                Run 27                Run 28                Run 29                Run 30                Run 31                Run 32                Run 33                Run 34                Run 35                Run 36                Run 37                Run 38                Run 39                Run 40                Run 41                Run 42                Run 43                Run 44                Run 45                Run 46                Run 47                Run 48                Run 49                Run 50                Run 51
       0.0001*MaxFES =      7137.620198473316     9083.335848530536     9217.507893972925     8422.691155746295     7547.178220202557     7856.116628204582      7553.96834840987     8208.331881649565     8333.760419224021     9742.318953107133     7029.026534293685      7569.98918004526     8294.105798230681     8619.266696526782    10357.265857851311      8392.05784882866      8856.13651209103     10235.32752688701     9101.537262409693     9890.821249572597     8960.113588036831     8941.587108996222     8512.509838886488     10585.66919958083     9056.393231246104     9392.144643282189    10049.964037046839     7020.549516560625     7218.285300616013     9279.481851654038    10093.771906980126     9547.559630275027      7383.94824083591     6519.558058086137     7130.996971169941     7334.357751416152     6591.246323172541      7261.11249405257      7578.59484815566     10208.41518219754      8843.31541705237     9648.630607794697      6762.67050108307    10746.389338220957     6971.055597679504    11037.533029303377    11348.306082577983     6223.763301694311     5769.492060693825    10953.846053432699     9599.457334254834
        0.001*MaxFES =      4269.183932769603     4359.426104427664     4613.953963114037     4403.681999294798     4357.370832809978    4303.5060505896845     4510.746949067505      4514.34936686965     4269.397332301487     4465.968831273124     4497.327899335315     4656.751734489922     4559.625152400738     4383.702818171437     4671.824905703632     4711.806154361919     4557.189862677072      4684.50431309934     4232.945885851058     4677.678972411867     4725.811887236293     4660.673082038259     4622.837809191189    4677.6973396405765      4641.59558566787     4532.972900127121     4464.627671201998     4561.525641391986     4377.705176611766      4489.87297416772     4618.793787619578     4906.217301922417     4567.044720012526     4385.145744651435     4501.145177310219     4514.823880349343     4503.080979404245     4614.139006534808     4482.578389150672     4628.065534605377     4579.676947216937     4328.351799589798     4584.068095453407     4459.422420688787     4613.080964736679     4368.546571530933     4787.502880683722     4412.485718700738     4289.646632911734     4423.664113200495     4447.138308495779
         0.01*MaxFES =     2743.1244636519177     2720.862124833532      3053.57727327053     2978.844293083506     2786.229614920164      2592.29927612136    2803.4567334868816    2701.2510607657123    2837.3081581123206     3060.359673940538     3042.119187998545    2827.2026635509533     2794.620228073296     3014.889267386807    2861.0103157113053     3169.724190581557       3011.9975784311    2898.5862446762767    2472.6812825730904     2989.884898107036      2873.81006063107     2857.470886032601    2720.3558157329376     2966.300021587817     2719.601897705576     3184.581457183438    2541.9364992131427     3301.621488561728    2793.7301827454157    2710.8165391829784    2717.3945403502767     3180.402025549642     3142.590361839824    2750.8045510744732    2708.5131549584125     3107.251889943062     2964.946542352851     2691.106060223406    2947.1125020590894    2941.1632851132463    2780.9774211208346      3074.51137326043     3005.417935030115    2730.1681361433593     3055.015049409767    2884.6448540228685    2751.0412012941447    2924.2692268553956    2922.3221489772172    2802.3464085518062    2745.6045591463126
         0.02*MaxFES =     2731.4787069200547    2706.9116424874223     3045.122201006925     2966.916041985178    2772.4564445127594    2581.1350657564367    2787.3952244929146    2680.0460731614476     2827.603925222801     3050.611137957889     3024.248949695336     2813.843444262897     2777.888867211625     3005.350628194588    2827.0211671824095     3159.580609297473     3000.739693805359    2886.2844818265758    2455.7951380720456    2973.3855723430665     2846.160176954454      2848.16042392614     2713.211252231709    2955.7347345554754    2695.0556929508525     3173.421772163414     2520.200337800714      3294.19866491207    2768.0649280331054    2701.7780943189423     2699.367899317939     3174.022677112445     3128.009787843041    2734.2938193883892     2691.729394082954     3090.481036538356    2946.5787997209873     2676.423643465693     2937.356880240596    2922.1655829610568     2761.846515901507     3063.937144220951    2991.3682300962755     2715.202431686246     3041.894151563099    2874.1003917792414     2727.917589165509     2906.019522236028    2916.0066752165294    2785.2496433511637    2735.7927722613676
         0.03*MaxFES =       2731.40925339499    2706.8171784693677     3045.093845314465     2966.806597974936    2772.4306790828855    2581.1044019384603    2787.3540617832323    2679.9666936877466     2827.566412998164     3050.557299788137    3024.1621041061735    2813.7761854403607     2777.791471674899     3005.313205146134     2826.865125898188     3159.534204337884    3000.6953346124865      2886.22240616502      2455.67457378705    2973.2789597030733    2845.9671408148774      2848.11874439641    2713.1711573602547    2955.6466870334702    2694.9726750950867     3173.366488173645     2520.037293322802     3294.169651803655    2767.8928848688493    2701.7358771739237     2699.287033647356     3173.994164010833     3127.914013759185     2734.204037740933    2691.5737529540675     3090.417039239038     2946.353382867674     2676.365653704793     2937.300934948196     2922.065978154926     2761.705039396885      3063.89373576652     2991.279276507409    2715.1000736502547    3041.7959770081325     2874.021406954388    2727.8137570875924     2905.935195500634     2915.965616906439    2785.1895503837486    2735.7148956989413
         0.04*MaxFES =     2731.4085707155473     2706.816813842508     3045.093672747415    2966.8059657662448     2772.430362994504    2581.1038708323204    2787.3536535823396    2679.9659941592436    2827.5661288087886     3050.556685546885     3024.160857909974    2813.7750658121126    2777.7903548278214        3005.312831141    2826.8637595779846    3159.5337464606255     3000.694762754092     2886.221372270765    2455.6739586212234     2973.278239291459     2845.965426773011     2848.118295856903     2713.170495403857     2955.645829750998    2694.9715354133127     3173.365543459662     2520.036351035251     3294.169093670667     2767.891792299361    2701.7353589727168    2699.2860255767246     3173.993595760665     3127.912367910333    2734.2032524118304    2691.5727398304375     3090.416218041998    2946.3524616468158     2676.364741258573     2937.300513754587    2922.0644877006866     2761.703408907941     3063.893106169398     2991.278131122689     2715.099441910211     3041.795380100553    2874.0206976740583       2727.8132775686     2905.934757034279    2915.9652203526844     2785.188361180377    2735.7137106585874
         0.05*MaxFES =      2731.408382594554     2706.816689965809      3045.09367128462      2966.80596126798     2772.430061623755     2581.103805680167    2787.3535565298403    2679.9658935101493    2827.5660144363264     3050.556426692821     3024.160669922291     2813.774692400976     2777.790229319466     3005.312827200154    2826.8636481737635      3159.53371706111    3000.6944559484655     2886.221327500522     2455.673952677392    2973.2782368323133     2845.965227723403      2848.11819414548     2713.170490933122     2955.645744917973     2694.971477251383    3173.3651837530415    2520.0361815723027     3294.168957033592     2767.891615571092     2701.735039214175     2699.285997180972     3173.993496121421     3127.911870359979     2734.203043512694    2691.5727257804497     3090.416115549644     2946.352456049367     2676.364638631254    2937.3004532395653     2922.064439271672    2761.7031373862014    3063.8930660249325    2991.2781177439565      2715.09932601653     3041.795374463017     2874.020543956551     2727.813037996665    2905.9346161893327     2915.964989653036     2785.188334918232     2735.713592321259
          0.1*MaxFES =     2731.4081398882886    2706.8164490868817      3045.09367098543    2966.8059607745045    2772.4300476784665    2581.1038049439226    2787.3533585596983     2679.965687879632     2827.566012183578     3050.556323922221     3024.160663348624    2813.7745400043204    2777.7900494905703     3005.312826764445    2826.8635140157476     3159.533716583306     3000.694300845995     2886.221100755362    2455.6738381993387     2973.278236561056    2845.9651991395212     2848.118035170403     2713.170388915586     2955.645588476243     2694.971476498208     3173.365175462715     2520.036178651835     3294.168719497187    2767.8915144736766    2701.7348353218126    2699.2854804484155     3173.993495070675    3127.9118360210505     2734.202816634648    2691.5725221972643    3090.4159585538255     2946.352313306728    2676.3646362932304    2937.3003618998628    2922.0642862870523    2761.7028783542537     3063.892973199423     2991.278016788738    2715.0992263273656     3041.795373895963    2874.0205400193386     2727.813033389815     2905.934611751815     2915.964886879789    2785.1883343983704    2735.7134888110204
          0.2*MaxFES =     2731.4081397911023    2706.8164490585623     3045.093670958606    2966.8058635943003    2772.4300476564313     2581.103711840761    2787.3533585313226     2679.965687821398    2827.5660121351334     3050.556323897183     3024.160663289924    2813.7745399734167     2777.789952209578     3005.312826699259    2826.8635139811518     3159.533716569409     3000.694300643024    2886.2211007224946    2455.6738381023633     2973.278236497789     2845.965198940054    2848.1180005586907    2713.1703888620186    2955.6455884434577    2694.9714764283653     3173.365175389685    2520.0360769326826      3294.16871947037    2767.8915142978726    2701.7348351704777     2699.285378227634     3173.993495033789     3127.911762904008    2734.2028164280036     2691.572521495573     3090.415958493291    2946.3522169297376     2676.364636024182     2937.300361675147     2922.064192618368     2761.702878311669     3063.892973164898     2991.278016761733     2715.099030671111     3041.795278245985     2874.020539982388    2727.8128366164037     2905.934611732339     2915.964886803857    2785.1883343786494    2735.7134887327884
          0.3*MaxFES =     2731.4081397718937      2706.81644904707     3045.093670946922    2966.8058635750285    2772.4300476471985     2581.103711817854     2787.353358523386    2679.9656878114592    2827.5660121207698     3050.556323890886    3024.1605688970885    2813.7745399606574     2777.789952187574     3005.312826677084    2826.8635139723447     3159.533716566748     3000.694209845406    2886.2211007146216    2455.6738380808915    2973.2782364882323     2845.965198924674     2848.118000536697      2713.17038885076     2955.645588437824     2694.971388213842    3173.3651753739705     2520.036076917589     3294.168719464418     2767.891514288539    2701.7348351607375    2699.2853767582583     3173.993495024713     3127.911742991151    2734.2028164073126     2691.572521475503    3090.4159584834615    2946.3522169074145     2676.364635997676    2937.3003616590995    2922.0641925996556    2761.7028782990033     3063.892973155186    2991.2780167539177      2715.09903065281     3041.795278220919    2874.0205399731058     2727.812836595251     2905.934611725859     2915.964886793648    2785.1883343738286     2735.713488712767
          0.4*MaxFES =      2731.408139765357     2706.816449038407     3045.093670942635    2966.8058635672805     2772.430047645024    2581.1037118065897    2787.3533585201344    2679.9656878070073     2827.566012115583     3050.556323888999     3024.160568857865     2813.774539954654     2777.789952180406     3005.312738022038    2826.8635139679373     3159.533716563747     3000.694209830874    2886.2211007106066    2455.6738380712495     2973.278236483935     2845.965198916545     2848.118000529287    2713.1703888445945    2955.6455884335373    2694.9713881847256     3173.365175367537     2520.036076911691     3294.168719460555    2767.8915142837054    2701.7348351568176     2699.285376746221      3173.99349501846      3127.91174297805    2734.2028164010967     2691.572521464034     3090.415958476222    2946.3522169015605     2676.364635989798    2937.3003616499905     2922.064192593733     2761.702878295062     3063.892973147337    2991.2780167495607    2715.0990306437097     3041.795278210293    2874.0205399677134    2727.8128365830025      2905.93461172191    2915.9648867859573     2785.188334371088    2735.7134887017205
          0.5*MaxFES =      2731.408139760994     2706.816449036609     3045.093670939021    2966.8058635639486     2772.430047643845     2581.103711798176    2787.3533585184296     2679.965687804932    2827.5660121102255     3050.556323886918     3024.160568846067    2813.7745399527844    2777.7899521752934     3005.312731950478     2826.863513966429     3159.533716560102     3000.694209824691     2886.221100708918    2455.6738380671527    2973.2782364820405     2845.965198909383     2848.118000526857    2713.1703888412408     2955.645588429642    2694.9713881729176     3173.365175363686     2520.036076909492    3294.1687194590095     2767.891514281329     2701.734835153127     2699.285376744144      3173.99349501607       3127.9117429695    2734.2028163939367     2691.572521457248     3090.415958473448    2946.3522168968066    2676.3646359840122     2937.300361646861    2922.0641925881855    2761.7028782915136     3063.892973142986    2991.2780167465185    2715.0990306388985     3041.795278206715     2874.020539965711    2727.8128365779503     2905.934611720983    2915.9648867834794     2785.188334368935    2735.7134886955905
          0.6*MaxFES =      2731.408139759054     2706.816449034805     3045.093670936161     2966.805863561681    2772.4300476426306     2581.103711795257     2787.353358517027     2679.965687802277    2827.5660121082733     3050.556323885776      3024.16056884202     2813.774539951844     2777.789952169795     3005.312731932154    2826.8635139656626      3159.53371655889     3000.694209820921    2886.2211007075175     2455.673838064664    2973.2782364801405    2845.9651989053673    2848.1180005246524    2713.1703888395364    2955.6455884279844     2694.971388168809     3173.365175359275      2520.03607690794     3294.168719457528    2767.8915142802034    2701.7348351509672    2699.2853767425527     3173.993495014408     3127.911742962709     2734.202816392513     2691.572521455423     3090.415958471083    2946.3522168961604     2676.364635980439    2937.3003616449846     2922.064192585718     2761.702878290158     3063.892973140839    2991.2780167452875     2715.099030635431     3041.795278204461    2874.0205399628862    2727.8128365761586     2905.934611719726     2915.964886779161     2785.188334368133     2735.713488691962
          0.7*MaxFES =      2731.408139756988    2706.8164490330355     3045.093670934626     2966.805863560588     2772.430047642017     2581.103711793689    2787.3533585161335     2679.965687800056     2827.566012106886     3050.556323884966     3024.160568840292    2813.7745399507407    2777.7899521689337     3005.312731926029     2826.863513964753     3159.533716557429     3000.694209820423    2886.2211007065794    2455.6738380632023    2973.2782364798636     2845.965198902567     2848.118000522899    2713.1703888385714     2955.645588426911     2694.971388166956     3173.365175355606    2520.0360769067556     3294.168719456515    2767.8915142789474     2701.734835149126     2699.285376741466     3173.993495013722      3127.91174295871    2734.2028163907366    2691.5725214517242     3090.415958470119    2946.3522168950212      2676.36463597887    2937.3003616420137     2922.064192584943      2761.70287828985     3063.892973139287     2991.278016744608    2715.0990306351537     3041.795278202679     2874.020539961073     2727.812836574057    2905.9346117175505     2915.964886776222    2785.1883343671975     2735.713488688937
          0.8*MaxFES =      2731.408139755258      2706.81644903237     3045.093670934552    2966.8058635602038     2772.430047641488    2581.1037117921537    2787.3533585157643    2679.9656877990274    2827.5660121057476     3050.556323884937     3024.160568838746     2813.774539950269     2777.789952167024     3005.312731924861    2826.8635139641824     3159.533716556301     3000.694209819343     2886.221100705871     2455.673838061554    2973.2782364766313     2845.965198900366    2848.1180005216424     2713.170388838306    2955.6455884261736      2694.97138816449     3173.365175351615     2520.036076906262     3294.168719455984    2767.8915142773626    2701.7348351478736     2699.285376740168      3173.99349501336     3127.911742956204    2734.2028163868354     2691.572521450457     3090.415958469711     2946.352216894582     2676.364635978287      2937.30036164045     2922.064192584702    2761.7028782889984      3063.89297313899    2991.2780167433893     2715.099030634518       3041.7952782007     2874.020539960635    2727.8128365722505     2905.934611716752     2915.964886774751     2785.188334366999    2735.7134886872814
          0.9*MaxFES =     2731.4081397549307    2706.8164490321105     3045.093670933153    2966.8058635595203     2772.430047640744    2581.1037117916194    2787.3533585152536    2679.9656877976263     2827.566012104817     3050.556323884686    3024.1605688377995     2813.774539949852    2777.7899521660875     3005.312731921158     2826.863513963088     3159.533716555662     3000.694209817925    2886.2211007054293     2455.673838060559    2973.2782364758154    2845.9651988985033     2848.118000521073    2713.1703888380875    2955.6455884256643    2694.9713881637676     3173.365175350547     2520.036076905727     3294.168719455096     2767.891514276601    2701.7348351468772     2699.285376740109     3173.993495013095     3127.911742954667    2734.2028163853847     2691.572521449003     3090.415958468657     2946.352216894425     2676.364635978031    2937.3003616397114    2922.0641925840937     2761.702878288799     3063.892973137497     2991.278016741737       2715.0990306333     3041.795278199184    2874.0205399599176     2727.812836571931    2905.9346117162354     2915.964886773856     2785.188334366999     2735.713488685437
              MaxFES =     2731.4081397541477    2706.8164490316617     3045.093670932829     2966.805863559055    2772.4300476405488    2581.1037117906258     2787.353358515216    2679.9656877975344     2827.566012104243     3050.556323884387     3024.160568837062     2813.774539949764     2777.789952166007     3005.312731919743    2826.8635139622183     3159.533716555437     3000.694209817637    2886.2211007048386     2455.673838059319     2973.278236475613    2845.9651988973983    2848.1180005205833     2713.170388837472     2955.645588425492    2694.9713881637676     3173.365175350102     2520.036076905299     3294.168719454823     2767.891514275534    2701.7348351466912    2699.2853767397983     3173.993495012613     3127.911742953721     2734.202816384568    2691.5725214481695      3090.41595846862    2946.3522168939835    2676.3646359769386    2937.3003616383753        2922.064192584     2761.702878288548     3063.892973136598     2991.278016740299    2715.0990306319372     3041.795278198963    2874.0205399598394     2727.812836571505     2905.934611716227      2915.96488677178     2785.188334366928     2735.713488684458

                  Best                 Worst                Median                  Mean                   Std
     2455.673838059319     3294.168719454823    2845.9651988973983     2864.810485345154     176.8244426635714

