2.778281226000120E+09 2.404590604671893E+09 3.939230444705855E+09 2.919522280865540E+09 2.703939982049279E+09 2.412761569534706E+09 2.118239109508457E+09 2.569426397026367E+09 1.841663047080418E+09 2.153824455604725E+09 2.978238731428554E+09 2.158227762860438E+09 2.993895167471451E+09 3.443724735126450E+09 3.024223162832786E+09 2.794072422342416E+09 2.354189800738258E+09 3.501122320903982E+09 1.864445660050143E+09 2.866961920459891E+09 2.585693527598628E+09 4.139945820785612E+09 1.794000058952357E+09 3.436326889328098E+09 1.670984564795001E+09 1.487695060718770E+09 3.019970135466027E+09 3.702936352035828E+09 3.890391517660704E+09 2.508081638922185E+09 3.786105196816611E+09 1.683813625711585E+09 4.340326437608473E+09 2.748110184618399E+09 3.807533705328928E+09 2.137515203240806E+09 2.165911729121025E+09 2.767103675664251E+09 2.915507212416405E+09 2.994395158664757E+09 3.099384733759930E+09 1.683395665932251E+09 2.747309932027745E+09 3.012689949765223E+09 3.419882031625932E+09 3.183678611135090E+09 2.315456115047187E+09 2.390452117303752E+09 3.411533914875061E+09 3.525295185509923E+09 3.335379126265644E+09 
2.494663839426698E+09 1.909624524880406E+09 3.239173430953739E+09 2.349752437767294E+09 2.220675403273091E+09 2.412761569534706E+09 1.565877556122717E+09 2.569426397026367E+09 1.841663047080418E+09 2.153824455604725E+09 2.898242306177123E+09 2.158227762860438E+09 2.594614975809812E+09 3.270397860099778E+09 2.747543243035820E+09 1.993608253336108E+09 2.354189800738258E+09 2.241248159825233E+09 1.864445660050143E+09 2.336697061458939E+09 2.229630760376687E+09 2.488670181687556E+09 1.794000058952357E+09 3.101695596165786E+09 1.670984564795001E+09 1.487695060718770E+09 2.481374327978309E+09 2.771080745724622E+09 2.098847518629004E+09 1.787781684331199E+09 2.626588663854098E+09 1.683813625711585E+09 3.114775865406645E+09 2.614997784559768E+09 2.204200352159978E+09 2.137515203240806E+09 1.828496725796574E+09 2.767103675664251E+09 1.374883356224694E+09 2.148623603187332E+09 2.307873735819009E+09 1.683395665932251E+09 1.936221877139225E+09 2.835653233146850E+09 2.855994066477295E+09 2.731415214489895E+09 2.315456115047187E+09 2.390452117303752E+09 3.156768171731021E+09 1.436445524444307E+09 3.335379126265644E+09 
8.373361082905121E+08 3.875687964761319E+08 7.643346801030880E+08 6.464226004494039E+08 5.707123450111870E+08 5.771779760073370E+08 4.251227622213697E+08 8.751829326697989E+08 3.499340136438249E+08 4.954860629082643E+08 6.079768217622829E+08 6.579819927602922E+08 5.934457349599663E+08 5.224477785705073E+08 6.747075847745265E+08 5.319841430169264E+08 8.160653232107896E+08 5.456096814326228E+08 7.439746020102900E+08 7.327236284131998E+08 6.233546419033799E+08 2.471127594569353E+08 7.128999027894586E+08 6.822970186346220E+08 6.666266789355677E+08 5.876252657158729E+08 5.164157061768944E+08 8.541849680729902E+08 8.537075887984467E+08 6.888881140555185E+08 7.133264021161603E+08 8.766882021545268E+08 5.158428908906412E+08 7.897873370328465E+08 5.874960251015724E+08 4.310065733280429E+08 3.375900156402785E+08 6.982477413167384E+08 5.223817373385219E+08 6.856594919006594E+08 7.833216097977470E+08 8.047330401495743E+08 8.257988823114262E+08 7.233735149592751E+08 5.429387630252166E+08 6.795821643567654E+08 6.423171649621334E+08 7.768674220295119E+08 3.951045552173352E+08 7.870628240150929E+08 5.637826878435338E+08 
4.880935287232818E+08 3.867022630322309E+08 2.804580869890567E+08 4.249135709144996E+08 4.091539142166488E+08 4.082883343201813E+08 3.085330032088679E+08 4.213153321202264E+08 3.499340136438249E+08 3.946787416204675E+08 4.812561348097389E+08 5.013426791112072E+08 4.190911406030368E+08 4.157211304461323E+08 3.944893124278740E+08 3.971626179041236E+08 4.290956957986591E+08 3.677400534083626E+08 3.490235786706855E+08 3.000713545738912E+08 3.805405910597195E+08 2.471127594569353E+08 2.996196528386093E+08 5.759115540403972E+08 3.845618585626904E+08 3.903520231273503E+08 2.965427097071524E+08 4.784996651175677E+08 3.612422993308958E+08 4.600756169250451E+08 1.437403991613520E+08 4.097915263580593E+08 2.702352091320729E+08 4.172469976433685E+08 5.874960251015724E+08 2.918551760055298E+08 3.375900156402785E+08 3.629882231444189E+08 3.696513762347723E+08 2.830564855500619E+08 2.339579807254605E+08 5.306416999096673E+08 3.865871619000853E+08 4.300616616843527E+08 5.429387630252166E+08 5.136537101269226E+08 3.991997638371112E+08 4.075873489664723E+08 3.951045552173352E+08 4.488695880704808E+08 4.956278405516765E+08 
4.443245171210945E+08 2.915808030473860E+08 2.804580869890567E+08 3.401791982670102E+08 2.743385810510024E+08 3.124284804190546E+08 2.368912682876462E+08 3.317994718638322E+08 2.592993942296604E+08 2.723462298381279E+08 2.251517020830790E+08 2.774204966906009E+08 3.221597090848111E+08 3.732856572050634E+08 2.677664796820040E+08 3.912864764447142E+08 3.777823581176200E+08 3.269426282270296E+08 3.012411632809641E+08 3.000713545738912E+08 3.351484273544704E+08 2.471127594569353E+08 2.577522198074596E+08 2.431314369107086E+08 3.125818300065934E+08 3.903520231273503E+08 2.965427097071524E+08 3.221001474790533E+08 3.445835710949872E+08 2.943197044590983E+08 1.437403991613520E+08 3.615140058759930E+08 2.702352091320729E+08 2.084188318003748E+08 3.551378582227609E+08 2.918551760055298E+08 2.443183701998307E+08 2.714871017126789E+08 2.931508881155173E+08 2.830564855500619E+08 2.339579807254605E+08 2.332034884072129E+08 3.677642942316632E+08 3.151754170786616E+08 3.846495036414849E+08 2.778877958050903E+08 3.007772279708049E+08 2.681158383731308E+08 2.984330336042266E+08 3.535021502095219E+08 3.479043739569945E+08 
3.754998061344889E+08 1.810757279223494E+08 2.622411960139250E+08 3.401791982670102E+08 2.743385810510024E+08 2.772054069429692E+08 1.997991200640252E+08 3.317994718638322E+08 2.592993942296604E+08 1.899106189078315E+08 2.251517020830790E+08 2.774204966906009E+08 1.341268144781090E+08 2.819398447657114E+08 2.677664796820040E+08 3.742063693446015E+08 3.721010510894145E+08 2.571442684659764E+08 3.012411632809641E+08 3.000713545738912E+08 2.502334969614196E+08 2.265171355865193E+08 1.807648268887264E+08 2.431314369107086E+08 2.936122397264451E+08 2.328461496911710E+08 2.874005061181207E+08 1.869056172355105E+08 3.397069516174000E+08 2.863086284074091E+08 1.437403991613520E+08 2.550873161347719E+08 2.702352091320729E+08 1.308154713088657E+08 3.025515225066542E+08 2.525948112838495E+08 2.443183701998307E+08 1.454433193065411E+08 2.931508881155173E+08 2.599611446125418E+08 2.339579807254605E+08 2.332034884072129E+08 2.748360875874687E+08 2.707658753326134E+08 2.046261255205639E+08 2.079240051548266E+08 3.007772279708049E+08 1.501587832860627E+08 2.984330336042266E+08 3.207403674775323E+08 3.260553398182754E+08 
2.230425397755480E+08 1.810757279223494E+08 2.622411960139250E+08 2.411235957904062E+08 2.510849575894457E+08 2.754629259862134E+08 1.692301109686902E+08 2.515971927296705E+08 1.862298222494195E+08 1.899106189078315E+08 2.251517020830790E+08 1.946697248681275E+08 1.341268144781090E+08 1.649435046319583E+08 2.421380293615659E+08 1.936233655604424E+08 2.750684051786004E+08 2.460760357664520E+08 3.012411632809641E+08 2.234141574445741E+08 2.110160365849371E+08 1.848254465276846E+08 1.628290443190184E+08 2.431314369107086E+08 2.889579157805728E+08 2.328461496911710E+08 2.874005061181207E+08 1.869056172355105E+08 2.556818515700419E+08 1.645998587123191E+08 1.437403991613520E+08 2.550873161347719E+08 2.702352091320729E+08 1.308154713088657E+08 2.908265518106355E+08 2.525948112838495E+08 2.064532534725335E+08 1.454433193065411E+08 1.685285497379395E+08 2.599411904296987E+08 2.339579807254605E+08 2.332034884072129E+08 2.451764539490185E+08 2.707658753326134E+08 2.046261255205639E+08 2.079240051548266E+08 1.990393601897268E+08 1.501587832860627E+08 1.816858473257734E+08 2.606241307910533E+08 3.260553398182754E+08 
1.307466391433477E+08 1.080697001833695E+08 1.779761302518089E+08 7.855541587201154E+07 1.273282616552797E+08 8.797174185480866E+07 1.193207956067942E+08 1.402757073769410E+08 1.069736021535429E+08 9.353426330865303E+07 9.000287682877849E+07 1.316889985400674E+08 1.341268144781090E+08 1.106893627977415E+08 1.461185941128966E+08 1.316089349906821E+08 1.282427681417487E+08 1.334293599163090E+08 1.533710744788155E+08 1.523820483468666E+08 1.023323796526168E+08 1.405344696223764E+08 1.379294624602884E+08 1.281926137040073E+08 1.454396129851654E+08 9.971745783256260E+07 8.647838467093979E+07 9.042621575067847E+07 1.220771246725500E+08 1.361129772270210E+08 1.160908360335478E+08 9.282576428649578E+07 1.212219055529839E+08 1.006870083519398E+08 1.034524634603781E+08 1.148795826990236E+08 1.093038769221028E+08 7.388021742834590E+07 1.049341666183740E+08 1.251387721865608E+08 1.144079332152036E+08 1.551983942873095E+08 1.391667959189248E+08 1.225658380535978E+08 1.335212766300505E+08 6.944543215927203E+07 1.816014471813992E+08 1.045699723693469E+08 1.446224482529742E+08 1.436508303695901E+08 1.484288316838236E+08 
4.094875110778616E+07 2.056487773840495E+07 4.019149313276076E+07 4.368077667532525E+07 4.539085232179432E+07 2.916392370991594E+07 2.107747700247671E+07 3.621081592571712E+07 3.728416873590361E+07 2.360755277810537E+07 2.294149954884757E+07 3.850126284953214E+07 3.654383354978814E+07 2.780841026128591E+07 4.452829544537912E+07 2.940508409571645E+07 1.143007394886045E+07 3.099538675460145E+07 4.250435732303172E+07 3.305418220647466E+07 2.303545768597122E+07 4.127988817039671E+07 1.476602258453827E+07 2.633594390791119E+07 2.150619576849268E+07 1.791382416716291E+07 2.978194026497093E+07 3.112458805788354E+07 3.092142389636910E+07 3.081148950061864E+07 3.291908629795357E+07 3.370520779047543E+07 3.755541461452297E+07 3.651606221629823E+07 3.684992860133443E+07 3.573618485495713E+07 3.172933638033535E+07 4.078343721991406E+07 2.959380878420623E+07 3.408908893114384E+07 2.718590361879110E+07 3.062103651635429E+07 2.503989201346144E+07 3.533941023561521E+07 2.356356301214489E+07 3.851406491314662E+07 3.293356136631285E+07 2.733968376872221E+07 2.688044592032509E+07 3.281510476022120E+07 3.608752623359648E+07 
3.395616376753308E+06 3.297493354738570E+06 1.871897084548781E+06 4.734123457320093E+06 4.083108881699848E+06 3.093550960338379E+06 1.171735251134364E+06 3.838985952697359E+06 3.963074128702124E+06 1.335820856829283E+06 2.297345566158308E+06 3.474770878913768E+06 3.368544669120533E+06 1.651532585222694E+06 4.719983759196250E+06 3.191395170053989E+06 8.983529212483667E+05 3.152208753040754E+06 2.997047439316052E+06 2.344203257785564E+06 2.818665999358774E+06 3.542581745913086E+06 1.385386074490114E+06 4.219515303111187E+06 2.733503984796445E+06 2.621186476333798E+06 2.061666732367686E+06 2.692912679259372E+06 2.637858613109568E+06 3.674754418728592E+06 3.419249902750112E+06 2.552227002301200E+06 2.778326745588507E+06 4.229419749878367E+06 3.800708715318431E+06 4.616913497396849E+06 2.106806061593343E+06 2.057188286174174E+06 1.979714760743658E+06 3.986281598154272E+06 2.613610546354302E+06 2.172828945473997E+06 2.104046006872618E+06 2.098402425692689E+06 4.253977760025402E+06 3.853256881169326E+06 3.434494959697667E+06 2.342493356007843E+06 4.175772456196139E+06 5.248293308968212E+06 3.815730581761547E+06 
1.220010242952597E+05 1.195640482393721E+05 1.136655769901093E+05 2.612527112254604E+05 2.717262095870164E+05 1.539778301822741E+05 5.047380059037381E+04 2.259855281177608E+05 1.385117883208691E+05 4.580517781490822E+04 6.987370861064397E+04 1.562037165025601E+05 2.669694781245195E+05 1.382208107028430E+05 3.913014541563256E+05 1.129340640607584E+05 3.125920572715023E+04 1.736405073749680E+05 1.905356394753689E+05 1.292387003920551E+05 1.750783656469899E+05 2.082987166959344E+05 4.249981340074103E+04 2.455707089327546E+05 8.004481202742220E+04 8.980826902051136E+04 6.431749941268901E+04 1.352344109128045E+05 1.302306087117688E+05 1.360874722396318E+05 1.604449037277369E+05 1.013084106093124E+05 7.944531831049922E+04 2.441049499402834E+05 9.465897211499706E+04 3.508190661425193E+05 7.646452458831003E+04 8.224617935037073E+04 9.920441259734386E+04 1.725753431027633E+05 1.826798621855770E+05 6.548254884031850E+04 5.333657852946459E+04 1.138082845309614E+05 2.510287396953609E+05 2.354663976374224E+05 1.775307661357638E+05 8.728871986612333E+04 1.993979631615413E+05 3.325914065093137E+05 2.530573569755117E+05 
1.108217985917619E+04 1.237617316852262E+04 1.210200167535311E+04 1.402142880405728E+04 1.504796208593451E+04 1.361271640840203E+04 8.175224542801534E+03 1.454175623334948E+04 1.191179624066965E+04 8.760650187306768E+03 1.011816712944693E+04 1.197434888016813E+04 1.869922694709376E+04 1.346604399582293E+04 2.233717516288231E+04 1.148384043571151E+04 9.136275540536537E+03 1.387622905008511E+04 1.395728899887243E+04 1.161553116363127E+04 1.191939944085978E+04 1.294115351724729E+04 9.646598711217668E+03 1.468674082356401E+04 1.022860079190580E+04 1.146152530851084E+04 1.113917485873050E+04 1.277613426996285E+04 1.099547991082196E+04 1.221221366329136E+04 1.260670277070672E+04 1.112413296269788E+04 1.138010318990384E+04 1.550339601898521E+04 1.178131125873811E+04 1.412047215234088E+04 9.820275228271885E+03 1.075681223877318E+04 1.056176046088071E+04 1.342001002532058E+04 1.282901009673158E+04 9.558535043032358E+03 9.367095483124635E+03 1.336562233922332E+04 1.367895281125723E+04 1.543824533836509E+04 1.221209720982793E+04 1.002116024811117E+04 1.559310104640577E+04 1.710738268211029E+04 1.707383473080646E+04 
7.572080959767174E+03 7.748616237322469E+03 7.540659792460818E+03 7.642985557031047E+03 7.239689158745934E+03 7.995468149970959E+03 6.324932197596842E+03 7.093284263547052E+03 8.401147628549841E+03 6.190310390379970E+03 6.238419102012378E+03 7.319080298574601E+03 8.534123182651987E+03 6.722512114907126E+03 8.742888536738064E+03 7.278800992743507E+03 6.753781182552639E+03 7.944585389847078E+03 7.828878316944296E+03 7.106094159618155E+03 7.868407211782485E+03 7.657225380994089E+03 6.149692305512155E+03 7.792236763486799E+03 7.546522449066719E+03 7.896193579009283E+03 8.563412403780245E+03 7.741824799624825E+03 6.838093245782460E+03 8.405487614112906E+03 7.284077550440708E+03 7.321021817356832E+03 7.821615955708596E+03 8.018845178869364E+03 7.164559339506026E+03 7.898457861928615E+03 7.894345410541864E+03 7.718453386484987E+03 7.132637113506537E+03 8.321517310830977E+03 7.835845824345579E+03 6.935330812312492E+03 6.454828463869937E+03 7.994204694223565E+03 8.217360981504957E+03 8.610928719180600E+03 6.536923519725538E+03 5.961502888011799E+03 7.841411567175008E+03 7.494775293268391E+03 8.432189769321529E+03 
4.234923254514589E+03 4.344344019372893E+03 4.306908234811499E+03 4.850459348730727E+03 6.118343717494464E+03 5.310470306837045E+03 3.264705432675509E+03 3.485437095255300E+03 4.177612939305916E+03 2.709833422439393E+03 2.596366748928957E+03 3.097713050003471E+03 4.503875050831108E+03 3.079436926121643E+03 5.940529837134860E+03 3.247990904096348E+03 2.944308803255166E+03 4.282285458075009E+03 5.097930812326145E+03 3.368034553266806E+03 3.389819621409692E+03 3.986239660842584E+03 3.280543592693805E+03 4.085203680685568E+03 4.847791933067287E+03 5.248387812895965E+03 6.544586878381479E+03 3.742851140642701E+03 3.056224403072204E+03 4.849203206991152E+03 4.652746366331501E+03 3.656739243092569E+03 4.174031356959572E+03 4.463941937862624E+03 4.177620067866544E+03 3.942464473502190E+03 4.006380017936573E+03 4.930989817071342E+03 2.695430482345064E+03 4.666282915236704E+03 4.689054582364126E+03 3.012711794066702E+03 2.768741666965075E+03 4.676415900313259E+03 3.585122040521357E+03 5.908409646294920E+03 3.425796178322789E+03 2.166885699297610E+03 4.143251819020383E+03 3.648693057277561E+03 3.925746998724604E+03 
2.388677102975542E+03 2.434113439772432E+03 2.252689787452950E+03 2.203120866841499E+03 2.492376010723509E+03 2.271496030148956E+03 2.138689211716257E+03 1.833129503416700E+03 2.531039738795590E+03 1.752654288399192E+03 1.730466509352395E+03 2.129007288413718E+03 2.424313715186617E+03 1.956783487403129E+03 3.084417082931514E+03 2.323382772829080E+03 2.280774005646947E+03 2.168686222736606E+03 2.235695046912421E+03 1.969326378502709E+03 1.993055547100857E+03 2.513965684807347E+03 1.945638998756675E+03 2.182801484169806E+03 2.470736516414028E+03 2.424354278672727E+03 2.812392002777037E+03 2.027904994283696E+03 1.954328643357580E+03 2.486756889047630E+03 2.295879496011068E+03 1.998165974501548E+03 2.401666734884056E+03 2.570006329634232E+03 2.193041384105239E+03 2.402735076473769E+03 2.852099467117407E+03 3.005914468185807E+03 1.877317010015369E+03 2.239271218010036E+03 1.938488687167966E+03 2.092417958074027E+03 1.720330769222347E+03 2.779842872704161E+03 1.841939642110674E+03 3.060655598965446E+03 2.074367392349081E+03 1.760584770276379E+03 2.125089546935129E+03 2.100362853160714E+03 2.688079286666082E+03 
2.129791591725229E+03 2.040901624215745E+03 2.022922895593432E+03 1.968263743477325E+03 2.020821545175252E+03 1.985502021719628E+03 1.921446119557655E+03 1.691653308327013E+03 2.280085090845474E+03 1.684817353694650E+03 1.636380840887437E+03 2.004030529203529E+03 2.242980693709209E+03 1.825257839222085E+03 2.590890221924232E+03 2.243123757909072E+03 2.246579120860029E+03 1.983885249603002E+03 1.825555297980861E+03 1.740809142889070E+03 1.701668154415833E+03 2.166027612716574E+03 1.729390517351973E+03 2.003146916648449E+03 1.920018294123542E+03 2.116501780873402E+03 2.451005316796356E+03 1.865156681430460E+03 1.911567958919071E+03 2.312118901048224E+03 1.853032791080072E+03 1.854198652730203E+03 2.175338084739567E+03 2.226296322129249E+03 1.835041484797971E+03 2.204093104582701E+03 2.591789032861302E+03 2.742688956981868E+03 1.731627741510095E+03 2.051374200087621E+03 1.668346656345114E+03 1.999199510676658E+03 1.601149738595083E+03 2.575058648499957E+03 1.684888045379728E+03 2.667444777156706E+03 1.951414758511532E+03 1.709379677760800E+03 1.899055375074226E+03 1.968577235953565E+03 2.610939573738714E+03 
2.106943988730801E+03 1.933254552335836E+03 1.987372073534919E+03 1.895119779535183E+03 1.879912447671149E+03 1.934535800412638E+03 1.903712897752026E+03 1.676098065220290E+03 2.217947510085015E+03 1.680137345107725E+03 1.623673614316582E+03 1.997707350000626E+03 2.220894406075146E+03 1.809665938295986E+03 2.482868406964162E+03 2.212540720890836E+03 2.242903179963644E+03 1.926572530394821E+03 1.777701208087118E+03 1.684212524780061E+03 1.668856015915382E+03 2.107522471705773E+03 1.706970941082879E+03 1.986935483026648E+03 1.816487392110033E+03 2.099095903256627E+03 2.363161071335618E+03 1.826646608193298E+03 1.878669910113761E+03 2.295671283583354E+03 1.797394509647414E+03 1.836235925584808E+03 2.139541639942278E+03 2.179002197022463E+03 1.785374926964358E+03 2.187316922189036E+03 2.572961084930435E+03 2.641497668162779E+03 1.714183329072343E+03 2.010278944687936E+03 1.633067791598565E+03 1.980268644505662E+03 1.593117853923985E+03 2.512307107474349E+03 1.672336913280123E+03 2.593228154975250E+03 1.928128672212534E+03 1.705524586280531E+03 1.883497313319719E+03 1.935184550927138E+03 2.599334526678592E+03 

