2.761716604544642E+03 2.058396167431687E+03 2.096397183918628E+03 2.629766152573980E+03 2.655491146777106E+03 1.760899005776187E+03 2.317461223127168E+03 2.803756289907250E+03 2.394756423627466E+03 2.117706523472275E+03 2.240258539684769E+03 2.504057881139650E+03 2.496257132489859E+03 2.632967536196663E+03 2.494792035217999E+03 2.307117093465934E+03 2.298482691165370E+03 1.930790838435930E+03 2.439760749544334E+03 2.562322098541816E+03 2.925347568303052E+03 2.457690079493784E+03 2.655374453246110E+03 2.787708851879137E+03 2.472856355804147E+03 2.440783463054944E+03 2.264087349665363E+03 2.487233823360537E+03 2.581286259057523E+03 2.394933912064101E+03 2.618781143511444E+03 2.370054791697940E+03 2.574590528708291E+03 2.462962550617093E+03 2.230221558560897E+03 2.551954810494743E+03 2.760637747342420E+03 2.793317548831265E+03 2.763865012079743E+03 2.734904261315954E+03 2.634042811484523E+03 3.015438378281807E+03 2.650699395649419E+03 2.884984128587378E+03 2.552571220101398E+03 2.412043781267590E+03 2.486445147549151E+03 2.456096217060451E+03 2.784450757439990E+03 2.246714792331980E+03 2.342116717147358E+03 
2.761716604544642E+03 2.058396167431687E+03 2.096397183918628E+03 2.629766152573980E+03 2.655491146777106E+03 1.760899005776187E+03 2.317461223127168E+03 2.803756289907250E+03 2.394756423627466E+03 2.117706523472275E+03 2.240258539684769E+03 2.504057881139650E+03 2.496257132489859E+03 2.632967536196663E+03 2.494792035217999E+03 2.307117093465934E+03 2.298482691165370E+03 1.930790838435930E+03 2.439760749544334E+03 2.562322098541816E+03 2.925347568303052E+03 2.457690079493784E+03 2.655374453246110E+03 2.787708851879137E+03 2.472856355804147E+03 2.440783463054944E+03 2.264087349665363E+03 2.487233823360537E+03 2.581286259057523E+03 2.394933912064101E+03 2.618781143511444E+03 2.370054791697940E+03 2.574590528708291E+03 2.462962550617093E+03 2.230221558560897E+03 2.551954810494743E+03 2.760637747342420E+03 2.793317548831265E+03 2.763865012079743E+03 2.734904261315954E+03 2.634042811484523E+03 3.015438378281807E+03 2.650699395649419E+03 2.884984128587378E+03 2.552571220101398E+03 2.412043781267590E+03 2.486445147549151E+03 2.456096217060451E+03 2.784450757439990E+03 2.246714792331980E+03 2.342116717147358E+03 
1.889534603939258E+03 1.933949812197364E+03 1.288605698804246E+03 1.634941210961129E+03 2.467570309812719E+03 1.653745978245710E+03 2.213208328722167E+03 2.027641606979019E+03 2.107176262186097E+03 1.802431576409647E+03 2.084173985791652E+03 2.115992037986255E+03 1.946495817022536E+03 2.112864344628064E+03 1.797296032028835E+03 1.910946935862398E+03 1.961154352325524E+03 1.385336498506467E+03 2.215380589611954E+03 1.970354237824740E+03 1.713595915141737E+03 1.997139759719956E+03 1.804345281005943E+03 1.713059321212997E+03 2.209366574855476E+03 1.964293464173928E+03 2.169714993579180E+03 1.926578767467379E+03 2.184556804564938E+03 1.997821844375029E+03 2.129732651645606E+03 1.716184908853793E+03 1.933509149973625E+03 2.167696422356143E+03 1.981584756316775E+03 2.209577965563400E+03 2.083302321337261E+03 2.102813105865037E+03 2.175438024979050E+03 1.865414337322214E+03 1.921569744227965E+03 2.031083823374622E+03 1.788619563068739E+03 2.081525129624092E+03 2.022929158478279E+03 1.560164066678674E+03 2.125652800306959E+03 2.013402275730909E+03 1.205557394826281E+03 1.852136877133885E+03 1.679963730973242E+03 
1.889534603939258E+03 1.553994508067395E+03 1.288466631420933E+03 1.503496938635292E+03 1.708196406869517E+03 1.653745978245710E+03 1.856575759972085E+03 1.693969608201225E+03 1.515056092439225E+03 1.562408691877042E+03 1.995006916890864E+03 2.115992037986255E+03 1.773176790538797E+03 1.773753981549729E+03 1.672737850012590E+03 1.910946935862398E+03 1.531004902617482E+03 1.385336498506467E+03 1.918898130324318E+03 1.726752080268303E+03 1.713595915141737E+03 1.876921493726867E+03 1.426751207615092E+03 1.390532712600471E+03 1.289983802450001E+03 1.582208472545151E+03 1.930448413930751E+03 1.686914082646318E+03 1.747424856732087E+03 1.870523595720933E+03 1.458649729271382E+03 1.517748761281311E+03 1.772175660578032E+03 1.543020441501919E+03 1.877012573749008E+03 1.448527429306598E+03 1.987845486153655E+03 1.968481655647417E+03 1.579575372002408E+03 1.805385595550150E+03 1.708292017809719E+03 1.796300113116224E+03 1.773637695083133E+03 1.738840742912354E+03 1.842911506738929E+03 1.560164066678674E+03 1.624395075690386E+03 2.013387925247936E+03 1.205557394826281E+03 1.852136877133885E+03 1.574660197733265E+03 
1.889534603939258E+03 1.553994508067395E+03 1.288466631420933E+03 1.503496938635292E+03 1.708196406869517E+03 1.373719367711736E+03 1.752230485652262E+03 1.633254779231319E+03 1.064941537278926E+03 1.540158451348795E+03 1.327242042848439E+03 1.687761391660989E+03 1.773176790538797E+03 1.747536891644012E+03 1.633787582972714E+03 1.898469671159522E+03 1.510233911836317E+03 1.385336498506467E+03 1.550149563200154E+03 1.686843131405976E+03 1.663556735577556E+03 1.711404723619342E+03 1.426751207615092E+03 1.390532712600471E+03 1.289983802450001E+03 1.582208472545151E+03 1.930448413930751E+03 1.356257468267672E+03 1.747424856732087E+03 1.787876364772362E+03 1.458649729271382E+03 1.517748761281311E+03 1.765755893408931E+03 1.543020441501919E+03 1.541683577140890E+03 1.448527429306598E+03 1.926038253981717E+03 1.803175288658685E+03 1.579575372002408E+03 1.691621820779164E+03 1.700370414195478E+03 1.774685258716888E+03 1.738646753206680E+03 1.642977439129426E+03 1.587562085344460E+03 1.560164066678674E+03 1.624395075690386E+03 1.782311129678144E+03 1.205557394826281E+03 1.852136877133885E+03 1.574660197733265E+03 
1.677600106089185E+03 1.553994508067395E+03 1.288466631420933E+03 1.491560092136771E+03 1.406883192685972E+03 1.373719367711736E+03 1.392588930785824E+03 1.633254779231319E+03 1.064941537278926E+03 1.540158451348795E+03 1.327242042848439E+03 1.687761391660989E+03 1.773176790538797E+03 1.381300308852371E+03 1.557858008724139E+03 1.832100274929266E+03 1.503228434718516E+03 1.385336498506467E+03 1.550149563200154E+03 1.346768884651924E+03 1.509621825118950E+03 1.711404723619342E+03 1.309171921977608E+03 1.390532712600471E+03 1.256296059170055E+03 1.582208472545151E+03 1.750504425961621E+03 1.356257468267672E+03 1.747424856732087E+03 1.507373909575343E+03 1.397577580241461E+03 1.517748761281311E+03 1.244218081741830E+03 1.543020441501919E+03 1.541683577140890E+03 1.448527429306598E+03 1.659149598635676E+03 1.701531302572569E+03 1.428102778235966E+03 1.372626497165956E+03 1.700370414195478E+03 1.630355222666243E+03 1.738646753206680E+03 1.642977439129426E+03 1.587562085344460E+03 1.555092250603903E+03 1.624395075690386E+03 1.469484209481495E+03 1.205557394826281E+03 1.262125729648752E+03 1.167834856232249E+03 
1.654008882445998E+03 1.110006113660283E+03 1.288466631420933E+03 1.491560092136771E+03 1.406883192685972E+03 1.373719367711736E+03 1.331319013721159E+03 1.428609529540803E+03 1.064941537278926E+03 1.540158451348795E+03 1.327242042848439E+03 1.557821120186295E+03 1.327447500786582E+03 1.381300308852371E+03 1.557858008724139E+03 1.741105538477778E+03 1.503228434718516E+03 1.303716565448241E+03 1.392151735312607E+03 1.337224634485374E+03 1.509621825118950E+03 1.567134654024259E+03 1.309171921977608E+03 1.390532712600471E+03 9.009896345635571E+02 1.582208472545151E+03 1.731018076424269E+03 1.356257468267672E+03 1.695180397538573E+03 1.507373909575343E+03 1.397577580241461E+03 1.408499160897106E+03 1.244218081741830E+03 1.543020441501919E+03 1.541683577140890E+03 1.210906017494991E+03 1.659149598635676E+03 1.531273845333070E+03 1.230483539165358E+03 1.372626497165956E+03 1.700370414195478E+03 1.630355222666243E+03 1.176188026137988E+03 1.642977439129426E+03 1.587562085344460E+03 1.555092250603903E+03 1.624395075690386E+03 1.469484209481495E+03 1.205557394826281E+03 1.262125729648752E+03 1.167834856232249E+03 
1.363055146282116E+03 9.392784330312325E+02 1.155137321357670E+03 1.325563605772806E+03 1.367881227937750E+03 1.174026809725236E+03 1.331319013721159E+03 1.428609529540803E+03 8.792775402833245E+02 1.359375992448183E+03 1.243256884435398E+03 1.294988774733179E+03 1.250057277307210E+03 1.183354503066479E+03 1.258347644817799E+03 1.023316932011353E+03 1.356695325288612E+03 1.275091050498162E+03 1.010652970874515E+03 1.220711354982501E+03 1.509621825118950E+03 1.021765086699633E+03 9.354058299183116E+02 1.333744402538900E+03 9.009896345635571E+02 1.346114847854845E+03 1.240927315680068E+03 1.356257468267672E+03 1.370255431884238E+03 1.505654252542088E+03 1.161837081234493E+03 1.339143231674665E+03 1.244218081741830E+03 1.203347995937006E+03 1.343385452586721E+03 1.051092231628615E+03 1.597679702557472E+03 1.266354906753762E+03 1.209380637447785E+03 1.169411686861668E+03 1.283300161072310E+03 1.295497440192129E+03 1.176188026137988E+03 1.195173552704106E+03 1.346334419138507E+03 1.017820681860851E+03 1.517236190842892E+03 1.289697284513878E+03 1.165540309407810E+03 1.262125729648752E+03 1.167834856232249E+03 
1.121766775420313E+03 9.009354931632588E+02 9.438359441758266E+02 1.086519313837768E+03 1.340593351005424E+03 1.061686791263214E+03 1.140853790879146E+03 9.800391312867541E+02 8.792775402833245E+02 1.187245375970361E+03 1.003756246376369E+03 1.172411609391257E+03 9.547842596089895E+02 9.478577115974008E+02 1.234126314655998E+03 9.435322753448713E+02 1.202628736352190E+03 9.278842350577102E+02 9.587039449338431E+02 9.509672879890572E+02 1.215121310026821E+03 1.021765086699633E+03 9.354058299183116E+02 1.118206614133927E+03 4.359562187249617E+02 1.088427511779638E+03 8.346804828875879E+02 1.005949794225116E+03 9.665726382405724E+02 8.442934587840000E+02 1.033420908204369E+03 5.708178630011494E+02 1.135812137426982E+03 1.167151109476931E+03 6.512171272390096E+02 9.713827216103764E+02 9.028481467772713E+02 8.296529394283025E+02 8.510570066642681E+02 1.104993372587594E+03 1.159415179478879E+03 1.084647020271196E+03 1.087350696577198E+03 8.487270627462194E+02 1.037497761070054E+03 1.017820681860851E+03 8.866377135923885E+02 8.019934095422150E+02 1.060010612209284E+03 9.562939407958638E+02 9.754845203262121E+02 
8.011810492097775E+02 5.415523948019950E+02 9.438359441758266E+02 7.442150544757960E+02 1.186249832198061E+03 8.407324367595979E+02 8.709478487687366E+02 9.742070546174978E+02 7.605630444669118E+02 1.003799328646865E+03 7.169683696326551E+02 8.873972987672555E+02 5.789553971040555E+02 7.737952286850050E+02 1.079262471389818E+03 7.975781785092950E+02 8.746484269292419E+02 7.139258299979560E+02 7.229972208219251E+02 7.205978484830366E+02 9.501020167840943E+02 8.842574527712077E+02 8.568758712476983E+02 9.127699551024366E+02 4.359562187249617E+02 1.041495618897241E+03 8.346804828875879E+02 7.442565021826226E+02 7.134114749555120E+02 8.442934587840000E+02 9.561108801302262E+02 5.708178630011494E+02 8.755261957098983E+02 1.030154973974123E+03 6.512171272390096E+02 6.943952997491674E+02 9.028481467772713E+02 8.090908778097946E+02 8.510570066642681E+02 7.799243038700192E+02 7.862218942949539E+02 9.315216585598782E+02 9.306893047472568E+02 5.970448846250251E+02 7.239339810829229E+02 9.680401269124468E+02 8.101735906470731E+02 7.720324120698460E+02 7.425328705007682E+02 9.151532061088228E+02 8.592251046150864E+02 
5.876662142907403E+02 5.002362491676608E+02 8.131971983559406E+02 6.043797822213301E+02 7.728164950777878E+02 5.873513509280706E+02 6.703951169506186E+02 7.341832412360354E+02 6.289680472642108E+02 7.911691868964676E+02 4.982387915666241E+02 7.869622075551019E+02 5.789553971040555E+02 7.708450850016179E+02 8.299717022708246E+02 7.144957912432410E+02 8.413290301767656E+02 4.865267708417687E+02 7.229972208219251E+02 6.161652718063228E+02 8.377385576369129E+02 7.892822583367179E+02 8.379371354673008E+02 7.556007802761469E+02 4.359562187249617E+02 9.703066968383537E+02 4.061189951894457E+02 4.706967521559809E+02 5.672588421845858E+02 8.442934587840000E+02 8.754348935699745E+02 4.459223376379377E+02 8.644670353433003E+02 5.564681814891069E+02 6.482867448493216E+02 5.635328282449777E+02 7.876329597734489E+02 7.479554973993031E+02 7.264738715704616E+02 7.799243038700192E+02 6.190658949842036E+02 9.082020258236230E+02 7.516602784723391E+02 5.534517549690145E+02 7.218999320652138E+02 5.985857473308120E+02 5.029961804869795E+02 6.139653782692658E+02 6.279731632394501E+02 4.007258660232074E+02 6.970383391604364E+02 
4.476254239975565E+02 4.228321790245627E+02 5.765135035253934E+02 3.728440142913642E+02 7.728164950777878E+02 5.324049502139392E+02 5.664540250360492E+02 6.589436491819811E+02 5.826883822291766E+02 3.662192960940388E+02 4.720172821655624E+02 7.566708774945050E+02 5.529986753756093E+02 7.364390916433522E+02 6.195273913053197E+02 6.935392317650890E+02 5.908196749188273E+02 3.488785245849772E+02 6.477731634599936E+02 3.157442689638074E+02 7.481909291465981E+02 6.964825419027757E+02 5.757964880121212E+02 7.556007802761469E+02 4.359562187249617E+02 6.852619551751154E+02 3.279706773834041E+02 4.556038004132993E+02 5.271585691938949E+02 5.823051568819433E+02 4.554264661958246E+02 4.215381989602415E+02 7.517561584594300E+02 4.303012570910555E+02 3.699229157599571E+02 5.433537521729036E+02 7.759712520790231E+02 6.733454052889279E+02 5.732503913393121E+02 6.346493006107676E+02 5.816912740737794E+02 6.246216854260088E+02 4.756067826910285E+02 4.266808014323797E+02 7.218999320652138E+02 5.664543002375026E+02 5.010163123975558E+02 4.870728084118177E+02 6.279731632394501E+02 3.340603512875782E+02 6.155184860405229E+02 
3.645371853955094E+02 4.011979638300854E+02 4.849627243661585E+02 2.232604129956262E+02 7.358741222928652E+02 5.023124783318713E+02 4.954411293351382E+02 4.264564374756824E+02 4.191041949838022E+02 3.662192960940388E+02 2.505692222309081E+02 5.694041554484174E+02 5.244769122713838E+02 5.225038346876936E+02 6.081530459044270E+02 5.048223869007529E+02 4.644224405859477E+02 3.488785245849772E+02 5.730389212449609E+02 2.756285632513982E+02 5.367174149342541E+02 6.242762939376426E+02 5.166992668549965E+02 5.824314883686238E+02 4.359562187249617E+02 4.206225817978998E+02 2.728728370491863E+02 3.520312319904315E+02 4.014288604965673E+02 2.612983586090418E+02 3.342809457729422E+02 3.872120960796724E+02 6.066188689419832E+02 4.028161025991294E+02 3.535767909751612E+02 3.690252381592959E+02 6.235713623880242E+02 5.910541223389191E+02 5.662642175319220E+02 3.271859247854709E+02 4.769494690996435E+02 4.901536704697473E+02 4.756067826910285E+02 2.497587009921858E+02 5.944286695609926E+02 3.933928950492445E+02 3.717501922731112E+02 4.113420466470188E+02 4.243728622240237E+02 3.340603512875782E+02 5.208046316663285E+02 
2.228931352798991E+02 1.457352493462449E+02 3.363161405247392E+02 2.023618373383997E+02 3.673131238674405E+02 1.803350096132376E+02 3.755785178070000E+02 2.898929112573323E+02 2.980295446927830E+02 3.662192960940388E+02 1.779739834677066E+02 4.441038188396219E+02 4.752629955512175E+02 4.608318549233622E+02 3.388746757543704E+02 4.704572100146474E+02 4.332102179651533E+02 3.401047936443956E+02 4.263736269972483E+02 2.547563452082059E+02 5.348213681468105E+02 3.007731463589266E+02 3.259605575234468E+02 5.503865891127284E+02 3.838582745201156E+02 2.200977965459983E+02 2.624850929207478E+02 3.411018077836125E+02 2.730477771216329E+02 2.496485094178161E+02 3.340089240131397E+02 3.655325991333152E+02 2.210542750909381E+02 2.609080762237891E+02 3.137884188546491E+02 3.354984281093848E+02 6.043530653275466E+02 4.128080111185250E+02 4.934342292687484E+02 2.993533734240295E+02 4.769494690996435E+02 4.184809124512735E+02 2.476965410400735E+02 1.751681795211725E+02 3.073625684064919E+02 2.301786199377839E+02 2.997659019161206E+02 4.096997423454186E+02 2.917649232499407E+02 2.454129588820410E+02 4.974491686300357E+02 
6.456986204140594E+01 1.450695684344464E+02 3.098820539951244E+02 1.831063047356693E+02 9.574608807690083E+01 1.750345044335822E+02 2.125057637059608E+02 2.648014303866803E+02 1.301455996580939E+02 3.662192960940388E+02 8.392788919654595E+01 3.179172880789192E+02 2.703195688081751E+02 5.963225479412267E+01 2.735550249394391E+02 2.691792490387365E+02 4.280082383223667E+02 2.197409622938490E+02 1.554636965032314E+02 1.737466327420652E+02 2.549071585505799E+02 2.394019067174040E+02 2.684555754181292E+02 2.341484711243220E+02 1.236865741266620E+02 2.056367662924104E+02 1.132239580349969E+02 9.297444561828070E+01 8.183524215443867E+01 1.688799688697877E+02 1.900178472208741E+02 1.988187178963303E+02 1.657489850176571E+02 1.982824302878917E+02 2.839768839183903E+02 2.609985948567542E+02 3.934261330268146E+02 2.448227197824135E+02 2.337406048889088E+02 6.565295982636417E+01 3.894952081301431E+02 1.360803486848422E+02 1.929218605983297E+02 8.764722137827448E+01 2.094952660098220E+02 2.153451509538227E+02 2.406025238313496E+02 3.113010190074692E+02 2.194324826016568E+02 1.916425700034843E+02 3.176122392003040E+02 
1.716053375072988E+01 6.077469210964591E+01 1.179069318153365E+02 7.380745363181995E+01 7.416878788500344E+01 9.608858048514776E+01 4.507177983485417E+01 9.894631007879025E+01 6.004643776437752E+01 2.248212640060924E+02 2.888068631643546E+01 1.942193875614657E+02 4.422080671368622E+01 4.147967411472018E+01 2.399919112863745E+02 2.305461623074698E+02 2.071772034971336E+02 3.179321721440101E+01 2.757954394762419E+01 1.468988211816595E+02 1.960682500111411E+02 1.005294666954183E+02 6.024107512172850E+01 2.075490925560584E+02 7.449790740793651E+01 5.759796265487148E+01 3.845126135033388E+01 1.964710177269899E+01 1.860076949378163E+01 1.322815024233478E+02 6.861006633125180E+01 1.557107579007370E+02 7.640725900190319E+01 1.042564809890519E+01 2.097485577618913E+02 6.738770883385587E+01 2.519468538661035E+02 1.237498536634230E+02 1.061919439871226E+02 7.533776632126319E+00 2.146000281346173E+02 1.272711091934980E+00 3.245380951565130E+01 5.983061190685476E+01 9.672362207671768E+01 1.600385649503205E+02 2.252690800860491E+02 9.018629466382117E+01 1.237684365999012E+02 9.899607304052552E+01 1.466840375841193E+02 
1.036979094883554E+01 1.859699211385305E+01 3.668115558288264E+00 1.734156125039408E+01 3.789687340241471E+00 2.121470918589512E+01 7.088185613853057E+00 2.999115966980480E+01 3.801957672868775E+01 1.454286505277555E+02 1.293776811382850E+01 3.936647229617847E+01 7.017285333285145E+00 3.825059567367134E+00 3.214812267752131E+01 1.256871969194613E+02 7.147090322198892E+00 2.688664772309676E+01 7.017284698505137E+00 1.856915270834270E+01 1.335475609174214E+02 7.340112749738637E+01 1.581306923702232E+01 1.434455658739080E+01 2.088081129379043E+01 1.359741706845216E+01 1.588247650241465E+01 1.524448586695326E+01 1.853453767256633E+01 9.070546904857110E+00 8.307081422502961E+00 1.540017946568150E+01 1.532228015096098E+01 1.036979094515300E+01 3.183458653915659E+01 4.407036227687058E+00 1.524448586967719E+01 8.527942773735049E+00 1.021177332236857E+01 7.017284698499680E+00 1.221667210671990E+02 3.122722051939491E-01 1.511960108796211E+01 2.166037191266787E+01 1.066234484880624E+01 2.194489601988425E+01 6.460034835499937E+01 1.310313938459785E+01 4.042950892571753E+00 1.177978411267213E+01 5.526059442471433E+01 

