1.174262260492412E+02 1.214254632150510E+02 1.140444808748350E+02 1.106306623430374E+02 9.689605422129012E+01 1.075568670029282E+02 1.140536625478942E+02 9.330094678456698E+01 1.311265840846381E+02 1.191175675498171E+02 1.166010877310824E+02 1.355187720240004E+02 1.145496900904553E+02 7.829710169433560E+01 1.162026546417138E+02 1.261044606603581E+02 1.008752637845179E+02 1.072799278413650E+02 1.278564877582153E+02 1.222361779296775E+02 8.705298550051379E+01 1.125371372392990E+02 1.122372061714468E+02 1.296049629044592E+02 1.104710853608656E+02 1.093374201436145E+02 1.159845390478115E+02 1.203471611142048E+02 1.091810227538989E+02 8.504335103451194E+01 1.031656748726365E+02 1.227805507165078E+02 1.059876488091287E+02 1.205216766189219E+02 1.129773060253032E+02 1.074566168511150E+02 1.029666190892787E+02 1.333605401192700E+02 1.215826983279006E+02 1.216621635346592E+02 1.009723503882146E+02 9.657804084182840E+01 1.000109653600525E+02 1.099979337852365E+02 1.009220939961362E+02 1.202902874996615E+02 1.072583928091229E+02 9.659752800944369E+01 1.197202411043203E+02 1.003844562802415E+02 9.803438008787578E+01 
1.174262260492412E+02 1.214254632150510E+02 1.140444808748350E+02 1.106306623430374E+02 9.689605422129012E+01 1.075568670029282E+02 1.140536625478942E+02 9.330094678456698E+01 1.311265840846381E+02 1.191175675498171E+02 1.166010877310824E+02 1.355187720240004E+02 1.145496900904553E+02 7.829710169433560E+01 1.162026546417138E+02 1.261044606603581E+02 1.008752637845179E+02 1.072799278413650E+02 1.278564877582153E+02 1.222361779296775E+02 8.705298550051379E+01 1.125371372392990E+02 1.122372061714468E+02 1.296049629044592E+02 1.104710853608656E+02 1.093374201436145E+02 1.159845390478115E+02 1.203471611142048E+02 1.091810227538989E+02 8.504335103451194E+01 1.031656748726365E+02 1.227805507165078E+02 1.059876488091287E+02 1.205216766189219E+02 1.129773060253032E+02 1.074566168511150E+02 1.029666190892787E+02 1.333605401192700E+02 1.215826983279006E+02 1.216621635346592E+02 1.009723503882146E+02 9.657804084182840E+01 1.000109653600525E+02 1.099979337852365E+02 1.009220939961362E+02 1.202902874996615E+02 1.072583928091229E+02 9.659752800944369E+01 1.197202411043203E+02 1.003844562802415E+02 9.803438008787578E+01 
1.087316850780599E+02 1.025457583697643E+02 1.140444808748350E+02 9.917891575595752E+01 9.169455847453446E+01 1.075568670029282E+02 8.157996240192864E+01 9.330094678456698E+01 1.059293694838347E+02 1.087200168175383E+02 9.856857471553184E+01 1.077669808837072E+02 1.145496900904553E+02 7.829710169433560E+01 9.630674889834097E+01 1.074955603002553E+02 1.008752637845179E+02 1.072799278413650E+02 9.126144369133260E+01 9.746700434706020E+01 8.705298550051379E+01 7.049679699654746E+01 1.122372061714468E+02 8.564272205456467E+01 1.040115216717155E+02 1.007473518972425E+02 1.101207094550438E+02 8.161712710353879E+01 1.091810227538989E+02 8.504335103451194E+01 8.544181048692104E+01 8.518530848805085E+01 8.650998042777314E+01 1.073882722248355E+02 1.076294770275127E+02 9.999814177657356E+01 9.425779012962977E+01 1.162245776903724E+02 1.067313102585990E+02 8.720092862025564E+01 1.009723503882146E+02 9.252531423152590E+01 8.433231049364218E+01 1.099979337852365E+02 1.009220939961362E+02 1.031220660842208E+02 9.826875437635169E+01 9.659752800944369E+01 9.769722311506871E+01 1.003844562802415E+02 9.640573042004684E+01 
7.599255582724260E+01 1.000214123019011E+02 7.332734798656082E+01 7.141126539869993E+01 8.996592379215144E+01 9.163229249324593E+01 8.002907536065044E+01 9.330094678456698E+01 9.319353863702264E+01 9.114914264316957E+01 8.648258028084422E+01 7.695794330815306E+01 7.366564273453423E+01 7.829710169433560E+01 7.649037979003379E+01 9.376750028516949E+01 8.815539158381870E+01 8.345860845329429E+01 7.712655106787929E+01 7.219741934600825E+01 8.705298550051379E+01 7.049679699654746E+01 7.639541415020057E+01 8.564272205456467E+01 8.066714417134892E+01 7.763465241539194E+01 9.432918415999609E+01 8.161712710353879E+01 7.585760294457288E+01 7.534029430987783E+01 6.387189325952227E+01 7.211400448671986E+01 6.799497978210172E+01 7.512717820714295E+01 7.939271280084290E+01 8.898917225233043E+01 9.425779012962977E+01 8.694415906332824E+01 8.235499359325212E+01 7.405740135226438E+01 8.273417065812726E+01 7.378329287232214E+01 8.433231049364218E+01 7.064392395680079E+01 9.115964203462073E+01 8.027168941069334E+01 7.301380406557371E+01 8.190389872292030E+01 7.347502791529985E+01 7.465681660891880E+01 7.839588460730982E+01 
7.599255582724260E+01 5.956835761878710E+01 7.104359400664674E+01 5.802320653725570E+01 7.163551043177336E+01 6.650177276091722E+01 7.355047720051283E+01 7.146973270982767E+01 6.952379151596313E+01 6.594185039471245E+01 8.125681781518927E+01 7.215018223705954E+01 6.256843496079665E+01 6.862409613251583E+01 6.219743224048676E+01 5.863082288288967E+01 6.496211449173450E+01 7.003710731136943E+01 7.034653250386782E+01 7.138721350878001E+01 8.462627185450560E+01 6.652787493497675E+01 7.639541415020057E+01 7.277541844825186E+01 7.107927065709737E+01 7.763465241539194E+01 7.710567840839735E+01 6.451429216046529E+01 7.585760294457288E+01 5.654986960448019E+01 6.387189325952227E+01 6.397365000675586E+01 5.624569062762663E+01 7.392361593989722E+01 6.404807719242018E+01 8.126825156686306E+01 7.645904562347789E+01 7.978200771313016E+01 6.062074136362003E+01 7.405740135226438E+01 7.642079054321948E+01 7.378329287232214E+01 7.926744332188184E+01 6.393937947392175E+01 5.050760929303925E+01 7.442735283230030E+01 7.301380406557371E+01 8.093347935880871E+01 6.583604241727267E+01 7.465681660891880E+01 6.483603339683452E+01 
5.016415471610520E+01 5.956835761878710E+01 6.666396495902131E+01 5.802320653725570E+01 7.163551043177336E+01 6.650177276091722E+01 5.369632387398059E+01 6.500697951503310E+01 4.449316596040450E+01 6.594185039471245E+01 7.664541895677661E+01 6.628721480308963E+01 6.256843496079665E+01 6.862409613251583E+01 6.219743224048676E+01 5.863082288288967E+01 6.496211449173450E+01 5.277823741578499E+01 4.611738912469059E+01 6.243763332987879E+01 3.786768827599349E+01 6.201930984881403E+01 6.811411002802527E+01 7.277541844825186E+01 5.706142884429539E+01 6.073577030653809E+01 5.309441602053698E+01 6.260227352573770E+01 7.408638104847404E+01 5.466463050739924E+01 6.348759025109416E+01 6.397365000675586E+01 5.539474653973394E+01 4.792683345212254E+01 6.058323283597485E+01 6.769604488078232E+01 7.259386909497471E+01 6.335760361484830E+01 6.062074136362003E+01 5.562516637871050E+01 6.357818437595279E+01 6.809965493280686E+01 7.359737225883890E+01 6.324376124007119E+01 5.050760929303925E+01 7.442735283230030E+01 7.301380406557371E+01 7.206668050779007E+01 5.412532617228476E+01 7.465681660891880E+01 6.483603339683452E+01 
5.016415471610520E+01 5.956835761878710E+01 6.616538363901884E+01 5.802320653725570E+01 6.067327273705030E+01 5.952694685450501E+01 5.369632387398059E+01 5.213951321845633E+01 4.449316596040450E+01 5.695990342613914E+01 6.005111676914783E+01 6.561824957097542E+01 4.767407561116460E+01 6.162068962242046E+01 5.714621000728005E+01 4.711838048259187E+01 3.501274310899657E+01 5.277823741578499E+01 4.611738912469059E+01 6.243763332987879E+01 3.786768827599349E+01 3.488443778768419E+01 4.828827684107347E+01 6.475032076575803E+01 5.706142884429539E+01 6.073577030653809E+01 5.309441602053698E+01 6.260227352573770E+01 5.943311153705918E+01 5.466463050739924E+01 5.867798851953199E+01 4.469165609941308E+01 4.624486653132010E+01 4.792683345212254E+01 5.971241071710517E+01 6.409190053587145E+01 5.977152855152571E+01 6.335760361484830E+01 6.062074136362003E+01 5.562516637871050E+01 5.535427414788501E+01 6.809965493280686E+01 6.202147065177240E+01 5.944052052503514E+01 5.050760929303925E+01 6.471199022201733E+01 6.046986624681682E+01 6.254397308401656E+01 5.412532617228476E+01 5.376114487554821E+01 5.335449830858318E+01 
3.557776621086293E+01 3.804067140010716E+01 5.202301520317940E+01 4.179611759915309E+01 3.689429039303781E+01 5.184563919831362E+01 4.115876972520647E+01 4.693098810058490E+01 4.060853263320337E+01 3.256078804580329E+01 4.633544663135479E+01 3.749044762741607E+01 4.767407561116460E+01 4.803638469453000E+01 4.717667177568819E+01 4.621354602658005E+01 3.501274310899657E+01 4.250925585230647E+01 4.611738912469059E+01 4.721079782800973E+01 3.786768827599349E+01 3.488443778768419E+01 4.191874968376425E+01 4.198755231952066E+01 4.441250318658638E+01 3.851130292726458E+01 3.637749242157679E+01 2.523102849398265E+01 4.626325249524592E+01 4.816430663656792E+01 3.385111900295857E+01 4.469165609941308E+01 2.338120236790218E+01 4.759774794707676E+01 4.677239501509553E+01 4.642680774220099E+01 5.283155308377110E+01 5.123196488685613E+01 4.901387237147890E+01 3.455994463760703E+01 3.526690634847569E+01 3.786821626671735E+01 4.332087800152124E+01 3.509475254804738E+01 4.437173761043960E+01 4.393841777090796E+01 3.374027125652879E+01 4.369016407135484E+01 4.193444149412107E+01 4.677782939651945E+01 3.051734207281095E+01 
2.420583269165616E+01 3.541712052142458E+01 2.929324354700913E+01 3.126978118889184E+01 3.369491468237646E+01 3.041939342801891E+01 3.324536827066788E+01 2.704871269560766E+01 2.999039973538481E+01 3.256078804580329E+01 3.344834036330718E+01 3.749044762741607E+01 3.196271511493728E+01 3.289196621000900E+01 3.111851755271260E+01 3.631310944129666E+01 3.501274310899657E+01 3.201860441847271E+01 3.101004718552844E+01 3.174433829930518E+01 2.380302827330814E+01 2.446497263758829E+01 3.157385420407462E+01 3.208333261362913E+01 2.576124484253978E+01 3.319476253998693E+01 3.152784148333114E+01 2.523102849398265E+01 3.603483539092940E+01 3.170517409880449E+01 2.566886211664144E+01 3.424592339851370E+01 2.338120236790218E+01 2.939283484078430E+01 2.882428122895539E+01 2.837621174486094E+01 3.320643569019660E+01 3.281807838335811E+01 3.043161598428986E+01 3.367418745147387E+01 3.526690634847569E+01 2.956984362572183E+01 2.858558958063037E+01 2.823502382771170E+01 3.779439366462174E+01 3.157020178016256E+01 2.414827293856644E+01 3.062390068097204E+01 3.052878167815146E+01 3.454462421461193E+01 3.051734207281095E+01 
2.420583269165616E+01 1.998424875749583E+01 2.906209835791975E+01 2.341107628235147E+01 2.074277906657608E+01 1.703410967680310E+01 2.266978725284150E+01 2.335397317405995E+01 2.636825169516533E+01 2.234121634328915E+01 2.886490929977180E+01 2.531822469401578E+01 1.834510503962849E+01 2.571001825687017E+01 2.308281371146688E+01 2.929474755219451E+01 2.811404266880123E+01 2.653456964259817E+01 2.655715624179982E+01 2.892750838762061E+01 2.380302827330814E+01 2.446497263758829E+01 1.676823466069800E+01 2.977282483848495E+01 1.524398325825587E+01 1.998748739910434E+01 2.811533588688923E+01 2.523102849398265E+01 2.320342356725087E+01 2.334885361369891E+01 2.500022624435064E+01 1.869013537659095E+01 2.229196936765760E+01 2.658775121062467E+01 2.640338705920783E+01 2.611966622710668E+01 1.865936784721345E+01 2.839387680977740E+01 2.227471669971612E+01 2.393888666474936E+01 2.917271502661674E+01 2.826372965378084E+01 2.858558958063037E+01 1.647191310348705E+01 2.721652779102436E+01 1.781848451615338E+01 2.163633558070825E+01 2.716702501799335E+01 2.393010564924083E+01 3.151571693257500E+01 3.035359089789625E+01 
2.420583269165616E+01 1.501367878007557E+01 2.465046066501225E+01 1.909311334784576E+01 2.074277906657608E+01 1.381328777127186E+01 1.769726836960308E+01 1.793147196561176E+01 1.795354978682377E+01 2.031004585628057E+01 2.156084444675668E+01 2.277895552511376E+01 1.834510503962849E+01 2.340713576772816E+01 2.308281371146688E+01 2.336229061866061E+01 1.948631376105556E+01 2.118430815736582E+01 2.124860441763127E+01 2.158583265493292E+01 1.682807498213776E+01 1.856918635836144E+01 1.676823466069800E+01 1.740951944363201E+01 1.524398325825587E+01 1.799436187463942E+01 2.679605103917095E+01 1.732136659813580E+01 2.320342356725087E+01 1.585572126774594E+01 2.248028746831187E+01 1.869013537659095E+01 2.111540137044904E+01 1.681611494659074E+01 2.258195247738382E+01 2.191110328526179E+01 1.865936784721345E+01 1.770537198740709E+01 2.046227097730213E+01 2.393888666474936E+01 2.464550593582879E+01 2.369670500418562E+01 2.233661580426798E+01 1.647191310348705E+01 2.721652779102436E+01 1.781848451615338E+01 2.163633558070825E+01 2.571273540921931E+01 2.262396057431477E+01 1.686232402583380E+01 2.032963073864863E+01 
1.288528722451343E+01 1.122799063555692E+01 1.771120320381749E+01 1.909311334784576E+01 1.553705573533796E+01 1.381328777127186E+01 1.769726836960308E+01 1.630919495413508E+01 1.649121103749394E+01 1.710299783390684E+01 2.156084444675668E+01 1.228371950373423E+01 1.834510503962849E+01 1.425081321750702E+01 1.740523763836745E+01 1.447935711763591E+01 1.214147131171916E+01 1.792175028964442E+01 1.833499258785849E+01 1.353924891697426E+01 1.682807498213776E+01 1.576706025035122E+01 9.556117332314898E+00 1.740951944363201E+01 1.524398325825587E+01 1.799436187463942E+01 1.681566733240214E+01 1.557792460702933E+01 1.096076684775488E+01 1.389830018520894E+01 1.795595966698295E+01 1.816370338085000E+01 1.987903833780945E+01 1.681611494659074E+01 1.511672350368701E+01 1.476420783648104E+01 1.520692632103919E+01 1.308498714617303E+01 1.597406503789807E+01 1.767595486120729E+01 1.564434222433482E+01 1.703600564404411E+01 1.715238744245136E+01 1.647191310348705E+01 1.265536490970828E+01 1.589521931388390E+01 2.065840400835128E+01 2.133490643950398E+01 9.251895650359984E+00 1.250642540305756E+01 2.032963073864863E+01 
1.288528722451343E+01 5.465961323021190E+00 1.528139980455205E+01 8.592637074414256E+00 1.553705573533796E+01 8.667085210012147E+00 7.437852037879111E+00 1.191470854643734E+01 1.000555006338698E+01 1.291565013934945E+01 1.213023424417702E+01 9.264597586856723E+00 1.063956422870945E+01 8.548414075327742E+00 9.702955974249164E+00 7.687857832026793E+00 7.326678548875691E+00 1.095798325399369E+01 1.342740233063353E+01 7.562315468165537E+00 1.084364307181232E+01 4.947615316512042E+00 3.486054703991101E+00 1.686420746103175E+01 8.377826172295954E+00 1.347546278602960E+01 1.306779341346447E+01 8.131677395994075E+00 1.096076684775488E+01 8.289132355930576E+00 2.835595609740722E+00 1.278683023483427E+01 1.227843058233503E+01 1.180741269324574E+01 1.171292036225225E+01 1.383696191110113E+01 9.753438059536165E+00 1.028038879876056E+01 4.623700398036817E+00 4.717047763985136E+00 2.842821542713182E+00 1.566298106428428E+01 5.378398600588582E+00 8.328984527349348E+00 5.280918199886116E+00 1.346877987775162E+01 1.006167049014039E+01 1.334437807832893E+01 9.251895650359984E+00 6.586095651410290E+00 6.428815288060946E+00 
4.575346325197927E+00 1.995842984213084E+00 2.716896194582660E+00 5.697170989391339E+00 7.889529760829646E+00 1.060576475167068E+00 1.172956897586801E+00 1.752740911907722E-01 2.092025820727088E+00 3.932595888545052E-01 4.931130071803466E+00 4.064261085511760E+00 3.354513900520033E+00 1.958486148834027E-01 2.760218989764780E+00 2.859393921437857E+00 1.036143428869309E+00 1.563885273691255E+00 3.103986807038609E+00 2.380687498636632E+00 3.784018108411999E+00 2.226089658406409E+00 9.964119177632256E-01 4.307036476147516E+00 1.017456017763209E+00 3.927866701477228E+00 3.773700601870701E+00 2.367308194409645E+00 4.915977084184533E-01 1.252346387905334E+00 2.432640989002266E-02 1.792440941836276E+00 4.451918934577918E+00 1.021085054575110E+00 1.003298118886067E+01 8.197493506412798E+00 1.112500378374364E+00 1.311280741997223E+00 6.226653759313194E-02 1.918448381394001E+00 7.489781605727330E-04 9.931392531860581E+00 1.997702160096765E+00 2.591745263229313E+00 2.397788347282869E+00 1.103857064224997E+00 5.904721205445185E-02 2.033772291070363E+00 2.295743666640988E+00 1.345701718776127E-02 1.009051147666526E+00 
2.640758162983900E+00 1.989918313118949E+00 1.991053297386827E+00 2.986081378604524E+00 1.117796241189751E+00 9.949609689717818E-01 9.954073111819071E-01 8.284220541554532E-06 1.989934052725857E+00 1.535865487767296E-05 2.070435033631554E+00 3.979922583112057E+00 2.015823710307927E+00 1.022027846602214E-04 1.990628533296956E+00 1.071949110514254E+00 9.949636873998884E-01 8.026691068607761E-05 1.005171060493638E+00 1.989937239524124E+00 2.985078215529370E+00 1.990857212860306E+00 9.949591919230443E-01 1.016449906279320E+00 9.949621262821324E-01 9.954517176241780E-01 9.997033552455719E-01 1.989973671191308E+00 4.385354498026572E-05 1.316743015286193E-02 2.548934219248622E-06 6.654225722968477E-04 1.026301606749712E+00 9.949602436470855E-01 2.992630193217394E+00 6.071814432535803E-01 9.949622910709195E-01 9.959177852383618E-01 5.421842661235132E-05 1.430028024243711E+00 7.760729658912169E-08 1.756015503545939E+00 1.989918827227257E+00 1.042223687159208E+00 2.010879146075979E+00 9.949693474986248E-01 3.333070367261826E-06 1.989921736209510E+00 1.989942979289083E+00 6.351136789817247E-07 9.949593597212925E-01 
1.990392591193313E+00 1.989918114190402E+00 1.989918127268766E+00 2.984877176638236E+00 9.950977322700965E-01 9.949590571041540E-01 9.949591108649543E-01 0.000000000000000E+00 1.989918114338821E+00 0.000000000000000E+00 1.991198649632224E+00 3.979836230288981E+00 1.989918545900594E+00 0.000000000000000E+00 1.989918121106996E+00 9.950505344245926E-01 9.949590571345084E-01 0.000000000000000E+00 9.949616198837816E-01 1.989918114456600E+00 2.984877171984067E+00 1.989918348295760E+00 9.949590570947748E-01 9.949688295052397E-01 9.949590571228555E-01 9.949590650997493E-01 9.949590991299715E-01 1.989918114590637E+00 0.000000000000000E+00 1.185266114589467E-06 0.000000000000000E+00 0.000000000000000E+00 9.949606972276115E-01 9.949590570963665E-01 2.984877256552181E+00 1.709520271219844E-03 9.949590572496732E-01 9.949596223023036E-01 1.355505219180486E-08 9.953371832443736E-01 0.000000000000000E+00 2.441937545376050E-02 1.989918114200634E+00 9.949726034707851E-01 1.989962465326244E+00 9.949590571772546E-01 0.000000000000000E+00 1.989918114209331E+00 1.989918114591717E+00 0.000000000000000E+00 9.949590570964233E-01 
1.989918146086211E+00 1.989918114186594E+00 1.989918114186594E+00 2.984877171279891E+00 9.949590627168732E-01 9.949590570932969E-01 9.949590570944906E-01 0.000000000000000E+00 1.989918114186594E+00 0.000000000000000E+00 1.989918190744504E+00 3.979836228373188E+00 1.989918114188868E+00 0.000000000000000E+00 1.989918114186594E+00 9.949590623946847E-01 9.949590570932969E-01 0.000000000000000E+00 9.949590573208411E-01 1.989918114186594E+00 2.984877171279891E+00 1.989918114189038E+00 9.949590570932969E-01 9.949590576929381E-01 9.949590570932969E-01 9.949590570932969E-01 9.949590570932969E-01 1.989918114186594E+00 0.000000000000000E+00 0.000000000000000E+00 0.000000000000000E+00 0.000000000000000E+00 9.949590570959117E-01 9.949590570932969E-01 2.984877171279948E+00 2.427935896776035E-08 9.949590570932969E-01 9.949590571355316E-01 0.000000000000000E+00 9.949592839305979E-01 0.000000000000000E+00 2.230307075024030E-06 1.989918114186594E+00 9.949590576913465E-01 1.989918136620986E+00 9.949590570932969E-01 0.000000000000000E+00 1.989918114186594E+00 1.989918114186594E+00 0.000000000000000E+00 9.949590570932969E-01 

