5.315626073548097E+06 6.004608233380904E+06 4.849384969455066E+06 5.219703130303057E+06 4.485190209875058E+06 5.746004173908010E+06 5.980662293083789E+06 6.733401874172716E+06 4.516734548238075E+06 5.371009401128651E+06 3.137154212554270E+06 7.701553825990317E+06 3.268187641134291E+06 4.346953643234308E+06 4.707389731911689E+06 3.711215088609903E+06 5.174679124912213E+06 7.086208860077434E+06 5.333278716753556E+06 5.546308575258330E+06 5.534737068690204E+06 6.111884801876765E+06 4.085483646614877E+06 3.097097433894595E+06 6.028427067209629E+06 4.835350058328874E+06 6.118565336016454E+06 6.290310227007754E+06 6.655805922347427E+06 4.064095302494748E+06 6.609417945677891E+06 4.737530794436997E+06 4.095740121069648E+06 5.430822217993157E+06 5.204299341814592E+06 4.339992511152182E+06 5.057456238131153E+06 7.356014180469546E+06 2.813021773954921E+06 6.404963061014690E+06 4.406511354337902E+06 4.010343396063910E+06 2.479538410830491E+06 4.771570884559040E+06 4.969639966950693E+06 5.053028381911226E+06 7.053853637069976E+06 3.540481198160481E+06 4.408254892128388E+06 4.667997657718760E+06 2.005450353392141E+06 
5.315626073548097E+06 6.004608233380904E+06 4.849384969455066E+06 5.219703130303057E+06 4.485190209875058E+06 5.746004173908010E+06 5.980662293083789E+06 6.733401874172716E+06 4.516734548238075E+06 5.371009401128651E+06 3.137154212554270E+06 7.701553825990317E+06 3.268187641134291E+06 4.346953643234308E+06 4.707389731911689E+06 3.711215088609903E+06 5.174679124912213E+06 7.086208860077434E+06 5.333278716753556E+06 5.546308575258330E+06 5.534737068690204E+06 6.111884801876765E+06 4.085483646614877E+06 3.097097433894595E+06 6.028427067209629E+06 4.835350058328874E+06 6.118565336016454E+06 6.290310227007754E+06 6.655805922347427E+06 4.064095302494748E+06 6.609417945677891E+06 4.737530794436997E+06 4.095740121069648E+06 5.430822217993157E+06 5.204299341814592E+06 4.339992511152182E+06 5.057456238131153E+06 7.356014180469546E+06 2.813021773954921E+06 6.404963061014690E+06 4.406511354337902E+06 4.010343396063910E+06 2.479538410830491E+06 4.771570884559040E+06 4.969639966950693E+06 5.053028381911226E+06 7.053853637069976E+06 3.540481198160481E+06 4.408254892128388E+06 4.667997657718760E+06 2.005450353392141E+06 
2.594114986769465E+05 2.528748943013668E+05 2.637964695503970E+05 1.852121233626625E+05 2.089289248621155E+05 2.940442028977176E+05 2.368043871910035E+05 1.931349516713928E+05 2.966141911590773E+05 3.602875916372923E+05 3.961562336994470E+05 2.044882169335829E+05 5.091592653084581E+04 3.501146537848341E+05 3.305359740668616E+05 3.350139260014606E+05 2.062072529376640E+05 2.281797572674062E+05 1.656723339603490E+05 2.014592834836148E+05 2.314255570591278E+05 2.236103698502125E+05 2.215309044912850E+05 2.771656831511373E+05 3.352284751761998E+05 2.349683284973424E+05 2.872441876097618E+05 2.857073298240840E+05 2.266848037554645E+05 2.811320978121706E+05 3.369470587169455E+05 3.196733942859970E+05 2.449460999375142E+05 2.941230839124296E+05 2.883192911633082E+05 2.353460812114008E+05 2.224593548088383E+05 2.894396255328953E+05 3.403613550854578E+05 2.940925974232071E+05 3.324683368248774E+05 3.178151107606809E+05 2.794021688161686E+05 3.101094559479967E+05 1.145535075109467E+05 1.700427763754468E+05 2.310920439009661E+05 2.808412128631999E+05 3.309162914275799E+05 2.602054266322969E+05 3.073026824883480E+05 
5.629406851147980E+04 4.576049347427017E+04 5.077333566822557E+04 3.354750238783717E+04 6.944798781148670E+04 4.870646680068948E+04 3.046394097702300E+04 4.795380488983585E+04 3.097109453325317E+04 7.284025053834768E+04 7.471762980575681E+04 4.633616056372263E+04 1.725153410699523E+04 5.134336310125009E+04 4.184105053367534E+04 5.258934134397389E+04 8.171707868976951E+04 5.222355666608063E+04 3.868597504537801E+04 6.655826568187401E+04 4.891018355043218E+04 5.294774870500273E+04 4.995216657479332E+04 4.889919824078659E+04 8.308010598387387E+04 5.674386942927458E+04 3.250620530014920E+04 4.601593481854275E+04 6.053176561387552E+04 6.540378567768213E+04 7.562393069786750E+04 5.387832930581588E+04 7.161905647607557E+04 3.762007331163479E+04 3.934363528384493E+04 7.046501545259585E+04 6.232216527756040E+04 7.097547384352042E+04 3.398443552051507E+04 5.453032042745753E+04 8.931305568689639E+04 4.096848803074536E+04 3.636474552534428E+04 4.926200721877485E+04 4.788392384134221E+04 1.511265190935860E+04 3.918968223927332E+04 5.322193332837994E+04 6.296936751843147E+04 6.300244847219454E+04 6.870068784761241E+04 
1.146091563532318E+04 3.947850161026423E+03 1.449543710137644E+04 7.433396265573440E+03 1.745123855526899E+04 1.059696826725494E+04 7.872325005606843E+03 9.391236403948869E+03 6.732935192931847E+03 7.994431303978345E+03 1.182435253650461E+04 1.418248154052218E+04 1.359188942807852E+04 1.588895848493375E+04 9.542882608269943E+03 1.010855998764065E+04 1.176993385406789E+04 1.067022401350964E+04 1.155491622317879E+04 1.128950795201258E+04 9.223749796686523E+03 6.317227478517890E+03 1.291035196289366E+04 1.471843373983054E+04 1.490498320225921E+04 5.427325568815204E+03 7.197498729459394E+03 1.067270313717853E+04 9.545747119113654E+03 1.526760842677066E+04 1.614183153453929E+04 1.146461639797260E+04 9.921937603646706E+03 7.675940627217871E+03 1.003524878298873E+04 2.007028488527087E+04 1.242011004021718E+04 1.370398104778796E+04 7.644029857417560E+03 9.325552577641065E+03 1.609841546287606E+04 9.240253636995945E+03 6.698788473945000E+03 8.032962264372625E+03 7.029576457942323E+03 8.666187178221126E+03 5.516582113431735E+03 7.213645427574458E+03 1.644737646406953E+04 1.421662293947964E+04 7.077048756788623E+03 
4.361280229283575E+03 1.259660785563328E+03 2.650467137013997E+03 1.494137127566411E+03 6.392851681764540E+03 2.317751985886081E+03 1.316033275347689E+03 1.622115980172763E+03 1.950795083177310E+03 2.256658502003862E+03 3.064562854897745E+03 3.170994788435303E+03 2.357857316329049E+03 3.496805018341800E+03 2.665884117643227E+03 2.041467169572622E+03 3.255829813555509E+03 3.158754110901812E+03 1.693299149070981E+03 1.392750579619411E+03 2.093524835230407E+03 9.846448803382532E+02 2.069612996239437E+03 3.752160729801160E+03 2.400717112233026E+03 2.051134465718836E+03 1.689285125977309E+03 1.655357596964273E+03 2.864213120367491E+03 6.285257632015340E+03 3.824568422331513E+03 2.757718757241024E+03 3.397741818917641E+03 1.891791491640193E+03 3.293288632728194E+03 4.789768118389917E+03 2.297655085879329E+03 3.203149737563981E+03 1.320183385864542E+03 1.007305726843398E+03 3.846843466068238E+03 3.164687143225294E+03 2.509352725288824E+03 1.505556296534742E+03 1.704354517459283E+03 1.304395321027360E+03 1.333896049161765E+03 3.483359583115836E+03 3.438007130411870E+03 4.934101789749740E+03 3.075033322452159E+03 
6.632866799135500E+02 4.407640291367634E+02 4.477055221226306E+02 5.509193078995418E+02 1.232199282746830E+03 4.917092310002076E+02 6.413891371658406E+02 3.989725994339128E+02 6.960332664240664E+02 5.398826673705325E+02 5.616418978671309E+02 1.084228297850871E+03 7.791356651849587E+02 7.773481896680983E+02 9.133082688566997E+02 7.669660453520892E+02 7.033283713658375E+02 1.178112254337688E+03 8.788667598908928E+02 5.461921080795091E+02 7.430368477573493E+02 7.093370410286148E+02 6.781774960493840E+02 9.416259532967401E+02 5.422671292210275E+02 7.125110161673356E+02 5.508371972940026E+02 7.767028183656071E+02 1.251092080896296E+03 9.909466580221219E+02 9.357760686342763E+02 7.988662456931575E+02 8.752914439093320E+02 6.284449946475479E+02 9.796627747549778E+02 1.526873645833002E+03 1.163878761101114E+03 9.352108718895543E+02 6.869697322629072E+02 5.171662595252633E+02 9.271690723000752E+02 7.247611320095875E+02 4.257013398030908E+02 7.563828707098191E+02 5.301815106563063E+02 5.167289560043087E+02 5.643793607661155E+02 5.291891343731822E+02 1.054474702909820E+03 9.709676438728220E+02 6.216027156218988E+02 
1.350923610683753E+02 1.309969816110292E+02 1.325406679020039E+02 1.334584781572250E+02 1.360965940293511E+02 1.302791756417546E+02 1.304444051479263E+02 1.299789384225671E+02 1.272028820054193E+02 1.314288702717329E+02 1.325616387964747E+02 1.335537884208943E+02 1.278360018698731E+02 1.336147026732820E+02 1.332482086260147E+02 1.318535957406784E+02 1.345773157009169E+02 1.310371930267097E+02 1.326783962694306E+02 1.314855380394984E+02 1.338031554212719E+02 1.316177603948922E+02 1.320154074832119E+02 1.332486530511112E+02 1.314579000866577E+02 1.317261651545960E+02 1.310158658860614E+02 1.322220676648128E+02 1.385421351575333E+02 1.336223133261551E+02 1.302645399081850E+02 1.310877884896308E+02 1.315274800253276E+02 1.336098884957125E+02 1.333864297957521E+02 1.337474612695116E+02 1.330273246222844E+02 1.308746077262713E+02 1.316961887668015E+02 1.319853374165132E+02 1.325765283419553E+02 1.338250299199046E+02 1.294515894836786E+02 1.316808773829962E+02 1.317884505585078E+02 1.300722788081253E+02 1.287095644887932E+02 1.317322050430146E+02 1.280919313367735E+02 1.325621058522927E+02 1.336192201587885E+02 
1.053790445604457E+02 1.053269577126805E+02 1.057306167647203E+02 1.059893587231418E+02 1.058795856512909E+02 1.052698309711857E+02 1.049654348977410E+02 1.052636128081933E+02 1.053469791951627E+02 1.062609193301121E+02 1.051609236011973E+02 1.056721582701698E+02 1.058032262524471E+02 1.068780923494658E+02 1.054247094833779E+02 1.057154470795142E+02 1.059560520885825E+02 1.054436333201497E+02 1.055824405961505E+02 1.055912353659496E+02 1.055763712607200E+02 1.056629543974016E+02 1.058690972247573E+02 1.055136301130867E+02 1.055987314340034E+02 1.053356338255944E+02 1.059731822285985E+02 1.058339382754336E+02 1.056858663635255E+02 1.055537064357543E+02 1.056297536497320E+02 1.061650838946671E+02 1.057484013902213E+02 1.048213794664575E+02 1.056330874283303E+02 1.061874111300474E+02 1.057643513780499E+02 1.059145064984220E+02 1.054716652406244E+02 1.052171824003133E+02 1.054346164230931E+02 1.057052897217393E+02 1.059779249534468E+02 1.056303651336855E+02 1.056606274514088E+02 1.054038928009657E+02 1.050452068702059E+02 1.054131667500890E+02 1.054158949117489E+02 1.059935931424107E+02 1.052959096506397E+02 
1.003805037785353E+02 1.003923128008303E+02 1.004031856588824E+02 1.004195722667507E+02 1.004292465151445E+02 1.003407483653734E+02 1.003172393009231E+02 1.003440416805283E+02 1.004081729406933E+02 1.004508335445530E+02 1.003620722989708E+02 1.003718067423506E+02 1.003755212662577E+02 1.004524698387390E+02 1.003389420411581E+02 1.004044311451087E+02 1.003884506580164E+02 1.003718894182557E+02 1.004209543327092E+02 1.004126615867601E+02 1.003998114860924E+02 1.004070538455080E+02 1.004413241808272E+02 1.003814710216739E+02 1.003871700494769E+02 1.003909728557030E+02 1.004146261867631E+02 1.004405182269643E+02 1.004495957541417E+02 1.003948504815462E+02 1.004155688823330E+02 1.003917509932985E+02 1.004014370754687E+02 1.003756640720662E+02 1.004205954157378E+02 1.005336259652104E+02 1.004195168441136E+02 1.004523618344945E+02 1.003654311809078E+02 1.003726292041474E+02 1.003680448848465E+02 1.004032434385902E+02 1.004735089099195E+02 1.003719627880996E+02 1.003745507337412E+02 1.003768248444728E+02 1.003190373762304E+02 1.003637260655087E+02 1.003857472520433E+02 1.004087448995197E+02 1.003776001503106E+02 
1.000159482530353E+02 1.000148442696127E+02 1.000180577272722E+02 1.000184001871560E+02 1.000176993120808E+02 1.000131227679296E+02 1.000121559765162E+02 1.000135073749334E+02 1.000151579409132E+02 1.000169080259807E+02 1.000157952052362E+02 1.000150001518214E+02 1.000159888192247E+02 1.000167892858160E+02 1.000164376313965E+02 1.000163974913771E+02 1.000166778930793E+02 1.000153195058156E+02 1.000171043259552E+02 1.000168707997216E+02 1.000158686933480E+02 1.000173766950020E+02 1.000158134942924E+02 1.000143517421743E+02 1.000160931845892E+02 1.000142998952715E+02 1.000168743848276E+02 1.000173228782232E+02 1.000181513418302E+02 1.000144870040876E+02 1.000159596643196E+02 1.000173792762869E+02 1.000161223228295E+02 1.000133140903085E+02 1.000165476921309E+02 1.000208500382105E+02 1.000167497878992E+02 1.000174581250319E+02 1.000145620358812E+02 1.000156412599697E+02 1.000154992869670E+02 1.000166227397131E+02 1.000175674460197E+02 1.000155727065626E+02 1.000141345385721E+02 1.000155055510822E+02 1.000135813703512E+02 1.000134012422716E+02 1.000141597770139E+02 1.000157384419756E+02 1.000133837425710E+02 
1.000004093282128E+02 1.000004215071328E+02 1.000005501819742E+02 1.000005317246203E+02 1.000004458291667E+02 1.000003611673442E+02 1.000003124016691E+02 1.000003866342283E+02 1.000004432558251E+02 1.000005343412374E+02 1.000004227459638E+02 1.000004042485907E+02 1.000004337881064E+02 1.000005244783852E+02 1.000004558428814E+02 1.000005343455155E+02 1.000004532014179E+02 1.000004281143470E+02 1.000004779803239E+02 1.000004612510661E+02 1.000004653412264E+02 1.000004712809873E+02 1.000005070399498E+02 1.000003767262974E+02 1.000004256669861E+02 1.000003734739942E+02 1.000004992579018E+02 1.000004815022483E+02 1.000005231989321E+02 1.000004298014003E+02 1.000004432870740E+02 1.000004782808521E+02 1.000004522414035E+02 1.000003912341842E+02 1.000004962274347E+02 1.000006058309721E+02 1.000004630783737E+02 1.000004805334213E+02 1.000003869531440E+02 1.000004443325736E+02 1.000003765703889E+02 1.000004176271559E+02 1.000004668761494E+02 1.000004565961706E+02 1.000003766411587E+02 1.000004274134446E+02 1.000003903043605E+02 1.000004277088121E+02 1.000003913578976E+02 1.000004239214281E+02 1.000004217797036E+02 
1.000000070024107E+02 1.000000073916349E+02 1.000000092035120E+02 1.000000090386982E+02 1.000000067228616E+02 1.000000057778282E+02 1.000000052095959E+02 1.000000060134137E+02 1.000000073637957E+02 1.000000091892077E+02 1.000000069859395E+02 1.000000069316861E+02 1.000000064236072E+02 1.000000088142758E+02 1.000000077273871E+02 1.000000081909041E+02 1.000000081463934E+02 1.000000068121281E+02 1.000000080382197E+02 1.000000077985969E+02 1.000000076719648E+02 1.000000073634867E+02 1.000000082038807E+02 1.000000070332701E+02 1.000000064514109E+02 1.000000065691500E+02 1.000000091972945E+02 1.000000081438866E+02 1.000000088765557E+02 1.000000076960710E+02 1.000000068494553E+02 1.000000069093444E+02 1.000000083720481E+02 1.000000064096066E+02 1.000000080479397E+02 1.000000104071814E+02 1.000000081932594E+02 1.000000088602237E+02 1.000000073659694E+02 1.000000073111610E+02 1.000000065703598E+02 1.000000087411795E+02 1.000000081703040E+02 1.000000080359305E+02 1.000000062427364E+02 1.000000075261594E+02 1.000000060880691E+02 1.000000069936641E+02 1.000000064219835E+02 1.000000075493074E+02 1.000000067536716E+02 
1.000000000781590E+02 1.000000000701809E+02 1.000000000935474E+02 1.000000000872983E+02 1.000000000734785E+02 1.000000000512364E+02 1.000000000526547E+02 1.000000000624243E+02 1.000000000716068E+02 1.000000000904302E+02 1.000000000710845E+02 1.000000000719174E+02 1.000000000754942E+02 1.000000000836167E+02 1.000000000797083E+02 1.000000000970895E+02 1.000000000831039E+02 1.000000000749183E+02 1.000000000711896E+02 1.000000000820919E+02 1.000000000696546E+02 1.000000000690436E+02 1.000000000815994E+02 1.000000000623900E+02 1.000000000680479E+02 1.000000000700004E+02 1.000000000921045E+02 1.000000000892201E+02 1.000000000839243E+02 1.000000000769221E+02 1.000000000705234E+02 1.000000000830682E+02 1.000000000758887E+02 1.000000000652130E+02 1.000000000817756E+02 1.000000001098515E+02 1.000000000849532E+02 1.000000000800903E+02 1.000000000737746E+02 1.000000000720770E+02 1.000000000747391E+02 1.000000000809298E+02 1.000000000896653E+02 1.000000000783168E+02 1.000000000760253E+02 1.000000000738255E+02 1.000000000617565E+02 1.000000000730249E+02 1.000000000691073E+02 1.000000000786768E+02 1.000000000694977E+02 
1.000000000004711E+02 1.000000000004266E+02 1.000000000006119E+02 1.000000000005741E+02 1.000000000003952E+02 1.000000000003427E+02 1.000000000002394E+02 1.000000000003743E+02 1.000000000003813E+02 1.000000000005487E+02 1.000000000004088E+02 1.000000000004102E+02 1.000000000004302E+02 1.000000000004704E+02 1.000000000004957E+02 1.000000000005584E+02 1.000000000005139E+02 1.000000000003779E+02 1.000000000003802E+02 1.000000000004784E+02 1.000000000004475E+02 1.000000000004498E+02 1.000000000005261E+02 1.000000000004031E+02 1.000000000003900E+02 1.000000000003886E+02 1.000000000005230E+02 1.000000000005127E+02 1.000000000004925E+02 1.000000000004288E+02 1.000000000004361E+02 1.000000000004493E+02 1.000000000004550E+02 1.000000000003238E+02 1.000000000004593E+02 1.000000000006489E+02 1.000000000004952E+02 1.000000000004641E+02 1.000000000004302E+02 1.000000000004275E+02 1.000000000004136E+02 1.000000000004766E+02 1.000000000004734E+02 1.000000000004418E+02 1.000000000004352E+02 1.000000000004252E+02 1.000000000003447E+02 1.000000000004320E+02 1.000000000003756E+02 1.000000000004052E+02 1.000000000004040E+02 
1.000000000000018E+02 1.000000000000021E+02 1.000000000000025E+02 1.000000000000023E+02 1.000000000000016E+02 1.000000000000016E+02 1.000000000000014E+02 1.000000000000016E+02 1.000000000000018E+02 1.000000000000023E+02 1.000000000000018E+02 1.000000000000018E+02 1.000000000000018E+02 1.000000000000021E+02 1.000000000000018E+02 1.000000000000023E+02 1.000000000000021E+02 1.000000000000018E+02 1.000000000000018E+02 1.000000000000018E+02 1.000000000000018E+02 1.000000000000021E+02 1.000000000000021E+02 1.000000000000018E+02 1.000000000000018E+02 1.000000000000018E+02 1.000000000000023E+02 1.000000000000023E+02 1.000000000000021E+02 1.000000000000021E+02 1.000000000000021E+02 1.000000000000021E+02 1.000000000000021E+02 1.000000000000016E+02 1.000000000000023E+02 1.000000000000023E+02 1.000000000000021E+02 1.000000000000023E+02 1.000000000000018E+02 1.000000000000018E+02 1.000000000000021E+02 1.000000000000023E+02 1.000000000000021E+02 1.000000000000018E+02 1.000000000000021E+02 1.000000000000018E+02 1.000000000000016E+02 1.000000000000018E+02 1.000000000000016E+02 1.000000000000018E+02 1.000000000000018E+02 
1.000000000000007E+02 1.000000000000007E+02 1.000000000000007E+02 1.000000000000007E+02 1.000000000000007E+02 1.000000000000007E+02 1.000000000000007E+02 1.000000000000007E+02 1.000000000000007E+02 1.000000000000007E+02 1.000000000000007E+02 1.000000000000007E+02 1.000000000000007E+02 1.000000000000007E+02 1.000000000000007E+02 1.000000000000007E+02 1.000000000000007E+02 1.000000000000007E+02 1.000000000000007E+02 1.000000000000007E+02 1.000000000000007E+02 1.000000000000007E+02 1.000000000000007E+02 1.000000000000007E+02 1.000000000000007E+02 1.000000000000007E+02 1.000000000000007E+02 1.000000000000007E+02 1.000000000000007E+02 1.000000000000007E+02 1.000000000000007E+02 1.000000000000007E+02 1.000000000000007E+02 1.000000000000007E+02 1.000000000000009E+02 1.000000000000007E+02 1.000000000000007E+02 1.000000000000007E+02 1.000000000000007E+02 1.000000000000007E+02 1.000000000000007E+02 1.000000000000007E+02 1.000000000000007E+02 1.000000000000007E+02 1.000000000000007E+02 1.000000000000007E+02 1.000000000000007E+02 1.000000000000007E+02 1.000000000000007E+02 1.000000000000007E+02 1.000000000000007E+02 

