2.181113837620305E+02 1.979696529919520E+02 2.241744955743693E+02 1.958985688350556E+02 2.248147118609561E+02 2.319188568667203E+02 2.075791503768851E+02 1.909627797102774E+02 2.300725575771389E+02 2.172459108635621E+02 2.247764105010047E+02 1.917321396349373E+02 2.265090115201044E+02 2.217231613991341E+02 2.230767274754758E+02 2.259060094727674E+02 2.270007378496216E+02 1.940448024822763E+02 2.257989529563963E+02 1.948770814175152E+02 2.227758779711439E+02 2.160876998926217E+02 2.255622428959123E+02 2.332518778631891E+02 2.223309514517778E+02 2.095021869224438E+02 2.118844966684746E+02 2.179512992579007E+02 2.021114504218365E+02 2.060346093550209E+02 1.965730883125295E+02 2.142017284753574E+02 2.181575671733162E+02 2.012732506544542E+02 1.812266834311986E+02 2.065360090273193E+02 2.270214083253100E+02 2.255798238265941E+02 2.286006684319070E+02 2.269903488351847E+02 2.300181434022277E+02 2.305312757169070E+02 2.092364237877712E+02 2.170626238491564E+02 1.823260149152779E+02 2.158723561338256E+02 2.318094215790407E+02 2.049351929637453E+02 2.148052384937998E+02 2.285897603067970E+02 2.209974706907915E+02 
2.181113837620305E+02 1.979696529919520E+02 2.241744955743693E+02 1.958985688350556E+02 2.248147118609561E+02 2.319188568667203E+02 2.075791503768851E+02 1.909627797102774E+02 2.300725575771389E+02 2.172459108635621E+02 2.247764105010047E+02 1.917321396349373E+02 2.265090115201044E+02 2.217231613991341E+02 2.230767274754758E+02 2.259060094727674E+02 2.270007378496216E+02 1.940448024822763E+02 2.257989529563963E+02 1.948770814175152E+02 2.227758779711439E+02 2.160876998926217E+02 2.255622428959123E+02 2.332518778631891E+02 2.223309514517778E+02 2.095021869224438E+02 2.118844966684746E+02 2.179512992579007E+02 2.021114504218365E+02 2.060346093550209E+02 1.965730883125295E+02 2.142017284753574E+02 2.181575671733162E+02 2.012732506544542E+02 1.812266834311986E+02 2.065360090273193E+02 2.270214083253100E+02 2.255798238265941E+02 2.286006684319070E+02 2.269903488351847E+02 2.300181434022277E+02 2.305312757169070E+02 2.092364237877712E+02 2.170626238491564E+02 1.823260149152779E+02 2.158723561338256E+02 2.318094215790407E+02 2.049351929637453E+02 2.148052384937998E+02 2.285897603067970E+02 2.209974706907915E+02 
1.829266200254942E+02 1.889356596474704E+02 1.963438988949013E+02 1.783619110327254E+02 1.716858292728125E+02 1.950773423847309E+02 1.722702842835231E+02 1.780426681449712E+02 1.886527989571437E+02 1.856286184120406E+02 1.838428681239702E+02 1.829951809440881E+02 1.761858621763522E+02 1.906683439247897E+02 1.723088406230725E+02 1.760969896580557E+02 1.897448567729398E+02 1.695358455051976E+02 1.779027292907838E+02 1.817954351967671E+02 1.897516327251244E+02 1.826957608678226E+02 1.804201653499918E+02 1.759419504234031E+02 1.831655510674436E+02 1.733952809532691E+02 1.959884920949739E+02 1.857646640775447E+02 1.882654323674542E+02 1.758289077875447E+02 1.700537162234341E+02 1.682127329965206E+02 1.897135593046501E+02 1.749407582967253E+02 1.752336131755121E+02 1.746056672690911E+02 1.907385765529141E+02 1.815521021266368E+02 1.816293974482330E+02 1.869826403966090E+02 1.822438445415232E+02 1.908625166473614E+02 1.683608377889566E+02 1.730734868636159E+02 1.793283394166915E+02 1.820162572790118E+02 1.814661201639085E+02 1.795660079296233E+02 1.937466667114293E+02 1.786353651620689E+02 1.969667842128426E+02 
1.502541632890548E+02 1.545496669847260E+02 1.547300113667727E+02 1.528198989121047E+02 1.529550863660229E+02 1.556525213793821E+02 1.503462847540229E+02 1.530733974450880E+02 1.504871463353993E+02 1.545677566546965E+02 1.544519485602411E+02 1.554675573575917E+02 1.541312361113278E+02 1.515494991871299E+02 1.550295385528816E+02 1.512478049119616E+02 1.477726339611666E+02 1.533959738629706E+02 1.474632339395184E+02 1.491046745065194E+02 1.494991997949060E+02 1.521022132559390E+02 1.533765633236892E+02 1.526375887909958E+02 1.486931599816328E+02 1.473183059525436E+02 1.558068206526887E+02 1.572058174900501E+02 1.506963192280302E+02 1.503551196466849E+02 1.532983838635571E+02 1.521332925744455E+02 1.523099359925063E+02 1.510433493774169E+02 1.491938607286540E+02 1.515144915934047E+02 1.529502985555382E+02 1.521169667059876E+02 1.549889609742472E+02 1.514558338535521E+02 1.436000282362729E+02 1.500875473434612E+02 1.565534324478622E+02 1.533737803971110E+02 1.460429469630024E+02 1.451370270927473E+02 1.461182597843992E+02 1.508463458368187E+02 1.534138002925834E+02 1.573735166614088E+02 1.526205237411050E+02 
1.391042723439489E+02 1.377273674575347E+02 1.363408023448278E+02 1.354732599076701E+02 1.368390443748392E+02 1.370318435240949E+02 1.345957194893113E+02 1.367267991425529E+02 1.380945696561732E+02 1.357252481593619E+02 1.364400017875814E+02 1.346465212500343E+02 1.382308095634853E+02 1.400313141102581E+02 1.353372362429868E+02 1.322718119854576E+02 1.353145963145482E+02 1.361998381706276E+02 1.342957376945055E+02 1.354604210331513E+02 1.362923803497129E+02 1.343776866083358E+02 1.367194632650796E+02 1.386393413972548E+02 1.335934522161037E+02 1.329171006011620E+02 1.392289259514423E+02 1.363295660797435E+02 1.346600832315507E+02 1.347738343328465E+02 1.337832267472231E+02 1.369303602910063E+02 1.301591100011722E+02 1.363672708625338E+02 1.353690473337813E+02 1.367671998014732E+02 1.380969917373745E+02 1.363082924921730E+02 1.341919022260222E+02 1.327887483224886E+02 1.371338471815589E+02 1.362830340181718E+02 1.361603241212667E+02 1.368116148813231E+02 1.345740432031153E+02 1.389124131729102E+02 1.381684262569588E+02 1.305845866590339E+02 1.348346952059476E+02 1.371577185792446E+02 1.363562779079978E+02 
1.291835219899576E+02 1.277028357073809E+02 1.289105320792012E+02 1.255557949936801E+02 1.273252719472055E+02 1.276045386424021E+02 1.266275052204444E+02 1.252789565108863E+02 1.275898542557425E+02 1.238947816469918E+02 1.277135312750402E+02 1.236752846265058E+02 1.305412711045510E+02 1.266604245593264E+02 1.260457120034766E+02 1.271562416890286E+02 1.239024273925418E+02 1.274901987678352E+02 1.212307570252060E+02 1.267869670116686E+02 1.258945524978064E+02 1.231247895918259E+02 1.148214706425263E+02 1.278261377596077E+02 1.264420777450589E+02 1.196098774048046E+02 1.210645673648653E+02 1.251126783485165E+02 1.244813178722241E+02 1.246223752706683E+02 1.287955174163735E+02 1.224833169019985E+02 1.286902754080788E+02 1.191893532140559E+02 1.205761988318450E+02 1.222280740021809E+02 1.299096727035483E+02 1.252359236493160E+02 1.272251841168304E+02 1.240581437765136E+02 1.273432447225889E+02 1.267030526320277E+02 1.263498758097921E+02 1.195820329840406E+02 1.256338503939171E+02 1.259077548977284E+02 1.258573963089420E+02 1.248564144294153E+02 1.282269808087442E+02 1.296996515261758E+02 1.269157950336603E+02 
1.161809285293264E+02 1.161306826181162E+02 1.137735827590443E+02 1.134458368915855E+02 1.125419547006009E+02 1.143033613510061E+02 1.152301670309671E+02 1.092582359970545E+02 1.149030616712378E+02 1.132970132034575E+02 1.133421803947474E+02 1.139185629125811E+02 1.148822814850269E+02 1.138004217022740E+02 1.134012718044867E+02 1.139457124433952E+02 1.132454616695638E+02 1.143064284697218E+02 1.145980498434624E+02 1.143847873179177E+02 1.149934213081463E+02 1.113253542396001E+02 1.148214706425263E+02 1.152052038842214E+02 1.162983881050268E+02 1.145608602764055E+02 1.151435061589166E+02 1.143712198773681E+02 1.125602060413619E+02 1.150450077088119E+02 1.149902335334195E+02 1.143393342669988E+02 1.163207488579583E+02 1.146283421706535E+02 1.107262750273285E+02 1.113936709154418E+02 1.141930185231668E+02 1.172564585943687E+02 1.144325244669269E+02 1.128533069402447E+02 1.103488923687348E+02 1.140896839144443E+02 1.178494482011024E+02 1.157716549977231E+02 1.150693812536383E+02 1.119498478939190E+02 1.135298434071458E+02 1.143692366736309E+02 1.149714744630098E+02 1.135896595049148E+02 1.141270931142769E+02 
1.077105846956365E+02 1.073797348683736E+02 1.081708843370266E+02 1.079806279693801E+02 1.083268721548552E+02 1.083070406138309E+02 1.078549288974723E+02 1.080077504773328E+02 1.088985830411657E+02 1.086440156881101E+02 1.083960982094241E+02 1.083005788423475E+02 1.082641801626546E+02 1.090639013079206E+02 1.085887172062935E+02 1.077223138161144E+02 1.085949780489366E+02 1.079898547874659E+02 1.070709475263332E+02 1.073786631852215E+02 1.078865800378744E+02 1.089920986611091E+02 1.086682504084674E+02 1.068599049452173E+02 1.070066729644009E+02 1.072917578109043E+02 1.076790424385233E+02 1.071887129136730E+02 1.069987083115011E+02 1.083186457045667E+02 1.082657020826314E+02 1.084274786569470E+02 1.084302213375279E+02 1.090273508202381E+02 1.077606281675671E+02 1.078779496151051E+02 1.083215904755912E+02 1.070353844052800E+02 1.078539221739009E+02 1.073498842529220E+02 1.080216675293880E+02 1.079051411213541E+02 1.078991239877514E+02 1.067469491196925E+02 1.085317559157161E+02 1.079071984940440E+02 1.088486848952039E+02 1.089785783712978E+02 1.088415224432686E+02 1.079976380615367E+02 1.077920967850541E+02 
1.057968011135552E+02 1.051333549007661E+02 1.061448692116805E+02 1.049517238878877E+02 1.053439265635461E+02 1.064732880174026E+02 1.060061365298166E+02 1.060557689637340E+02 1.064435345748404E+02 1.062760857304984E+02 1.061336003016477E+02 1.062006429870544E+02 1.057816909714773E+02 1.066677676994084E+02 1.060706380789718E+02 1.063349793551438E+02 1.067815843745598E+02 1.057887521839057E+02 1.062485863578793E+02 1.063321500549466E+02 1.068014608769452E+02 1.063170785491927E+02 1.060999240112390E+02 1.057010754621715E+02 1.055858147946215E+02 1.057506714992396E+02 1.063691316470174E+02 1.059677911547040E+02 1.056919204957430E+02 1.063634937915385E+02 1.055165239900177E+02 1.057343960268220E+02 1.067046627003490E+02 1.063575866104802E+02 1.064156721739307E+02 1.053510355525041E+02 1.059259099013286E+02 1.063128886007714E+02 1.064524012207266E+02 1.056639257286977E+02 1.063416780810512E+02 1.056355391323705E+02 1.058902667330221E+02 1.061271552354617E+02 1.065312333243571E+02 1.066327345033130E+02 1.063701495718708E+02 1.062692527093750E+02 1.065743371924095E+02 1.060469026555174E+02 1.061894372771617E+02 
1.055154674189198E+02 1.051333549007661E+02 1.055492933084613E+02 1.049517238878877E+02 1.053439265635461E+02 1.058687592161552E+02 1.055866562492574E+02 1.059761515966195E+02 1.055520335426581E+02 1.054019941313491E+02 1.057933631230601E+02 1.050950038817562E+02 1.057816909714773E+02 1.062256005933959E+02 1.060706380789718E+02 1.055125328613890E+02 1.055730980010681E+02 1.057887521839057E+02 1.062485863578793E+02 1.060113864129639E+02 1.052443534263728E+02 1.061286278645025E+02 1.052090677335095E+02 1.052946538131728E+02 1.054704152086597E+02 1.053831709555379E+02 1.058893795809013E+02 1.055804756520886E+02 1.053592660307531E+02 1.047430477648120E+02 1.050171778556201E+02 1.052321875317659E+02 1.053497751713094E+02 1.055411529017399E+02 1.049842537634775E+02 1.052020261441562E+02 1.059259099013286E+02 1.055086565997451E+02 1.054986984984557E+02 1.056639257286977E+02 1.047469309296653E+02 1.052980118934752E+02 1.058902667330221E+02 1.053630611297854E+02 1.056680232288938E+02 1.059398601500936E+02 1.057171965530479E+02 1.058485291365100E+02 1.065018271954864E+02 1.050680456273792E+02 1.056492982288380E+02 
1.052861654811277E+02 1.051333549007661E+02 1.051197361622969E+02 1.049517238878877E+02 1.053439265635461E+02 1.055506013786865E+02 1.053377624349207E+02 1.056143580614889E+02 1.046902541190204E+02 1.052735075436249E+02 1.049821165506978E+02 1.050227125613578E+02 1.055877648836570E+02 1.053009819427064E+02 1.050038308151470E+02 1.053341556386747E+02 1.049693204986102E+02 1.049493216001897E+02 1.050812996616933E+02 1.049111480703889E+02 1.052207813033219E+02 1.057973317836218E+02 1.049807947484428E+02 1.051202686085653E+02 1.049326008897385E+02 1.048906319991354E+02 1.050385826392273E+02 1.049701108911870E+02 1.043700916718403E+02 1.047430477648120E+02 1.050171778556201E+02 1.044739978262192E+02 1.047789314358649E+02 1.054546286022851E+02 1.049842537634775E+02 1.042118645509816E+02 1.039624912814668E+02 1.050083476889256E+02 1.054986984984557E+02 1.051880251798107E+02 1.047469309296653E+02 1.052980118934752E+02 1.051072570961119E+02 1.051551160526310E+02 1.043950015795722E+02 1.056308264431593E+02 1.053217839573329E+02 1.053093936068312E+02 1.053836913143607E+02 1.050680456273792E+02 1.046908336746315E+02 
1.052627591720459E+02 1.051093370924389E+02 1.051197361622969E+02 1.043707202328021E+02 1.050850048215693E+02 1.049049238209072E+02 1.050812394666932E+02 1.054838694359842E+02 1.046902541190204E+02 1.051451199303949E+02 1.047165999625406E+02 1.050227125613578E+02 1.050246880340628E+02 1.053009819427064E+02 1.043752399218472E+02 1.049722328010655E+02 1.049693204986102E+02 1.049493216001897E+02 1.049473498692048E+02 1.049111480703889E+02 1.044327923492742E+02 1.054402697652249E+02 1.049807947484428E+02 1.051202686085653E+02 1.049326008897385E+02 1.047655256261896E+02 1.050385826392273E+02 1.049089427910767E+02 1.043700916718403E+02 1.047430477648120E+02 1.047351601392797E+02 1.044739978262192E+02 1.047789314358649E+02 1.054114172251991E+02 1.049842537634775E+02 1.042118645509816E+02 1.039624912814668E+02 1.043868543530782E+02 1.050283213595499E+02 1.051880251798107E+02 1.047469309296653E+02 1.041391204991287E+02 1.050562400804342E+02 1.049594646268999E+02 1.043950015795722E+02 1.053527466494036E+02 1.049562209731016E+02 1.047717845268999E+02 1.046884546537947E+02 1.050680456273792E+02 1.043214802770769E+02 
1.045542412510140E+02 1.051093370924389E+02 1.050173872753867E+02 1.043707202328021E+02 1.045919306872920E+02 1.040006555260611E+02 1.044061339943573E+02 1.045386544428372E+02 1.046902541190204E+02 1.046422963813741E+02 1.042667112840986E+02 1.042863401497882E+02 1.041318160308167E+02 1.046250518657735E+02 1.043752399218472E+02 1.048183285284583E+02 1.049693204986102E+02 1.044756187929083E+02 1.048488484294510E+02 1.049111480703889E+02 1.044327923492742E+02 1.052017570155035E+02 1.043825093808421E+02 1.039174329524233E+02 1.047009812417393E+02 1.045447653050821E+02 1.049467459350658E+02 1.045831419147698E+02 1.043700916718403E+02 1.038448454062154E+02 1.044869535987054E+02 1.044739978262192E+02 1.041231985179056E+02 1.050188786711426E+02 1.049842537634775E+02 1.038120444707847E+02 1.039624912814668E+02 1.042156640266585E+02 1.042285732855908E+02 1.037475748649199E+02 1.041260360954202E+02 1.038593732560330E+02 1.050562400804342E+02 1.048437384935871E+02 1.043950015795722E+02 1.044271844513860E+02 1.047352195769179E+02 1.047717845268999E+02 1.046884546537947E+02 1.045246747408864E+02 1.043214802770769E+02 
1.037903335165547E+02 1.040839463525122E+02 1.036856482921014E+02 1.039661159331263E+02 1.035917417650558E+02 1.039273168710638E+02 1.040245351057915E+02 1.038687196765916E+02 1.046902541190204E+02 1.043494687970187E+02 1.036559960213926E+02 1.039210528351787E+02 1.041218998358850E+02 1.035492054623207E+02 1.043289013794038E+02 1.043312074388869E+02 1.043227874827512E+02 1.037431974399547E+02 1.042083668751375E+02 1.040202416285920E+02 1.039782661873774E+02 1.044632711953664E+02 1.040353888645218E+02 1.035131591716258E+02 1.036416560772680E+02 1.040430487288672E+02 1.044949611155460E+02 1.033335124557914E+02 1.043406187550888E+02 1.038448454062154E+02 1.036071528614555E+02 1.044739978262192E+02 1.041231985179056E+02 1.045379955013045E+02 1.046993557523010E+02 1.033014726203137E+02 1.037974902342833E+02 1.038899135485192E+02 1.029744670504740E+02 1.037475748649199E+02 1.041260360954202E+02 1.033228540408497E+02 1.041629744144445E+02 1.041824403305930E+02 1.038607143316374E+02 1.044271844513860E+02 1.047004432602025E+02 1.034042331769747E+02 1.044731287230225E+02 1.045246747408864E+02 1.043214802770769E+02 
1.034308301569420E+02 1.036818178734097E+02 1.036856482921014E+02 1.033182357555104E+02 1.034615962381768E+02 1.032398553278929E+02 1.034486128414787E+02 1.034659981332779E+02 1.046902541190204E+02 1.031013882948550E+02 1.036559960213926E+02 1.038847067181398E+02 1.036897332232138E+02 1.035123440128336E+02 1.037932260768234E+02 1.036975807586512E+02 1.033686336745498E+02 1.035787230607941E+02 1.029807218037756E+02 1.034718109141693E+02 1.030247531280934E+02 1.032989938575693E+02 1.038776342644558E+02 1.034077846029870E+02 1.028818247680172E+02 1.035499565588002E+02 1.043028906575189E+02 1.029084389823099E+02 1.042110113537419E+02 1.033688586856554E+02 1.029295861910323E+02 1.036904815414700E+02 1.038706904866451E+02 1.034671755986783E+02 1.045325359269514E+02 1.031614837197258E+02 1.032484293602115E+02 1.032977302784807E+02 1.028052187482126E+02 1.037475748649199E+02 1.038523504503673E+02 1.026544503309544E+02 1.034358439062153E+02 1.037254437344150E+02 1.035812140629053E+02 1.037982644204178E+02 1.037123206821952E+02 1.029690653655830E+02 1.042178133742634E+02 1.034508435779610E+02 1.036353688831216E+02 
1.033440455159764E+02 1.028784438922742E+02 1.034925340792040E+02 1.026118738478911E+02 1.034300443356160E+02 1.031655085181371E+02 1.031218676006870E+02 1.032788573356754E+02 1.040704927491552E+02 1.031013882948550E+02 1.035164724250371E+02 1.026337561964594E+02 1.031079724403523E+02 1.033515400993019E+02 1.030182913514757E+02 1.032048816643992E+02 1.031353756350193E+02 1.033390881750711E+02 1.028128513313081E+02 1.034197277032645E+02 1.029183944117369E+02 1.032127141652750E+02 1.035828586327671E+02 1.032553205862489E+02 1.026381914649940E+02 1.029938819385295E+02 1.031585243245190E+02 1.028139645245069E+02 1.039088988556787E+02 1.033072604080030E+02 1.029295861910323E+02 1.032829879725655E+02 1.030540659073038E+02 1.031279239290964E+02 1.037893373104528E+02 1.029472427348615E+02 1.030760354224628E+02 1.031755900601042E+02 1.027112343250481E+02 1.031654527855364E+02 1.028996150376474E+02 1.026413837482762E+02 1.030604422604229E+02 1.032667455548171E+02 1.029017751909864E+02 1.031048144129704E+02 1.030766781359234E+02 1.029318901472523E+02 1.034916659628295E+02 1.031211104804283E+02 1.030772827654589E+02 
1.033306367685532E+02 1.027925079394258E+02 1.030725407146676E+02 1.025944431131502E+02 1.033745783577149E+02 1.031458209551702E+02 1.030569667949374E+02 1.032392625393659E+02 1.029194318866491E+02 1.030781462830332E+02 1.033744770128442E+02 1.025310405087896E+02 1.030713335616708E+02 1.032647036327605E+02 1.029562847041705E+02 1.030446024606174E+02 1.030938187911868E+02 1.033121576095502E+02 1.027831271099035E+02 1.033307193203114E+02 1.028713726065669E+02 1.031837596538558E+02 1.031158590061996E+02 1.030396346792918E+02 1.025946129721560E+02 1.029167561133725E+02 1.031575990844674E+02 1.027827535848421E+02 1.033567843690066E+02 1.032147464594395E+02 1.028871152066363E+02 1.028295694299623E+02 1.024264062058333E+02 1.030708240858598E+02 1.034839538594918E+02 1.029116221850650E+02 1.029902721008866E+02 1.030977944898566E+02 1.026561997264050E+02 1.024794610743056E+02 1.028110660722346E+02 1.026384224912547E+02 1.027210089721773E+02 1.032157519064272E+02 1.027665376261632E+02 1.029098317412036E+02 1.029178336472407E+02 1.028647448453428E+02 1.031143964670962E+02 1.030902440868467E+02 1.029110186461089E+02 

