1.869917003293493E+08 2.263837967656781E+08 2.908698670942292E+08 2.845328642625620E+08 1.801171785481230E+08 2.591355226597519E+08 1.942545617226166E+08 8.795172188880703E+07 1.775831454098341E+08 2.234063756751650E+08 4.999459242691566E+08 1.795579178779589E+08 2.076129486118846E+08 1.846376975302117E+08 2.516234391270230E+08 2.440607327556649E+08 7.400543600293149E+07 2.932139068736642E+08 1.099296419704071E+08 1.687813018147689E+08 2.115552411340679E+08 1.431510282446659E+08 1.142244166793231E+08 7.176065476749761E+07 1.504808613515666E+08 5.377574042431265E+07 3.039802742953057E+08 1.585403896621436E+08 2.016202504191219E+08 1.855181825032382E+08 1.360689832462459E+08 4.356641538062030E+08 1.001725295911657E+08 4.489530313765309E+07 2.304663220584870E+08 8.515144962478784E+07 1.265257544015050E+08 1.132362513415051E+08 1.070827531001385E+08 9.728671878688082E+07 7.964342099115096E+07 9.444913605129886E+07 2.199673551129684E+08 9.942054149318561E+07 1.141070635500500E+08 9.286738002144092E+07 7.974767558411688E+07 5.317898433879735E+08 4.081865269629005E+08 3.773663157382653E+08 5.051048822444745E+08 
1.869917003293493E+08 2.263837967656781E+08 2.908698670942292E+08 2.845328642625620E+08 1.801171785481230E+08 2.591355226597519E+08 1.942545617226166E+08 8.795172188880703E+07 1.775831454098341E+08 2.234063756751650E+08 4.999459242691566E+08 1.795579178779589E+08 2.076129486118846E+08 1.846376975302117E+08 2.516234391270230E+08 2.440607327556649E+08 7.400543600293149E+07 2.932139068736642E+08 1.099296419704071E+08 1.687813018147689E+08 2.115552411340679E+08 1.431510282446659E+08 1.142244166793231E+08 7.176065476749761E+07 1.504808613515666E+08 5.377574042431265E+07 3.039802742953057E+08 1.585403896621436E+08 2.016202504191219E+08 1.855181825032382E+08 1.360689832462459E+08 4.356641538062030E+08 1.001725295911657E+08 4.489530313765309E+07 2.304663220584870E+08 8.515144962478784E+07 1.265257544015050E+08 1.132362513415051E+08 1.070827531001385E+08 9.728671878688082E+07 7.964342099115096E+07 9.444913605129886E+07 2.199673551129684E+08 9.942054149318561E+07 1.141070635500500E+08 9.286738002144092E+07 7.974767558411688E+07 5.317898433879735E+08 4.081865269629005E+08 3.773663157382653E+08 5.051048822444745E+08 
3.513286072662147E+07 1.682958979503133E+07 1.031985713751623E+07 3.289703148964264E+07 2.711285171360606E+07 2.975920385268521E+07 3.182396889634019E+07 3.182532937315848E+07 7.039149072108001E+06 4.448884764025174E+07 2.835403576501228E+07 1.351119366533123E+07 1.842823303493578E+07 3.961295245267806E+07 1.794485230989764E+07 2.377231971403711E+07 2.465792044159298E+07 2.438650135162594E+07 2.494246414298846E+07 4.942394560255360E+07 1.512757162982264E+07 1.055315670582806E+07 2.430113898765583E+07 2.665007266135864E+07 4.564746806569198E+07 2.396400912329780E+07 3.869045698859196E+07 1.399812365895886E+07 2.370397611862984E+07 3.066717266864255E+07 3.509078496382798E+07 1.316773550130430E+07 1.494227128586523E+07 2.730370551835175E+07 2.622497789993166E+07 3.144726866685618E+07 2.083064328489958E+07 3.126964052119695E+07 2.434563099712560E+07 6.541141852693602E+06 1.931012601264146E+07 6.790666521692596E+06 2.634775759710257E+07 5.497218209406088E+06 1.920895579170733E+07 1.541111985214243E+07 2.297689563470867E+07 2.702942220258829E+07 1.563368458968766E+07 1.411631356151697E+07 1.195851659030266E+07 
1.366886915373850E+07 1.088714223267778E+07 4.131859017989927E+06 8.719120227854053E+06 7.006994499250108E+06 4.688897774163704E+06 4.616965335779883E+06 3.016547747445668E+06 6.800856942462191E+06 5.686971048934275E+06 9.136343929951707E+06 6.357490776560034E+06 3.806663314444016E+06 6.964593208865913E+06 7.474702232855219E+06 6.906914688086472E+06 5.669847358395012E+06 4.319250557449775E+06 9.391235234325258E+06 1.314867465006161E+07 3.545215646520013E+06 5.571189358497520E+06 5.526867635484380E+06 9.437300828592237E+06 7.506131406376099E+06 3.113303731056738E+06 8.421065725393279E+06 1.351662704475275E+07 7.427177811166487E+06 1.237379645471578E+07 8.845085770396775E+06 4.300105632041090E+06 4.815057257659299E+06 5.346186335465371E+06 1.108153269941017E+07 1.483341424620901E+07 1.138274628314344E+07 1.070819474561170E+07 4.817484216004154E+06 4.260129476918785E+06 5.686241335410431E+06 5.638948082453650E+06 8.201770790828480E+06 5.497218209406088E+06 5.888788173315545E+06 6.424301298888919E+06 3.112356782990521E+06 1.149868196335456E+07 7.039372942095857E+06 9.888124718018331E+06 2.877843063861189E+06 
1.585025739710185E+06 1.877189724186742E+06 2.650508851912536E+06 1.426216030005805E+06 2.222234888126259E+06 2.851438429611909E+06 1.581489261468037E+06 3.016547747445668E+06 5.564568991226545E+06 1.708561695259111E+06 2.523012248590442E+06 2.617538352825075E+06 2.223544788162060E+06 3.679344338573173E+05 4.430887760795905E+06 3.587056774793032E+06 2.209765304428206E+06 3.884188641648287E+06 4.260396507056898E+06 3.695927841562754E+06 1.516234261122156E+06 1.792615400752697E+06 3.148477315439970E+06 4.119082165709068E+06 2.920577477191351E+06 2.879498152261189E+06 1.207591754588491E+06 2.808363438108704E+06 2.429453545475621E+06 2.079263483931788E+06 1.616066005098545E+06 2.154112576739361E+06 4.220803230743384E+06 2.079967167779574E+06 5.565010931934235E+06 4.479082242192765E+06 2.546437996761929E+06 3.318330412290625E+06 2.769696625953135E+06 2.047607254891139E+06 4.589203866748794E+06 1.399581932114563E+06 3.010066226018770E+06 1.884849808757756E+06 3.528042744119375E+06 3.743872862568380E+06 2.034056688588873E+06 4.829744288768811E+06 3.052621446358929E+06 1.684514509066650E+06 2.112720927987278E+06 
8.409298915977626E+05 1.319411657785054E+06 1.021321441886090E+06 4.959929034495655E+05 1.111180126036638E+06 6.882174234862211E+05 1.385163375073532E+06 1.137500669636825E+06 1.834588427240492E+06 1.431541039602064E+06 1.893192800205253E+06 1.376115067978591E+06 9.631267091718782E+05 3.299273575825334E+05 1.296455307288637E+06 6.939831602303865E+05 1.269024184844060E+06 1.294768730282911E+06 1.604098631247633E+06 5.418191247027698E+05 9.835999523342024E+05 1.393139758481353E+06 2.103662111154349E+06 1.493123112962320E+06 1.053699496329187E+06 5.987471788930615E+05 9.491787082635025E+05 1.421304085554848E+06 8.893018905861147E+05 9.168524668319896E+05 8.258533725518556E+05 1.085405820071199E+06 1.363368545451697E+06 1.287296803151483E+06 1.123258701769290E+06 1.294698472912750E+06 2.237963451893458E+06 1.199849417337958E+06 1.183792275026766E+06 8.855645605285957E+05 9.363875577105415E+05 4.152567018218222E+05 1.704806051767841E+06 1.342159067169545E+06 1.105070003358943E+06 1.895258678883901E+06 1.236915226491934E+06 1.043000655573507E+06 1.319430458970435E+06 1.139447551072070E+06 1.520310868955563E+06 
3.746322924108591E+05 8.862447017989906E+05 1.907753194026934E+05 4.959929034495655E+05 5.573716067278519E+05 6.170999714120851E+05 7.154139492387296E+05 4.527929354933281E+05 6.744066856461634E+05 3.110406110695445E+05 4.716051853696717E+05 4.346632424315420E+05 6.000596809369638E+05 2.924815836682406E+05 5.224429378864032E+05 4.859640164365884E+05 4.499724224626373E+05 5.426534768289290E+05 8.651366911103784E+05 5.091108227903461E+05 4.899266325746698E+05 4.920563400103319E+05 4.639204173265354E+05 3.217752191401971E+05 9.172873283160991E+05 4.549889870465497E+05 5.957778275521285E+05 7.845672516297037E+05 5.508343026189313E+05 6.922873690343046E+05 4.528271168794946E+05 6.664119503048637E+05 6.982050043980386E+05 5.438694162072492E+05 6.202392032031807E+05 5.644304694221142E+05 5.965216246375225E+05 2.787151227786362E+05 6.479565723543115E+05 4.052131398089151E+05 7.400919922721142E+05 4.152567018218222E+05 4.813112865301892E+05 7.498880323881782E+05 6.038968097057849E+05 4.351182929255559E+05 5.400720906766930E+05 3.381988691130908E+05 8.134485882162170E+05 3.130282158295914E+05 5.055142893137213E+05 
1.741062364700075E+04 1.335026007611150E+04 1.787992470890746E+04 1.608963036344736E+04 1.067071248792122E+04 1.682739761412743E+04 1.345781333175443E+04 1.578978904562178E+04 7.986432827985471E+03 1.960421217347775E+04 1.610945096343465E+04 1.241290520400877E+04 1.211682638394327E+04 6.148625547960840E+03 1.534371338985736E+04 1.282457986296675E+04 1.298538169769422E+04 1.731459550906719E+04 1.040996834322989E+04 1.379995550124572E+04 1.888372363907864E+04 1.318115386447445E+04 1.549091514825478E+04 1.418397359626616E+04 1.462138101991109E+04 1.558864668108387E+04 2.334674374857110E+04 1.465023666556070E+04 1.392826878468405E+04 1.600471152330039E+04 1.475919378919631E+04 2.113206199748319E+04 1.936746892974867E+04 1.993886122644976E+04 1.414901447040362E+04 1.368351750007312E+04 1.528510058466645E+04 2.124333148596552E+04 1.343082403011895E+04 1.341173881051124E+04 1.338848286583654E+04 1.561213870461984E+04 1.413572920517625E+04 1.446402318929291E+04 1.437907013225311E+04 8.321123758160338E+03 8.901611694945770E+03 1.109031574605257E+04 1.300457522050232E+04 2.190507738343803E+04 1.304726753018969E+04 
1.619486342009313E+03 1.646204241067862E+03 1.549891894447882E+03 1.398810070589670E+03 1.676424065070232E+03 1.397053171586883E+03 1.627247365297594E+03 1.622268484720960E+03 1.499508585452114E+03 1.436972497230430E+03 1.485493057065847E+03 1.680792361008400E+03 1.756466632619912E+03 1.733246596753719E+03 1.708960009560905E+03 1.795774625406083E+03 1.572432650418296E+03 1.641060538568046E+03 1.302661207201536E+03 1.681781517849965E+03 1.271952124044075E+03 1.716058539201084E+03 1.452753861709982E+03 1.480351493633971E+03 1.714221080846153E+03 1.639479062146208E+03 1.608008538841531E+03 1.611437864284146E+03 1.562512287508338E+03 1.665868497182164E+03 1.433633898938483E+03 1.702711283422580E+03 1.560665530231030E+03 1.573530830602426E+03 1.740317940825985E+03 1.441809801029621E+03 1.782537753637947E+03 1.602034084380896E+03 1.509858038971557E+03 1.769927351021418E+03 1.570438851880533E+03 1.625956204567364E+03 1.538540771698193E+03 1.368987360962663E+03 1.559692972604841E+03 1.552068265447821E+03 1.668679404634108E+03 1.487588424625555E+03 1.731077689284291E+03 1.414358279134136E+03 1.490232484150603E+03 
1.165652442350787E+03 1.249641459896561E+03 1.064413695964478E+03 1.190144954887910E+03 1.302908674864681E+03 1.027356635859964E+03 1.276856127255592E+03 1.191608794938375E+03 1.051268536385410E+03 1.099060579146015E+03 1.321240314565376E+03 1.189434313003222E+03 1.358942800819398E+03 1.121695583166696E+03 1.192679169864697E+03 1.263462275779245E+03 1.057916117955504E+03 1.213647480604283E+03 1.181277214191001E+03 1.327266083911994E+03 7.737571082159309E+02 1.076070115241273E+03 1.097656894801437E+03 1.117932797048049E+03 1.139909481614748E+03 1.129309431831244E+03 1.146384964414203E+03 7.886722185338908E+02 1.237089328582559E+03 1.113628848238681E+03 1.096163182333152E+03 1.271224659807886E+03 1.030249677152055E+03 1.232963942098339E+03 1.322889145733017E+03 1.167161202865154E+03 1.325328523556221E+03 1.006160205778785E+03 1.252139794831634E+03 1.259580669913265E+03 1.191688105456694E+03 1.120968272750115E+03 1.197584415169938E+03 1.071516996405085E+03 1.229047246179408E+03 1.178357205212677E+03 1.142443724638149E+03 9.067695199177520E+02 1.018006540982472E+03 9.639347053953554E+02 1.079681298370269E+03 
9.330964283874996E+02 8.527503452464441E+02 8.302253566144677E+02 1.003911218675802E+03 1.011728734997940E+03 6.021891589675206E+02 9.375520346512908E+02 6.979227583437805E+02 7.944617388657971E+02 7.465223470346018E+02 1.008639774705860E+03 9.594493264130888E+02 1.243518128375464E+03 9.423736691009276E+02 1.095520888431972E+03 1.118682795445985E+03 9.976759239583812E+02 8.406100762443482E+02 9.612524982812963E+02 1.114517155966369E+03 6.257116949914957E+02 8.801384730566981E+02 8.610783320444029E+02 9.457838829003399E+02 8.402587943940807E+02 1.053063064051289E+03 9.780918846405466E+02 7.827593650291069E+02 1.124737488495810E+03 9.591467136311735E+02 1.075369323903417E+03 1.175704706995457E+03 8.882147057936275E+02 1.006925396204245E+03 1.061735422524545E+03 1.019108319867891E+03 1.133951820881408E+03 9.086043283918721E+02 9.102712213400205E+02 1.088760830422758E+03 9.868701368420097E+02 8.739408134328303E+02 1.000134157399305E+03 9.812351405754521E+02 9.935240471176533E+02 8.584244330114914E+02 1.102973787410841E+03 8.621031733016603E+02 9.299164170204672E+02 8.336502195491407E+02 9.634255250486908E+02 
7.636907749076086E+02 7.825321461487674E+02 6.571127727107883E+02 9.170463863192556E+02 8.470899564887347E+02 5.127810443276271E+02 7.566281132739375E+02 5.895300623314679E+02 6.486902705481268E+02 6.962632554507977E+02 9.287592084166804E+02 8.053380547936145E+02 1.082957936355431E+03 7.812103198682523E+02 1.035793044462977E+03 9.830917548384759E+02 9.184897790575178E+02 6.468150304972946E+02 8.323762231095677E+02 1.021336920880778E+03 4.964635225933221E+02 7.249953603938693E+02 7.623906512425754E+02 8.370744389333333E+02 7.269529206450902E+02 9.017049682695047E+02 7.958482344424715E+02 6.826378534248547E+02 8.459216337490072E+02 8.297847005663193E+02 9.905976335907474E+02 9.298534120334628E+02 8.374569509658868E+02 7.724636872043034E+02 9.417196601787960E+02 8.691219040322376E+02 9.764968528337386E+02 7.225156082346321E+02 8.434342137564056E+02 8.768372375677611E+02 8.368719915331126E+02 7.188734113155820E+02 9.348718208322280E+02 8.475648169823444E+02 8.106303679687812E+02 8.349647686642541E+02 1.013766287165768E+03 6.440111520677767E+02 8.354104298052587E+02 7.011238374513102E+02 8.693741894773496E+02 
7.027346917055613E+02 7.081984877703640E+02 6.210989483555454E+02 7.454604438529673E+02 7.309113652983658E+02 4.837270686307973E+02 7.345716616034324E+02 5.112997582968653E+02 4.844228673751506E+02 5.697117637442607E+02 6.734178826658454E+02 6.123122081798797E+02 9.578805553275884E+02 7.100560919647169E+02 9.687218211846705E+02 8.876808650838052E+02 7.279891780224341E+02 5.879166030696019E+02 7.578565171414073E+02 8.794055796829753E+02 4.419316720192783E+02 5.858860827149688E+02 5.847950573236119E+02 6.944218729627507E+02 6.150961327765949E+02 7.829661956498419E+02 6.914793666386788E+02 6.597880438957036E+02 6.911185004163729E+02 6.690045195342048E+02 6.934493004347430E+02 7.605017438680034E+02 7.832753519303305E+02 6.699768566803284E+02 8.361499532024373E+02 7.811379378039794E+02 8.084602104226860E+02 6.615055697636212E+02 6.624518316993990E+02 8.025411312340605E+02 7.638264725504823E+02 5.513489860880181E+02 7.718677412620029E+02 7.623340048518280E+02 7.378266823550914E+02 6.954427314055515E+02 7.670108660626304E+02 5.709731710050432E+02 6.841145322041475E+02 5.927067491081712E+02 6.720572512634103E+02 
6.125995924307472E+02 6.004654082371417E+02 5.358144033042304E+02 5.892692149700190E+02 5.917024450329070E+02 4.088967840768030E+02 5.948589832013668E+02 3.796106392518200E+02 3.628449045771281E+02 5.052573019154315E+02 5.293819869596423E+02 5.420335583813194E+02 8.449671383604639E+02 6.211037666189541E+02 8.495606853672123E+02 6.912016250354318E+02 6.247525968342643E+02 4.982674320604801E+02 6.396185632675370E+02 5.725836890347032E+02 3.720329936162098E+02 4.440163106540672E+02 3.827991805945317E+02 5.791022220737427E+02 5.303848239710624E+02 5.372104154405870E+02 6.318893107244380E+02 4.246102854536432E+02 6.158622096875670E+02 5.630596966550077E+02 5.784841663924849E+02 5.895769331377555E+02 6.778668401410844E+02 5.573020784051216E+02 7.081480260164035E+02 6.975874218552503E+02 7.021773510615437E+02 5.418677533963964E+02 6.200462639141199E+02 6.114088113847022E+02 5.614630966933250E+02 4.112730625886686E+02 5.993596841501235E+02 6.176549951375182E+02 6.212376381607262E+02 6.094785486872747E+02 6.233995189467291E+02 4.423611490230082E+02 5.055700756479218E+02 5.127412126621327E+02 5.453386137266168E+02 
4.714565377280617E+02 5.021134176417359E+02 4.596567502758501E+02 4.891522147581914E+02 4.887680030958118E+02 3.527425734705691E+02 4.871216001560272E+02 2.891361651462614E+02 2.703275803063880E+02 4.044484786279581E+02 4.611377349863021E+02 4.725276609124790E+02 5.630506839268905E+02 5.237298548910817E+02 6.961554476643407E+02 6.019741294751780E+02 4.965749550627004E+02 4.455142152797403E+02 5.055322789435872E+02 4.230643395250002E+02 3.046117759191407E+02 3.172737618229567E+02 2.919659651307070E+02 4.702157749827359E+02 4.777330435851861E+02 4.583426894116797E+02 4.804850287362447E+02 3.069547512090048E+02 4.412413111958053E+02 4.178960640441796E+02 4.557919665273903E+02 4.483507852498892E+02 5.290494719383869E+02 4.530360782730631E+02 6.423117264873913E+02 5.113047399154289E+02 4.256327729701573E+02 4.691295989846265E+02 5.034598995574004E+02 5.034826701574420E+02 4.980151306092321E+02 3.415519695837334E+02 4.473417973640740E+02 4.642952060272910E+02 5.487512466194423E+02 5.204011802712132E+02 6.227359722117014E+02 3.582064721596155E+02 4.587941250817578E+02 4.532423726983834E+02 5.447179985577564E+02 
2.209763820145672E+02 4.051320210815964E+02 4.145767290467466E+02 3.792180737775666E+02 3.904838193521759E+02 2.569325958152535E+02 4.010303501669639E+02 1.818748273588622E+02 1.621464602179181E+02 3.625219002048646E+02 3.621627992908711E+02 3.675749993909401E+02 4.539612811043253E+02 4.504206659792853E+02 4.636604259337778E+02 4.910736564913013E+02 4.596049011096638E+02 3.718470781523477E+02 4.574250994155304E+02 3.368532716102668E+02 1.870754283533618E+02 1.821296546804940E+02 2.136606930387620E+02 3.847654664015672E+02 4.277989783637074E+02 3.778759572604026E+02 3.772395055841064E+02 2.419751565457796E+02 3.978123041577758E+02 3.633481895715572E+02 3.674336013554553E+02 3.513013549435530E+02 4.909146817555541E+02 3.484422376757107E+02 5.863998617884779E+02 3.986818590051696E+02 2.351971520410864E+02 4.151195150282556E+02 3.851206940705761E+02 3.529905766866532E+02 4.143801893169032E+02 1.944396413247982E+02 3.967873399058576E+02 3.604793095896453E+02 4.734891235868704E+02 4.168796291960803E+02 6.227337589459676E+02 2.604020153031729E+02 3.804924019885750E+02 3.953660829058088E+02 5.447153725427506E+02 
1.887072025840764E+02 3.961798791294900E+02 3.977085746191237E+02 3.630697219335482E+02 3.690176183199917E+02 1.476143731948432E+02 3.529193176029310E+02 1.735581419131711E+02 1.603933271075914E+02 3.483889166166687E+02 3.455962665708730E+02 3.630695409292684E+02 4.539278388240232E+02 3.694278528993300E+02 4.584707889537115E+02 4.908991236028840E+02 4.595834378147158E+02 3.690670406075153E+02 4.571494887976244E+02 3.316099530324816E+02 1.800067184787993E+02 1.806449775369531E+02 1.570133322928698E+02 3.691859504247723E+02 3.955887116932386E+02 3.771630838896913E+02 3.678580057618758E+02 1.879873620724973E+02 3.977999969880289E+02 3.630518171080673E+02 3.630428378479605E+02 3.412755717549198E+02 4.908909456330491E+02 3.455679774441448E+02 5.759706512044429E+02 3.984134687112746E+02 1.613409846098032E+02 4.047035522916115E+02 3.656409407461658E+02 3.526186306648690E+02 3.702957859848275E+02 1.556721429090931E+02 3.691887131479798E+02 3.501941149262257E+02 4.651045109392783E+02 3.955393658497580E+02 6.227336802574796E+02 2.240584560103773E+02 3.412729935340817E+02 3.704706422017109E+02 5.447153625657384E+02 

