 26/10/2016 10:27:20 |                  Run 1                 Run 2                 Run 3                 Run 4                 Run 5                 Run 6                 Run 7                 Run 8                 Run 9                Run 10                Run 11                Run 12                Run 13                Run 14                Run 15                Run 16                Run 17                Run 18                Run 19                Run 20                Run 21                Run 22                Run 23                Run 24                Run 25                Run 26                Run 27                Run 28                Run 29                Run 30                Run 31                Run 32                Run 33                Run 34                Run 35                Run 36                Run 37                Run 38                Run 39                Run 40                Run 41                Run 42                Run 43                Run 44                Run 45                Run 46                Run 47                Run 48                Run 49                Run 50                Run 51
       0.0001*MaxFES =            21.27804874           21.40199279             21.299892            21.3768999           21.52601696           21.47911123           21.44426134           21.44690768            21.4176749           21.34500425           21.33446902            21.5638934           21.41801607           21.42799875           21.31966624           21.53223834           21.25097803           21.46512131           21.10172462           21.54250572           21.50544061           21.46950271           21.26738609           21.50012122           21.49537919           21.35697496           21.40763665           21.29906487           21.53740927           21.48355361           21.45943411            21.3277554           21.50891262           21.44439774           21.48245377           21.45343013           21.45374637           21.40037807           21.44332945           21.55197645           21.35571576           21.40390244           21.25986983           21.37591544           21.45961495           21.43417166           21.47792498           21.54458731           21.28518198           21.38519843           21.44708689
        0.001*MaxFES =            21.27405251           21.31880207             21.299892           21.27525581           21.34113647           21.22557741           21.19362651           21.26995907           21.22600671           21.22854118           21.29503857           21.35670725           21.21701912           21.20149643            21.2346429           21.29230906           21.25097803           21.25301454           21.10172462            21.2794255           21.36787708           21.17220931           21.26738609           21.34174441           21.34878863           21.24955234           21.26174973           21.25076038           21.27558874           21.25458175            21.3683838            21.2168998           21.17845087           21.26484233           21.26587552           21.32298726           21.38520322           21.28563982           21.25359535           21.30079786           21.22708353           21.23019591           21.20159095           21.15706055           21.34694146           21.32503764           21.22776783           21.21517036           21.28518198           21.32546984           21.27264855
         0.01*MaxFES =            21.10448284           21.18314305           21.15905861           21.06575109            21.1309823           21.20207944           21.18476946           21.09900618           21.04094836           21.05760766           21.18355845           21.00356629           20.95226783           21.17514935           21.18005213           21.18498915           21.15546825           21.22103087           21.06454798            21.1924019           21.07206988           21.07476581           21.11503097           21.20410388           21.19378477           21.11409662           21.13885072           21.20976459           21.16853121           21.18637388           21.13338623            21.1615188           21.10330156           21.10380608           21.14998918           21.14720539           21.06988305           21.18011144           21.16488431            21.0980846           21.14108173           21.23019591           21.19428228           21.13957134           21.10479004           21.10612039           21.16908159           21.21517036           21.24645671           21.16475248           21.13763337
         0.02*MaxFES =            21.10448284           21.18314305           21.14743835           21.06575109            21.1309823           21.11435861           21.18476946           21.05517195           21.04094836           21.01565787           21.18355845           21.00356629           20.95226783           21.17514935           21.18005213            21.0988124           21.11189946           21.04467204           21.03968949           21.11276667           21.07206988           21.07476581           21.11503097           21.13636164           21.19378477           21.11409662           21.13885072           21.06952189           21.16853121           21.18637388           21.07575862           21.15783966           21.09330592           21.10380608           21.14998918           21.05607468           21.06988305           21.18011144           21.16488431            21.0980846           21.08324206           21.22235126           21.19428228           21.13957134           21.10479004           21.10612039           21.13327278           21.12068603           21.15321915           21.13149425           21.13763337
         0.03*MaxFES =            21.10448284           21.18314305             21.143788           21.03922183           21.08242107           21.11435861           21.18476946           21.05517195           21.04094836           21.01382865           21.18355845           21.00356629           20.95226783           21.17310299           21.13008537            21.0988124           21.01821805           21.04467204           21.03968949           21.11271042           21.07206988           21.07476581           21.11503097           21.13636164           21.19378477           21.11409662            21.0721368           21.06952189           21.16853121           21.18637388           21.07575862           21.15783966           21.02526216           21.10380608           21.14998918           21.05607468           21.06988305            21.1777346           21.16488431            21.0980846           21.08324206           21.05006445           21.19428228           21.13957134           21.10479004           21.10612039           20.89803173           21.12068603           21.15321915           21.12372645           21.13763337
         0.04*MaxFES =            21.10448284           21.18314305           21.14372388           21.03922183           21.08242085           21.11435861           21.18476946           21.05517195           21.04094836           21.00058221           21.18355845           21.00356629           20.95226783           21.17307859           21.01397448            21.0988124           20.96064613           21.02957608           21.03904984           21.11271035           21.07206988           21.07476581           21.11503097           21.13636164           21.19378477           21.11409662           21.07158843           21.06952189           21.16853121           21.18637388           21.07575862           21.15783921           21.02526216           21.10380608           21.14998918           21.05607468           21.06988305           21.09486618           21.16488431            21.0980846           21.08324206            20.9583109           21.19428228           21.13957134           21.10479004           21.10612039           20.89803173           21.07923312           21.15321915           21.10888439           21.13763337
         0.05*MaxFES =            21.10448284           21.18314305           21.14372385           21.03922183           21.08242049           21.11435861           21.18476946           21.05517195           21.04094836           20.99912044           21.18355845           21.00356629           20.95226783           21.17303522           21.01397448            21.0988124           20.95756197           21.02095491           21.03900421           21.11271019           21.07206988           21.07476581           21.11503097           21.11997206           21.19378477           21.11409662            21.0715458           21.06952189           21.16853121           21.18637388           21.07575862            21.1578388           21.02526216           21.10380608           21.14998918           21.05607468           21.06988305           21.08763489           21.16488431            21.0980846           21.08324206           20.94736182           21.19428228           21.13957134           21.10479004           21.10612039           20.89803173           21.07802318           21.15321915           21.10885052           21.13763337
          0.1*MaxFES =            20.91848891           21.06847912           20.89576405           21.02216357           21.00824162           20.73055492           21.11804303             21.032894           20.93993287            20.8383714           20.90100507           20.93822249           20.68529143           20.94082001           20.67808967           20.90651936           20.81020755           20.85067609           21.03842447            20.8201655           21.03221995           20.97826683           20.92239851            21.0066174           21.11633268           21.00840736           20.94520744            20.8829708           20.95319527           20.95713977           20.89602937           21.13815893           20.84262133           20.91042826           21.14895616           20.79162439           20.87433016           20.76062689           21.04630633           21.06712627           21.03975435           20.94710251           20.84448262           20.98704119           20.95875157            20.9512377           20.72537304            20.9526382           21.05528022           20.82460873           21.00082611
          0.2*MaxFES =            20.62563321           20.31760097           20.33848351            20.4191252           20.53325547           20.27292491           21.03280312           20.40157429           20.37788552           20.32729401            20.4910729           20.24559075           20.23367816           20.53057823           20.34881368           20.42983556           20.28305749           20.52754645           20.48240769           20.34273959           20.68802833           20.62494692           20.45827932           20.73449268           20.40782835           20.60751688           20.52383581           20.33203968           20.52747728           20.62329317           20.47576768           20.44530905            20.2757097           20.58662323           20.67704934            20.2864987           20.43142007            20.2740222           20.59604919           20.39195247           20.42222784           20.62134272           20.35680973           20.61467461           20.53783181           20.26215733           20.18617118           20.37293419           20.52056075           20.48075211           20.39504476
          0.3*MaxFES =            20.32513727           20.12705067           20.13340247           20.15419516           20.19739331            20.0945373           20.93983131           20.23243171           20.10138397           20.07557479           20.26471138           20.11751604           20.04943298           20.35491464           20.23693065           20.16734606           20.06899647           20.31203397           20.27105686           20.08541931           20.54552658           20.20010157           20.29912467           20.30186036           20.15807977           20.28341484           20.21519073           20.22943599           20.26527932           20.40979247           20.12556662           20.12022577           20.08960011           20.32984653           20.22772841            20.2397152           20.17702375           20.13578662           20.43521749           20.19342803           20.21161718           20.33455204           20.08984977           20.34109352           20.24349503           20.10931192           20.10015808           20.13650885           20.12789808           20.17105036           20.15765832
          0.4*MaxFES =            20.13667375           20.07062009           20.04252111           20.08076335           20.07843879           20.03606596             20.437638           20.09029204           20.04570811           20.03437745            20.1290991           20.02728683           20.00872747           20.17733358           20.12987386           20.04973423           20.03035424           20.11550347           20.09463589           20.02594255           20.19133223             20.075478           20.11492039           20.11897786           20.02767277           20.08452568           20.08979631           20.08006548           20.07400343           20.11650376           20.04793302           20.04372335           20.02680955            20.1254313           20.12858908            20.1993587           20.07283182           20.08930521           20.25874509           20.09680072           20.07028339           20.23538527           20.03117894           20.13751107           20.07835817           20.03190348           20.06595616           20.06778227           20.05326995           20.06420954           20.08392683
          0.5*MaxFES =            20.04778741           20.02585835           20.01580421           20.02862499           20.03761365           20.01725503           20.19389254            20.0228534           20.01745667           20.01414633           20.04039762           20.01317305           20.00443378           20.07029782           20.06427888           20.01325047           20.01549346           20.05874023           20.01902105           20.01821866           20.06922173           20.03762008           20.05387728           20.04352579           20.01410482           20.03184229           20.02548248           20.04210323            20.0491587           20.03371081           20.02128629           20.02091508           20.01393506           20.04986062           20.04177359           20.11465604           20.01595603           20.05643156           20.08043747            20.0163912            20.0238545           20.17229996           20.01487527           20.05287933           20.01185694             20.015221            20.0469271           20.02568885           20.01817948           20.02151667           20.02981564
          0.6*MaxFES =             20.0162671           20.00874396           20.00686173            20.0073414           20.02129055           20.00650801           20.07155413           20.00290275           20.00693259           20.00604532           20.02506256           20.00458422            20.0012583           20.02153131           20.02702735           20.01161459           20.00535364           20.01771005             20.013084           20.00503794           20.02921062           20.01084487           20.02796505           20.02024175           20.00465818           20.00743335           20.00539985           20.01613277           20.03094642           20.02010652           20.00430062           20.00822997           20.00636009           20.01818604           20.01436404           20.03939588           20.00824409           20.02534903           20.02562424           20.00523448           20.00753701           20.13952473           20.00577872           20.01967855           20.00859437           20.00526232           20.02681919           20.00670471             20.005762           20.00387142           20.01100123
          0.7*MaxFES =            20.00691371           20.00384763           20.00418147           20.00242247           20.00781474           20.00123086           20.02481701           20.00084481           20.00142088            20.0017625            20.0162875           20.00209018           20.00101537           20.00610612           20.01717548           20.00298838           20.00325755           20.00393292           20.00692669           20.00461154           20.00410917             20.003765           20.00428688           20.01051479           20.00285268           20.00537193           20.00264592           20.00599928           20.03094642           20.02010652            20.0017611           20.00358989           20.00533102           20.00421712           20.00666544           20.01188104           20.00419391           20.00321592           20.00607004             20.001577           20.00399373           20.11427042           20.00255768           20.00701715           20.00489803           20.00211092           20.01650295           20.00623754           20.00237915            20.0016327           20.00482992
          0.8*MaxFES =            20.00257162           20.00364083           20.00137607           20.00186799           20.00414284           20.00033659           20.00966254           20.00067933           20.00029335           20.00063025           20.00880091            20.0013593           20.00101537           20.00203615           20.00607922            20.0022058           20.00299518           20.00174218           20.00396275           20.00338489           20.00168366            20.0009905           20.00178328           20.00377883           20.00275106           20.00460858           20.00144305           20.00164216           20.02670772           20.02010652           20.00086688           20.00218983            20.0050607           20.00114383            20.0042132           20.00324573           20.00188709           20.00121749           20.00175813           20.00080272           20.00178054           20.10171675            20.0019884           20.00476295           20.00316472           20.00140596           20.01202517           20.00623754           20.00125674           20.00056139           20.00144439
          0.9*MaxFES =            20.00134816           20.00295461           20.00018864            20.0016939           20.00293331           20.00013351           20.00497416           20.00047539           20.00022963           20.00024113           20.00319691            20.0008279           20.00081111           20.00079538           20.00213847            20.0011978           20.00224519           20.00065428           20.00189825           20.00179886           20.00058175           20.00080275           20.00092564           20.00137181           20.00245547           20.00156514           20.00081021           20.00082437           20.02233977           20.01382458           20.00032603           20.00218983           20.00494379           20.00036239           20.00206961           20.00106646           20.00082992           20.00008719           20.00067134           20.00077506           20.00062108           20.09634288            20.0019884           20.00209706           20.00255291           20.00111912           20.00535951           20.00577961           20.00078801           20.00014885           20.00046056
              MaxFES =            20.00069161           20.00235439            20.0001333             20.000822           20.00170587           20.00007302           20.00210249           20.00047539           20.00018988           20.00012836            20.0014915           20.00049745           20.00023529           20.00029685           20.00032368           20.00028531           20.00108443           20.00026518           20.00133877           20.00069544           20.00021909           20.00024686           20.00045082            20.0007481           20.00245547           20.00092383           20.00040937           20.00019737           20.02101072           20.00953648           20.00023889           20.00172072           20.00494379           20.00014452           20.00103343           20.00044634           20.00055371           20.00003629           20.00046564            20.0005758            20.0001996            20.0924532           20.00166795           20.00055647           20.00134434             20.000603            20.0010375            20.0055777           20.00052746           19.99998502           20.00018395

                  Best                 Worst                Median                  Mean                   Std
           19.99998502            20.0924532           20.00055371    20.003248698823526  0.013143631379997347

