 22/10/2016 04:09:34 |                  Run 1
       0.0001*MaxFES =                    0.0
        0.001*MaxFES =                    0.0
         0.01*MaxFES =                    0.0
         0.02*MaxFES =                    0.0
         0.03*MaxFES =                    0.0
         0.04*MaxFES =                    0.0
         0.05*MaxFES =                    0.0
          0.1*MaxFES =                    0.0
          0.2*MaxFES =                    0.0
          0.3*MaxFES =                    0.0
          0.4*MaxFES =                    0.0
          0.5*MaxFES =                    0.0
          0.6*MaxFES =                    0.0
          0.7*MaxFES =                    0.0
          0.8*MaxFES =                    0.0
          0.9*MaxFES =                    0.0
              MaxFES =                    0.0

                  Best                 Worst                Median                  Mean                   Std
                   0.0                   0.0                   0.0                   0.0                   NaN

 24/10/2016 06:45:29 |                  Run 1
       0.0001*MaxFES =                    0.0
        0.001*MaxFES =                    0.0
         0.01*MaxFES =                    0.0
         0.02*MaxFES =                    0.0
         0.03*MaxFES =                    0.0
         0.04*MaxFES =                    0.0
         0.05*MaxFES =                    0.0
          0.1*MaxFES =                    0.0
          0.2*MaxFES =                    0.0
          0.3*MaxFES =                    0.0
          0.4*MaxFES =                    0.0
          0.5*MaxFES =                    0.0
          0.6*MaxFES =                    0.0
          0.7*MaxFES =                    0.0
          0.8*MaxFES =                    0.0
          0.9*MaxFES =                    0.0
              MaxFES =                    0.0

                  Best                 Worst                Median                  Mean                   Std
                   0.0                   0.0                   0.0                   0.0                   NaN

