 23/07/2016 02:21:24 |                  Run 1                 Run 2                 Run 3                 Run 4                 Run 5                 Run 6                 Run 7                 Run 8                 Run 9                Run 10                Run 11                Run 12                Run 13                Run 14                Run 15                Run 16                Run 17                Run 18                Run 19                Run 20                Run 21                Run 22                Run 23                Run 24                Run 25                Run 26                Run 27                Run 28                Run 29                Run 30                Run 31                Run 32                Run 33                Run 34                Run 35                Run 36                Run 37                Run 38                Run 39                Run 40                Run 41                Run 42                Run 43                Run 44                Run 45                Run 46                Run 47                Run 48                Run 49                Run 50                Run 51
       0.0001*MaxFES =          2504.38962692         3110.78992937         3509.81208145         3651.15246044         3547.24371839         3352.02290678          2722.1733904         2606.73535268         3282.96099367          3444.1298483         2690.94013294         2571.44779845           3002.229214         2828.53907365         3481.78569701         3212.31762009         3431.43806426         2876.56352506         3099.11843309         3036.73101693         3198.28438417         3223.61015622         3531.35233012         3510.38449233         2743.23388283         2573.98982666         3148.91119919         3044.98038181         3018.40079045         2844.13125509         3282.91472332         2919.96212085         3185.54401046         3192.83989705         2870.35792491          2989.0434729         2744.11441348         2282.77337145         3685.58216297         3011.54369702         3115.38460407         3503.04245998         3293.71393435          2994.8575473         2961.87410293         3397.68789793         2941.84530945         3372.96209835         3524.97580245         2966.44014026         3664.44705588
        0.001*MaxFES =          2277.32395291         2339.18010748         2073.56909425         1934.73301606         2242.72241752         1504.95347622          2361.7888686         2216.78108964         2096.87383267         2212.26983658         2538.60776769         1850.36896044         1938.27643832         2746.45857024         1972.10565853         1994.19956247         2642.57992122         2448.12518939         2454.37412741         2395.28138771         2037.12973707         2280.55045063         1893.73436144         1045.80587397         2085.76249669         1814.49690404         2288.10745626         2218.75181999         1616.11494027         2206.43254173         2149.78032387         2477.95868022         1887.23984317         2647.50010567         1672.67995285         2229.21947853         1795.03984873         1940.22094787         1983.76809772         2738.50503319         2135.06849438         2729.07873161         1605.48599944         2708.86930164         2522.91918965         2365.05422687         2207.34004674           2119.989249         2281.52631223         1535.12384013         2572.71369357
         0.01*MaxFES =          1356.14402187         1498.92594794         1396.41357617         1158.97709781         1265.60717601         1063.96524336         1004.05333258         1391.36295902         1767.04012343          751.83445282         1319.71960786         1184.33684597         1282.29502216         1586.53436207         1080.68855563         1452.92852474         2256.16434619         1855.05508761         1659.48747561          881.12645409          1358.3448283         1555.53657911         1655.96140404          147.77690182         1793.03625764         1014.62910656         1647.02953823           1640.055818         1078.29004665         1246.31726511         1496.51690294         1290.12149741         1178.84800107         1330.91346319          933.43512637         1650.03593039         1137.22635144         1090.84174652          693.88277127         2131.17050512         1111.78790922         1272.64629582          422.10862865          1119.9846793         1741.27241471         1645.54371028         1246.68323091         1186.76334655         1034.14341998         1030.46826517          1716.2352948
         0.02*MaxFES =          1353.25198468         1468.21461681         1347.25104089         1101.51917699         1243.12589325         1053.59916775              955.6976         1389.15657099         1735.45873664            728.705276         1248.31899749         1140.82404139         1216.83511985         1411.10291352         1080.68855563         1410.27608768         2233.76636222         1726.33199028         1639.40229428          795.63950255          1328.5811135         1484.05827989         1590.72273143           94.07968915         1769.44519704         1012.26211952         1548.69576786         1577.76222038         1072.08817905         1174.71039647         1449.56067067         1270.99400228         1130.44497947         1297.60936204          916.86626927         1632.64382308         1126.16658085         1036.47026695          635.61072976         2068.68396214          971.83142723         1246.89075517          422.10862865         1062.18737765         1655.88093877         1645.54371028         1192.57443881         1125.12208675          991.09798571         1030.46826517         1712.04659286
         0.03*MaxFES =          1347.41617224         1468.21461681         1347.25104089         1101.51917699         1227.76665724         1050.07137637              955.6976          1353.9330549         1713.09614459            728.705276         1248.31899749         1114.09122863         1209.41791707         1411.10291352         1080.68855563         1410.27608768         2233.76636222         1726.33199028         1639.40229428          795.63950255         1320.00169876         1454.85701746         1590.72273143           83.84128638         1769.44519704         1012.26211952         1548.69576786          1572.2002426         1039.41579349         1174.71039647         1445.00120415         1244.74443727         1105.38688042         1296.87361725          909.91793571         1629.96506244         1126.16658085         1033.34273392          632.89171381         2060.40349559          957.34081875         1219.12387681          403.49765278         1054.99103007         1643.59933925         1637.05788501         1158.20063781         1092.69255249           983.7064304         1015.53346225         1704.19760155
         0.04*MaxFES =          1338.91961989         1464.84304936         1336.37579706         1101.51917699         1219.44872209         1045.80901419          947.06186695          1353.9330549         1713.09614459          727.16072185         1248.31899749         1114.09122863         1205.86843028         1380.26225527         1080.68855563         1410.27608768         2221.68547452         1726.33199028         1624.74529822          795.63950255         1316.94994845         1443.25251583         1590.72273143           83.84128638         1728.16492577         1003.96811302         1532.88419902         1568.11771957         1039.41579349         1174.71039647         1445.00120415         1244.74443727         1105.38688042         1296.87361725           837.6386119         1629.96506244         1120.96949284         1033.34273392          632.89171381         2060.40349559          949.17638455         1219.12387681          401.99690786         1054.99103007         1643.59933925         1615.64643422         1158.10347695         1092.69255249           983.7064304         1015.35513185         1704.19760155
         0.05*MaxFES =          1310.49846756         1464.84304936         1335.50392036         1101.51917699         1219.44872209         1044.69621347          947.06186695          1353.9330549         1713.09614459          727.16072185         1248.31899749         1114.09122863         1175.25580757         1380.26225527         1080.68855563         1410.27608768         2220.34056286         1724.68699602         1615.24569174          795.63950255         1316.94994845         1443.25251583         1587.99872711           80.78020483         1728.16492577         1003.96811302         1525.19082148         1543.30718913         1036.39188701         1153.86127816         1445.00120415         1236.15012847         1105.38688042         1294.70715714           837.6386119         1624.01267651          1117.1039516         1027.55440788          632.89171381         2060.40349559          949.17638455          1218.0301232          389.48490016         1054.99103007         1643.59933925         1615.64643422         1136.75977342         1092.69255249          967.89065008         1000.83662265         1697.72307806
          0.1*MaxFES =          1310.19554294         1459.53949722         1335.50392036         1101.51917699          1210.6086702         1019.01774547          939.50054812         1344.64228701         1697.97584757          716.78339869         1248.31899749         1114.09122863         1175.25580757         1375.12097019         1063.80727083         1405.22014487         2212.05277363         1694.09814416         1611.58219318          787.17932851         1316.94994845         1443.25251583         1566.57718555           66.30200798         1728.16492577          996.46010158         1494.40768206         1543.30718913         1034.08665143         1153.86127816         1445.00120415         1236.15012847         1105.38688042         1284.57662656          827.87823158         1614.16793082         1103.76496408         1024.17501661          626.60421713         2057.86459235          949.17638455         1206.82346042          382.10620301         1043.21230888         1643.59933925         1615.64643422         1136.75977342         1061.20358504          954.76274783          996.25450275         1697.72307806
          0.2*MaxFES =          1310.19554294         1447.69953017         1333.83216126          1098.3388214          1210.6086702         1019.01774547          932.62121134         1330.32597773           1695.391011          709.43062746         1247.25297499         1114.09122863         1166.88604305         1332.83474898         1063.80727083         1405.22014487         1084.49371258         1692.83482221         1589.03421127          785.22961475         1312.20469333         1441.26886147         1564.18972813           61.59624936         1720.24540102          994.66499651           1477.278151         1543.30718913         1019.04860038         1153.86127816         1426.41956255         1236.15012847         1089.49560386         1278.52612116          822.73471677         1614.16793082         1098.70982923         1014.04624398          615.74308201         2057.39816148          947.21748992         1191.65075712          382.10620301         1033.90853893         1643.59933925         1615.64643422         1136.75977342         1061.20358504          938.57161358          994.00327383         1687.79335554
          0.3*MaxFES =          1305.24341695         1443.32679327         1331.64441621          1098.3388214          1210.6086702         1017.39412674          922.66868459         1330.32597773         1693.44314844          709.43062746         1247.25297499          1105.9179013         1166.88604305         1332.83474898         1060.02957573          1396.0023891         1078.33680287         1682.24419976         1589.03421127          783.21581951         1307.87004098         1438.21559445         1564.18972813           53.39547045          565.01273913          992.38012548         1474.57473413         1534.82867785         1019.04860038         1150.12070114         1426.41956255         1236.15012847         1089.49560386         1278.52612116          817.26407171         1614.16793082         1098.70982923         1006.24979286          615.74308201         2056.55650162          946.35375111         1191.65075712          382.10620301         1033.10511021         1643.59933925         1615.64643422         1136.75977342         1061.20358504          938.57161358          990.20615473         1687.79335554
          0.4*MaxFES =          1305.24341695         1441.32281455         1331.64441621         1096.53663252         1207.98498399         1017.39412674          922.66868459         1330.32597773         1690.57453099          709.43062746         1247.25297499          1105.9179013         1166.88604305         1332.83474898         1060.02957573          1396.0023891         1078.33680287         1669.81458006         1589.03421127          783.21581951         1302.89547234         1438.18504627         1564.18972813           53.39547045          565.01273913          992.38012548         1474.57473413         1531.81756651         1019.04860038         1150.12070114         1426.41956255         1236.15012847         1089.49560386         1272.52009085          815.09842818         1614.16793082         1098.70982923         1006.24979286          615.74308201         2046.00402144          935.89665544         1191.65075712           373.2555462         1033.10511021         1643.59933925         1615.64643422         1136.75977342         1061.20358504          936.77017756          990.20615473         1687.07014025
          0.5*MaxFES =          1305.24341695          1438.9258002         1331.64441621         1090.69441643         1207.70909012         1017.39412674          922.66868459         1330.32597773         1690.57453099          709.43062746         1246.34490234          1105.9179013         1166.88604305         1332.83474898         1060.02957573          1396.0023891         1078.33680287         1668.37453267         1589.03421127          783.21581951         1300.08940159         1438.18504627         1564.18972813           51.43080382          558.56284342          988.13438741         1474.57473413         1531.81756651         1019.04860038         1150.12070114         1426.41956255         1233.95040996         1089.49560386         1272.52009085          815.09842818         1614.16793082         1098.70982923         1006.24979286          615.74308201         1096.20129142          935.89665544         1191.65075712           373.2555462         1033.10511021         1643.59933925         1615.64643422         1133.81806699         1061.20358504          936.77017756          990.20615473         1687.07014025
          0.6*MaxFES =          1305.24341695         1436.39641476         1331.64441621         1086.94456318          148.15262941         1017.39412674          922.66868459         1330.32597773         1690.57453099          709.11177915         1246.34490234         1104.57145574         1166.88604305         1332.83474898         1060.02957573          1396.0023891         1078.33680287         1668.37453267         1589.03421127          783.21581951         1300.08940159         1437.56883043         1564.18972813           51.43080382          558.56284342          988.13438741         1474.57473413         1531.81756651         1019.04860038         1150.12070114         1426.41956255         1233.95040996         1089.49560386         1272.52009085          815.09842818         1614.16793082         1098.70982923         1006.24979286          615.74308201         1087.71192511          935.89665544         1191.65075712           373.2555462         1033.10511021         1643.30088008         1615.64643422         1133.81806699         1061.20358504          936.77017756          990.20615473         1684.73962727
          0.7*MaxFES =          1305.24341695         1436.39641476         1323.31870093         1086.94456318          143.37517633         1017.39412674          922.66868459         1330.32597773         1690.57453099          709.11177915         1246.34490234         1104.57145574         1166.88604305         1332.83474898         1060.02957573          1396.0023891         1074.70600091         1668.37453267         1589.03421127          782.36166512         1300.08940159         1437.56883043         1563.82207021           51.43080382          558.56284342          982.55218268         1474.57473413         1531.59705886         1019.04860038         1150.12070114         1426.41956255         1229.11561793         1089.49560386         1271.79598968          815.09842818         1614.16793082         1097.99070718         1006.24979286          615.30043895         1087.71192511          935.89665544         1191.65075712           373.2555462          1028.1028947         1015.44491278         1615.64643422         1133.81806699         1061.20358504          936.77017756          990.20615473         1684.73962727
          0.8*MaxFES =          1305.24341695         1436.39641476         1323.31870093         1086.94456318          143.37517633         1017.39412674          922.66868459         1327.40257698         1687.63724903          709.11177915         1246.34490234         1104.57145574         1166.88604305         1332.83474898         1060.02957573          1396.0023891         1074.70600091         1668.37453267         1589.03421127          782.36166512         1300.08940159         1437.28985178         1563.82207021           51.43080382          550.93132105          982.55218268         1474.57473413         1531.59705886         1018.31083705         1150.12070114         1426.41956255         1229.11561793         1089.49560386         1271.79598968          815.09842818         1614.16793082         1097.99070718         1001.91896313          615.30043895         1083.99181126          935.89665544         1191.65075712           373.2555462          1028.1028947         1015.44491278         1615.64643422         1133.81806699         1042.89586413          936.77017756          990.20615473         1684.56970889
          0.9*MaxFES =          1305.24341695         1436.39641476         1323.31870093         1086.94456318          143.37517633         1017.39412674          922.66868459         1327.40257698         1687.63724903          709.11177915         1246.34490234         1104.57145574         1166.88604305         1332.83474898         1060.02957573          1396.0023891         1074.70600091         1668.37453267         1589.03421127          782.36166512         1300.08940159          1428.0070877         1559.97912601           51.43080382          550.93132105          982.55218268         1474.57473413         1531.59705886         1018.31083705         1150.12070114         1426.41956255         1229.11561793         1082.33220545         1270.38059591          815.09842818         1613.32985088         1097.99070718         1001.91896313          613.63673697         1083.06415101          935.89665544         1190.38080627           373.2555462          1028.1028947         1015.44491278         1610.11459849         1133.81806699         1042.89586413          936.77017756          990.20615473         1684.56970889
              MaxFES =          1305.24341695         1436.39641476         1323.31870093         1086.94456318          143.37517633         1017.39412674          922.66868459         1327.40257698         1687.63724903          707.86931914         1246.34490234         1104.57145574         1164.14456518         1332.83474898         1060.02957573          1396.0023891         1072.37420075         1668.37453267         1589.03421127          782.36166512         1300.08940159          1428.0070877         1559.97912601           51.43080382          550.93132105          982.55218268         1474.57473413         1531.59705886         1018.31083705         1150.12070114         1426.41956255         1229.11561793         1082.33220545         1270.38059591          814.83065151         1613.32985088         1097.99070718         1001.91896313          613.63673697         1081.08781938          935.34114504         1190.38080627           373.2555462          1028.1028947         1015.44491278         1610.11459849         1133.81806699         1042.89586413          936.77017756          990.20615473         1684.24832925

                  Best                 Worst                Median                  Mean                   Std
           51.43080382         1687.63724903         1104.57145574    1129.2850379719612     362.5662682769291

