 23/07/2016 03:11:30 |                  Run 1                 Run 2                 Run 3                 Run 4                 Run 5                 Run 6                 Run 7                 Run 8                 Run 9                Run 10                Run 11                Run 12                Run 13                Run 14                Run 15                Run 16                Run 17                Run 18                Run 19                Run 20                Run 21                Run 22                Run 23                Run 24                Run 25                Run 26                Run 27                Run 28                Run 29                Run 30                Run 31                Run 32                Run 33                Run 34                Run 35                Run 36                Run 37                Run 38                Run 39                Run 40                Run 41                Run 42                Run 43                Run 44                Run 45                Run 46                Run 47                Run 48                Run 49                Run 50                Run 51
       0.0001*MaxFES =           82900.815497         5668.48576695         3814.78867454        12251.41531905        47514.19539112        36575.98652249        12209.50811297         8491.76100583        29290.02801827         5240.48322227        26255.71325682       114365.84647417        74476.78099392        18376.63037701         15737.6586465        32250.16224786        11318.18165729        50647.39774983         4727.60486826         41153.9104742        18392.51834867         4175.57182489        31264.01701861        23008.19502209        85345.20104859        17949.86429534        62732.42521511        11927.40388928        49421.61277943        40947.69281717         4512.48240338        38031.99927062          522.49402349       163904.76016717        71161.55378638        54918.73121468        11749.44811661         3211.05643857        37301.77749269        19427.07271997        14241.74507443        32076.97895411        18246.80484843          525.69157646         3400.14703984        21077.66507223        55166.78673068         7454.79714031          8183.4466258        30312.86034435        23864.52229201
        0.001*MaxFES =          7297.74079177         2495.27524167         1667.21132986         2774.70752535         7152.42405528         1600.26460485         2683.32291963         1416.49013608         7610.95636532          1434.6048375        11817.70477393          605.04497971         1100.92182049         7435.69829444          6019.0610921          9121.4598461         4677.61884656         5900.21592896         1485.04463897         2356.89967731         1971.52185766         1155.67264432         2463.19614145        10425.81032435          3515.2528877          748.24454505         2405.94739472          258.28223136         3867.97030156         3328.05449118          670.47719931         3015.23505629          444.16091854        17757.64823637         3568.69581239         7084.78457785         3979.58945955         2052.43304449         2437.52761862          795.16770603          8121.6699157         4015.34856909         9327.36803015          277.24116032         2358.31330509         2088.27927263          811.07432092         4256.18657267         5720.90474513         4574.44802433         3679.68134697
         0.01*MaxFES =           103.10708225          113.74341001          102.41631871          108.72320455            104.996699          113.39011522          103.26647212          105.04823173          104.15811998          104.83174254          134.28982122          103.44326884          105.26004514          104.89182523          119.51155943          109.33239676          103.36964175          103.36837156          103.20611015          105.29610612          102.63949492          102.51704987          103.66621666          102.84804624          107.18672391          104.52895854          102.49925662          102.48534367          103.06058534          110.13910651          102.45348115           103.0816138          104.08033567          118.79792652          103.64362902          104.43091507          106.79164172          106.44550117             110.04579          102.50841151          105.75417625          103.50334005           106.3507113          102.63258253          102.93087123          102.92545044          104.05066148          109.14964511          105.74850587          128.15283264          103.52797502
         0.02*MaxFES =           101.15553761          102.32171619          101.83237069           102.7114124          102.07610106          102.45105793          102.66934225          101.95038878          102.19661703          102.41570814           101.9480648          101.57872329           102.0159175          102.15130159           101.6225127          101.66433865          101.81622763          102.11794136          101.84929748          101.89660635          102.24633529          101.90586463          101.77024647          101.76558437          101.81064897          101.83194825          101.97236121          102.08580521          101.97949423          101.90010113          101.94339038          101.99125384          101.73002065          102.35913572          102.03692556          101.96489672          100.92796744           101.8845177          101.77696547          101.27933802           102.2633913           102.2139372           102.0555627          102.32380478          101.90915965           102.3533808          101.93653468          101.79405282            102.603305          101.98984855          101.44209136
         0.03*MaxFES =           101.15553761          101.76867207          101.76983206          101.70046625          102.01426934          102.32985555           101.7650668          101.45484879          102.04095832          102.08877043          101.28431615          101.57872329          101.54588749          101.94463836           101.6225127          101.38902637          101.81622763          102.11389843          101.84929748          101.85939575          101.97436942          101.90586463          101.77024647          101.76558437          101.63144265          101.83194825          101.72671558          101.89695274           101.8334155          101.70436604           101.8050241          101.99125384          101.73002065          101.65693799          102.03692556          100.95175032          100.92796744           101.8845177          101.73838828          101.27933802          102.23835118          101.69898988           102.0555627            102.026164          101.63047598          101.35006282          101.93653468          101.62150952          101.74216501          101.51522309          101.44209136
         0.04*MaxFES =           101.15553761          101.69111534          101.67808219          101.70046625          101.83483278           101.6632532           101.7650668          101.45484879          101.84599462          101.58947338          101.28431615          101.34273939          101.47043043          101.12795594           101.6225127          101.25491785          101.31605346          101.95895939          101.72008655          101.85939575          101.52982055          101.75990215          101.59576964          101.76558437           101.3734252          101.73691564          101.54113679          101.89695274           101.7537082          101.70436604          101.64136868          101.87068041          101.67613926          101.65693799          101.80779672          100.95175032          100.92796744           101.8845177          101.46983528          101.27933802          101.52547242          101.69898988           102.0555627           101.7018635          101.63047598          101.35006282          101.84743274          101.62150952          101.74216501          101.51522309          101.44209136
         0.05*MaxFES =           101.15553761          101.65530389          101.62236037          101.49655535          101.59073518           101.6632532          101.43884763          101.36418321          101.75727375          101.58947338          101.28431615          101.34273939          101.47043043          101.12795594          101.42399258          101.25491785          101.31605346          101.03061895          101.72008655          101.85939575          101.52982055          101.72145097          101.59576964          101.59443129           101.3734252          101.44862776          101.54113679          101.21028467          101.56710963          101.66019133          101.64136868          101.52746333          101.67613926          101.65693799          101.80779672          100.95175032          100.92796744          101.71902656          101.46983528          101.27933802          101.52547242          101.69898988          101.90917555           101.7018635          101.63047598          101.35006282           101.7509528          101.54162801          101.74216501          101.51522309          101.44209136
          0.1*MaxFES =           101.15553761          101.47470774          101.09329837          101.49655535          101.36692884          101.28143227          101.35341793          101.25614998          101.43830068          101.07563008          101.11862552          101.34273939          101.42922202          101.12795594          101.42399258          101.00269206          101.31605346          101.03061895          101.36371144          101.64505958          101.23335882          101.38691667          101.51980429          101.45946073          101.30628488          101.30433321          101.41234567          101.21028467          101.26452499          101.59610747           101.4426046          101.39010094            101.130508          101.37851854          101.41970863          100.95175032          100.92796744          101.56918541           101.2648729          100.84006001          101.48115226          101.44106379          101.44783855          101.57589617          101.55529832          101.31190302          101.23885645          101.08949423          101.70097546          101.51522309          101.02048037
          0.2*MaxFES =           101.15553761          101.09510507          101.09329837          101.26697379          101.00874957          101.28143227          101.08677622          101.00582661          101.30856679          101.07563008          101.11862552           101.3385945          101.30331802          101.11524599          101.32373808          101.00269206          100.93403133          101.03061895          101.21855255           101.2373928          101.17257084          101.20133034          101.44459532          101.45946073          101.24955726          100.98490666          101.17736516          101.21028467          101.25577941          101.11703647          101.35892092          101.13949745            101.130508          101.05237511          101.34575371          100.95175032          100.92796744          101.34070336          101.25586797          100.84006001          101.23733059           101.2866342          100.77032358          101.18617595           101.1580198          101.30369747          101.20886048          101.08949423          101.22499247          101.29452827          101.02048037
          0.3*MaxFES =           101.04526696          100.98848662          101.09329837          100.90146833          101.00874957          101.28143227          101.08677622          101.00582661          101.05802293          101.07563008          101.09849384          101.21048725           101.1948908          101.11524599          101.29078387          101.00269206          100.93403133          101.03061895          101.20364694          101.00491718          100.83488046          101.20133034          101.14683703          101.31263152          101.24955726          100.98490666          101.05467275          101.21028467          101.15509445          101.06910717          100.78029288          100.99578668            101.130508          101.05237511          100.93995845          100.95175032          100.92796744          101.09116032          101.25586797          100.84006001          101.23733059          100.97336693          100.77032358          101.00813579          101.06824649          101.00674443          101.20886048          101.08949423          101.22499247          101.29452827          101.02048037
          0.4*MaxFES =           101.04526696          100.98848662          101.09329837          100.90146833          101.00874957          101.16660479          101.08677622          101.00582661          101.05802293          101.07563008          101.09849384          101.21048725           101.1948908          101.01931943          101.29078387          101.00269206          100.93403133          101.03061895          101.20364694          101.00491718          100.83488046           101.0843992          101.14683703          101.31263152          101.13911635          100.98490666          101.05467275          101.21028467          101.14698433          100.95413327          100.78029288          100.99578668          100.98728032          101.05237511          100.93995845          100.95175032          100.92796744          101.09116032          101.19968631          100.84006001          101.23733059          100.97336693          100.77032358          101.00813579          101.06824649          100.93217777          101.20886048          101.08949423          101.17249832           101.1670241          101.02048037
          0.5*MaxFES =           101.04526696          100.98317938          101.09329837          100.90146833          101.00874957          101.10288491          101.08677622          101.00582661          100.77199191          101.01901163          101.05756565          101.18186888          101.07800752          101.01931943          101.17807286          101.00269206          100.93403133          101.03061895          101.20364694          101.00491718          100.77423984           101.0843992          101.14683703          101.31263152          101.13911635          100.98490666          101.05467275            101.055116          101.14698433          100.95413327          100.78029288          100.99578668          100.98728032          101.05237511          100.93995845          100.72587547          100.92796744          101.01957734          101.19968631          100.84006001          101.15724258          100.97336693          100.77032358          101.00813579          101.06824649          100.93217777          100.97359044          101.08949423          101.17249832           101.1670241          101.02048037
          0.6*MaxFES =           101.04526696          100.98317938          101.09329837          100.90146833          101.00874957           101.0346608           100.9855418          101.00582661          100.77199191          101.00471146          101.05756565          101.18186888          101.07800752          101.01931943          101.17807286          101.00269206          100.93403133          101.03061895          101.20364694          101.00491718          100.77423984           101.0843992          101.14683703          101.31263152          100.96171239          100.98490666          101.05467275          100.97997488          101.14698433          100.95413327          100.78029288          100.99578668          100.98728032          101.05237511          100.93995845          100.72587547          100.92796744          101.01957734          101.17486933          100.84006001          101.15724258          100.97336693          100.77032358          101.00813579          101.06824649          100.93217777          100.97359044          101.08949423          101.17249832          101.15896942          101.02048037
          0.7*MaxFES =           101.04526696          100.98317938           101.0382138          100.69254996          101.00874957           101.0346608           100.9855418          101.00582661          100.77199191          101.00471146          101.05756565          101.18186888          101.07800752          101.01931943          101.17807286          101.00269206          100.93403133          101.03061895          101.16519654          101.00491718          100.77423984           101.0843992          101.14683703          101.31263152          100.96171239          100.98490666          101.05467275          100.97997488          101.14698433          100.95413327          100.78029288          100.99578668          100.87513906          101.05237511          100.93995845          100.72587547          100.92796744          101.01957734          101.11734841          100.84006001          101.15213486          100.97336693          100.77032358          101.00813579          101.06824649          100.93217777          100.97359044          101.08949423          101.17249832          101.15896942           100.8331282
          0.8*MaxFES =           101.04526696          100.98287296           101.0382138          100.69254996          101.00874957           101.0346608           100.9855418          100.95480373          100.77199191          101.00471146          101.01586485          101.12907478          101.07800752          101.01931943          101.13042101          101.00269206          100.93403133          101.03061895          101.16519654          101.00491718          100.77423984          101.04363984          100.92049143          101.30055615          100.96171239          100.98490666          101.05467275          100.97997488          101.14698433          100.95413327          100.78029288          100.99578668          100.87513906          101.05237511          100.93995845          100.72587547          100.92796744          101.01957734          101.11734841          100.84006001          101.15213486          100.97336693          100.77032358          101.00813579          101.06824649          100.93217777          100.97359044          101.08949423          101.17249832          101.15896942           100.8331282
          0.9*MaxFES =           101.04526696           100.8467363           101.0382138          100.69254996          101.00874957           101.0346608           100.9855418          100.95480373          100.77199191          101.00471146          101.01586485          101.12907478          101.07800752          101.01931943          101.13042101          101.00269206          100.93403133          101.03061895          101.16519654          101.00491718          100.77423984          100.98602827          100.92049143          101.30055615          100.96171239          100.98490666          101.05467275          100.97997488          101.14698433          100.95413327          100.78029288          100.99578668          100.87513906          100.90482725          100.93995845          100.72587547          100.92796744          101.01957734          101.04079435          100.84006001          101.10558315          100.97336693          100.77032358          100.85778287          100.71152261          100.93217777          100.97359044          101.08949423          101.17249832          101.15896942           100.8331282
              MaxFES =           101.04526696           100.8467363           101.0382138          100.69254996          101.00874957           101.0346608           100.9855418          100.95480373          100.77199191          101.00471146          101.01461276          101.12907478          101.07800752           100.8697985          101.13042101          101.00269206          100.93403133          100.98473354           101.0188758          101.00491718          100.77423984          100.98602827          100.92049143          101.30055615          100.96171239          100.98490666          101.05467275          100.97997488          101.04037383          100.84080516          100.78029288          100.99578668          100.87513906          100.90482725          100.93995845          100.72587547          100.92796744          100.84160015          101.04079435          100.84006001          101.10558315          100.97336693          100.77032358          100.85778287          100.71152261          100.93217777          100.97359044          100.98116159          101.17249832          101.07260101           100.8331282

                  Best                 Worst                Median                  Mean                   Std
          100.69254996          101.30055615          100.97997488    100.95392530078432    0.1229923046948824

