 01/11/2016 20:27:33 |                  Run 1                 Run 2                 Run 3                 Run 4                 Run 5                 Run 6                 Run 7                 Run 8                 Run 9                Run 10                Run 11                Run 12                Run 13                Run 14                Run 15                Run 16                Run 17                Run 18                Run 19                Run 20                Run 21                Run 22                Run 23                Run 24                Run 25                Run 26                Run 27                Run 28                Run 29                Run 30                Run 31                Run 32                Run 33                Run 34                Run 35                Run 36                Run 37                Run 38                Run 39                Run 40                Run 41                Run 42                Run 43                Run 44                Run 45                Run 46                Run 47                Run 48                Run 49                Run 50                Run 51
       0.0001*MaxFES =           1363.8023521         1145.31062074           971.0456184          1184.3013183         1395.52277394          1200.1974921         1282.73846377         1312.12117894         1271.79050026         1448.12514543         1266.84048548         1314.85761934         1380.25952484         1332.37780836         1339.78856769         1204.41466414         1426.36969422         1285.18825669         1256.19404664         1357.64521229         1303.61572858         1389.58358741         1211.31131632         1204.43835647          1271.0042751         1222.94499695         1334.94656288         1252.59984659         1278.45894965         1313.55770723         1318.34044687         1169.52310298         1403.63385416         1193.09504766          1218.1236031         1300.82745591         1282.09431166         1099.11523632         1186.11560722         1392.02912573         1269.09554634         1307.50549098         1394.92667337         1249.92843725         1472.48248503         1247.59695578         1426.91124554         1246.18435377         1205.82510269         1282.61520452         1278.67715304
        0.001*MaxFES =          1090.71927827          969.45424157          781.56098492          914.64330502         1056.63804373          942.57971291          957.03919908          908.91887396          951.71005336         1176.29099024          999.19143716          997.86858006          953.51838956         1083.38333081         1113.80178665          930.51895148          971.20563258         1083.99731748          983.86547618         1043.20803392         1050.67283467         1056.88993783          963.18070132          878.37258862          981.88568737         1016.34839206          905.66838979           986.4788096         1097.88874542          960.63728324         1003.89871075          944.66624475          979.18388391          870.25286662          957.27247686         1103.92823048          990.79924417          804.16328973          904.76681998         1005.49373639           954.1091335          1026.5768593          986.52562327         1006.77987514         1028.67733488          992.97589775           959.9854274         1087.27465086          971.12865222          939.05291197          931.71123972
         0.01*MaxFES =           910.79354589          787.61850899          559.20674705          797.12392302          894.22035141          785.12594184          766.37963418          809.76192631          773.86126937          994.75806069          827.22725575          847.94249433          749.33070077          860.20247599          913.67264766          756.52192971          744.93515292          899.44402318          868.75366218          910.37927165          833.85980049          870.04887414          817.72417562          727.13773768          802.65977604          840.15970659          727.08961897          810.27326631          948.17534863          840.16345322           864.3542506           767.4211872          825.74614782          731.20568302          805.43722703          932.24394714          767.89727916          598.26286236          744.28048944          806.63749763          769.24383595          881.91596319          843.28214663          762.72191789          849.24764612          798.59174373          794.03444999          920.78734318          801.79509052          799.23622509          771.10057921
         0.02*MaxFES =           892.40873218          779.72537306          543.69931262           773.5407547          861.91611404          785.12594184          747.79254143          793.97188494            768.264136          976.39907176          823.57935097          838.34278453          747.60234776          853.17635807          906.95846958          755.05152448          720.15582725          877.11574765          848.16088491          883.90108281          825.94479926          856.90448699          813.43565653          718.21630164          783.91672296          824.47022695          717.86370124          798.46742397          934.23737327           823.1484499          835.54444505          760.94242439          818.42044339          720.73301569          790.46582101           906.0179206          763.00095992          587.54039355          717.36779318          787.90831946          754.28334275          876.19023591          822.59814575          742.35518135          819.93634803           771.9660077          782.30606745          899.29866715          777.09020801          766.17985171          764.69078562
         0.03*MaxFES =            875.2430881          765.36216983          543.38323158          747.70317236          861.91611404          785.12594184          746.51608636          786.26522787          762.17291574          976.39907176          812.27795864          821.74986199          746.74478058          831.44878924          894.54566372          744.41309267          698.86499086          873.29806069          824.04111258          878.55859263          822.42700514          842.27998819           802.9814387          706.83785987          783.72432569          810.43152327          713.21958781          797.50559414          930.76136517          817.77013241          825.78129857           748.6123222          809.04298796           712.2380385          772.17044629          895.32826625          756.67606142          577.05918497          712.85656123          778.09520584           753.3768502           870.4242548           808.7411034          724.47513819          817.30541905          764.61037068          775.51049336          894.04701792          767.42304059          761.91113034          761.63771743
         0.04*MaxFES =            875.2430881          765.36216983          543.38323158          743.45823886          861.91611404          777.63338145          739.13112926           774.6695724          762.17291574          976.39907176          812.27795864          817.35817168          746.74478058          819.77965507          894.54566372          742.15935306          698.86499086          870.83817115          824.04111258          873.52652338          811.72500423          842.27998819          791.02917003          702.87715958          783.40832583          808.68980012          711.36195869          797.30977236          930.76136517          810.99329481          825.78129857          744.51295858          809.04298796           712.2380385          763.47046254          895.32826625          755.74926437          577.05918497          712.85656123          769.75573528          753.21267245          864.12827499           806.3327079          724.47513819          805.90852838          758.35896673          775.21225899          894.04701792          767.42304059          759.57437331          761.63771743
         0.05*MaxFES =            875.2430881          754.56786878          543.07133854          742.48887582          860.07034095          773.47092155          739.13112926           774.6695724          762.17291574          976.20970864          812.27795864          817.35817168          745.53087881          818.69476924          894.42267226          739.69576208          698.86499086          870.83817115          824.04111258           869.6961284          805.87865212          842.27998819          791.02917003          699.39696796          782.92659367          808.05260135          711.36195869          795.73247909          930.42429072          810.13298365          821.89625587          744.51295858          809.04298796           712.2380385          763.30766033          894.09737374          753.81515898          570.15936658          712.85656123          769.75573528          750.39504995          858.16365505           806.3327079          724.47513819          805.90852838          758.35896673          772.19801346          894.04701792          767.42304059          759.57437331          752.98945093
          0.1*MaxFES =            875.2430881          750.00944621          542.69109835          739.03213332          860.07034095          766.37154332          732.69004215          770.93449888          761.27443524          970.16403798          812.27795864          811.53071124          739.97718871          818.69476924          892.81439051          732.44242567          698.86499086          861.99395527          817.08295913          856.71588674          796.49206644          840.98637218          791.02917003          693.79184885          769.59626208          804.61449862          709.93319132          792.03347171          929.45861269          799.45757503          820.09078812          731.15096898          794.68056391          712.02227002          758.88581366          885.72422646          739.70476963          563.80837564           706.7087093          768.68050323          747.02321489          843.21091029          800.54173627          723.75110276          805.90852838          741.83296125          769.64598559          889.81548091           759.8903827          748.93127237          752.40659481
          0.2*MaxFES =            868.4561817          749.31554539          540.73212749          732.96243001          860.03582893          763.50983589           725.6760202          766.95562507          747.84594589          965.99115158          811.05331791          811.53071124          739.91757498          811.62373442          885.48017123          726.61966614          698.11884319          852.92415381             813.98242          853.21296393          796.49206644          837.82237076          785.33654964           688.7509061          764.97602717          799.07355352          705.93796106          792.03347171          926.77811897          792.57000392          818.48049136          728.16737769          787.71535479          693.60132341          755.68529005          883.28514052          734.34665778          563.80837564          700.80086484           766.9090618          737.41514269          840.83923749          792.16120651           718.0512508          803.45292051          739.09218755          766.82301899          879.30940792          746.59995482          748.05422501          751.38631671
          0.3*MaxFES =           868.11973835          745.73176827          531.94878625          730.51670036          852.72170883           761.6592859           725.6760202          764.91231517          747.84594589          962.84460146          810.63490451          810.77220416          733.62542208           811.3578829          885.48017123          726.61966614          696.88425614          852.92415381          809.02336247          853.21296393          795.19466479          831.26482493          785.33654964          688.71248344          764.97602717          799.07355352          705.93796106          792.03347171          924.97178631          792.07311545          817.62984607          728.16737769          787.71535479          693.60132341          755.68529005          883.28514052          734.17942347          562.72970434          699.55844606          761.76787628          729.22846255          840.83923749          789.38010076           718.0512508          799.19058894          739.03998818          763.95048064           879.0811998          746.59995482          748.05422501           745.2809942
          0.4*MaxFES =           864.98668978          745.73176827          531.94878625          730.51670036          851.76713741           761.6592859          724.76283979          764.91231517          746.70149345          962.84460146          805.10457871          808.43080175          731.45065568           811.3578829          885.48017123          726.61966614           694.5411058          852.92415381          808.83245861          853.21296393          795.19466479          824.78640328          785.33654964          688.71248344          764.97602717          799.07355352          705.93796106          788.79479917          922.60168612          787.53762418          817.62984607          728.16737769          785.92557025          693.60132341          753.07274039          883.28514052          734.17942347          562.49534482          699.55844606          761.76787628          729.22846255          840.83923749           789.1653992          716.57348199          797.84179891          738.70605631          763.27722044          873.57928745          746.59995482          746.82946007           744.4269246
          0.5*MaxFES =           864.61406354          745.73176827          531.94878625          730.51670036          851.76713741           761.6592859          724.76283979          764.91231517          746.08599693          962.65289701          805.10457871          806.36124936          730.76499676           811.3578829          885.48017123          726.61966614          693.76577289          852.92415381          808.83245861          853.21296393          795.19466479          824.78640328          785.33654964          687.79747107          759.47842663          799.07355352          705.01475822           786.5447501          922.60168612          787.53762418          817.62984607          728.16737769          785.92557025          693.60132341          751.95019538          883.13899779          734.17942347          560.26008231          697.86645114          761.51721926          729.22846255          840.83923749           789.0781862          716.57348199          797.84179891          738.70605631          763.27722044          873.57928745          746.59995482          746.54124355           744.4269246
          0.6*MaxFES =           864.61406354          745.73176827          531.94878625          730.42655972          851.76713741          761.34118111          724.10684529          762.40001142          746.08599693          959.07680488          805.10457871          806.36124936          726.07596936           811.3578829          883.36446259          725.64947573          693.76577289          851.84533208          808.83245861          848.34101557          792.11963012          824.78640328          785.33654964          686.53771615          757.32665123          799.07355352          705.01475822           786.5447501          922.60168612          787.53762418          817.62984607          728.16737769          785.92557025          693.60132341          751.95019538          883.13899779          734.17942347          560.26008231           691.6789848          761.51721926          729.22846255          840.83923749          788.94972771          716.57348199          797.84179891          737.22598757          761.83456615          872.36649133          746.59995482          746.54124355           744.4269246
          0.7*MaxFES =           864.61406354          744.95094906          531.94878625          730.42655972          851.76713741          761.34118111          724.10684529          762.40001142          743.31426859          959.07680488          804.65710585          801.64521063          726.07596936           811.3578829          882.12349585          725.08305915          693.76577289          851.84533208          808.83245861          848.34101557          792.11963012          824.78640328          784.88697129          686.53771615          753.72016372          799.07355352          705.01475822           786.5447501          922.60168612          787.53762418          817.62984607          728.16737769          785.92557025          693.60132341          751.95019538          883.13899779           733.4424161          558.76009225           691.6789848          761.51721926          729.22846255          840.21522832          788.94972771          716.57348199           795.9912418          737.22598757          761.83456615          872.36649133          746.59995482          746.54124355           744.4269246
          0.8*MaxFES =           864.30911453          744.95094906          531.94878625          730.09263436          851.76713741          761.34118111          724.10684529          762.40001142          742.40504351          959.07680488          804.17543422          801.64521063          726.07596936          809.39364688          880.37663295          724.43373585          692.18216753          851.84533208          808.83245861          848.34101557          792.11963012          824.78640328          784.88697129          686.53771615          753.72016372          799.07355352          704.74028007           786.5447501          922.60168612          787.53762418          817.29215097          728.16737769          785.80652842          693.60132341          751.54410003          882.00700386           733.4424161          558.76009225           691.6789848          761.33713555          729.22846255          840.21522832          782.06946521          716.57348199          795.71467076          737.22598757          761.83456615          872.36649133          746.59995482          746.54124355           744.4269246
          0.9*MaxFES =           864.30911453          742.64241988          531.94878625          730.09263436          850.93204755          758.46024661          724.10684529          762.40001142          742.40504351          959.07680488          802.45331478          801.64521063          726.07596936          808.49886489          880.37663295          724.43373585          691.38463365          851.30701116          808.83245861          848.34101557          792.11963012          824.78640328          783.27103725          683.09026169          753.72016372          799.07355352          704.74028007           786.5447501          922.60168612          787.53762418          817.24380403          728.16737769          785.21113813          693.60132341          751.54410003          882.00700386          729.75360151          558.76009225          691.18607724          760.73042768          729.22846255          840.21522832          782.06946521          716.57348199          795.71467076          737.22598757          761.05232383          872.36649133          746.59995482          746.54124355           744.4269246
              MaxFES =           861.43180938          742.64241988          531.94878625          730.09263436          850.93204755          756.36967068          724.10684529          762.40001142          742.40504351          959.07680488          802.45331478          801.64521063          726.07596936          808.49886489            879.076635          721.53252037          691.38463365          851.30701116          807.93768991          848.34101557          792.11963012          824.78640328          782.23275611          683.09026169          753.72016372          799.07355352          702.85439172           786.5447501          922.60168612          787.53762418          817.24380403          728.16737769          785.21113813          693.60132341          751.54410003          881.00341588          729.75360151          555.66631602          691.18607724          759.44773769          729.22846255          840.21522832          782.06946521           715.5069039          795.71467076          737.22598757          755.40845892          872.36649133          746.59995482          745.45330981           744.4269246

                  Best                 Worst                Median                  Mean                   Std
          531.94878625          959.07680488          759.44773769     770.4168805588234     76.68983726563688

