 24/07/2016 21:21:28 |                  Run 1                 Run 2                 Run 3                 Run 4                 Run 5                 Run 6                 Run 7                 Run 8                 Run 9                Run 10                Run 11                Run 12                Run 13                Run 14                Run 15                Run 16                Run 17                Run 18                Run 19                Run 20                Run 21                Run 22                Run 23                Run 24                Run 25                Run 26                Run 27                Run 28                Run 29                Run 30                Run 31                Run 32                Run 33                Run 34                Run 35                Run 36                Run 37                Run 38                Run 39                Run 40                Run 41                Run 42                Run 43                Run 44                Run 45                Run 46                Run 47                Run 48                Run 49                Run 50                Run 51
       0.0001*MaxFES =         11034.10976119        22911.87961046         3609.38398649         5560.41335093         4470.08250928         4831.88772762         6346.67072398        32179.33839647         5599.90737674        51798.17260491        15203.62560174        21131.28365714        23676.71762364        20849.66406814        10941.26066768         9772.16543702         12001.7551768         6143.44827027         5796.72916217        18007.86501254         5663.67693097        17633.93212716         2070.52224183        23939.24042113        46870.58653668        11113.20242841         4087.62950768        22961.29642245         28983.9430121         3365.21997148         18360.4856537         9427.42216981        15004.27408868        13922.14872581        12329.81585811        33477.78995057         5403.69510745         2772.02589463        43864.33187492        22389.08329558        10441.32637872        58892.89781731          4905.1536102         5461.60262429         7301.32339155        14112.25913101        21263.45262655         6943.67047117        29651.47968205         13928.3704087         1992.57526977
        0.001*MaxFES =          9973.26879845         15285.8488746          3495.4070656         3604.56025436         4470.08250928         4782.27153267         6346.67072398        22365.19036173         4474.70339161        33797.51676397        13689.47189382        21131.28365714        23676.71762364        20849.66406814         6608.17333054         9772.16543702         9064.68982707          5151.1561565         5796.72916217        13254.06431317         5655.49401302        15718.81466551         2070.52224183        23939.24042113         24296.7113246         6592.81288462         4087.62950768        16428.03062023         28983.9430121         3365.21997148        18355.38140711         9427.42216981        14351.58007581        13922.14872581         9845.16436449        33477.78995057         5403.69510745          2496.1541401        23666.47264424        22389.08329558        10441.32637872        58892.89781731          4905.1536102         5461.60262429           5843.911608         9582.10451737         18291.2571628         6943.67047117        21490.87379247        10013.78853791         1986.04639172
         0.01*MaxFES =          9902.69705043        10760.12469204         2611.32411744         3072.39821855         4032.08210949         3575.56342916         4643.67864985        22365.19036173         4474.70339161        33797.51676397         6678.08477279        13526.69457825        10263.65308149        13793.81351484         6608.17333054         5280.40557152         6838.09558118         3386.97782616         4931.14525727        11602.99962817         3729.94279109        12033.51367697          2038.3700543        20221.11041824         24296.7113246         6564.82320919          3385.7212404        12301.42902786        13695.13150886         3365.21997148        13470.53677674         4878.49041484          9047.4927273         7556.33946977         7912.92718916        24533.89587653          3514.7862356          2496.1541401        23666.47264424        11414.85105163         6516.73050324        58892.89781731         3357.60364901         3365.85196863         3851.77871563         4458.97917919        12854.12766767         5033.83991389        13982.80320719         9348.68550518         1782.00045487
         0.02*MaxFES =          3718.34005655         6752.03621979         1882.29038113         3072.39821855         2827.51661456         3255.18674224         4473.71679224        15938.68201074         2733.82970997         5747.55506548         4743.64539441        10490.36444851         4551.83037482          5678.0126461         4701.20442439         3633.90173056         6838.09558118         3386.97782616         3083.26980355         5403.71136181         3729.94279109         4221.96690033          1983.1281425        13504.61239805         6346.16941858         4715.06024506         3205.53334584         6867.19472418        11036.09281422         2500.62274946         5608.88270689         4878.49041484          9047.4927273         3716.79821074         7461.26707564        17242.08515962         2692.05599039          748.46569893        10779.91923852        11414.85105163         4053.81006681        12372.29515444          2846.9236128         3365.85196863         3206.30554302         4458.97917919         8428.07163093         4986.96224692         13392.0248192         7316.50708587         1782.00045487
         0.03*MaxFES =          3718.34005655         6752.03621979         1882.29038113         3072.39821855         2201.79609027         2369.52786005         3022.84373517         6645.11401267         2733.82970997         5747.55506548         2609.98448909         6173.79789076         4551.83037482         3482.08105894         2803.25781786          2424.5317888          4512.4265465         3386.97782616         2236.21291882         3936.61328859         3603.37096502         2922.34772198         1934.92233322        11647.07903528         6346.16941858         3202.53440795         2564.27161187         6867.19472418         3836.62310134         2500.62274946         5608.88270689         2928.69889895         4874.52098519         2610.73868993         6246.40390839        14656.94181834         2669.08174282          636.18242254         8616.31115337         9043.71702639         2385.95630916          7289.2482933          2753.3806058         3055.63905865         3116.48207434         3725.68578768          8035.7702643         4079.88498686         6415.11971214         6849.42689314         1676.33009503
         0.04*MaxFES =          2832.73116613          5128.9878252         1795.07246458         3072.39821855         1967.26275549         2369.52786005         3022.84373517          4458.7727809          2367.6214667          3426.2095989         2609.98448909         4892.89782633         4490.62310394         2966.72016651         2803.25781786          2424.5317888          4512.4265465         2879.22345378         2006.61176948         3069.32725099         3603.37096502         2432.75691764         1808.24932415         5393.18358724         6346.16941858         2903.48838555         2344.31207791         6477.76345916         3836.62310134         2413.41181019         3604.19316632         2928.69889895         3997.51262523         2610.73868993         6246.40390839         9249.86896543         2192.64250103          609.25393442         6295.65282242         9043.71702639         2385.95630916         4132.63399594         2410.87606673         3055.63905865         2364.61830058         3308.32394294         5266.83398491         3929.42410022         6415.11971214         4411.95892122         1676.33009503
         0.05*MaxFES =          2832.73116613         4899.33749071         1764.28808336         3072.39821855         1935.07098646         2086.26344604         2644.89716183         3725.08328706         2152.01895323          3426.2095989         2609.50270463         4892.89782633         4180.05383333         2634.79271434         2619.53377556         2302.12344164           3090.433064         2806.66098538         2006.61176948         3069.32725099         2849.90434576         2432.75691764         1808.24932415         5393.18358724         6346.16941858         2434.99309867         2197.75892762           6461.890996         3836.62310134         2413.41181019         3604.19316632         2707.61671023          3517.8148435         2203.78650019         4760.99158084         7375.28626525         2192.64250103          609.25393442         6295.65282242         5354.36219975         2065.91025487         4132.63399594         2354.97824337         2503.08501185         2364.61830058         3133.57340886         5266.83398491         3905.27883039         4239.38841504         4411.95892122         1590.56118197
          0.1*MaxFES =          2676.93434908         3396.40418924         1511.22967479         3072.39821855         1665.08588167         1758.65461683         2288.38837789         2894.61221522         1885.00690864          2789.2372334         1953.77401396         2514.73572505         2936.73817806         2158.49922695          1723.3496107         2094.11576621         2085.78803878         2233.79267652         1905.33030958         2166.09851305          2496.9282339         2372.23542215         1691.41250475         4426.84571172         6346.16941858         1905.40841215         1708.49742052          4334.5594204         2459.57393287         2131.10668661          3350.0936346         2200.46400997         2825.52389865         2097.96976829         2329.80687242         4936.97263603          1861.6201479           493.0952178          5811.3967534         5354.36219975         1786.85017151         2626.08271052         2087.13796229         2313.40390896          2151.0481306         2229.23207526          2709.4203061         3379.30223185         2134.66675624         3098.34585274         1514.66757716
          0.2*MaxFES =          2267.30502066         1911.83705266         1363.91388217         1935.61582823         1527.79042122         1605.14547999         1690.29359616         2059.12713774         1653.82900523          2057.8253223         1628.82048079         1928.75704667          2093.5697046         1837.02383989         1617.53574631         1800.06443636         1593.98776861         1779.39525499          1535.8181895         2042.80120447         1817.20754577         1695.48678482         1430.37687804         4426.84571172         6346.16941858          1280.2673127         1477.61354924         2455.48206066         2132.36688735         1851.02267755         1658.87220701         1794.16380258         1690.87063629         1774.86010264         1666.94144213         2972.43098643         1581.58847137          428.05930068         2028.59036427         2054.31941989          1551.9821538         1497.09926541         1693.85157402         1726.89390904         1927.01881374         1871.46685899         1730.48660642         2107.74248007         1570.28406541         1910.88151047         1378.29707844
          0.3*MaxFES =          1670.66575118         1428.20115969         1226.34620636          1142.7958957         1287.78325829         1359.59815677           1351.390156          853.48200347         1270.92875653          1510.7296192         1323.55113841         1432.38125039         1416.24652636         1394.66631835          1372.2131921         1569.94254827         1285.56630931         1414.70224819         1405.43454279         1542.57403008         1320.04922238         1297.40965277         1152.50427953          1453.6313718          951.59894985          833.47390905         1271.39163431         1553.11512271         1521.17898723         1384.77842816         1462.04698777         1333.33422205         1323.69221775         1474.76248324         1331.14771775         1549.69673977         1281.23170998          413.54679404         1448.50145661         1851.73722482         1311.03212918         1331.69350527         1328.01248278         1359.37613966         1436.79106901         1386.86171313         1406.50632091         1370.80177037         1376.26792499         1373.92616553         1236.31224165
          0.4*MaxFES =          1507.62886388         1358.60196568         1136.20207294          303.87397736         1212.32881406         1238.90803155         1207.14183249          309.61690939         1137.28073719         1382.23017458         1220.27815741         1351.29270132         1326.68211955         1345.28197942         1101.31342022          1385.2651352         1184.46741068         1215.19551736         1314.53496071         1413.24415964         1191.79599348         1225.03006245         1110.32685431          306.99037067           305.8223307          311.20931386         1177.71855124         1348.95639729         1320.14166661         1314.92048024         1368.67672831         1143.49651434         1194.67937123         1308.21521297          1160.6188858         1376.21786268         1181.75127515           304.3448284         1320.66157657         1630.98426833         1246.23031318         1283.57824168          1246.6293473         1279.25127021         1322.84692384         1246.20210627         1283.07074281         1284.07804634         1260.89532294         1205.94441017         1174.01635458
          0.5*MaxFES =          1507.62886388         1358.52040511         1135.79237459          302.42462834         1211.21273276         1238.90803155         1203.53153663          305.87387476          1135.5570571         1371.84607715         1217.56497826         1348.97070379         1325.24828218         1341.82292802         1091.98284567         1385.20038971         1184.46741068         1215.19551736         1313.82337785         1413.24415964         1191.79599348         1225.03006245          1101.4667485          305.34481413          304.16045489          306.15652089         1176.89137108         1330.87198613         1312.87630694         1296.09158526         1368.67672831         1139.49524088         1186.67072003         1303.92716395          1160.6188858         1376.21786268         1178.32899072          303.82433113         1316.20425157         1616.50518696         1246.23031318         1276.21590234         1240.80273667         1279.25127021         1301.57222444          1228.1346927          1281.0600333         1284.07804634         1259.42662923         1205.94441017         1173.85478149
          0.6*MaxFES =          1506.49378936         1351.37020321         1135.79237459          302.25585823         1210.51827148         1238.90803155         1203.53153663          305.32769386          1135.5570571         1371.32943385         1217.56497826         1348.97070379         1325.24828218          1339.1260709         1090.19633919         1382.02104917         1184.46741068          1209.6117787         1311.69762421         1413.24415964         1191.79599348         1225.03006245         1101.42786005          303.68009659          303.84013253          305.27330117         1176.89137108         1330.87198613         1311.59484143         1294.17156939         1368.62529801         1134.31347853         1182.77962695         1303.62219247          1160.6188858         1372.86473809         1178.32899072            303.253823         1316.20425157         1605.04785402         1246.23031318         1276.00032994         1240.80273667         1274.42816797         1298.88942513         1225.39623707         1279.91224292         1284.07804634         1259.42662923         1205.94441017         1173.85478149
          0.7*MaxFES =          1505.29782056         1344.11626443         1135.79237459          302.03235902         1210.51827148         1231.53869947         1203.53153663          305.27044359         1128.30828719         1370.24615761         1206.38920283         1348.97070379         1325.24828218         1336.41277792         1089.28656456         1376.38051667          1182.0550896         1206.85464495         1311.69762421         1412.55516183         1191.79599348         1225.03006245         1079.27882354          303.19742208          303.36790977          304.89011997         1176.47939962          1330.0049155         1305.41764438         1292.99830288         1366.31557302         1134.03380562         1177.29212307         1303.62219247         1159.97347841         1368.92153551         1178.32899072          303.07976408         1316.20425157         1604.37504907         1246.23031318         1271.12329905         1240.80273667          1269.8124548         1298.88942513         1225.39623707         1279.91224292          1277.3076556         1256.93731282         1205.94441017         1173.85478149
          0.8*MaxFES =          1503.90619309         1344.11626443         1135.79237459          301.95876582         1210.51827148         1225.84698239         1203.53153663          305.26711439         1128.30828719         1370.24615761         1206.38920283         1348.97070379         1325.24828218         1336.41277792         1089.28656456         1374.13151357          1182.0550896         1203.41968782         1309.89437165         1412.49884097         1191.79599348         1225.03006245         1079.27882354          302.95487505          303.10978719          304.76648339         1171.41273302         1326.66773781         1302.11873978         1292.99830288         1364.09056748         1133.90211797         1177.29212307         1303.62219247         1155.19732314         1368.74704102         1178.32899072          302.91426642         1314.50079853         1602.38819392         1246.23031318         1261.80040389         1240.80273667          1269.8124548         1298.88942513         1225.39623707         1279.90069117         1273.79434821         1255.86157568         1205.38180719         1173.85478149
          0.9*MaxFES =          1503.90619309         1344.11626443         1135.79237459          301.87270049         1210.51827148         1225.84698239         1203.53153663          305.06961701         1128.30828719         1370.24615761         1206.38920283         1348.97070379         1325.24828218         1334.53308735         1089.28656456         1374.13151357         1180.67874176          1202.4843618         1300.32965117         1407.36314788         1191.79599348         1225.03006245         1079.27882354          302.64540002          303.06057289          304.27578108         1171.41273302         1326.66773781         1302.11873978         1292.99830288         1364.09056748         1133.90211797         1177.29212307         1303.62219247         1154.68446246         1366.48628376         1178.14696726          302.68507092         1314.50079853         1602.38819392         1246.23031318         1261.80040389         1240.80273667         1268.38621198         1298.88942513         1223.90379244         1272.82612603         1273.79434821         1255.86157568         1205.38180719         1173.85098449
              MaxFES =          1503.90619309         1344.11626443         1135.79237459          301.75836954         1210.51827148         1225.84698239         1203.53153663          305.02136734         1128.30828719         1370.24615761         1206.38920283         1348.97070379         1325.24828218         1334.53308735         1089.28656456         1373.13647271          1180.5514954          1202.4843618         1289.15746212         1407.36314788         1191.79599348         1225.03006245         1079.27882354          302.50937376          303.00826057          304.21071189         1171.41273302         1326.66773781         1302.11873978         1292.99830288         1364.09056748         1133.90211797         1176.76166222         1303.62219247         1154.68446246         1366.48628376         1177.70687786          302.64736269         1314.50079853         1602.38819392         1246.23031318         1261.80040389         1240.80273667         1261.94968146         1298.88942513         1220.61416749         1272.22907403         1273.79434821         1255.86157568         1205.38180719         1173.85098449

                  Best                 Worst                Median                  Mean                   Std
          301.75836954         1602.38819392         1225.84698239    1148.8900462915688     326.4766212734827

