 24/07/2016 17:55:40 |                  Run 1                 Run 2                 Run 3                 Run 4                 Run 5                 Run 6                 Run 7                 Run 8                 Run 9                Run 10                Run 11                Run 12                Run 13                Run 14                Run 15                Run 16                Run 17                Run 18                Run 19                Run 20                Run 21                Run 22                Run 23                Run 24                Run 25                Run 26                Run 27                Run 28                Run 29                Run 30                Run 31                Run 32                Run 33                Run 34                Run 35                Run 36                Run 37                Run 38                Run 39                Run 40                Run 41                Run 42                Run 43                Run 44                Run 45                Run 46                Run 47                Run 48                Run 49                Run 50                Run 51
       0.0001*MaxFES =          1025.63889976          491.18131256          759.45181613         1044.28263819          764.70290385          666.40371411         1128.95567002          348.77328792         1882.48885256          527.47830741         1186.05393868         1413.72656906          771.95074095          398.34133743          418.64762074          566.12000557          682.48550818          930.93052408          382.59292514          267.37858304          615.14357631          619.04731859         2849.87988609          431.74173643          516.83868392          522.99592749          718.51276381           359.4136307         1183.03709956          541.25482474         2182.27771613          489.55101121          523.23179401          378.81956318         1026.22136154          885.10559178          548.69380934          619.37464054          351.79257044          900.56169505          696.52728374          343.38040562          879.69442964          371.72254842           540.3019448         1501.95623546          734.72969417          358.13197359          758.58204865          324.59839204          343.90798175
        0.001*MaxFES =           764.87834378          408.82514402          723.66723067          812.56582007          764.70290385          666.40371411          977.06602985          324.60729627         1597.36146424          481.86340038          938.10810911          977.65172754           639.5924254           387.7474027           405.9189942          536.74002293          639.47284875          901.96908548          334.36833056          255.41539424          458.44793571          619.04731859         2695.92089995           405.1233352          418.03703727          522.99592749          587.57175008          338.89261978         1058.96878016          484.10111094         1775.85757942          475.20464556          523.23179401          332.61940641          853.20901184          775.14406792          506.82132853            533.605915          309.84713679          831.81086163          583.12118966          331.82744137          788.72262547          368.34157145          473.59771867         1501.95623546           599.5268885          335.98283178          653.19732782          284.82841779          333.31933769
         0.01*MaxFES =           623.21010753          382.74848388          501.44975575          694.69963664          437.93346783          544.24372095          598.47688836          283.05329525           966.1034164          296.58097218          499.28414051          685.62236527           508.0051371           327.5367049           356.5206082          422.40214991          467.14975598          654.00301514          281.16027748          228.12167702          425.27513713          451.52294681         1468.47651192          362.85082959          343.32125524          447.82469283           464.7738159          301.15236899          813.21701954          419.01310606         1027.55755915          430.76946281          364.18708829          283.04570002           507.8861326          518.30457511          428.76602564          427.30570374           259.6616751          518.84808326          543.34071016          324.82686296          630.76263456          313.74827815          293.17027285          998.79232673          413.77352991          297.34590174           463.3095497          234.81637241          304.34918581
         0.02*MaxFES =           623.21010753           336.8884379          497.95018216          690.30320862          437.93346783          503.13475167          590.96386471          261.22047339           966.1034164          296.58097218          499.28414051          685.62236527          439.49037079           327.5367049           356.5206082          410.70819033          467.14975598          562.03262496          281.16027748          228.12167702          395.92067884          451.52294681         1468.47651192          362.85082959          326.29604679          418.39520211          435.71998364          301.15236899          813.21701954          400.76066704         1027.55755915           400.9154667          364.18708829          279.56002504          429.40167883          504.10733019          420.69336971          427.30570374           259.6616751          513.06477214          543.34071016          321.79202858          561.99847078          301.91428236          293.17027285          807.09941385          413.77352991          268.74370625           463.3095497          234.81637241          304.34918581
         0.03*MaxFES =           399.21269643          286.74295502          428.54978558          373.35972254          341.12150212          486.92463085          494.87788425          261.22047339          680.22121782          271.61665098          355.95328546          529.80404679           338.1106939           297.9299878          340.24672616           346.0710014          395.62820446          535.83804399          273.80688556          209.12508703          360.11452039          410.16957315         1199.85994021          335.76024652          305.60828078           379.1113234          374.09191561          259.00704154          529.19836885          349.06100038          474.75999047          369.56228582          334.62319579          263.28094778          422.97131251          504.10733019          379.33387914             366.95116          225.30562466           407.4192378          465.91652124          298.86961658          471.18106099          301.91428236           260.7698512          659.21747969          317.49629691          268.74370625          344.62832151          219.24521635          265.59184578
         0.04*MaxFES =           399.21269643          268.97860094          423.70829275          373.35972254          328.22419571           462.9457498          490.20668407          255.01429043          502.59216796          271.61665098          355.95328546          529.80404679          327.59470669           297.9299878          318.13933129           346.0710014          395.62820446          474.71119102          273.80688556          209.12508703           352.6632939          410.16957315         1106.94470523          335.76024652          300.12391964           379.1113234          374.09191561          259.00704154          529.19836885          348.53799042          474.75999047          361.00603333          334.62319579          252.24524197          376.25815983          488.38637191            342.553843             366.95116          225.30562466          401.70403904          431.87411088          284.85099492          438.00133014          301.91428236          252.77737427          577.84180753          317.49629691           260.0784895          344.62832151          219.24521635          265.59184578
         0.05*MaxFES =            389.2911519          268.97860094           388.1996951          355.69737845          328.22419571          440.04551946          351.73173888          255.01429043          478.85310018          249.60523876          310.71723995           461.6280831          313.20455173           262.6167905          289.35845539          298.82587049          377.03174383          474.71119102          269.85582128          209.08853123          335.83032187          343.88439669          926.97426194          310.87873665          299.62144298          361.00656721          324.49212288          247.25966772          470.62080257          308.09367541          350.98389686          357.12626249          334.62319579          252.24524197          376.25815983          436.46183929            342.553843          365.14454095           210.3498374          388.37952676          395.95751535            280.874494          420.61754082          301.91428236          252.77737427          479.50672482          288.68941669           260.0784895          331.80732132          219.11973908          265.59184578
          0.1*MaxFES =            277.0668957          249.89224233          343.72073347          253.16112305          288.65639597          340.39277373          304.34242942          246.36584017           374.9196355           229.3287189          251.63101625          307.04070235          278.11437396          228.84447812          244.71026052          251.92032327          319.61323622          388.03062577          234.15613728           206.1093777           286.8226092          296.53853249          490.14990945            264.290997          251.10352869          334.50974197          318.62309509          229.89666033          371.52965459          201.16136433          238.39282625          345.59967947          334.62319579          248.61670008          272.25909054           373.0146347          311.59801624          346.69449385          208.97198606          337.94697225          317.14260185          248.82368078          339.65730374          274.44914746          225.82273395          366.67685332          260.91583061          244.03979963          253.54692007          205.93699413          250.30938678
          0.2*MaxFES =           231.77326065          212.81862663          287.95136873          253.16112305          210.87000414           260.3997146          273.43104058          217.12818275          277.60726412          200.45750105          250.79702216          211.92506576          215.14303306          198.21641809          202.22171499          207.98847426          269.82672205          308.97314291          196.84416821          181.92589392          239.55008765           236.9059181          311.04184219          239.64049109          220.13027054          273.82002185          229.90580913          185.02731443          339.63721351          157.86687026          203.29362101          283.39197235          275.63365514          228.65658538          245.40479879          286.53796852          249.27184688           286.5530745          191.70822129          287.27125805          273.07827947          200.58671873          231.15546387          253.53172698           201.3717612           296.8950816          202.49410371          199.08511926          198.67886585          179.91775179          199.39464867
          0.3*MaxFES =           201.04582597          189.76598781          224.94164672          206.89908702          185.21087777          192.64288062          216.39770986          180.50109412          225.54043777          176.05959607          204.45392394          185.99361131          180.30368062          160.31551471          160.87173831          160.24784248          189.98675612          236.89183384          169.09069628          163.79025337          180.05165107          184.07586431          284.04768913          181.71169936          182.63781851          225.92083915          186.07361882          150.06118538          294.39078723          139.40492934          171.06401561          211.89358002           227.2528881          186.49560569          201.89094625          226.04499767          173.36915516          238.33940676          159.65186565          180.87311897          208.54861918          156.76818769          202.49430095          195.84461046          173.66731125          242.93536681          166.69946456          178.73601521          164.40768031          146.94571898          158.96839942
          0.4*MaxFES =           108.91668686          106.68113511          108.01608942          109.84907639          110.59104181          107.87457099          107.78825237          107.48046512          108.38105372            107.957212          108.11536724          107.75680804          107.90486407          107.50445506          107.28580902          110.39603507          107.45069288          107.53575123          110.94628634           108.4223651          106.97921744          108.42864269          109.83573711          110.52122749          107.23640432          109.40072479          108.07798485          106.41310509          110.58954266          105.84957167          107.13677906          110.76623512          107.29182505          108.77732968           108.2978396          109.04260119          109.16534368          108.03857494          107.86231514          108.30563991          108.55739195          108.10577326          108.64561496          107.76698735          108.65313103          109.31129527          107.90533898          108.06347739          108.56972338           108.8730239           106.6617498
          0.5*MaxFES =           108.77787831          106.56383478          107.79212286          109.72529659          110.56571759          107.77950301          107.76894625          107.48046512          108.38105372            107.957212          107.90268043          107.75680804          107.83331644          107.46502147          107.14404833          110.39603507          107.45069288          107.34108425          110.76675496           108.4223651          106.97921744          108.11371004          109.75679427          110.49219449          107.23640432          109.34914289          108.07798485          106.31496404          110.58954266          105.84957167          107.13677906          110.68174805          107.14125744          108.63424729          107.93029935          109.04260119          108.87785487          108.03857494          107.86231514          108.26155909           108.4116203          107.99455563          108.64561496          107.43934219          108.65313103          109.00327005          107.90533898          108.05068808          108.56972338          108.72117923           106.6617498
          0.6*MaxFES =           108.77787831          106.30403551          107.79212286          109.72529659          110.56571759          107.77950301          107.76894625          107.48046512          108.38105372          107.79649526          107.88715016          107.75680804          107.83331644          107.46502147          107.02605369          110.39603507          107.27668445          107.22515645          110.76675496           108.4223651          106.97921744          108.11371004          109.75679427          110.38053698          107.23640432          109.14471616          108.07798485          106.26836517          110.58954266          105.84957167          107.13677906          110.68174805          107.12444297          108.63424729          107.93029935          108.73008039          108.87785487          107.91176774          107.86231514          108.26155909           108.4116203          107.99455563          108.58559098          107.43934219          108.65313103          108.98923758          107.90533898          107.79481137          108.56972338          108.72117923           106.6617498
          0.7*MaxFES =            108.6593033          106.30403551          107.75848978          109.72529659          110.41669523          107.77950301          107.76894625          107.48046512          108.38105372          107.79649526          107.88715016          107.75680804           107.5601411          107.46502147          107.02605369          110.39603507          107.27668445          107.22515645          110.76675496           108.4223651          106.97921744          108.11371004          109.75679427          109.95263875          107.23640432          109.14471616          108.07798485          106.18859262          110.58954266          105.84957167          107.13677906          110.68174805          107.12444297          108.63424729          107.93029935          108.73008039          108.87785487          107.91176774          107.86231514          108.26155909           108.4116203          107.91076372          108.58091459          107.43934219          108.65313103          108.98923758          107.90533898          107.79481137          108.56972338          108.72117923           106.6617498
          0.8*MaxFES =            108.6515186          106.30403551          107.64552056          109.72529659          110.41669523          107.77950301          107.76894625          107.48046512          108.32281998          107.79649526          107.87549376          107.75680804           107.5601411          107.46502147          107.02605369          110.39603507          107.15052036          107.22515645          110.76675496           108.4223651          106.97921744           108.0687384          109.75679427          109.95263875          107.23640432          109.14471616          108.07798485          106.18859262          110.58954266          105.79989957          107.13677906           110.6274854          107.12444297          108.63424729          107.93029935          108.73008039            108.775277          107.91176774          107.86231514          108.15849121           108.4116203          107.91076372          108.58091459          107.43934219          108.65313103          108.98923758          107.90533898          107.79389034          108.56972338          108.72117923           106.6617498
          0.9*MaxFES =           108.56938746          106.30403551          107.64552056          109.68483873          110.16426785          107.50204674          107.76894625          107.48046512          108.32281998          107.79649526          107.86048064          107.75680804           107.5601411          107.46502147          107.02605369          110.39603507          107.15052036          107.22515645          110.76675496           108.4223651          106.97921744           108.0687384          109.75008758          109.95263875          107.23640432          109.14471616          108.07798485          106.18859262          110.58954266          105.79989957          107.13677906           110.6274854          107.12444297          108.63424729          107.93029935          108.73008039          108.77315495          107.91176774          107.86231514          108.15849121          108.34166747          107.89177978          108.58091459          107.43934219          108.65313103          108.98923758          107.88830291          107.79389034          108.56972338          108.72117923           106.6617498
              MaxFES =           108.56938746          106.30403551          107.63347738          109.63309452          110.16426785          107.50204674          107.76894625          107.48046512          108.17142392          107.79649526          107.86048064          107.75680804           107.5601411          107.46502147          107.02605369          110.39603507          107.15052036          107.22515645          110.76675496          108.39711719          106.97921744           108.0687384          109.75008758          109.95263875          107.23640432          109.14471616          108.07798485          106.18859262          110.58954266          105.79989957          107.13677906           110.6274854          107.12444297          108.63424729          107.93029935          108.73008039          108.77315495          107.91176774          107.86231514          108.15849121          108.34166747          107.89177978          108.58091459          107.43934219          108.65313103          108.98923758          107.85011899          107.79389034          108.56972338          108.72117923           106.6617498

                  Best                 Worst                Median                  Mean                   Std
          105.79989957          110.76675496          107.91176774    108.17249704333334    1.1465889058420855

