 24/07/2016 06:59:59 |                  Run 1                 Run 2                 Run 3                 Run 4                 Run 5                 Run 6                 Run 7                 Run 8                 Run 9                Run 10                Run 11                Run 12                Run 13                Run 14                Run 15                Run 16                Run 17                Run 18                Run 19                Run 20                Run 21                Run 22                Run 23                Run 24                Run 25                Run 26                Run 27                Run 28                Run 29                Run 30                Run 31                Run 32                Run 33                Run 34                Run 35                Run 36                Run 37                Run 38                Run 39                Run 40                Run 41                Run 42                Run 43                Run 44                Run 45                Run 46                Run 47                Run 48                Run 49                Run 50                Run 51
       0.0001*MaxFES =           361.90579246          262.32329738          254.14838352          258.03302876          297.54666931          294.12310874          306.14111947           416.0030021          298.10847725          326.21469783          336.90147357          347.72546139           279.0620627          322.27061911          269.35690666          335.58269072          266.46565294           259.6097807          272.72926476          354.98378295          301.58423641          350.94092177          289.68975454          255.12057294          250.80401994          313.04673564          349.46811225          270.00672989          293.19451627           231.0764448          213.88322326           261.4984675          286.65973335          293.57700524          261.74075927          292.69492943          295.76386577          300.55121824          295.19885037          299.27231069          371.83118103          273.13128456          256.92654044          259.31928007          321.38799729          303.76110615          305.23224267          322.53598272          321.56445262          338.22103351          334.98683145
        0.001*MaxFES =           249.14317655            244.089335          233.21057188          258.03302876           259.9798445          239.24454173           250.0067284          248.83047557          232.26348851          241.63342961          257.23567007          228.11543869          263.88925897          264.37866904          243.24700327          216.50527814          224.69909614          237.60552296          255.17745647          244.50742539          284.91236639          235.56927199          236.54447139          251.37455784          230.77303781          230.72936957          253.57431416           241.6084103          241.76363352          215.84608973          213.88322326          232.61366466          243.48611257          257.90331183          261.74075927          223.20535339          267.54057265          243.89916078           284.5175506          189.43017172           239.2274758          269.03308687          229.98843477          247.04000513          235.87187494          267.62124152           249.1993872          274.63496512          234.24804461          217.88052179          244.47623196
         0.01*MaxFES =           187.52416371          217.61805912          202.73580742          210.46310564          217.79529653           222.9946078          201.09948907          210.13850928          186.54219085          197.93575316          214.93342769          190.65278616          193.13537259          202.04802592          202.27925605           203.2275209          203.08739178           206.8542315          204.87261414          197.40974864          196.64940262          211.00400793          194.30730303          193.55063134          197.22808032          179.61478132          198.80711258          214.44067801          221.56042894          212.84033533          204.10503553          210.09628942          196.78188202          209.74435568          209.00184026          193.00552167          215.86746879          211.29975329          207.27822976          189.43017172          205.20610357          201.90691671          203.99456004          191.78250954          207.02246099          199.14234026          191.73146465          219.11693324          213.07677061          188.30322493          202.57164185
         0.02*MaxFES =           187.52416371          206.34374426           202.0376328          201.85648793          194.56089448          204.62091435          191.96118475          200.44022963          186.54219085          190.25867154          208.72203499          190.65278616          191.58010391          202.04802592           196.1525252           203.2275209          201.14730981          187.05763214           196.9975484          197.37767314          191.66518519          197.34952912          194.30730303          193.55063134          190.28077763          179.61478132          195.18868147          198.28500539          202.11897393          184.39243009          187.47682398          205.08016151          184.37213602          195.35781174          194.58945368          193.00552167           206.5221288          208.03832544          205.94521425          189.43017172          198.07126514          200.43442777          202.60383738          187.72772541          197.68278547          196.37757187          191.73146465          206.81875852          181.68293662          188.30322493          202.57164185
         0.03*MaxFES =           187.52416371          186.85498946          198.33781474          191.43847895           191.8466343          204.62091435          181.30063478          189.11894642          181.46312337          184.63114516          190.11409196          180.42314401          177.91795087          191.66131309          187.26503996           203.2275209          189.10348608          187.05763214            182.737884          196.57872666          184.71573897          190.11435101          187.89189381          192.83961439          190.28077763          179.61478132          187.25523778          192.22882918          188.51023815          177.15533968          187.47682398          174.38563545          184.37213602          187.67933043          194.58945368          192.22184486          201.03665236          189.25965215          194.71881131          175.53090651          198.07126514          191.34479481          195.50752931           185.5292079          197.68278547          182.01419773          181.10948813          196.73388573          181.68293662          175.07395883          188.18979501
         0.04*MaxFES =           183.50776617          186.85498946          188.30175378          190.85182506          183.46817996          196.92757094          178.70778686          183.30269383          176.32176865          182.61976532          190.11409196          180.42314401          173.48907782          184.81036332          186.19939394           192.8783781          182.91125774            181.596916          181.13373814          178.65292775          183.92930495          188.79482882          176.11976335          180.23484091           179.0370813          179.61478132          181.71077429          186.30943048           188.0701849          177.15533968          179.16070889          174.38563545          181.47395913          178.55742991           188.3413359          183.90514283          191.28689551          181.75613428          189.36566326          175.02789421           184.7805145          178.99740907          192.54401603           175.1157929          191.33154142          169.65922242          170.19759564          190.25265348          171.06020413          175.07395883          184.60211374
         0.05*MaxFES =           176.36868396          182.24920234          179.26404953          179.09691649           176.6924992          187.91705847          177.18615166          183.30269383          164.91227685           172.8259441          179.06623825          172.24005335          162.22022487           179.5582821          175.65920252          181.72628723          182.91125774            181.596916          176.30294111          178.65292775          174.32903771          171.92840211          176.11976335          171.88141137          171.43411734          169.98782992          178.01272972          184.62441603          184.06809845          175.85541411          176.30949292          174.38563545          171.73831406          171.90809859          181.35890461          178.35291278          184.25498303          173.54101455          177.87474228          168.54138469          181.80066432          173.40218099          184.87689663          167.17512809          186.17497255          163.12919772          170.19759564          181.61258177          168.86940881          171.03224047          174.15140687
          0.1*MaxFES =           153.85050358          159.67358855          153.91945174          157.85953177          151.16595012          167.41530639           149.9764251          160.11045727          146.14677758          147.49207435          157.10969817          151.78667035          145.46181149          147.39817728          153.83847423          156.22879057           152.9097173          159.02739286          153.32545893          161.06492157           151.2544222          155.07704961          150.79446299          144.54884925          155.23123636           147.4584711          153.19318686          159.45831139          154.49665103          150.57730839          152.87664379          151.09536616          147.58327091          146.04835696           156.0699728          151.46099046          153.94280023           147.0578383          159.42678945          149.45843561           152.8018342          151.00882039           160.4272631          140.98571891          153.63419662          150.95065128          143.24382011          156.19841665          132.54825181           148.2913229          158.47357531
          0.2*MaxFES =            123.0642707           127.1545768          123.35675001          124.02248853          122.67807634          132.15789941          122.84111241          129.25945702          117.87832822          124.50357158          122.01667042          126.11775959          114.46610806          118.08894205          124.31958879          122.30360134          123.14171157          127.83495754           123.2737574          127.14681652          118.98529262          126.77225492          120.08310565          125.92532073          123.98096297          120.26902702          120.36029577           128.7805907          123.87380381          119.53718852           117.1901005          123.25406119          123.44741645          116.38297502          121.95592211          122.95562398          121.05722565          121.30217871          127.67968709          122.17704722          129.36440761          122.50228569          129.11890437           118.9225599          129.92326681          121.58207276          120.05365203           120.4577888          121.82397347          122.52775605          122.94485705
          0.3*MaxFES =           111.28258566          114.90345018          113.21059179          111.21845509          111.98376648          114.02526871          112.22266082          112.34604565          112.94038164           112.8494865          113.98092423          112.08110955           112.4275936          111.81461772          112.04665986          113.40945207           113.6446017          113.50788486          113.96922034          113.84900158          113.69269304           113.1245496          112.24245634          111.85039896          112.45197452          113.27635206          113.73385942          113.54291046           112.9736893          112.09506281          110.16885913          111.64376142          113.64807588           113.5472256          113.30851886          113.24840669          111.93163666          113.01310634          114.67736055          112.47109351          115.24685617          111.39074438           113.3983427          112.09235867          111.56473699          111.61722175          112.97815316          113.80851511          112.86891698          112.17882464          113.22372466
          0.4*MaxFES =           111.28258566          111.50832007          111.04640617          110.64972175          111.98376648          110.65986351          110.12333615          111.04426437          110.26877292          110.66520633          110.66733294          111.13818701          109.97028757          110.46789155          112.04665986          111.01271439          111.97361462          111.39251986          109.95605777           110.5137212           111.4068194          112.61829425          111.18047902          111.85039896          112.00752916          112.50546291          112.19921268          112.29340336          111.20921956          112.09506281          109.69281234          110.79365108          110.56935012           112.0532687          110.23662026           110.8612433          111.93163666          111.73072163          112.22067022          112.22774054          110.37867854          111.39074438          112.48971898          110.00653057           111.0226567           111.1195176          111.57030524          111.33801545          111.06968144          110.40964128          111.90653971
          0.5*MaxFES =           109.96640547           110.5609037          110.89236146          110.64972175          110.96383345          110.65986351          110.12333615          110.57613885          110.24972847          110.26899519          110.66733294          111.13818701          109.86223183          110.46789155          110.99423689          111.01271439          111.28200371          110.20376857          109.95605777          110.48913994          110.65096586          112.19756691          111.18047902          110.63687701          110.36947395          112.25479978          109.94637291          109.01547957          110.67353004          112.09506281          109.54192479          109.18818214          110.56935012          111.46333019          110.23662026           110.8612433          110.88030565           111.4720099          111.35596734          111.77249166          110.37867854          110.74979573          111.61655664          110.00653057           111.0226567          110.96717346          111.07025366          111.33801545           110.8303686          110.39299963          110.80699476
          0.6*MaxFES =           109.96640547           110.5609037          110.89236146          110.29368087          110.26947449          110.65046376          110.12333615          110.57613885          109.18460109          110.26899519          110.62553853          110.81188138          109.86223183          110.20652754          110.99423689          109.55847476          110.55986648          110.20376857          109.89509157          110.48913994            110.058648          108.82781845          111.18047902          110.63687701          110.36947395          111.39784078          109.91368807          109.01547957          110.67353004          110.45081512          109.54192479          109.18818214          110.03500721          110.01025998           109.2054416           110.8612433          110.02403346          110.89118019          110.69035915          111.61397942          109.70935126          108.97479505          109.47666648          110.00653057          109.81740037          110.09262119          111.02709157          111.11695629           110.8303686          109.86773671          110.80699476
          0.7*MaxFES =            109.7662342          109.91504931          110.27212637           109.3816955          109.82570988          110.65046376          109.65965306          110.57613885          109.18460109          110.26899519          110.62553853          110.05720942          109.86223183          108.76908742          109.85035621          109.40391846          110.55986648          109.66854925          109.89509157           109.4027185          109.92673976          108.82781845          109.88864638          110.19082819          110.36947395          111.26667429          109.91368807          109.01547957          110.67353004          110.21914747          109.54192479          109.18818214          110.03500721          110.01025998           109.2054416          110.00910859          109.84829118          110.30704874          110.04685609          111.08604664          109.69298738          108.97479505          109.47666648          109.81941839           109.6100483          110.09262119          110.54811996          111.11695629           110.8303686          109.86773671          110.59447468
          0.8*MaxFES =            109.7662342          109.91504931          109.56965617           109.3816955          109.82570988          109.82872539          109.16900192          110.57613885          109.18460109          110.26899519          110.16655452          108.13922224          109.11029656          108.76908742          109.61649286          109.40391846          110.55986648          109.17644154          109.89509157           109.4027185          109.92673976          108.82781845          109.88864638          109.41710078          110.36947395          110.63698933          109.91368807          109.01547957          109.96733563          110.21914747          109.54192479          109.18818214          110.03500721          110.01025998           109.2054416          110.00910859          108.72429387          110.12238267          110.04685609          109.14291656          109.69298738          108.97479505          109.47666648          109.44238508          109.36794926          109.11743967          109.48004324           110.1224313           110.8303686          109.19824504          110.59447468
          0.9*MaxFES =            109.7662342          109.91504931          109.56965617           109.3816955          109.82570988          109.82872539          109.16900192           108.7529422          109.04795172          110.17821357          110.16655452          108.13922224          109.11029656          108.76908742          109.61649286          109.40391846          110.22332221          109.17644154          109.32042864           109.2640263          109.92673976          108.82781845          109.49381206          109.41710078          109.77906871          108.91669366          109.91368807          109.01547957          108.20197309          109.94382645          109.54192479          109.18818214          109.99049553          109.76358972           109.2054416          108.90914001          108.72429387          110.12238267          110.04685609          109.14291656          109.37465509          108.97479505          109.47666648          109.44238508          109.36794926          109.11743967          109.48004324           110.1224313           110.8303686          109.19824504          110.59447468
              MaxFES =            109.7662342          109.73556359          109.56965617          109.14486065          109.82570988          109.82872539          109.16900192           108.7529422          109.04795172          110.17821357          110.16655452          108.13922224          109.11029656          108.76908742          108.72222062          109.40391846          110.22332221          109.17644154          109.32042864           109.2640263          109.34772303          108.82781845          109.49381206          109.41710078          109.72670009          108.91669366          109.91368807          109.01547957          108.20197309          109.60609189          108.99132309          109.18818214          109.99049553          109.76358972           109.2054416          108.90914001          108.38796022          109.41837245          109.74630966          109.14291656          109.37465509          108.00253311          109.47666648          109.44238508          109.36794926          109.11743967          109.48004324           110.1224313          110.07415233          108.85824604          110.18929779

                  Best                 Worst                Median                  Mean                   Std
          108.00253311          110.22332221          109.36794926    109.33394095803924    0.5338245083783599

