 01/11/2016 15:27:35 |                  Run 1                 Run 2                 Run 3                 Run 4                 Run 5                 Run 6                 Run 7                 Run 8                 Run 9                Run 10                Run 11                Run 12                Run 13                Run 14                Run 15                Run 16                Run 17                Run 18                Run 19                Run 20                Run 21                Run 22                Run 23                Run 24                Run 25                Run 26                Run 27                Run 28                Run 29                Run 30                Run 31                Run 32                Run 33                Run 34                Run 35                Run 36                Run 37                Run 38                Run 39                Run 40                Run 41                Run 42                Run 43                Run 44                Run 45                Run 46                Run 47                Run 48                Run 49                Run 50                Run 51
       0.0001*MaxFES =        988338.24718632       728239.23541176       297817.28339194       768524.14416737        701786.9340248       514313.01332151       848227.58705765       863763.99829812       765632.74458533       710792.77554125        747858.1123107       737044.89817694       738535.85384554      1140612.83887858       953110.11881117       490354.14113548       629911.70682402       443330.19262936       649731.55789356       808579.45796237       732632.67940903       967654.86213974       942080.22342357       576728.18773942       774841.39062974       360873.37284259      1010184.01273254       518368.04521094        970939.9091489       300065.24569813       522537.22856382       841155.28558116       938170.77054752       870995.08718274       453810.59988006      1701891.41106336        641185.0793067       790433.24178579       798645.21954155       868546.64906709        623965.1086625       464822.45428705      1137848.61530303       584940.17333938        1028468.720112       406727.41098018       590022.74482223       620493.76338485       594837.06281937       675794.86452353       731632.04048944
        0.001*MaxFES =        443269.48466259       393977.87335269       222685.57661783       348954.76120413       346859.80402959       326545.49149486       300474.42749771       419612.72395121       348209.81399237       385014.92502755        454672.9558057       391336.24310814       314912.78789398       337277.22662229       285267.29580905       398537.64427887       545579.55534611       443330.19262936       269446.28280232       396255.83789932       408231.57780545       296313.19323472       327952.46852978        345069.6826739       361630.65537688       360873.37284259       522160.20673635       482820.72147669       432115.66254334       268684.83942437       501467.47661712       351585.89139146       435939.75378057       494371.04884414       359277.67644174        444428.7356485        641185.0793067       375581.47631317       310410.16490786       366303.86199913       333208.95272066       316691.06968749       315065.48940573       352866.04103091       299873.97049026       371511.23643912       328418.45880332       425875.67970453       373448.90797463       372982.90997895       421326.30957491
         0.01*MaxFES =        209197.13688343       175783.47660306       174287.48602957       184796.64575851       191693.08072959       193700.68973686       193142.75542775       171313.55970485       167597.94852132        167960.6277525       189983.89063036       158797.09015054       200926.25544966       179464.34674511       187642.14046169       182883.65068436       168573.89194932       167313.44040878       175931.70440557       196357.85331159       188306.45845075       177974.21875027       189915.00182967       190334.21656706       193968.64974382       172037.21670625        203180.2289169       179786.77586944       191685.21863487       186745.38660007       175793.70263348        172659.1534763       182137.59252062       188185.65602669       182206.79332461       189398.63756732       175000.79394354       185066.69347111       165998.58549194       184842.67845351       171423.22190547       178097.13526404       170626.44955316       164598.79677405       176175.71834298       189210.25947968       181627.96954333       181097.72608085       190171.16570921       181919.46681303       159738.01166467
         0.02*MaxFES =        173804.13152837       137066.05850179       170245.68457494       144892.27299625       170279.84724587       155439.32480405       152199.38818987       152697.65761516       136691.21870149       147198.81419639       160576.07316464       154177.96799741       176875.34577114       154896.13480656       148212.68735681       149673.31312898       152735.85617069       154382.92786234       155525.22692641       153857.69167916       155624.43203598       155231.73177361       146228.27623747       164269.93248886       154135.90644463       154625.57484101       157705.94900169       165384.42533601       165708.96349708       169099.85966727       155423.61956185       157110.83510045       162291.39989944       158265.97991711       165981.11754993       145058.45776745        165761.2397409       150663.92656878        146526.1041161       163173.85010215       156687.67273395       171052.06409561       148512.15938992        154935.0202165       159746.89834873       141466.87385936       152842.70811261       140642.37278175       160557.50747567       160765.73313381       155264.53052652
         0.03*MaxFES =        146245.12734237       123194.94052407       145690.84253506       138889.96905954       135133.16772785       150754.98799238       145153.36734535       140139.84927284       136691.21870149       136186.83874751       141335.78045934       136568.92408978       150592.77904877       140697.28789668       139707.41425581       135421.69462624       141962.24480836       139979.53744097       140000.60186349       128568.30491732       138890.19136468        136909.5664662       132640.18339198       158770.21537382        144997.7421413       138046.41677729       157705.94900169       154002.71274957       136034.72234169       141279.27003822       155423.61956185       134778.07252229       153124.12122513       146553.61320097       154703.13942827       145058.45776745       146456.52946043       144111.32297115       135464.75542036       146144.29710199       146896.41468638       145842.60181642       120506.62331345       137639.14848549        154554.0482339        118115.6451819       140674.82673051       140642.37278175       135412.90698822       145069.51620333       151240.41362978
         0.04*MaxFES =        142445.97079673       123194.94052407       134012.85528883       129902.58061355        134261.2506936       137224.24845104       135860.14617129       127157.41555025       130781.72254659       132158.89159764       140214.19870377       129201.65701788       145933.50057071       130381.57731632       134154.02749625       127482.14071525       132065.40049317        137132.6001568       140000.60186349       128568.30491732       134566.80669793        136909.5664662       123656.43208276       152396.62555445       144209.08626262       138046.41677729       141917.71683154       131404.57438606       136034.72234169       138374.13337015       141095.97206872       134778.07252229       143093.83641788       138493.21956226       140089.22615445       130964.93907711       131300.40164941       131216.75195444       135464.75542036       134671.56592873       132478.70368807       145842.60181642       116402.30478136       126824.51224796       145638.48953697        118115.6451819       136219.41864957        132790.7778536       135412.90698822       145069.51620333       136907.39707999
         0.05*MaxFES =        138678.77825297       120126.41392661       124497.24749954       129902.58061355       116228.69483235       121265.02021928        115849.2056037       115490.46274444       119744.43126755       126212.97539042        125761.1780941       126769.23393817       139030.21557321       122758.91886169       130220.56692658       122636.45359793       132065.40049317        131170.2381788        131810.6132581       128568.30491732       130676.55105249       134710.25542749       118156.76467528       141805.60533605       132785.08648078       130862.59501868       138236.23587829       119379.77701272       123328.82216781       137786.54239173       131586.45131256        123364.4883104        126145.4594386       128832.14581753       128827.97092761       122766.39709894       125094.94016975       121575.12214202       125913.16372968       131252.61707892       132207.53611069       137106.57859854       111678.59965063       110076.41491251       135487.47225263       114094.78706605       128385.36970491       131302.46942451        131668.7152569       142337.00508127       120128.63145116
          0.1*MaxFES =        114981.05433292        98388.19109572       108832.06152296       104075.67299996        96187.18590213       102923.14065721       104200.29486238        95925.43456453         89485.4689685        91909.86103736         99141.8010513        92999.30244171          99073.869099        93448.28999039       100524.89437332        93535.64207787        104807.9038211         98006.5224594        91748.94091696        96694.62143633        98242.37571464        98423.34071511       100634.60325703       106552.05730387       105511.33259923        90928.18771198        96945.01790686        92078.61303612        89263.75786278       108224.59908445        98161.92444627       101929.06533701       103707.42060997       104730.96358568        96451.70683625         83944.2716923       101279.87631177        99862.43342751       113538.32426735       101860.87612536        95756.12010352       102463.36546811        95386.34130403        95760.95099068       102917.34483312        92174.53131516       105396.60367884       105412.07689237       107811.71313151       104112.53968698        93935.14722217
          0.2*MaxFES =         80693.56093656        85233.99118539        90885.75110452        76351.30281528        77412.71714746         91369.1904718        87919.01328732        72348.51090059        68700.92178767        73334.58723228        78103.22664627        70214.82454484        73437.06889963        79503.28831725         71657.2995765        71297.20818785        82933.08146624        73459.10876002        69920.75534057        82884.46920908        83996.00430398        82339.54892872        75397.95917963        82900.43386712        91951.57462954        71408.84519816        73961.74463295        76689.11272485        75205.38965194        73476.57460331        74208.57041546        86549.01186517        86788.50869597        78612.11585618        72507.90460282        71062.82526968        83255.22195216        69807.97845371        78926.30416259        74496.04521762        73367.59355418        86392.11080047        83693.82420098        77506.54167096        82809.21386768        76920.89116916        75146.34190443        84316.21736381        79631.13837456        73507.07330599        73056.69616546
          0.3*MaxFES =         70212.97941359        80632.03358864        81667.05374677        68775.01850762        69406.14148831        78762.04367274        81412.02720755          65910.716992        64769.83688736        67287.14173143        69781.85339001        64899.91028243        66417.26944839        75528.17782104        64525.99098063        65313.05162652        77669.86654741         66102.4948663        63636.32019367         79319.2105113        79199.01741452        77342.85098083        67359.67224602        76171.21423347        87023.35514396        65230.17779257        64800.26098263        69459.61622579        67196.37243015        64713.35107969        66917.12076243        80138.48421885          79494.073903        69291.44173628        66486.40973725        64739.44600285        77477.36842288        64257.98963351        69463.10671344        65827.67696467        65758.65535566         74499.3460098        78214.00959739        69024.92673524        77097.56006753        70168.53631101        65118.48374037        79201.09154056        68502.56164684        67349.91024804         66917.6075297
          0.4*MaxFES =         64942.67322375        75783.37165448        76856.04789664         64981.9275899        65340.65032155        70837.30389296        76883.53477316        62781.50761263        62177.71922313        63000.64826161        66505.14457482        62415.66915589        63036.08035024        74150.00556777        61929.43337366        63057.34876096        75157.16094044        63431.73518532        61840.24434745        76121.50013896        75984.07268578        74723.86286782        63440.58135494        74097.84722472        84742.01329297        62415.24013311         62706.6726562        64316.65264591        63117.75426123        62801.41460391        63132.37142701        75699.15924335        75922.24655991        64749.02695112         63392.0237468        62460.94109987         74368.0230327        61720.43204455        65159.98344957        63237.75048359        62204.95312119        68757.42892197        75964.90882457        64457.89701753        75038.92370933        65139.20384123        62876.13731708        76398.53503658        64296.23263157        64027.81033124        63016.23839656
          0.5*MaxFES =         62427.13177845        74392.17456629        74493.93641818        61931.70176964        62757.17859551        66141.75269832        74339.32625277        61111.72950251        60681.78614985        61617.92960306        63907.64005013        61035.77169872         61270.4275253        72663.05923471        60831.34069229        61102.41446605        73079.11911426        61203.06618525        60831.00913616        73888.32040866        73794.71636493        73661.03453912        61630.80966893        72875.90097131        83522.20367297        61070.59182068        61208.63147615        62448.65742154        61170.01637483        61141.47343513        61744.17211283        73936.68941471        74751.39675568        62462.64139037        61483.56476635        61051.52323464        73305.19763789        60498.84525612        62154.92318295        61434.30348686        61199.54744423        64231.75585314        73817.89570278        61923.33895712         73411.0901857        62003.34342688        61078.42082661        74482.09650281        61701.54890795        61834.39792997         61162.8761093
          0.6*MaxFES =         60873.38918067        73108.97370975         72905.9634379        60776.80156069        61100.29447209        62799.99950092        73356.69912808        60266.59474958        60036.61796498        60576.69867841        62003.78122024        60399.34698832        60363.50684212        72280.63158391        60147.21630819        60369.63838868        72673.02677431        60400.14074548        60050.76574289        72715.54231485        72885.88702005        72821.81119542        60671.30515106        72393.26179957        82216.69561941        60273.76187411        60495.41117964        60828.32558691        60434.91022028        60277.61599161        60793.04994338        73026.96695458        73285.23826803        60852.38733907        60457.61804539        60304.56042182        72206.36253334          60072.377823        60749.80583088        60473.49591877        60557.47196022        61994.12133844        73164.65149355        60622.76042142        72606.07471908        60804.26562876        60347.37679571        73200.17623276         60660.6536676        60786.76612969        60220.90101268
          0.7*MaxFES =         60364.67734107        72474.68585638        72344.00782996         60195.5776655        60361.39798931        61391.56467878        71871.69568298        59854.29152831        59794.89243623         59988.7276332        60633.56003985        59952.91210004        59991.24593976        71635.42858453        59760.55853796        59774.61420814        72117.77316432        59925.63537026         59722.0146903        72536.20462185        72150.06363529        72218.70343973        59967.44732186        71960.44900265        81325.84095768        59859.27518105        59917.78335247           60174.27024        59939.32679991        59820.75868446        60047.21287228        72874.28560661        72770.65311158        60225.79595035        59917.83495848        59913.70385375        71974.95260212         59735.0681579         60215.0802139        60015.76021928        60021.75184177        61006.71516175        72343.96200864        60216.26503298        72271.19004312        60142.67708946        59957.33704429        72526.08858308        60067.92209204        60138.53758418        59883.53564564
          0.8*MaxFES =          59909.0663331        71776.78774544        71781.17973504        59864.25436062        59915.73112402        60464.31426667        71732.00711649        59610.03601084        59548.66803202        59655.21666277        60137.51703666         59710.3965296        59732.86051457        71423.94905387        59541.79644578        59618.60981546        71584.97477581        59629.51843697        59546.62637764        72089.24639272        72059.24069978        71382.74046569        59656.27816413        71411.44762564        80502.28217925        59578.45234716        59652.73992519         59825.9962131        59699.89292402        59555.60707817        59835.31772968        72203.65629213        72188.79362821        59738.37050159        59670.67910655        59641.36214606        71735.74237884        59578.07671514         59768.6852528        59729.83952724        59705.24666577         60305.2409073        72067.49454022        59769.48444632        71875.41434888        59777.77005315         59666.7273603        71712.48850951        59726.62907807        59733.72933168        59607.04416589
          0.9*MaxFES =         59609.51510812        71776.78774544        71174.22849725        59643.95122251        59652.08840732         59900.0943236        71656.11611972        59451.26380351        59452.98277794        59548.46011693        59753.96586188        59505.21795476        59570.44850367        71192.16786119        59430.70566296        59489.33571221        71124.15808973        59490.88441857        59447.76942689        71510.07582085        71828.06091738        71382.74046569        59470.67758568        71384.57727322        80148.11458951         59482.7098392        59509.40918892        59579.72323961        59560.23041536         59447.6674878        59564.77649384        71691.82668636        71901.98056135        59591.23409297        59492.15364645        59452.02501265        71460.61046717        59449.01997936        59570.94060767        59569.83513685        59560.17695597        59836.37239502        71852.91492416        59574.69472617        71394.44577775        59606.92691269         59521.0821148        71623.48684275        59575.10893945        59571.74143432        59493.73915961
              MaxFES =         59509.18016097        71627.86574487        71174.22849725        59465.44039036        59482.19461571        59666.30787178        71329.01133268        59390.71353203        59343.47742564        59416.72934137        59635.09629297        59417.88635651        59425.43196076        71192.16786119        59340.99098392        59416.66914445        71124.15808973        59409.54138281        59369.55311281        71470.17305501        71549.70927969        71382.74046569        59389.22329065         71340.4217654        79781.64329151         59367.9434447        59398.84663698        59434.21015793        59419.74428482        59360.57610705        59452.74163903        71399.05924092        71880.33296245        59469.92580189        59409.49260304        59386.70690691        71265.21841545        59375.62801844        59461.54576217        59456.87762997        59436.62197394        59584.29443252        71180.24285148        59462.99539044        70942.51860747        59456.96861112        59380.81388538        71137.24763403        59444.38187179        59427.08087727        59397.59162371

                  Best                 Worst                Median                  Mean                   Std
        59340.99098392        79781.64329151        59456.96861112     63334.12083562078     5938.027979503805

