 01/11/2016 14:09:06 |                  Run 1                 Run 2                 Run 3                 Run 4                 Run 5                 Run 6                 Run 7                 Run 8                 Run 9                Run 10                Run 11                Run 12                Run 13                Run 14                Run 15                Run 16                Run 17                Run 18                Run 19                Run 20                Run 21                Run 22                Run 23                Run 24                Run 25                Run 26                Run 27                Run 28                Run 29                Run 30                Run 31                Run 32                Run 33                Run 34                Run 35                Run 36                Run 37                Run 38                Run 39                Run 40                Run 41                Run 42                Run 43                Run 44                Run 45                Run 46                Run 47                Run 48                Run 49                Run 50                Run 51
       0.0001*MaxFES =   2.798282644159459E11   3.25537822047255E11 2.9268530972490814E11 2.6815425712721677E11  2.980706981263305E11  3.369790131893072E11  2.969162536735889E11 3.2390646114072687E11 2.8119268516233636E11  3.124817406832263E11  2.998587308964458E11 3.1331988194785443E11 3.6671163600072797E11  3.486732610024594E11  3.223388069549489E11  2.713574631490407E11 3.2797539857264453E11 2.9221638232100507E11  3.467598269251072E11 3.0608718873180023E11 2.9273935148052527E11 3.0673379987688086E11  2.329766686182293E11   3.52000737505014E11  3.004376274652413E11  3.176203400379954E11 2.6101185723334756E11  3.576436016955573E11  2.913714049358235E11    2.9485284320684E11   2.87722406592884E11 2.9362799611442224E11 3.3355995290098315E11  3.458779028686351E11 2.4871726286208835E11 2.8771120341602875E11  3.214472358198809E11  2.757293733339737E11 2.9057682810869855E11   2.43312494670425E11 2.9703733104344745E11 3.5916280909155505E11 3.0403052045473334E11  3.021654442435406E11   2.98310888204259E11 3.1862313177311035E11 3.2604958257871674E11  2.885796059748595E11 2.7054230952690955E11  3.267906877590121E11  2.877646577966133E11
        0.001*MaxFES =  2.4675905661952124E11 2.6567889149333823E11  2.552600055603185E11 2.6353927913698657E11 2.6716124273823477E11 2.4188489821574512E11 2.2970292084064774E11 2.6841859857927237E11 2.2740122997042758E11 2.7405313315847202E11 2.3669117496607788E11  2.233857831955033E11 2.3475022068436432E11 2.6414342512890118E11  2.444253721105055E11  2.436267475605271E11 2.6397856576559314E11  2.620776148245033E11 2.2132335707493268E11  2.742038202336146E11 2.2885963322397546E11  2.663783062515074E11  2.329766686182293E11 2.5493526580058914E11 2.5870747262386725E11 2.5503885391719128E11 2.6101185723334756E11  2.487394937462763E11  2.670948733316576E11  2.652350824048243E11   2.52700560990094E11  2.280791635704652E11 2.3858059363603696E11  2.330888230795528E11 2.4871726286208835E11  2.297723426038418E11 2.4902706426408908E11 2.3994155368393665E11   2.71581748354932E11   2.43312494670425E11 2.5560436256171738E11 2.5794445093037732E11 2.6290713613104843E11 2.7234742503480917E11  2.750712975277861E11  2.782064359595087E11  2.418247509146897E11 2.2909793436370505E11 2.5351323614168808E11 2.7587667081356726E11 1.7720834427138522E11
         0.01*MaxFES =  2.0276110867632153E11 1.7267471772335248E11 1.8131929350231964E11 1.7756602506877234E11 1.9561962999261023E11 2.0186358673531833E11 1.8658034566569803E11 1.8843715720791705E11 1.7212763620307065E11 1.9368929854040457E11  1.502359282757408E11 1.6804486386204202E11  1.637996667093819E11  1.975931117851254E11 1.8921325897729813E11 1.9328586918335587E11 1.8674278667182214E11 1.8351911314498618E11 1.8470355838538638E11  1.849881946596437E11 1.9722934153536533E11  1.939803442651797E11 1.8976702992389072E11 1.5646951270082385E11 1.7515164907621075E11  1.933278284546426E11 1.8244594752140826E11 1.7971459237249594E11 2.0499674320994125E11  2.003756928748727E11 1.9569670202746814E11 1.7189580310498358E11   1.67953284827059E11 2.0176700622367072E11 1.9416001641100186E11 1.9755521152642273E11 1.8760420739506912E11  1.899195355241045E11  1.407178337613566E11 1.6831210317328787E11 1.8906375777880374E11 1.9176246253244937E11 1.7519604711915836E11 1.7903062668101437E11  1.925674704386303E11 1.6792196762783035E11 2.0509941447317374E11 1.9471785415298523E11 1.9389720733185977E11 1.9851922645557907E11 1.7720834427138522E11
         0.02*MaxFES =  1.3913127226198154E11 1.2744362195812479E11 1.4868253108068875E11 1.4006646365650385E11 1.4367423936306793E11 1.3415065544902211E11  1.389377877463886E11 1.6192189356597296E11   1.46435121041906E11  1.386747847288895E11 1.4910110516481754E11  1.364175976057623E11 1.1428526597538138E11  1.446467845270361E11 1.4468514417683163E11 1.4971216194723178E11 1.2496107454938591E11  1.399191564748647E11 1.2907991773386719E11 1.4785939068977805E11 1.5097827308900955E11 1.1885034274163655E11  1.382435947139063E11 1.2181285963626318E11 1.4368612854218832E11 1.6801752128033994E11 1.3475470709655016E11 1.5057336447465604E11 1.3041202582447498E11 1.4772561811114636E11 1.3714448532386346E11 1.0816844385370982E11 1.2988359103651256E11 1.4734032884247928E11 1.3959809812150665E11 1.3919069239440125E11 1.2715388608652551E11  1.264902857266983E11 1.2815939840602663E11  1.484616099815027E11 1.5375568807938248E11 1.6167027203719693E11  1.245174953317339E11 1.3391584803760503E11 1.3907249655538254E11  1.339399833369538E11 1.5603943630838602E11 1.2008000481268071E11 1.5598719179348703E11    1.3452693393782E11 1.4562395575496198E11
         0.03*MaxFES =  1.1726567382059344E11  9.678860493621255E10 1.1884237292475768E11 1.1115987523438826E11 1.0815414884131532E11 1.2243279039507997E11     9.930846470784E10 1.1362827371871303E11 1.1487881836573386E11 1.1257763979152112E11  9.760253819135654E10  8.589954189506158E10 1.0911091195362311E11 1.1337453943212642E11 1.2461252563730211E11 1.3269673512814217E11  9.424651303852968E10 1.1627469768441826E11 1.2144717614674475E11 1.1298802082010318E11 1.1635588782015666E11  9.516998952876923E10 1.2525481455025381E11   9.36556669358326E10 1.0365820509103247E11 1.2296806594535992E11 1.1578671005884776E11 1.1865805772856628E11 1.0264921774829982E11 1.1362810760260983E11 1.1073872191999434E11  8.533386516077625E10 1.2585910097131436E11 1.1329038958671016E11  1.186085050661524E11 1.1554521088854848E11  1.242508963391216E11 1.1796756500291113E11 1.0319888011751062E11 1.0699028609237236E11 1.2012579056048007E11  1.224885333323624E11  1.047620460672222E11  1.110051573315526E11 1.0879701849338696E11 1.0587811529350366E11 1.1957924104124538E11 1.1018421495890811E11 1.1363005623294945E11  9.939779484758945E10 1.2155796618185403E11
         0.04*MaxFES =   8.702289376043166E10  9.366598061758934E10 1.0961122649280197E11   7.89563556290847E10  8.879911405248253E10  9.430502054942766E10  8.223746202422845E10 1.0147457647796242E11  8.925726206359871E10  9.671583911080235E10  7.849881183753305E10  8.589954189506158E10  9.318374055362122E10  8.188359274903377E10  9.098843595928773E10 1.0641186247828053E11  8.717253965463722E10  8.884839610129799E10 1.1160751651831825E11  9.954918783552802E10  9.104259069118257E10  8.716005320148431E10  8.095384944774017E10  8.317900925727982E10   8.17982649111156E10 1.0118016028868936E11  9.881444180934367E10  9.232432196385963E10  8.407061298043925E10    8.0973505749146E10  8.934375022169185E10  8.102937569548102E10  9.687560144143526E10  8.945834508036296E10  9.251161623849278E10  9.509692853907832E10  9.975468068788228E10   9.00569441501206E10  8.031594081183556E10  8.899068429115816E10  8.778603776355093E10 1.0876179679135374E11  9.825836165667345E10  9.352319903970944E10  7.746697358900388E10  8.035074141536697E10 1.0135858424516289E11  9.046726456736624E10   9.78844767166746E10  7.913773155193263E10   9.11920953548003E10
         0.05*MaxFES =   8.702289376043166E10  7.210529932495276E10  7.645947479210004E10   7.35854643087246E10  7.090882410173132E10   8.68866853933483E10  7.003203614025298E10  8.274772909534863E10   7.23438272541564E10  7.668976744527618E10  7.554902904150241E10  7.712600763346202E10  7.519697644287068E10    6.8734565670335E10  8.239268949095522E10  8.850784267688593E10  7.164252450392955E10  7.808649850789012E10  8.222290442142564E10  7.187818389962852E10  7.517799924492805E10  6.854341374711932E10  8.095384944774017E10  6.781529549141476E10  8.068961826486824E10  9.367170742599524E10  8.075095080196442E10  8.714170127080592E10  7.309438990015634E10    8.0973505749146E10 6.5309147556315636E10 6.1689049076276245E10  7.807439872812566E10  7.955168798701004E10  7.441374403292595E10  8.418416647047429E10  7.269110704173735E10  7.166475478822462E10  7.357587271411273E10  7.596052546735744E10 6.3616304372930435E10  9.064790736492886E10   7.19330362668159E10  8.150236682220695E10  7.746697358900388E10  7.939191095061632E10   9.77203915105976E10  8.249477684823412E10  6.464073617841302E10 6.1353586240372475E10  7.851307978491519E10
          0.1*MaxFES =  4.8141912642723015E10  3.825867895131772E10  4.274559334831041E10  3.188755371566512E10 3.3679932335431786E10 4.5453680183196075E10  3.463171197135747E10 3.4004050777493076E10   3.81484312764545E10  3.792328564358757E10 3.3865918749147705E10  3.981834296247424E10  3.194991739791401E10 3.2679380727326443E10  3.680542226076915E10  4.044153283168842E10  3.540353075398505E10 3.4981832234717445E10 4.4841150518538826E10 4.0321122872009705E10  3.504878578428024E10 2.8588895678544697E10 4.3596991436575806E10 3.1688008977491863E10  3.831423541808768E10  4.734227042456474E10  3.694115718195124E10  3.806903693775157E10  3.690418458855632E10  4.559439055525584E10  3.935633069320417E10  3.703306218398146E10  3.825796036274103E10  3.966303204395539E10 3.0044273126327385E10  4.180568365791766E10 3.7606691008918465E10  3.746253376343299E10  3.728791389219493E10 3.2722149922617958E10  4.273594672904694E10  4.139117167464214E10  3.826329518047588E10 3.6699219828249916E10  3.804894964763623E10  3.623124381045192E10  3.968721873485193E10  4.334669818082105E10 2.8998641907450603E10  3.852289678495378E10 4.2989217253214775E10
          0.2*MaxFES =   1.645161418918934E10 1.2678569472097569E10 1.6083291724467188E10 1.1531415937865993E10 1.3870601203583828E10  1.751933236800957E10 1.2602561401764456E10 1.3451276217969059E10 1.5457891018196163E10 1.5941079291955523E10  1.311651658748337E10 1.4815958224961082E10 1.3473920186827246E10 1.0829578186972544E10 1.6721513518689432E10 1.1884119720868912E10  1.272115957862148E10 1.4106325769814634E10 1.3598405210834986E10 1.5497643088043812E10 1.3233157378394897E10 1.3659552045300983E10  1.437212673175333E10 1.3123446149280706E10 1.1325671760064796E10 1.6366600926155256E10  1.467028413519897E10 1.3002653684480467E10   1.46690246630892E10 1.6171551479545708E10 1.3923215444543331E10 1.3971590687177483E10 1.4310170087736723E10 1.5113733598897097E10 1.0851697938093966E10 1.5731379060538267E10 1.3769287332666872E10 1.4627878472400972E10 1.1837667180815796E10 1.2786044485143799E10 1.4181147912341173E10  1.530720240541313E10 1.3149309987434029E10 1.3091880601359207E10 1.5302383332877256E10  1.307834090440156E10 1.4748001486009295E10 1.5146141240056057E10 1.2840657125991474E10 1.1944519450189312E10 1.5717237661036663E10
          0.3*MaxFES =     7.87369876757869E9   6.601283971407131E9   7.179305924038612E9   6.438171185231276E9   6.500485124522826E9   8.188858669117103E9   5.424891694835732E9   6.370851762425004E9   8.182847157299414E9    7.22363565837014E9   6.486012050432222E9   6.956470124256422E9   7.560315665472414E9   6.437130790790878E9   7.381540940340042E9   7.506613183568856E9   7.525854476404482E9   7.418587306684139E9   8.187596788356337E9   8.189128501918414E9   7.391898360565875E9   6.352352880263253E9   7.527010616650458E9   6.850519647611817E9   7.006118519144988E9   6.948113421389362E9   7.820064223850023E9    6.51376769972019E9   7.236308083358957E9   7.669968610917436E9   6.977244209105592E9   6.107916622640483E9   7.638332394063838E9   6.490347706597522E9   7.026732306003525E9   9.016431959396387E9   7.400948741655801E9   7.674720904769097E9   6.488172443540545E9   6.791413746284914E9   7.057728237481208E9   7.713699421652181E9  6.3824795917623415E9    7.02452328489714E9   7.810514658780883E9   7.008447381223004E9   8.257334718572663E9   7.854331773349619E9   6.120958256674581E9   5.875031201497983E9    8.00250588192753E9
          0.4*MaxFES =    4.616808785725343E9   3.581957771297216E9   4.989709484393083E9   3.163047356175721E9  4.0319670360935597E9  4.2094860780668797E9  3.5716394027287836E9    4.09693491960952E9  4.1757524306870193E9  3.8510203584979296E9   2.918399458325095E9  3.9413459852304487E9   3.148900974952919E9  3.2063947002300615E9  3.9439844174120693E9   4.293515041179374E9   3.732541328640465E9   4.529746789970729E9   3.875022262436603E9    3.71803556933086E9  3.7884473067100573E9    3.81989504137609E9  3.6503409172012744E9   3.762992560209051E9   3.484612857200704E9   4.310324025601336E9   4.873729341627928E9   4.207572405463333E9   4.187275321749669E9  4.2102337847978096E9   4.181719976872434E9    3.82612438865019E9  4.2484071751847677E9  3.2328569589976983E9   3.700621973957885E9    4.72815929159323E9  4.0661757119526954E9  4.4616735227549715E9   3.190710276133164E9  3.9009354657617073E9   4.193424595492932E9   4.025320678054175E9   3.154990025490779E9  3.3199155905046997E9   4.412032611602242E9   4.074790554723567E9   5.107928120124017E9  4.1999835804036784E9   3.532858563628765E9   3.378439454728005E9  3.8958660648604803E9
          0.5*MaxFES =    2.401375358961034E9  2.3973126108114877E9   2.467231620588722E9   2.218599496081624E9   2.255818648247798E9   2.381394232176535E9  2.0163838522668843E9   2.598269240849042E9  2.7124894446819644E9   2.696226888041855E9  2.1161522051979196E9    2.05999399718936E9  2.4182681978563414E9  2.2445134662153306E9  2.6924845944606094E9   2.219949823696997E9  2.3194177930483613E9  2.2102528069547706E9   2.220405601262049E9  2.8508162394524846E9  2.1112338657946477E9  2.2590170806668277E9   2.508869840663029E9  2.1755164046518536E9  2.4776783381546583E9   2.617661723098656E9  2.5815065812170434E9  2.2642240116347466E9  2.4641941933188224E9   2.245559208697699E9  2.6493874609249296E9   2.691722397334232E9   2.494153808315719E9   2.342233394010004E9  2.3343396029874516E9   2.692377387438131E9   2.334865781784259E9  2.1163723132012515E9  2.0933198303063517E9  2.1773806916807423E9  2.5792657243002806E9   2.248591921500609E9  2.2488456809422536E9  2.0186361323214662E9   2.571053670493211E9   2.315585039047014E9   2.696280307220842E9   2.438295129287898E9  2.1035535687020462E9   2.488684791101443E9   2.921179552559304E9
          0.6*MaxFES =    1.568066017327349E9  1.5427438475967627E9  1.4012440410611827E9  1.2369475973939145E9  1.1663542770650065E9   1.614211154153125E9  1.3525323773173933E9  1.2767401909208474E9  1.6565309545468307E9  1.4608028458443704E9  1.1559614494639823E9  1.4507134594359381E9  1.4620355559684503E9   1.398033742660444E9  1.3469891940409546E9  1.3829271258280454E9  1.1848553384293385E9  1.5404132014387307E9  1.3563069104202344E9  1.5116315456239247E9  1.4175034787365887E9   1.525607160043523E9  1.4831835211303189E9  1.3393204459605484E9  1.5058025634200764E9   1.476914525965653E9  1.6993790351656835E9   1.441389056389082E9  1.2378469692846751E9  1.4671963016100068E9  1.6309204479863389E9  1.2346151315912213E9   1.338683950246016E9  1.3318521254819376E9  1.4701236194929295E9  1.4611292568173835E9  1.4946072657125752E9   1.539567549869689E9  1.3759747928078318E9   1.267765452792492E9  1.6742376975552306E9  1.3194839244367106E9  1.5369328246312938E9   1.426396277028856E9   1.498871199541396E9  1.3891584567987726E9   1.762965287835938E9  1.1927591294451509E9  1.0538077942010043E9  1.3770606275571325E9  1.7302301993007925E9
          0.7*MaxFES =    9.958110476780009E8   7.913036239096804E8   7.857832285690126E8   8.097101771650406E8   8.528520792534705E8    9.01532385516721E8   6.975562815652145E8   7.341042270600781E8   8.718580100649769E8   8.399068655982732E8   7.441550955492777E8   8.719630938072137E8   8.204569221006006E8   6.596951559866345E8   8.102032373538706E8   6.957925771535388E8   7.256148531512712E8   9.324493806953152E8   8.258347881158258E8  1.0011247678650155E9    8.05260930945181E8   8.749933959038595E8   8.965682808387125E8   7.863653652879369E8   8.360301407930341E8   9.432052104560546E8   9.539491455847788E8   9.510037104305882E8   8.938343784601339E8   9.044462092076904E8   9.688312573972447E8   9.124651734536959E8   9.009738166022202E8   8.902105482549543E8   8.363392660654391E8   8.885242882609702E8    8.33758951550197E8   8.436483931788828E8   8.322159556926985E8   7.927824265377779E8   9.244341942339997E8   7.105008842451926E8   6.928853780142329E8    8.43249665798951E8   8.481014191187932E8   9.118773909034073E8   9.999914693782027E8   9.596049998394536E8   7.851452324106678E8   7.237362384766431E8   9.933860921300294E8
          0.8*MaxFES =    5.732652235561428E8   5.108646068565633E8  5.1332266586055934E8   4.724438697190411E8  4.8112735992968863E8   5.232838771389717E8   3.920456615211905E8  4.9662914132171774E8   5.390529997951463E8   5.439032318728628E8  3.9743581437089354E8  4.7026286696947694E8  4.7765168660661393E8  4.3216842891112286E8   5.382505053570868E8  5.1886856059565616E8   4.848420749904456E8   5.468769329882385E8   5.024169110757092E8  5.1672531687726957E8  5.1126874867925566E8   4.691955848580323E8  5.2383291683210415E8    4.79732129219385E8   4.898190048391751E8   5.677576611756295E8   5.294657952131773E8   5.262565981781288E8   3.913840975976203E8  5.3591964499965304E8   5.224638319340229E8   5.537716039894645E8   5.374547336600431E8   5.798465293576031E8   4.285543079275508E8    5.61703798433027E8   4.999450160111442E8  5.3371435606839615E8    4.91474083368325E8  5.1519832668427527E8   5.330631563496006E8   4.486511262073017E8   4.472086693163201E8   4.602165163045344E8   4.301747770302929E8  4.9667471317185766E8   6.573544874974124E8   5.730799886941868E8  4.6564788446394765E8  4.5670419990306455E8   6.205250244053444E8
          0.9*MaxFES =   3.3297395828059536E8   3.050122206598226E8   3.230896074656626E8   2.564989000820928E8   3.058752874044177E8   3.220541595048398E8  2.2956714634592947E8   3.188025372597806E8   3.334744608895168E8  3.5552012306226945E8  2.6173537090084434E8   2.273623156504912E8   2.981194339218444E8  2.4522606525168318E8   3.218828303552403E8   2.947244477690632E8   2.575880522403712E8   3.826729303043442E8    3.10570194511612E8   2.812399004536599E8   3.223229012235322E8  2.8152585930484974E8   3.030542954113263E8   2.898254422832179E8  3.3179652085357475E8  3.4308395574167585E8  3.7118419485015595E8   2.510000848567964E8   2.199569795286607E8   3.405748064332145E8    3.07200445856229E8   2.711612975660875E8    3.02484155476864E8   2.765448525115273E8    3.25195521977331E8   3.148485594829944E8  3.1805535576714313E8  2.5396173096014288E8   3.059824534452417E8  2.7786111283121014E8   3.282028635194178E8   3.028531015911951E8   2.885443664090974E8  2.3662913366232446E8   3.143758590097615E8  3.0115637745546144E8   3.520255736386803E8  3.4009758419109565E8  2.4145374515526134E8  2.8173424828252465E8  3.6393197448572123E8
              MaxFES =    2.008164775949504E8  1.6044368116162094E8  1.9242898677769518E8  1.5406639746396527E8  1.7176985236381146E8  2.0764666132210243E8  1.4310578395565605E8  1.5648868163792893E8  1.9448672482173365E8  1.8743128656320402E8  1.6302030815669703E8  1.7191843503636044E8  1.7543763935642695E8  1.5351096538647532E8  2.0471827654371858E8  1.6541552487199873E8  1.6301961982742155E8  2.1389265651135838E8   1.842916587365563E8    1.80782877694091E8  1.6206362335678396E8  1.6992076758753955E8  1.9376102890985617E8  1.9806280187946555E8   1.993135954481355E8   1.723317057383664E8   1.736872278637572E8  2.0691464385423586E8   1.680053702613107E8  2.0625510040859115E8  2.3000937222274953E8   1.871021453095913E8  1.7206613212399113E8   1.799046850394997E8   1.892498821395797E8   2.123154695349061E8  2.0405270667958286E8  1.6882861636778146E8  1.9550007772933918E8  1.7279353181713828E8  1.9220780008614194E8  1.7631146464891267E8  1.7704799573684892E8  1.7260847397035247E8  1.6933678558143246E8  1.6543645815521398E8  2.2011236419945237E8   1.883083653191184E8  1.8017926756770918E8  1.6760639370302778E8   1.837058527929295E8

                  Best                 Worst                Median                  Mean                   Std
  1.4310578395565605E8  2.3000937222274953E8   1.799046850394997E8  1.8234690591798255E8   1.888597287670952E7

