 22/07/2016 17:21:57 |                  Run 1                 Run 2                 Run 3                 Run 4                 Run 5                 Run 6                 Run 7                 Run 8                 Run 9                Run 10                Run 11                Run 12                Run 13                Run 14                Run 15                Run 16                Run 17                Run 18                Run 19                Run 20                Run 21                Run 22                Run 23                Run 24                Run 25                Run 26                Run 27                Run 28                Run 29                Run 30                Run 31                Run 32                Run 33                Run 34                Run 35                Run 36                Run 37                Run 38                Run 39                Run 40                Run 41                Run 42                Run 43                Run 44                Run 45                Run 46                Run 47                Run 48                Run 49                Run 50                Run 51
       0.0001*MaxFES =   1.3681989716640857E8  1.3112013599679264E8  1.0352121178788494E8   2.655458635298804E7   3.957578072821967E7  2.0238228624810627E8   8.717932566977077E8    1.55989228228791E7   2.591075750961619E7   6.428598714969187E8  1.0861543602300955E8   3.089822615853672E8   3.756873099924439E7  1.2955062335354424E8   3.057400998827153E7  1.8154260416935122E8    8.07831556680574E7  1.2280609859282187E8   4.630033025492369E7  1.6933434986408875E9   2.236351774598835E8   3.510832716233707E8   5.371772164946862E7  1.5998891542554772E8   5.993662571310069E7  1.3510702280831718E8   6.536921966576039E7   7.869258429923635E8   1.004607891866866E7   1.366589977290775E8   2.863111691718669E7   2.633993114520824E8   8.457482780882846E7   8.534123241071165E7   4.210337455943195E7  3.0770599212360516E9   2.636057592437343E7   2.781583158389862E8   2.928424546550643E7  3.2515170975766766E8  2.1030641334488812E8   4.256924297819395E8    6.64931194495672E7  1.9697976497579432E8  1.3425006559565955E8   5.652151982549885E7   9.701582930605173E8  2.3847158867163005E8   3.218390080303764E8  4.6194675592144465E8   6.911992887941644E7
        0.001*MaxFES =    3.808706831572468E7   1.492713193947581E7  1.0352121178788494E8   2.655458635298804E7      4246810.65892503   1.623500297073523E7   2.746626697327339E7      4529451.55243194      4873176.19003363      2306401.36443635   2.427005082376456E7   6.394591392981389E7   3.756873099924439E7    5.42246601330831E7   1.191241677370035E7      7894128.21405482   3.786607640654592E7      1853608.19197809   1.835157874361137E7      7239565.74700251      3904140.95267457   4.038503599883511E7      6393791.73471397   1.000059264251314E7      5006579.46211647      1906346.13419159   6.148900504634382E7   1.607870168650215E7   1.004607891866866E7   3.986116753458161E7   1.005714105421241E7   1.655450680133268E7   3.151439704118798E7      2280683.81572772      7648966.75708674   5.065629544252801E7   1.282670272169144E7   2.194466295885233E7      4088914.98372902      1616673.96024144      5670292.09330087   3.732059976519996E7   6.017179261682072E7       9790750.2210671      6009898.53371258      2674915.06475705   1.921576153395968E7      9303555.61590906   3.297808584591678E7   3.790699054384402E7    3.46105125170506E7
         0.01*MaxFES =       3280542.47543914      3144705.18670041      7652538.61470297      6804168.67434583      4246810.65892503   1.074492215742947E7       946991.84853525      3216300.33793127       611532.85753131      2306401.36443635       756461.19296925       213820.49999825      1093007.64193065      3546048.81944361       904450.43890233      5114284.53588821      1215180.40791218      1853608.19197809      2832297.92788393       588486.56595193       1030919.3643915      3442781.52464447      1690077.00966034      6947484.86757457        991883.2991642      1906346.13419159      5337764.98415126      2209735.32646013      2636300.36465367      3164950.90942746       3069721.4885201       830745.76151194      6281694.34228001        69666.83132842       797944.92595307      1940945.96818368        96756.12975066      2853855.46460404       471173.67520135      1616673.96024144         831881.109069      1227064.20880603       488027.80540804      6238718.28292523       353335.28431719       243251.12300268      1764772.87692634      1852558.18429391      5526303.76108707      4018028.71267066      1613874.78509316
         0.02*MaxFES =       2229953.74615914       407424.13964729      1134616.21766584       770952.46152192       884020.48810075       340019.98741492       946991.84853525      3216300.33793127       542425.48903829       812931.68997344       756461.19296925       213820.49999825      1006836.77376271       359455.53718645       904450.43890233       892444.86110085       492218.39758967       325692.36581863      1958549.59008821       588486.56595193       1030919.3643915      1540608.80375593      1445132.15749923       605132.24432179        991883.2991642       1400991.9184841       309688.01539408       354541.96523921       2020312.9480983      1751032.60621108      1860210.78717759       830745.76151194       572443.76981541        69666.83132842       797944.92595307       686988.80578495        96756.12975066      2619789.44659987       335073.16977857      1616673.96024144         831881.109069      1227064.20880603       488027.80540804      1467569.84222832       353335.28431719        200962.2819515      1284688.05977367       902061.66383025       1496314.0688013      4018028.71267066       453351.83629396
         0.03*MaxFES =        165934.40596099       407424.13964729      1026205.14661963       770952.46152192        92973.83199628       340019.98741492       946991.84853525       876476.60094538        341945.5247052       213733.09793769        79408.23735692       213820.49999825       790710.95273092       359455.53718645       486945.98404265       859843.42850576       492218.39758967       325692.36581863       227147.73155547       135553.63141896       986056.80339876       554273.39262646       145617.89487834       293120.33169498       823379.25143245       528952.33569362         86724.9569787       316028.30357464       435117.49288098      1751032.60621108       1568728.5038361       830745.76151194       142436.41348141        69666.83132842       670420.05158597       686988.80578495        96756.12975066      1264541.15232632        13236.61452529      1616673.96024144       392152.57926423       226674.57905063       470506.46303408       560704.44542008       165016.55029562        200962.2819515       101297.66062311       744676.91546672       115917.01127474       958197.53969661       453351.83629396
         0.04*MaxFES =        165934.40596099        128249.2153024       578020.34135231        84294.63341657        92973.83199628       103008.89661107       576306.22434339       559902.33082698       189562.50591541       193171.46043308        79408.23735692       139549.89184453       127312.78981341       146133.12693548       222496.42131863       193260.32389983       453816.68077964       325692.36581863       116259.13593955       135553.63141896        71545.81875196        31597.34057265       145617.89487834       293120.33169498       542828.82296123        137066.9954616         86724.9569787       233533.48838451        347717.4034552       782597.93665682       864189.06869049       150681.24831716       142436.41348141        69666.83132842       439815.53792707        27662.98331305        96756.12975066       261137.69069009        13236.61452529        210668.1998238         26360.0080117       179974.80948739       414322.73249152       460042.99424205       165016.55029562        200962.2819515       101297.66062311       744676.91546672       115917.01127474       823528.61764122       105220.67838082
         0.05*MaxFES =          160638.139128         21092.7931669       101625.17023942        84294.63341657        68044.16111912       103008.89661107       237585.92088225       200809.91011822        85542.70782169          58087.398802        79408.23735692        55561.67870535       127312.78981341       146133.12693548        12455.47051692       122000.83215745       183152.06276999       194336.60971684       116259.13593955       116144.00823657        71545.81875196        31597.34057265       145617.89487834        63872.07756724        20374.92169683        137066.9954616        11271.50844251       233533.48838451       217845.51881736        90215.61098735       169156.90435916       150681.24831716        29127.54913451        69666.83132842        50641.48066101        27662.98331305        96756.12975066        31850.06915193        13236.61452529        210668.1998238         26360.0080117       116194.77076865       139482.94215966       189661.32298532       165016.55029562       111486.03200293       101297.66062311         75198.0143178        72373.56059159        21023.57823729       105220.67838082
          0.1*MaxFES =          9832.34713606         6353.80537001        15488.53212905        16290.67299452        10639.15445423        20691.16950779         5738.38780961        10001.68367247        17016.19289059        25945.64265539        11700.14774966         4396.10887609        11636.37255133         5768.38557105        10640.42996948        25848.12032456         8897.33814029        19580.82760987         6260.41624851         8940.28240145         9093.55583136        10127.55954227        10032.80452726         2215.66594641         5204.99329974         6469.16489084        11271.50844251        10373.72486852        11464.60894273         8094.28216612        20060.31772299        14181.42734647         3594.51617207         5547.30079432         8571.54371226           4082.939187         7074.68439943        19981.50461271        13236.61452529         2588.36472501        11693.21091519        10511.49057812         6512.85529339        11457.15775994         6861.23249261        13112.60346883         5606.22794428         4131.06288715          7319.0117044         6380.46758326        10103.37963832
          0.2*MaxFES =           853.40209123          806.30727511         1016.22613518          960.46985685          991.92486879          904.02152569          718.34120282          850.15286231          787.31270702          755.40591488            632.673888          772.90422479         1075.55629515          1141.8745361         1077.31119379          895.74982179          804.40228233          715.32775776          864.96021201          809.91305184          752.32800835         1137.44790735         1000.35499976          836.46072946          1013.3629696          872.31609258          925.33890039          606.33939536          836.43024998          976.77261219         1052.65036153          896.52924141          983.05640628          825.61006604          796.34973559          991.12159606         1035.42914675          964.52412088          665.95150321          886.63322841         1035.89426262           997.9744815         1114.91375793           858.3504842          1063.7012614          737.79419845          760.12764857          716.59458771         1032.60209832         1097.56509966          911.22742647
          0.3*MaxFES =           390.47742693          299.99361738          449.88873971          251.69172246           236.6140167          418.77312354          377.88018964           230.8220366          396.04401906          438.01626443          427.42174195          314.49053672          428.94178939          267.14044157          372.52744106           253.0664653           352.7932598          348.85999641          467.80249892          478.76670497          346.85772934          194.22720306          223.13102841          322.05797721          252.26863549          315.33237727          262.07461405           346.7655458          421.70901167          351.58200421          217.96646315          261.50735372           359.6405094          306.65262048          406.02305819          388.53752453          357.44234021          282.52452294          264.27691688          343.03653322          300.99937613          275.35520468          423.14266103          335.54024005           310.8026783          361.93315819          223.85558774          373.86383008          305.28367261          265.55721278           338.8387033
          0.4*MaxFES =           229.53014238          299.99361738          273.19454459          251.69172246          232.06347246          339.93484724          230.79529493           230.8220366          196.31198945          251.32041733          196.38782613          312.38542122          169.87077876          197.20670682          205.18089336          232.67954069          288.64532393          202.57935726          229.18365431          165.72821823          212.33495746          131.81701896          223.13102841           186.4326681          235.67519491          189.22794729          262.07461405          261.48116386          299.17924328          195.83101967          183.12823622          256.00072317          195.33398629          166.42182836          227.44571707          340.54651797          278.36521755          246.55987384          264.27691688          201.54017023          196.59043221          275.35520468          270.99641639          242.92735882          220.03707383          214.33337835          223.85558774           349.4710146          196.55248352          162.30206192          301.81944726
          0.5*MaxFES =           229.53014238          166.95793517          217.28840123          251.69172246          153.99244293          231.64744768          230.79529493          198.66905706          183.53259204          193.30654451          196.38782613           105.3973841          169.87077876          197.20670682          168.75127963          232.67954069          259.29604148          202.57935726          179.20015435          165.72821823          212.33495746          131.81701896          200.46830702           186.4326681          215.80788075          189.22794729          262.07461405          157.83603393          284.47150967          193.54602926          183.12823622          240.47194174          193.64997907          166.42182836          208.97851849          303.95219377          258.42426094          196.67705413           196.7964547          130.02016202          196.59043221          153.11591616          183.36233087          225.88667961          220.03707383          214.33337835          211.39872461          179.56552071          196.55248352          162.30206192          159.87070853
          0.6*MaxFES =           162.31174547          166.95793517            194.580376          251.69172246          153.99244293          164.99018906          127.90789601          181.40987025          183.53259204          178.27121833          196.38782613           105.3973841          169.87077876          197.20670682          168.75127963          198.20724604          174.74354691          176.76580405          169.48737562          101.20979472          154.36963964          131.81701896          200.46830702           186.4326681          215.80788075          189.22794729          252.50451402          157.83603393          148.98246698          185.17502961            141.105466          240.47194174          193.64997907          137.23459789          208.97851849          228.82751701          132.12931847          151.59963847          163.85306378          130.02016202          125.76852714          153.11591616          183.36233087           82.54395438          165.62966967          214.33337835          181.56149587          132.72310263          196.55248352          126.60026025          159.87070853
          0.7*MaxFES =           162.31174547          166.95793517            194.580376          172.80532759          153.99244293          164.99018906          127.90789601          175.37547296          183.53259204          178.27121833          181.82115176           105.3973841          169.87077876          197.20670682           138.3891237          143.70119873          174.74354691           141.7280769          127.17674698          101.20979472          154.36963964          131.81701896          200.46830702           157.0345324          148.64488835          189.22794729          198.23456309          148.28643125          148.98246698          150.23877125            141.105466          210.28611753          154.81086879          137.23459789          208.97851849          124.72328493          125.46717065          151.59963847          163.85306378          130.02016202          125.76852714          153.11591616          183.36233087           82.54395438          165.62966967           95.84179825          181.56149587          132.72310263          176.21930171          126.60026025          159.87070853
          0.8*MaxFES =           162.31174547          166.95793517          179.13945737          169.02368369          145.45644172          164.99018906          127.90789601           124.1990563          183.53259204          149.13025992          172.38299182           105.3973841          159.78757765          157.30707585           138.3891237          143.70119873          105.92809837           141.7280769          127.17674698          101.20979472          154.36963964          113.10794549          135.38803108           157.0345324          148.64488835          183.93734409           90.99018715          148.28643125          148.98246698          150.23877125            141.105466          210.28611753           47.95344977          124.13369298          208.97851849          124.72328493           81.40275249          151.59963847          163.85306378          130.02016202          125.76852714           92.46830308          147.75607464           82.54395438          165.62966967           95.84179825          170.16678489          132.72310263          176.21930171          100.14697592          132.49688135
          0.9*MaxFES =           162.31174547          166.95793517          172.86351509          149.10348947          145.45644172          147.03963006          127.90789601           74.62987224          172.11422713          130.70826763          172.38299182           105.3973841          159.78757765          157.30707585           138.3891237          139.92524841          105.92809837           141.7280769          127.17674698          101.20979472           101.6666352          113.10794549          135.38803108          102.92307687          148.64488835          161.44812421           90.99018715          148.28643125          148.98246698          150.23877125            141.105466           76.78068435           47.95344977          124.13369298          195.11914298          124.72328493           65.00074231          151.59963847          163.85306378          130.02016202          125.76852714           92.46830308          141.90108888           82.54395438          165.62966967           95.84179825          170.16678489          132.72310263          176.21930171          100.14697592          132.49688135
              MaxFES =           162.31174547          166.95793517          125.54374684          132.83684468          145.45644172          147.03963006          127.90789601           74.62987224          172.11422713          130.70826763          147.37757829           105.3973841          159.78757765          115.32448981           138.3891237          139.92524841          105.92809837          133.73889351          102.88141808          101.20979472           101.6666352          113.10794549          131.63315947          102.92307687          148.64488835          161.44812421           90.99018715          148.28643125          148.98246698          150.23877125            141.105466           76.78068435           47.95344977          124.13369298           113.2774349          124.72328493           65.00074231          151.59963847          153.02231614          130.02016202          125.76852714           92.46830308          141.90108888           82.54395438          165.62966967           95.84179825          170.16678489          132.72310263          176.21930171          100.14697592          132.49688135

                  Best                 Worst                Median                  Mean                   Std
           47.95344977          176.21930171          131.63315947    126.99825803098037    29.542075068346772

