 01/11/2016 14:57:21 |                  Run 1                 Run 2                 Run 3                 Run 4                 Run 5                 Run 6                 Run 7                 Run 8                 Run 9                Run 10                Run 11                Run 12                Run 13                Run 14                Run 15                Run 16                Run 17                Run 18                Run 19                Run 20                Run 21                Run 22                Run 23                Run 24                Run 25                Run 26                Run 27                Run 28                Run 29                Run 30                Run 31                Run 32                Run 33                Run 34                Run 35                Run 36                Run 37                Run 38                Run 39                Run 40                Run 41                Run 42                Run 43                Run 44                Run 45                Run 46                Run 47                Run 48                Run 49                Run 50                Run 51
       0.0001*MaxFES =           456.90336056          410.03985855           512.9735387          410.81638494          366.24378263          482.28352712            435.042392          425.52149086          466.07782829          540.86629141          456.64947027          385.92888291           422.0637083          402.38873361          457.51463584          430.11125838          478.35503825          450.38432849          447.60090264          446.15946143          464.86332849          455.70529746           432.3279989          473.47209894          436.56966238          459.84530593          396.81130952          455.03942975          441.01563287          460.21149283          452.61231664          470.16440478          485.70998553          477.20128902          514.30434763          486.36458944          387.79376962          323.49407893          422.69602065          440.75565942          458.25052222          442.49056368          505.50144922          479.06561722          422.72010758          400.22419636          453.02005148          462.42804589          409.62789505          500.99954868          520.71735197
        0.001*MaxFES =           379.20795646          357.48003211          322.86266086          296.09277455          366.24378263          338.40941117          413.76386526          390.01313675          353.16633111          369.87572936          330.56611341           357.0293798          347.07483518          385.20508251          336.71370736          356.01072662          409.34471676           289.4319986           347.6164034           377.5425667          380.88835514          375.57943947           362.4808142          383.29112055          333.89109723          378.48174499          309.57653396          348.62024675          314.28636868          368.68189304          383.01360905          333.91686725          387.92759613          346.97312655          357.41816381           334.6426386          356.96828106          323.49407893          389.52734637          346.97381107            376.303798           393.9750823          319.73355982          364.87982559          354.82247513          339.59692559          389.86025922          322.28307217           382.5246008          364.69783461          329.52142994
         0.01*MaxFES =           260.79586142          234.35407166           245.0034845          263.66457699          242.71345105          266.79115822          262.97078201          250.16200495          249.34986068          262.60091767          256.02183887          250.38261268          247.97011174          279.40739032           239.2631788          255.25117714          247.07494432          276.04181431          257.07071333          238.33370045           278.8620057          263.29995314          273.70482229          243.61190242          253.11726364          244.93682646          257.78078925          266.03106713          240.87946188          251.01956373          277.55002734           237.7525785          260.90545799          251.40271565           277.3455677          246.75248735          239.25779685          260.85868451          256.87339472          265.27018903          249.86790059          262.60352487          259.19907326          242.81965575          266.84280797          264.87114817          267.66984352          253.65841997          245.53212604          249.54117827           270.8400424
         0.02*MaxFES =           258.25156415          234.35407166           245.0034845          263.66457699          242.09470019          250.91724034          258.65020633          250.16200495          249.34986068          260.94911858          256.02183887          238.21838377          247.50645322          259.44495449           239.2631788          255.25117714          245.34467705          263.70134896          257.07071333          238.33370045          272.66446949          263.29995314          247.13202988          243.61190242          253.11726364          243.65187527          246.46108955            264.814295          236.32874772          251.01956373          270.45283479           237.7525785          260.90545799          243.64543604          276.86011223          246.75248735          239.25779685          254.59395978          254.94862257          253.96783483          242.45522971          260.33799518          254.83840319          242.81965575          266.84280797          264.53312617          259.71325402          253.57217526          245.53212604          245.35989372          253.54208445
         0.03*MaxFES =           256.79571796          228.21897561          244.53510598          257.27274832          242.09470019          250.91724034          250.22945032          231.16740432          233.85584605          246.83408317          244.47826436          232.03560385          241.03505811          259.44495449          234.45701799          247.47728061          240.48949559          263.21247295          256.27514371          235.07422626          268.47141207          253.46040496          247.13202988          242.96381658          243.74664264          242.23844755          246.46108955            264.814295          236.32874772             250.83594          265.60288194          234.96710058          238.45111172          243.64543604           266.7078378          246.75248735          233.89031922          240.89187883          249.68015501          250.64448995          242.45522971          260.33799518          254.18805654          242.81965575          251.76466051          256.00442406          247.97496175          253.57217526          245.53212604          228.70342136          248.06191492
         0.04*MaxFES =            252.7316443          221.08242352            238.810307          248.58764548          237.46943692           240.5598727          241.62609472          231.16740432          229.52193596          243.01957774          233.42086277          223.08838215          232.55720957          252.11071179          229.13179904          242.06792312          227.35476881          256.86978371          251.66622525          230.65208173          260.28222567          248.46852418          244.37621115          234.85957859           237.2839583          240.78718377          236.77141446           260.0065497          227.21228801             250.83594          254.77411033          226.53341026          238.45111172          240.73901906          261.80183111          231.29566961          231.76498596          240.89187883          246.17333673          234.20967424           236.0751639          248.81912265          240.50848203           234.8140237          251.76466051          243.69985021          242.79330353          246.68285123          244.27359669          228.70342136          246.72200184
         0.05*MaxFES =            245.4422947          213.14889282          231.80950616          237.43960487          227.41142687          229.05408989           238.6140313          231.16740432          226.08893679           232.4324257          228.87835886          216.84175187          225.42395518          241.51042105          224.31283341          224.99445455          227.35476881          247.62259741          241.70112527          220.93926525          253.73775926          241.09192993          234.42017902          228.92428844          233.20504379          234.96919091          231.74456025          249.96034971          217.55105002          245.09347914          243.76352422          220.07433218          232.25005067          234.96571352          261.80183111          227.07887197          226.17480472          240.89187883          241.49675218          232.01035871          232.01993155          242.56585509          236.38937844           230.4790019          244.14351066          237.69664033          239.12213482          239.62976853          233.06207891          223.96341642          232.50947949
          0.1*MaxFES =            220.9176973          183.98503164           208.2392165          214.81561237          199.63018498          197.84355862          202.04672756          208.26920025           207.0190305          206.90864986          200.38373771          185.98777025          212.14075084          201.98760426          196.65962183          208.54797749          194.35202828          222.30370354          211.81521584           204.0038578          212.70091909          190.56729523          198.19571415          210.73303114           215.1795389          213.54594358          210.74371961          209.15324927          195.23987264           206.6635465           214.7543523          185.83147449          200.12787881          202.66129484          218.86331182          189.15443876          201.70277167          217.57721723          216.63669032          204.69848085          196.27576519          199.24203021           205.9917854          192.34812377           200.9394687          203.13245703          208.97576769          202.04599192          214.25460186          190.45344177          217.20733965
          0.2*MaxFES =           180.27114748          162.07403304          166.42109542          171.23915047           167.1055818          158.78451877          160.75175699          172.90968714           176.2162726          161.89745864          162.93512952          154.99891039          183.38557436          157.80877838          167.03967281          173.69777647           162.3205464          187.63300733          169.91868945          171.04097781          167.08886066          156.62580989          163.19354551          170.11990977          178.11289152           176.3967151          169.88920306          180.10818238          163.44238371          162.04974102          173.48125591          156.53043674          160.42677223          170.56906979          176.30479772          152.98045227          165.07037293          175.24048605          172.21813779          161.17219881            161.074542          159.68122572          171.27926263          165.77632207          164.14309586          168.11912911           170.0468573          166.77790946          165.12166701          161.42586987          180.23742218
          0.3*MaxFES =            154.4921212           129.1452506          144.82518814          148.60584905          137.51437277          133.93232498           141.3545625          143.08099203          155.29916841          142.08389399          140.91961189          130.33406227          159.78263975          140.26403538          144.70200269          144.65419552           142.6798107          160.06534594          149.24537573          146.35580518          143.54229204          139.32241859          148.86475752          141.88350141          151.66041605          143.74237326          143.89083017          154.92562488          141.86526814          138.07084327          150.03134139          139.81912331          139.96376553          149.55721213          150.36967947          136.51262412          140.97513487          155.97705401          148.53988927          132.88405243          138.60542483          139.56589647          147.20817392          144.82299848          148.35365977          142.38095319          144.48007977          145.13263476           141.4081544          145.87588172          164.44777769
          0.4*MaxFES =           135.27011577          121.33147507           122.2618462          123.97180845          123.77037882          121.19533549          121.26703704          123.88487184          133.27708942          120.49029709          117.60625845          119.84814414           133.6154224          121.66141847          124.19309015          124.82340709          124.35570964          132.42701784          124.80418255          121.86584147           120.5079885          120.50612559          125.29377059          123.43361648          131.85349275          124.27116966           124.4698184          129.66012326          124.09221891          121.59573278          124.85048674          121.10999697          119.31482282          126.31174609          126.27451517          117.52452956          120.24153665          123.33726507          123.56424077          120.04539848          124.40270707          120.22021608          125.30390945            120.440963          120.72706739          122.58830364          122.91407298          121.95130814            122.874435          121.93390469          142.00242985
          0.5*MaxFES =           120.28843884          117.35794566          118.57450432          118.06038737          116.76082052          118.01498789           115.5210173           116.1849335          118.24497913          117.86031515          117.53319349          115.90725798          120.84745354          115.29216555          119.14936609          116.85005666          118.10671052          120.52386823          117.84107072          117.16357436          116.75898954          118.18013624          117.47251702          115.66085088          119.41105031          116.64765221           118.1773918          118.61430273           118.6612361          117.20879959           117.8486811          118.55419648          118.07303315          118.87598239          116.82098038          115.17182835           117.7094811          119.42535887          117.77315758          116.95193721           117.6964185          117.80311561          118.96572764          116.35586881          119.83851804          116.12494567          116.90842015           118.7730655          114.71368512           117.0854304          119.91693135
          0.6*MaxFES =            117.7491069          116.25767856          116.83538972          115.48052667          115.46090558          115.98715735          114.96526733          115.81579785          116.13905688          116.31367192          114.70126519          115.04304064          116.89952152          115.29216555           115.6923977          116.85005666          116.15827126          118.20500958          117.36625669          116.69190037           115.7192172           116.1940181          115.60282833          115.32109874          116.90371075          116.64765221          115.79124206          118.61430273           116.4263898          116.26267203           116.2098823          116.80148521          117.14006087          115.58800841           114.4733549          115.17182835          116.74080213          117.04450167          116.93929188          116.68686384          116.38768916          115.75478533           116.5591145          116.30221419            118.685988          115.77558815          116.10758516          115.98832366          114.10351092           117.0854304          117.50012257
          0.7*MaxFES =           116.94697062          116.25767856          116.03980605          115.48052667          115.38341275          115.43114955          114.96526733          115.81579785          116.13905688          116.23174337          114.70126519          114.07209333          113.87439646          115.29216555           115.6923977          116.02600264          115.56947718          114.85440276          115.03776177          113.49783672          115.20312884           116.1940181          115.19930739          115.04930811          116.65362682          114.93427928          114.75303555          116.52565317           114.9971101          113.41793462           115.6020079          113.79406658          115.46299111          115.26064402           114.4733549          114.62993694          115.55740472          116.44605626          116.93929188          116.35176856          114.65813509          115.07348993          116.17785587          115.23761156          115.70769782          113.73166659          113.94597027          115.98832366          114.10351092          116.25350538          115.80973372
          0.8*MaxFES =           116.29282822          116.25767856          115.60134509          115.04444064           115.3698534          115.32118056          114.96526733          115.81579785          116.13905688          114.83297304          114.70126519          114.07209333          113.87439646          115.29216555           115.6923977          115.18434913          115.02475976          114.85440276          115.03776177          113.49783672          115.20312884           116.1940181          114.55225724          114.78958272          116.30786501          114.35489299          114.59472522          115.53050001           114.9971101          113.41793462          115.20833126          113.79406658          113.80430273          115.26064402           114.4733549          114.02900744          115.55740472          115.06165035          114.87166387          115.38420166          114.65813509          114.65293461          115.36624614          114.09416014          113.38251817          113.73166659          113.94597027          114.54575942          114.10351092          115.20068145          115.44774156
          0.9*MaxFES =           115.42396444          114.79777482          115.35503068          114.68689641          114.13356267           114.0085002          114.96526733          115.81579785          114.51759986          114.83297304          113.79737643          113.35345627          113.87439646          115.29216555           115.6923977          114.16020901          114.79163591          114.46299657          113.85051727          113.49783672          114.42537948           116.1940181          113.88317758          114.78958272          114.47762535          114.35489299          113.49590004          114.94797967          114.93329386          113.41793462          115.06219706          113.79406658          113.80430273          115.26064402           114.4733549          114.02900744          115.55740472          114.85172598          114.87166387          115.38420166          114.46716783          114.65293461          115.36624614          114.09416014          113.38251817          113.60522649          113.94597027          114.54575942          114.10351092          115.20068145          114.95567465
              MaxFES =           114.74387012          114.53467566          115.20731694          114.67843642          114.13356267           114.0085002          114.96526733          115.81579785          114.51759986          114.83297304          113.77517889          113.35345627          113.87439646          115.29216555           115.6923977          114.16020901          114.79163591          114.46299657          113.85051727          113.49783672          114.42537948          115.63445423          113.88317758          114.78958272          114.47762535          114.19935778          113.49590004          114.94797967          114.93329386          113.31524793          113.44366591          113.79406658          113.80430273          115.02973715           114.4733549          114.02900744          115.40392922          114.83991848          114.65536262          115.38420166          114.42288169          114.65293461          114.68912127          114.09416014          113.38251817          113.60522649          113.94597027           113.5335953          114.06484185          115.20068145           114.6789565

                  Best                 Worst                Median                  Mean                   Std
          113.31524793          115.81579785           114.4733549    114.41998477470588    0.6607601932121259

