 22/07/2016 17:20:55 |                  Run 1                 Run 2                 Run 3                 Run 4                 Run 5                 Run 6                 Run 7                 Run 8                 Run 9                Run 10                Run 11                Run 12                Run 13                Run 14                Run 15                Run 16                Run 17                Run 18                Run 19                Run 20                Run 21                Run 22                Run 23                Run 24                Run 25                Run 26                Run 27                Run 28                Run 29                Run 30                Run 31                Run 32                Run 33                Run 34                Run 35                Run 36                Run 37                Run 38                Run 39                Run 40                Run 41                Run 42                Run 43                Run 44                Run 45                Run 46                Run 47                Run 48                Run 49                Run 50                Run 51
       0.0001*MaxFES =          2670.60841555         3433.32570602         3597.86759153         3126.60239387         3079.16457871         3164.11088593         4146.33431196         3315.41056329         3509.35777379         3235.45633348         3249.96060095          2843.6702837         2903.11233032         3269.87402234         3365.37896195         3575.74165169         1728.25658209         2853.48065905         3087.29761172         3758.60692427         3098.26142882         3020.22705102         2898.54508321         2864.72640628         3215.55470995         2475.00129521         3334.61503619         3567.83499662         3229.45991662         2958.07985519         3207.52276352         2948.31689712         3338.39046563         2824.04799197         2881.48507755         3336.58552434         3413.60352562         2042.09055129         3203.97152521         2831.42938389           2312.853942         2773.56405513         3146.03504207         3388.11448199          2994.1424401         3421.02755997         2957.12620359         3603.15194943         3042.62610386         3727.06279563         2523.19060638
        0.001*MaxFES =          2670.60841555          2329.0703414         2627.89934447         2308.27589128         2558.79632055          2107.9697745         2142.90492723          2281.3380787         2575.18655605          2326.8616846         2413.70556103         2613.85647729         2744.44818507         2681.48864868          2932.3821084          2333.3902827         1728.25658209         2841.16849238         2651.06163494         2788.75599087         2668.58336623         2708.44835577         2203.95340678         2397.51899499          2557.1121205         2475.00129521         2787.52976566          2906.1259497         2590.65478554         2617.38437849         2630.20402652         2475.93849354         2439.52205104         2572.32885098         2553.13917527         2660.91181286         2738.15666747         2042.09055129         2338.35953287         2326.63160315           2312.853942         2384.17577599         2317.59166539         2583.85329901         2646.32964983         2853.17616847         2634.51462102         2380.54154128         2248.60905347         2472.62389258         2523.19060638
         0.01*MaxFES =          1991.00731926            2095.98563          2128.4407028         1977.56908604         2027.62169809         1791.40040585         2142.90492723         1934.01675243         2316.81179587             1861.9544         2048.00843378         2194.58800841         2002.42028306          2198.1349422         2155.04873143         2066.54159117         1728.25658209         2160.68068609         2153.77427297         2099.17528728         1869.02861197         1988.48017715         2203.95340678         2076.64452298         2036.13430731         2214.00586214         2201.92412754         2327.88253992         2051.45631854         2088.95758481         1735.72103477         2397.61774542         2145.38032742         2156.22564516         2260.44583748          2311.3891711         1983.07639029         2042.09055129          2231.5513351         1864.05885633         2240.12868003         2289.14531976         2270.24695082         2211.51328706         2259.06395743         1881.62531144         2025.11493983         2073.23500659         2060.92120871         2178.87025016         2277.27245241
         0.02*MaxFES =          1991.00731926          2023.3611153         1815.73790133         1873.33886778         2027.62169809         1791.40040585         2087.24500793         1934.01675243         1995.12403901             1861.9544         2028.89199856         2028.23723068         1963.63320122         1642.27213645         1392.53661794         2058.64224899         1728.25658209         2160.68068609         1874.65393508         1999.12612882         1869.02861197         1931.53631806         2051.26655104         2076.64452298         2036.13430731         1761.92575619         1981.86107739         2242.10375249         2051.45631854         1974.21078781         1735.72103477         2041.76529306           1950.376603         2156.22564516         2222.79787959         2117.54901294         1983.07639029         2042.09055129         2052.75873226         1864.05885633         2240.12868003         2003.94615416         2238.16226622         2188.74234632         2070.69817109         1881.62531144         2025.11493983         2073.23500659         1795.72726652          2124.2861579         2081.31739925
         0.03*MaxFES =           1636.7819614          2023.3611153         1815.73790133         1449.29831084         1895.54899583         1791.40040585         1918.42798802         1934.01675243         1662.76382804         1739.99078456         2028.89199856         2028.23723068         1963.63320122         1642.27213645         1392.53661794         2058.64224899         1728.25658209          2010.3257808         1874.65393508         1999.12612882         1730.35042267         1665.21022551         2051.26655104         2076.64452298         1898.35469717         1761.92575619         1927.27681666         2173.88646141         2051.45631854         1840.29245048         1735.72103477         1957.66362981          1850.4513847         1890.46350594         2213.40879552         2117.54901294         1983.07639029         2042.09055129         2052.75873226         1864.05885633         2240.12868003         1979.04636285         1889.96546216         1998.65220014         2070.69817109         1669.36787723         2025.11493983         2023.78393652         1483.58150694         2048.45627439         2081.31739925
         0.04*MaxFES =           1636.7819614         1630.84404664         1815.73790133         1449.29831084         1895.54899583         1791.40040585         1918.42798802         1934.01675243         1662.76382804         1739.99078456          1953.2323374         2028.23723068         1944.93603875          1432.9887344         1392.53661794         2015.12142332         1728.25658209         1999.30462089         1510.97235735         1889.18369945         1730.35042267         1665.21022551         1503.09435915         2076.64452298         1898.35469717         1761.92575619          1628.6702104         2048.13739155         1968.81709616         1840.29245048         1735.72103477         1948.87916158          1850.4513847         1798.56979561         1993.92136902         2117.54901294         1951.81117396         1937.83164762         1376.28883421         1864.05885633         1989.88058995         1979.04636285         1889.96546216         1998.65220014         1926.71910955         1669.36787723         1799.21841781         2023.78393652         1483.58150694         1927.09180562         2081.31739925
         0.05*MaxFES =           1636.7819614         1630.84404664         1815.73790133         1449.29831084         1895.54899583          1429.5729044         1870.16564072         1182.08313253         1662.76382804         1739.99078456          1953.2323374          1978.2240155         1677.40802794          1432.9887344         1392.53661794         1895.71876261         1728.25658209         1999.30462089         1510.97235735         1798.41531438         1730.35042267         1665.21022551         1503.09435915         1912.18337094         1898.35469717         1761.92575619          1628.6702104         1756.82874574         1968.81709616         1425.28576203          1707.7129572         1948.87916158          1850.4513847         1798.56979561         1812.34675648         2117.54901294          1852.3714819         1937.83164762         1376.28883421         1716.71315286         1847.11457942         1979.04636285         1889.96546216         1998.65220014         1853.12608354         1669.36787723         1799.21841781         2023.78393652         1483.58150694         1927.09180562         2081.31739925
          0.1*MaxFES =           1636.7819614         1630.84404664         1669.24123932         1449.29831084         1666.63889348          1429.5729044         1661.47123578         1182.08313253         1662.76382804         1510.61290761         1644.59859653         1502.04771182         1677.40802794          1432.9887344         1392.53661794         1666.36185437         1728.25658209         1692.17932448         1510.97235735         1517.09086675         1646.38801331         1665.21022551         1503.09435915         1690.55354762         1761.09222789         1761.92575619          1628.6702104          1362.6762815         1783.06001656         1425.28576203         1496.17770597         1674.96248453          1753.0265772         1501.82821205         1592.42082647          1636.4231795         1767.98406929         1818.57975729         1376.28883421          1582.2793484         1584.77342743         1485.83070144         1889.96546216         1676.52685283         1853.12608354         1665.92612205         1799.21841781         1713.96117293         1483.58150694         1228.28243873         1742.58852404
          0.2*MaxFES =           1636.7819614         1543.11529498         1669.24123932         1449.29831084         1370.28972925          1019.9148347         1661.47123578         1182.08313253         1505.92257683         1510.61290761         1644.59859653         1502.04771182         1677.40802794          1432.9887344         1392.53661794         1506.75291795          1545.1135288         1470.87960354         1252.88619263         1517.09086675         1646.38801331         1429.45707085         1412.33499249         1690.55354762         1538.78576377          1513.1292349         1624.19882725          1362.6762815         1576.59583707          1390.8365768          1425.1847978         1674.96248453         1606.90869355         1501.82821205         1592.42082647            1571.67576         1645.82046592         1526.54527167         1376.28883421         1359.55946275         1584.77342743         1485.83070144         1386.89884125         1660.40461352         1461.64483479         1250.16672232         1612.16838448         1169.64170489         1483.58150694         1228.28243873         1302.99673135
          0.3*MaxFES =          1410.03323511         1457.33546252         1566.69323859         1449.29831084         1370.28972925          1019.9148347         1359.19534824         1182.08313253         1499.10536257         1510.61290761         1644.59859653         1502.04771182         1559.91908136          1432.9887344          1391.2171879         1506.75291795          1545.1135288         1419.23357218         1252.88619263         1401.40169308         1552.31665628         1338.99347403         1412.33499249         1639.20256252         1538.78576377          1513.1292349         1459.50056958          1362.6762815         1331.25848066          1272.9098596          1425.1847978         1224.32383392         1566.85406718         1415.37751272         1426.37584207         1535.38053778         1566.74159485         1526.54527167         1376.28883421         1267.19129693         1584.77342743         1239.31349354         1386.89884125         1660.40461352         1461.64483479         1250.16672232         1612.16838448         1169.64170489         1483.58150694         1228.28243873         1302.99673135
          0.4*MaxFES =          1410.03323511         1457.33546252         1271.94659942         1173.98894497         1370.28972925          1019.9148347         1359.19534824         1182.08313253         1499.10536257         1168.02727605         1644.59859653         1502.04771182         1538.79258932          1432.9887344          1391.2171879           1372.615231          1545.1135288         1333.21789984         1252.88619263         1401.40169308         1511.79673772         1338.99347403         1412.33499249         1639.20256252         1538.78576377          1513.1292349         1459.50056958         1000.14646377         1238.76778406          1272.9098596          1192.9349619         1224.32383392         1566.85406718         1415.37751272         1426.37584207         1535.38053778          984.80196392         1493.90349528         1376.28883421         1267.19129693         1584.77342743         1239.31349354         1288.83106193         1660.40461352         1212.36052473         1250.16672232         1526.37270652         1169.64170489         1483.58150694         1228.28243873         1302.99673135
          0.5*MaxFES =          1398.78531987         1457.33546252         1271.94659942         1173.98894497         1333.38017894          1019.9148347         1359.19534824         1182.08313253         1489.92634183         1168.02727605         1434.67881979          884.98199903         1538.79258932           1331.796224          1391.2171879         1284.83753369         1520.82724656         1333.21789984         1252.88619263         1382.49160652         1511.79673772         1338.99347403         1218.63069525         1534.48953989         1193.07561678         1492.23561503         1459.50056958         1000.14646377         1238.76778406          1272.9098596          1192.9349619         1224.32383392          1520.4825547         1415.37751272         1369.92362022         1535.38053778          984.80196392         1345.12963879         1376.28883421         1267.19129693         1584.77342743         1239.31349354         1288.83106193         1469.41402896         1212.36052473         1250.16672232         1526.37270652         1169.64170489         1264.45693845         1228.28243873         1243.33497138
          0.6*MaxFES =          1398.78531987         1457.33546252         1271.94659942         1173.98894497         1333.38017894          1019.9148347         1359.19534824         1182.08313253         1489.92634183         1168.02727605         1434.67881979          884.98199903         1429.68203117           1331.796224          1391.2171879         1284.83753369         1432.07009115         1333.21789984         1252.88619263         1382.49160652         1294.44886899         1338.99347403         1218.63069525          1307.8103928         1193.07561678         1492.23561503         1459.50056958         1000.14646377         1238.76778406          1272.9098596          1192.9349619         1224.32383392          1344.4998695         1415.37751272         1369.92362022         1535.38053778          984.80196392         1345.12963879         1249.01028089         1267.19129693         1154.16776499         1239.31349354         1288.83106193         1469.41402896         1212.36052473         1250.16672232         1357.80944595         1169.64170489         1135.86530713         1228.28243873         1243.33497138
          0.7*MaxFES =          1202.55316537         1457.33546252          981.57089824         1173.98894497         1333.38017894          1019.9148347         1359.19534824         1182.08313253         1489.92634183         1168.02727605         1389.48287982          884.98199903         1429.68203117          907.08185981         1325.11100699         1284.83753369         1432.07009115         1333.21789984         1252.88619263         1382.49160652         1265.03591622         1338.99347403         1218.63069525          1307.8103928         1193.07561678         1212.89080513         1459.50056958         1000.14646377         1233.33083462          1272.9098596          1192.9349619         1224.32383392         1213.11992714         1415.37751272         1369.92362022         1473.11412844          984.80196392         1345.12963879         1249.01028089           1069.405592         1154.16776499         1239.31349354         1288.83106193         1469.41402896         1212.36052473         1250.16672232         1197.18839512         1169.64170489         1135.86530713         1228.28243873         1243.33497138
          0.8*MaxFES =          1202.55316537         1425.01097506          981.57089824         1173.98894497         1333.38017894          1019.9148347         1359.19534824         1182.08313253         1489.92634183         1168.02727605         1389.48287982          884.98199903         1429.68203117          907.08185981         1325.11100699         1284.83753369         1432.07009115         1312.54507584         1252.88619263         1051.80936017         1265.03591622         1338.99347403         1216.46205933          1099.6279858         1193.07561678         1212.89080513         1459.50056958         1000.14646377         1233.33083462          1272.9098596          1192.9349619         1224.32383392         1182.01412105         1415.37751272         1369.92362022         1473.11412844          984.80196392         1345.12963879         1249.01028089           1069.405592         1154.16776499         1239.31349354         1288.83106193         1469.41402896         1212.36052473         1250.16672232         1069.21158201         1169.64170489         1135.86530713         1228.28243873         1243.33497138
          0.9*MaxFES =          1202.55316537         1425.01097506          981.57089824         1173.98894497         1333.38017894          1019.9148347         1359.19534824         1182.08313253         1489.92634183         1168.02727605         1069.31769463          884.98199903         1429.68203117          907.08185981         1325.11100699         1284.83753369         1432.07009115         1014.92731186         1252.88619263         1051.80936017         1265.03591622         1191.02637933         1216.46205933          1099.6279858         1193.07561678         1212.89080513         1459.50056958         1000.14646377         1233.33083462          1272.9098596          1192.9349619         1224.32383392         1182.01412105         1044.83280902         1240.11068595         1473.11412844          984.80196392         1345.12963879         1249.01028089           1069.405592          1065.3924002         1239.31349354         1288.83106193         1183.69960865         1212.36052473         1250.16672232         1069.21158201         1169.64170489         1135.86530713         1228.28243873         1243.33497138
              MaxFES =          1202.55316537         1414.84362604          981.57089824         1173.98894497         1333.38017894          1019.9148347         1359.19534824         1182.08313253         1489.92634183         1168.02727605         1069.31769463          884.98199903         1429.68203117          907.08185981         1325.11100699         1284.83753369         1432.07009115         1014.92731186         1252.88619263         1051.80936017         1265.03591622         1169.23199826         1216.46205933          1099.6279858         1193.07561678         1212.89080513         1459.50056958         1000.14646377         1233.33083462          1272.9098596          1192.9349619         1224.32383392         1182.01412105         1044.83280902         1240.11068595         1234.63048858          984.80196392         1345.12963879         1249.01028089           1069.405592          1065.3924002         1239.31349354         1288.83106193         1183.69960865         1212.36052473         1250.16672232         1069.21158201         1169.64170489         1135.86530713         1228.28243873         1243.33497138

                  Best                 Worst                Median                  Mean                   Std
          884.98199903         1489.92634183         1212.36052473    1195.1704927188232    137.42969917327812

