 23/07/2016 19:13:30 |                  Run 1                 Run 2                 Run 3                 Run 4                 Run 5                 Run 6                 Run 7                 Run 8                 Run 9                Run 10                Run 11                Run 12                Run 13                Run 14                Run 15                Run 16                Run 17                Run 18                Run 19                Run 20                Run 21                Run 22                Run 23                Run 24                Run 25                Run 26                Run 27                Run 28                Run 29                Run 30                Run 31                Run 32                Run 33                Run 34                Run 35                Run 36                Run 37                Run 38                Run 39                Run 40                Run 41                Run 42                Run 43                Run 44                Run 45                Run 46                Run 47                Run 48                Run 49                Run 50                Run 51
       0.0001*MaxFES =          4036.49899845        21529.18379742        44058.03943905        37604.27184941         5123.31696724        53276.63525968        11375.18320844        65617.47813627         9219.38448334        23349.52514591        11888.50233852       161110.06470934         4950.01185412          511.46672928        25653.18261782         7484.35937654        39937.53316727        30412.91507576        32225.09105658          580.82200385         2555.05825204        56919.84178513         2592.01554441        75715.22574661         4192.81901535        10479.19205508        59820.89092581        15295.67588798         4299.00939088         6262.89266753        40951.65103886        28699.94725697         3599.02990553        16432.93014561         6627.97841131        31229.12943409        27363.62219155        12495.21753058        17499.01375206        21384.69632164        41223.46184818        88383.03133059        79192.16402425         3811.23407619         2063.08003344         8425.36857983         10584.9654353         44884.0893286       148508.57011669        75588.37175442        15359.85654961
        0.001*MaxFES =          4036.49899845         7915.02932033         9507.63058644          1247.5818443         1522.59556695         2183.06895607        11375.18320844         4369.74265213         9219.38448334         1883.55267887         3855.21310699         2140.70710225         1880.12662914          511.46672928         1389.24925168         1975.18796431          504.77523177         1078.54828464         1573.95132927          580.82200385          259.25081434         1545.70800177         2592.01554441         7363.62125852         4192.81901535         2908.20723535          998.65786813         4929.19705856         1564.64993304         1974.23302069           984.6038364         5716.32127741          437.07656253         1557.46595096          247.66592096          230.26578039         6262.26069426          4217.5427052          433.36205947          640.77627557          7620.7318441         2103.31191313         9281.42101788         2064.16177713         2063.08003344         5162.79890599         1429.23361989         4543.93252075         7676.38464536         5559.13481708         3297.07017983
         0.01*MaxFES =           140.20866068          140.46634886           130.1197446          146.70622779          132.10940346          126.59248865          134.60931377          139.52872585           143.6683237          139.20175733           132.2076743          134.88215351          171.25770591          133.42775906          146.21924573          143.99767541           123.7989572          130.07779975          140.49663486          138.38692196          144.17257349          145.42034009          133.54389327          201.62466748            201.928231          140.69070831          137.40800534          137.55475608          149.92631421           133.4578055            130.723845          134.98746238          147.13023388          142.46260259          132.70308095          128.33064753          148.76420269          135.89736196          132.83456248          135.61733949          145.11803815          129.15643829          131.26589959          136.19694126          132.98494337          136.19083543          140.88630172          137.72791411          154.58383339          134.84481524          147.36063615
         0.02*MaxFES =           120.77024679          124.69406852          111.87649398          123.92747375          119.02401449          111.75475964          116.03027666          120.88586171          113.22352623          120.05686936          115.29540906          114.24250558          124.73965693          115.96860211          124.69589867          117.15825497          110.12766425          112.77263705          119.59298409          116.84162764          117.64827337          124.31179593          114.87353035          123.30255588          133.80933834          113.57787214          110.83946126          118.33974183           121.0527545          123.14912284          113.00441026          122.07581252          123.12576981          117.19705789           117.9756371          107.29370639          120.83044003          118.82218477          112.98850435          116.35460396          120.62211582          114.35123408          109.31979295          113.79114879           113.4453114          115.15564138          110.45145786           112.3756929          128.60923508          122.92999727           125.6338587
         0.03*MaxFES =            109.9410627          111.39033881          106.10120766          112.94545118          107.44214496          106.29947905          107.30563812          107.27148534          104.95643951          110.61134303          107.93525771          109.37775796          112.84626084           108.7899673          113.00920276          109.88477968           105.3077235          107.64513803           111.4354422          106.65588238          108.22179629          113.42598749           105.7678271          108.13278268          118.53599867          108.13004911          106.31877099          106.55763387           106.4429021          111.72074726          106.41238004          108.45675474          110.03587743          109.18135823          108.97421294          103.49979879          110.45702744          111.13861904          103.51812962          106.80334985          107.90982245          107.50431599          104.66891228          106.86796159          106.07118831          107.22930485          106.12676148          107.83362358          111.92727534          111.48434681          111.99242586
         0.04*MaxFES =           104.83887993          105.66655095          102.31092835          106.14358059          103.70679254           102.3267215          104.70938339          104.39442743          102.38998993          106.55719741          104.13391013          104.77918176           104.8643694          104.31020727          106.79525588          104.56759305           103.1165244          104.95283798          106.63477937           104.7047372           104.8759143          106.58183378          103.81439521          103.34393082           110.4301307          103.72596144          103.62615836           105.1910214           104.5042664          105.03536618          104.43744636          106.87573976          103.77944008          104.67339035          105.86846534          102.25015885          106.46858707           104.5777512          103.37238194          103.50968802          104.46004003          104.17617633          103.36851049          104.07153933          103.74072926          102.88266153          104.46684973           104.2864791          106.64579437          107.31708868          104.48947661
         0.05*MaxFES =           103.52814757           104.8153259           101.2090301          104.55961798          102.74255232          101.20195976          104.03665281          102.99491877          101.19382117          104.25658556          102.41285665          103.43986456          103.37537744          102.58441865          104.78444818          101.76407112          102.03683232          103.66782308          103.50431884           103.2760832          103.34740885          103.93794668          102.44668954          102.29762851          105.59460938          102.27914687          101.96236008           102.6232026          102.67738473          103.99614287          102.12934281          104.11061816          103.03478648          103.51144821          102.58074088          101.88486218          103.62867974          103.37941646          102.55496621          102.01238492          102.68062688          102.32004287           102.2205873          101.94603124          102.54763055          102.67453576          103.23279685          102.86251107           104.4389162          104.46738744          102.48496977
          0.1*MaxFES =           100.79899595          101.06675157          100.39584188          100.88159255          100.66651904          100.34342636          100.56994836          100.52129062          100.30666998          100.60237926           100.5754665          100.52225394           100.7298634          100.93994026          101.25788063           100.6732354          100.35070883          100.78903595          100.97024108          100.74272275          100.66905582          100.70739027          100.70884325          100.36943616          101.20636098          100.62562065          100.39052503          100.80743413          100.87098829          100.40126796          100.78834384          100.80548669          100.71127075          100.69435689          100.63111198          100.47141638          100.54444334          100.77391892          100.38764447          100.38562569          100.45180633           100.6858775          100.52718903           100.5137543          100.35527234          100.91888037          100.75262919           100.7675298          100.79447143           100.7255375          100.60625564
          0.2*MaxFES =           100.07015269          100.12430978           100.0557048          100.06992412            100.069375          100.10432707           100.0765268          100.05513826          100.03434812          100.05718422          100.08943964          100.09428929          100.13802097          100.10762058          100.11861883          100.08766787          100.03710663          100.13286899          100.13731751          100.10018924          100.12141323          100.07401008          100.09617164          100.09338959          100.06498944          100.07560327          100.06359956          100.11888647          100.10407931          100.04834711          100.08015902          100.07578707          100.16804016          100.09834016          100.08712825          100.10989599          100.08729884          100.07785717          100.06126118          100.04644892          100.06509758          100.07819302          100.08073152          100.04658948          100.04921108          100.15077136          100.06193659          100.06156084          100.11222925          100.10496489          100.04216003
          0.3*MaxFES =            100.0193948           100.0306415          100.01556203          100.02290083          100.02403765          100.03608774          100.01608222          100.01335645          100.01363334          100.01743649          100.01216745          100.01846592          100.04362935          100.04083036          100.04509328          100.01738731             100.01174          100.02058671          100.03502474          100.02432746          100.02401359           100.0238553           100.0345992          100.02551755          100.02307022          100.01208523          100.01971813          100.04945664          100.02124961          100.01574951          100.02510375          100.02689635          100.04550787          100.05544807          100.03654587          100.02037271          100.02051224          100.02734781          100.02100905          100.01316107          100.01267865          100.01802842          100.03171689          100.01488816          100.02458103          100.05371249          100.02404654           100.0196632          100.04083368          100.04440028          100.01043924
          0.4*MaxFES =           100.00785472          100.01243825          100.00451663          100.00893199            100.010599          100.01215589          100.00749478          100.00663268          100.00737313          100.00810661          100.00448106          100.01023621          100.00966797          100.00954708          100.01164619          100.00869497          100.00471217          100.00597882           100.0269891           100.0074292          100.01141639          100.01407281          100.00667452          100.01335463          100.00906613          100.00688954          100.01014093          100.01750143           100.0103931          100.00728935          100.01406723          100.00745869          100.01715691          100.02144084          100.01389627          100.01216423          100.01608398          100.01113579          100.00897515          100.00654664          100.00508467          100.01467751          100.00766883            100.007344          100.00601886          100.01393848          100.00662175          100.00944559          100.01494331          100.02067649          100.00602557
          0.5*MaxFES =           100.00580578          100.00531245          100.00249808          100.00463994          100.00462036          100.00744268          100.00415072          100.00534607          100.00250674          100.00409283          100.00253716          100.00484423          100.00442304          100.00816812          100.00672225          100.00529437          100.00288433          100.00445629          100.01329683           100.0041234          100.00585356          100.00483363          100.00469303          100.00750364          100.00488439          100.00526517          100.00438019          100.00838267          100.00852705          100.00344251          100.00855998          100.00443256           100.0053342           100.0086278          100.00494434          100.00795437          100.00525568          100.00810533           100.0042063          100.00401094          100.00329479          100.00551791           100.0061022          100.00616747          100.00433503          100.00816192          100.00298854          100.00466009          100.00520917          100.00978462          100.00274082
          0.6*MaxFES =           100.00341235          100.00480899           100.0023459          100.00305053          100.00271922          100.00352756          100.00325075           100.0036335            100.001206          100.00338118          100.00109047           100.0025371          100.00297524          100.00385148          100.00326078          100.00252729          100.00248016          100.00324099          100.00831817           100.0030026          100.00358583          100.00263049          100.00330403           100.0045707           100.0028826          100.00259131          100.00237434          100.00171187          100.00420536          100.00265401          100.00376788          100.00154673          100.00314944          100.00545533           100.0044346          100.00469521          100.00474719          100.00264032          100.00360776          100.00344758          100.00227585          100.00341796          100.00408077           100.0023722          100.00311411          100.00427746           100.0016456          100.00258326          100.00307677           100.0040432          100.00180409
          0.7*MaxFES =           100.00223098          100.00322646          100.00163326          100.00198304          100.00202609          100.00252387          100.00254856          100.00300004          100.00104207          100.00233488          100.00090872          100.00111438          100.00222361          100.00201993          100.00216564          100.00199409           100.0016072          100.00156732          100.00560271          100.00170343          100.00166226          100.00250472          100.00131703          100.00338014          100.00140676          100.00240571          100.00228428          100.00167656           100.0020995          100.00245899          100.00206148          100.00113585           100.0029923           100.0029304          100.00352228          100.00350944          100.00276175          100.00115917          100.00302689          100.00245997          100.00159823          100.00233905          100.00266116          100.00159419           100.0022088          100.00341213          100.00107527          100.00256346          100.00270688          100.00168708          100.00131177
          0.8*MaxFES =             100.000617          100.00213248          100.00137643          100.00158547          100.00187251          100.00209313           100.0016273          100.00190429          100.00072271          100.00203201          100.00087266          100.00078775          100.00151044          100.00123218          100.00100676          100.00101501          100.00140727          100.00125575          100.00275118          100.00149901          100.00133356           100.0015015          100.00077578          100.00242699          100.00115052          100.00114062          100.00113854          100.00104949          100.00148654          100.00176462          100.00178558          100.00067181           100.0015408          100.00237818          100.00096923          100.00223221           100.0020492          100.00058972          100.00212692           100.0020759          100.00135707          100.00227327          100.00094842           100.0011614          100.00061467          100.00304201          100.00057968          100.00256346          100.00082439          100.00097014          100.00123303
          0.9*MaxFES =            100.0003383          100.00192675           100.0010439          100.00151821          100.00146101           100.0012997          100.00115094          100.00149563          100.00068861          100.00087713          100.00083427          100.00066882          100.00087219          100.00065836          100.00083263          100.00075554          100.00098534          100.00061768          100.00262774          100.00130805          100.00070598          100.00128613          100.00076688           100.0015967          100.00092803           100.0006798          100.00069205          100.00067599           100.0010771          100.00144959          100.00120365          100.00040543          100.00127411          100.00132542          100.00080868          100.00161263          100.00101607           100.0002813          100.00134975          100.00201746          100.00100285          100.00146445          100.00054322          100.00083068          100.00056366          100.00200566          100.00044649          100.00150116          100.00070514          100.00060559          100.00096551
              MaxFES =           100.00026728          100.00138169          100.00090531          100.00098277            100.000799          100.00103316          100.00103685          100.00143455           100.0003357          100.00064833          100.00066944          100.00066204          100.00046062          100.00061862          100.00079521          100.00069608          100.00097371          100.00050011          100.00179146          100.00105185          100.00055068           100.0011568          100.00062603          100.00115197          100.00090196          100.00059695          100.00045628             100.00056          100.00052839           100.0006229          100.00080393          100.00028719          100.00110975          100.00127363          100.00078072           100.0009818          100.00097352          100.00024613          100.00117107          100.00187774          100.00087737           100.0009384          100.00045004           100.0007316          100.00053181          100.00174605          100.00034082          100.00104749           100.0005042          100.00059321          100.00091063

                  Best                 Worst                Median                  Mean                   Std
          100.00024613          100.00187774          100.00079521    100.00083084000003  3.793170428603266E-4

