 23/07/2016 18:18:33 |                  Run 1                 Run 2                 Run 3                 Run 4                 Run 5                 Run 6                 Run 7                 Run 8                 Run 9                Run 10                Run 11                Run 12                Run 13                Run 14                Run 15                Run 16                Run 17                Run 18                Run 19                Run 20                Run 21                Run 22                Run 23                Run 24                Run 25                Run 26                Run 27                Run 28                Run 29                Run 30                Run 31                Run 32                Run 33                Run 34                Run 35                Run 36                Run 37                Run 38                Run 39                Run 40                Run 41                Run 42                Run 43                Run 44                Run 45                Run 46                Run 47                Run 48                Run 49                Run 50                Run 51
       0.0001*MaxFES =   2.530782479136477E10   4.98214618569356E10 1.3213547876857037E10 1.5916089825415644E10  2.740158505758074E10  2.902204874361834E10 2.7497216758141956E10 2.3149776904634132E10  5.729723354910734E10 1.9934386933707947E10 1.2419507444040733E10 1.5763942385713184E10  4.395333144898493E10 3.1681590318068096E10 2.7856134970179283E10  4.078778520388514E10  4.128965548874403E10  3.406174989371957E10  5.051435094792873E10 3.3714966462015446E10 1.8862018108984024E10  6.145999152283405E10   2.89798320558993E10 3.3317817810357544E10  3.564760929837079E10  1.761018345824385E10  3.736368626050749E10  5.371543655314999E10  3.936472169698479E10 1.7949357757226402E10  3.691675691276576E10  6.021154911787273E10  4.968467314764611E10 4.4420681541317085E10 2.5689886839843536E10 4.4832521239393234E10  3.123649313937473E10  3.087247804734719E10 4.2288259839375565E10  4.924823863608728E10  3.187269647902366E10   5.86546367084846E10  3.862696796320234E10  4.991267045368028E10  3.006024650652073E10  5.475215975709726E10  3.054570159041014E10  4.434563643553749E10  3.331302054889288E10   3.14892184994183E10  6.176934946560497E10
        0.001*MaxFES =   2.530782479136477E10  1.933554312099175E10   4.844682304104119E9 1.5916089825415644E10 2.4764763468438747E10 1.6541497345065105E10 2.7497216758141956E10 2.2462188930186966E10  1.503940663322706E10 1.9934386933707947E10 1.2419507444040733E10  6.9212368562755375E9   8.106321191634567E9 1.8621875343955856E10 1.5446782955197819E10  2.211548837065424E10 2.2351203967032333E10 1.9111522019637093E10 1.0736196161264696E10 1.1110004680510908E10   7.321487298528397E9 2.6054305215701164E10 2.6956962572101192E10  1.009275086102036E10   2.05286332091327E10 1.5184187310779438E10  1.435193659349008E10  2.695881159143516E10 1.7315405774921116E10 1.7949357757226402E10 1.5093243237545721E10 1.6077371480684021E10   4.717153227430223E9 1.0937463167142708E10 1.7916670098250004E10 2.3344915287051025E10 1.1463494049860132E10 1.3705692873968105E10  2.288453259107245E10 2.0582896034627754E10 1.6607234732495014E10 1.9729937483465115E10 2.0208157749601517E10 1.1823068175704739E10   8.426847762820047E9 1.6237906854827158E10 1.8557253302851604E10   2.16356137648762E10 1.6316224255886932E10  1.105653226137353E10  1.313756082147264E10
         0.01*MaxFES =    5.847189248646193E8   6.988561340221064E8   8.968369908929276E8  4.8058012911963475E8   8.124884760440793E8  1.3089760075040379E9   5.202472670604379E8  1.0491121077836466E9  1.1078974041462088E9   6.734421480120112E8  1.2426934612071621E9  1.3474603653236244E9  1.2705745574898758E9  1.6835867485465896E9  2.2337411525597463E9   7.712376147159258E8   2.200239843772766E9   1.489926572787952E9   8.141980428909744E8  1.0192737255105872E9    6.72638994296268E8  1.0563058141753596E9  1.0555214372459052E9   5.667049576979494E8  1.4914672620677733E9    8.44669103342062E8  2.0505960005134025E9  1.4260644564952216E9   1.046677630627573E9  1.3127893195223618E9   7.472225517068218E8   6.835740145469294E8  1.6512969247952805E9  1.3347825217724926E9    7.39172377853139E8   1.230854991501443E9  1.7651196393570426E9  1.2673181415075393E9  1.1126188748319414E9   8.127209550441839E8   5.745434449161804E8   3.551949482008459E8   1.613179686868994E9  1.4084425213969615E9  1.0762488225979185E9  1.2844872250486567E9   9.735412877433639E8  1.2774060460806837E9   1.662965031737936E9   9.888675070962163E8   6.813293323567345E8
         0.02*MaxFES =    8.526690428690386E7   7.185386423009977E7   1.614312404705983E8   2.367908684417066E7   6.719542452843788E7    8.36234382097758E7   5.575870696362442E7  1.2275503465299702E8  1.4402795602377972E8  1.1616857389192817E8    7.77056522924881E7   1.817475734103157E8  1.1725504579212599E8   9.670608292032047E7  2.0408224181015843E8   7.964405699415219E7  2.4723041141491425E8  1.3460436336085424E8  1.6020947351339793E8   4.333464125830121E7   6.737818530606636E7  1.0970163567260027E8   3.418323278725331E7    7.01900328588758E7   2.270435427269794E8  1.1427184013048865E8  1.7211528628612822E8  1.1905258101246545E8  1.4506060837589425E8  1.3464862251258218E8  1.4195473066871187E8  1.0564493585159925E8  1.7381755783945632E8   5.484885436768065E7   6.985847808623578E7   1.334297674686984E8  2.1925375093095502E8  1.6251898525303513E8   8.734180711330225E7  1.1895321871875992E8    1.64386253198151E8   5.154987328677182E7   8.708945795794955E7   8.867812428101188E7  1.0873450045157762E8  1.6246770123160204E8   4.701037364366134E7   8.982888463222945E7  2.3845161996279424E8   5.885598003594869E7   8.511741452104992E7
         0.03*MaxFES =    1.046138078589046E7   1.721464741052901E7    2.86547472746065E7      8862841.57221759   1.404844733627788E7   1.333477391200488E7   2.202200660500481E7   2.227005495187085E7   1.350364014046463E7    4.87528290469056E7   1.044457501041918E7   4.790154290208364E7   2.501593530678481E7   1.190407850484599E7   3.944070546537745E7   3.242821687956226E7   4.853960310559736E7   2.943928801426138E7   5.099391298878529E7   1.548698800243545E7   2.768651930468881E7     2.2436126915164E7   1.282394017366013E7   1.136522180595971E7   7.302633319737709E7   4.443253954004984E7   1.457537162567743E7   1.781072634226418E7   2.074316101939814E7   2.271312506594181E7   5.375469727494534E7   2.355820599561776E7   4.781840011756908E7   2.268303019694331E7    1.77190428074951E7   2.368988072906213E7   2.611395434455866E7   2.265042357938389E7   2.069281053933663E7   3.689735182971152E7   7.971798044473834E7   1.974929676382341E7   1.853980055680712E7   3.834467309735451E7    1.90949482424991E7   3.471861679119254E7   2.649593840556957E7   1.215020225948051E7   6.698860963380242E7   2.333349321002444E7   2.194742537928606E7
         0.04*MaxFES =       6944793.69491174   1.279073108113726E7    1.39686083381817E7      3723359.13454897      4348687.27625059      6967766.52550968      6501293.52235164   1.219046686591206E7       2930083.7467495   1.721587041444384E7      5383697.29304958   1.624587937337659E7   1.199712410057252E7      6071536.33756623       9005107.2902445   1.325337219370817E7      4023109.56440798   1.193006794208155E7   1.719967945963334E7      5300443.72127472      7073866.77441954      8550886.05144873      7180451.89250025       5062464.4479283   2.523034036628951E7   1.177726157565214E7       5680371.1263996      8965217.47961638   1.031467235820303E7   1.275242704548628E7   2.560313340799509E7   1.297525547182858E7      9790879.69617338      7756728.37261583      6730660.61504663      8670752.94004201   1.117547220721162E7      8655563.39523571      9162171.53615773    1.22169124986529E7   2.040260522088288E7      8042811.59995847      4541640.31773019   2.392850299768451E7      9098052.90829022   1.092469977604115E7   1.200193804453093E7      3623978.91362745   2.182954913146216E7      3359409.70320854      8851268.18510935
         0.05*MaxFES =       5107025.27490215      6841060.42369498      7498563.89145124      2176128.91922851       725261.38111114      5852074.14411041      2238969.10167772      5959347.40888462      2268256.12102355      7078023.35760799      2540194.47437647      9279221.84228466       6128769.7620541      3877168.36210674      4343534.93627596      5969169.56296187      2040392.93027664      5544051.45534738      9636726.17814818      3894457.67980807      3446393.41709713      3438312.51911965      4963720.68463701      3051699.44552064      9698132.12832414      5501617.78941301        2541987.539186      3178722.43169472       4415911.7424977      3527469.78772363      9098368.14236988      8478342.03671333      2773482.08512701      4107811.89043243      3422519.19211357       2322862.4367874      5780263.13447287      4083003.67609828      2521246.52372871      2687196.71107112      3378641.01955872      3451704.15594627      1858420.27991748      9482959.96500477      4312461.77287575      6482278.94114796      7114254.98079735      1210037.63980561      7072692.89279856      2623637.75056117      4869597.12509928
          0.1*MaxFES =        747847.73963955       283323.25259815        299698.8262563       210230.22149751       111824.84021837       126651.61918098       365275.10727085       253843.47312198       398124.00659543       464193.06573737       244842.13016126       409631.79938176       116447.51557837       810388.22400281       185337.74885513        67449.79946629       231985.03891908       586390.43284682      1861036.61074396       624106.92214292       707616.56854267         30599.9945573       236973.56092196       439666.35177558       587924.10727971       157609.04538401       537912.16319582       208828.92504418       586661.55238585       402249.36685301        806162.4651876       919145.72043112       219035.32570438       202397.42131621       302475.71839902        54548.72110616       517429.59848309       324307.04846593       111212.60923338       163848.62108006       409184.24062834       248394.56709913       147812.26705329        345409.5103359       232065.62779613       573734.63479963       668562.24256067        69920.35745123       205194.84612342       184464.73395315       474630.79897517
          0.2*MaxFES =         13564.91052174        12628.35103469        10314.62715099        12009.98459982         8663.14760537         2035.11546675        16585.86062569         2713.23379917        55517.22147616         9523.51419188        14078.14598292        17270.56724915        26340.85724372        16586.14040684        12655.30400735         6247.73824278         4373.51376486        70543.45034402        35045.18332934        11072.47098012        61830.22739467          4528.2835614        22163.07878572        30425.61381689        23661.11520099         3873.55162788        83201.51037275        12441.91435656         4272.24757259        19745.12627908        12627.70816141        10402.33106286         8035.35605558        19757.69444314        19022.64754047         5909.56626208        29294.27470541        10383.08371551         6488.47473428         8894.27714576         11643.1010959         31244.3802882         6004.69307228        11351.04186529         6721.50959287        10259.74132917         6872.77323907        12737.45215587        29399.14447975        16615.41825968        31769.89662488
          0.3*MaxFES =          9445.62688458         1693.86084117         6265.53735987         2484.66661329         3255.77519684           610.1057092         9571.67774402          295.19866445        20674.88481512         1177.06960745        12264.06924363         2041.88436976         5345.51447821         2979.21009189         2989.73622204         1189.57380367         2863.20153682          7552.4761877         24293.4068366         2043.31153603        10783.28027992         3044.36699142        20023.86812142        22138.84573119        18612.44430945           805.4725152         7872.15211579         3056.40765675         2556.13180477         1488.92952448         5247.70341384         4023.38475499         1109.25696952         4805.50117267         9935.87610761         3283.85227586        17047.28627588          961.85950671         5361.40684423         3798.39215416         1862.78732359          2896.2848092          874.04864929         6644.81826517         2514.82148534         3010.98397696          682.53287567         9786.14530709        24540.29343638          1282.7003782         4338.55461642
          0.4*MaxFES =          8386.57508851         1327.77773966         4845.02374467         1960.38443558         2745.43655227          407.43050333         9342.26124074          129.39693356        19356.49197246          326.31705579         12006.3469175          967.85411593         3808.31930513         1932.86789074          1674.6193126          414.15659477         2808.42954659         2731.24849508        22522.99068107          924.91045223         3425.27566766         2620.73751443        19233.31255812        21102.61364171        17653.84317091          422.43630844         5491.14459477         1156.96874307          2272.1682965          242.84510811         3598.48415431         3815.63099878          632.18994537         3266.32657995          6942.6220421          1580.4177001        15412.71368755          499.80026236         4924.70518317         3488.61819367          836.82147172          2649.9059762          356.97063697         6000.61344146         2287.70423249         2934.87698588          267.40264165         9498.79023448        23846.16617063          688.55435848          633.39915329
          0.5*MaxFES =          8200.04162622         1068.19206178         4553.29088405         1883.26218671         2659.36664048          350.11634009         9315.45342771            83.5772984        19275.21194095           60.65429158        11890.59968801          832.82816187         3463.58873255         1639.61713299          951.07854202          256.75477471         2718.01383951          2196.7015357        22226.09209739          524.89910507         2835.40057559         2579.87872506        19207.23104182        20887.36188107        17598.28166177          413.86767048         5450.81040687          953.36913536         2205.89049367          166.71636409         2991.38885907         3729.39118815          421.35395899         2715.65993483         6661.70210743         1497.78592224        15151.57456408          408.83520943         4695.05629706         3433.40833397          601.03372871         2346.85554699           58.85603338         5661.40657708         2225.13075026         2932.40313899          163.22726042         9401.38585241        23155.06676652           575.7489923          385.75626776
          0.6*MaxFES =          8144.33212905         1058.87298897         4529.09901317         1857.55731191         2646.82889935          346.19261083         9309.84865079           64.65325471        19134.43065655           45.73355354        11785.64322968          799.46181797         3439.50041257         1608.06401053          817.86023141          148.05026454         2657.24609008         2080.52039324        22043.48679438          505.52544178         2749.23932898          2578.9643565        19188.47778821        20819.27275518        17588.43742636          390.83986733         5438.22000556          933.53064188         2194.92425214          142.21906459         2923.63864259         3718.52716002          393.67649556         2595.32969215         6653.55577694         1463.81536464        14945.92769547          387.62935255         4659.85983869         3430.41609712          565.59797281         2270.25058461           37.95624539         5560.56277519         2209.41155856         2926.31366613          124.49369727         9381.49503998        23127.50761201          563.22732167          363.63038079
          0.7*MaxFES =          8127.77396335         1056.89874243         4521.30684675         1849.47482629         2638.23318728          341.13915974         9306.97346859           63.91307556        19118.17102622           36.93920705         11778.4902086          762.91609512         3437.38354848         1600.25444796          742.85858965          116.74324164         2651.28750011         2019.36637453        22036.60161003          496.88865368         2739.27829027         2571.60539534        19139.31225107        20811.30824703         17585.6225665          390.48346514         5432.59070342          930.27837459         2189.17644339          138.44925583         2914.79353373         3709.75353573          382.61316917          2541.7041788         6652.39706837         1459.69422332         14887.3011808          353.55453325         4654.47521679           3428.081216          564.07958151         2261.99172649           36.58703104         5530.33120189           2205.914727         2923.47244671            67.6564444         9373.18075247        23121.04967335           550.5935694          360.55456444
          0.8*MaxFES =          8124.22924351         1053.55215623         4516.81413315         1845.81655624         2637.33628249          339.10061849         9305.80349917            63.6455969        19039.31822654           35.83653547        11777.64024037          762.40305437         3437.29045305          1594.4439263           740.6950951           113.2661906         2646.82016172         2015.90959744        22036.37441617          496.51705349         2737.41134053          2569.3160437        19110.88642385        20798.74942128        17584.76094804           385.7534196         5431.62041929          929.80757084         2188.69405274          137.72973996         2909.07185177         3709.02761606          379.87688049         2532.55410409         6651.22320618         1456.52103686         14885.0807868          349.97337227         4652.47973914          3427.8185985          513.19598469         2257.74796177           29.62184348         5522.86998129         2204.33404877         2920.40815803           52.44513411         9371.19914672         23117.4644192          548.08814065          359.98428723
          0.9*MaxFES =          8122.63008833         1052.24860122         4515.68568942          1843.2656627         2637.05348811          338.93316105         9303.84799812           63.47565217        19025.90247743             32.445676        11776.41285832          751.36757291         3436.70789251         1593.50755797          739.17678992          112.04659527         2644.14944895         2015.23277163        22035.78640753          496.15743831         2733.02806772          2568.7791356         19105.8573715        20798.25126048        17584.58599977          381.92803201         5430.89723367          929.69180791         2188.32505716          135.68600475         2905.89655062         3708.58118068          375.80004403         2531.97018288         6651.10254902         1452.79431055        14883.12083343          349.36215161         4649.93815417         3424.61061168          485.66344026         2255.09666367           29.15622035         5517.13604832         2202.33209784         2917.61602399           46.36412165         9370.77605242         23117.4196331          547.47622345          358.93975787
              MaxFES =          8121.91920952         1051.62396115         4512.41810251         1842.72736812         2636.99372815          338.80798954         9303.72226877            63.1941108        19024.63248556           31.59753552        11776.16190834          751.20200797         3436.70212083         1592.58847094          735.98605809          111.87352864         2643.76150725         2014.70772341        22034.99275169          494.42381869         2732.41305209         2566.29959612        19104.93109116        20797.80066719        17583.56200941          381.26549875         5430.38939723          928.95601926         2188.01303263          134.03773027         2904.00834366         3707.19865529          373.53906477         2530.74055947         6651.05630395          1451.7530526        14878.67978192           349.2572532         4649.66799605         3422.63483634          482.90441978         2253.33595314           29.07047769         5512.57413602         2201.65895167         2915.11895637           43.59014365         9369.85045652        23116.96424702          547.02393242          358.73021555

                  Best                 Worst                Median                  Mean                   Std
           29.07047769        23116.96424702         2530.74055947     4943.471813464313     6494.127950371074

