 23/07/2016 13:30:52 |                  Run 1                 Run 2                 Run 3                 Run 4                 Run 5                 Run 6                 Run 7                 Run 8                 Run 9                Run 10                Run 11                Run 12                Run 13                Run 14                Run 15                Run 16                Run 17                Run 18                Run 19                Run 20                Run 21                Run 22                Run 23                Run 24                Run 25                Run 26                Run 27                Run 28                Run 29                Run 30                Run 31                Run 32                Run 33                Run 34                Run 35                Run 36                Run 37                Run 38                Run 39                Run 40                Run 41                Run 42                Run 43                Run 44                Run 45                Run 46                Run 47                Run 48                Run 49                Run 50                Run 51
       0.0001*MaxFES =    9.411688311151018E9  4.2055368549665794E9   9.345344799117583E8  2.852324769236413E10   4.53951796267793E10 2.4365569492681976E10  1.5025494218996649E9 1.4326610517067747E10  7.7061683499331665E9  1.481596962304564E10 2.4936687969930595E10   3.557290661092853E9   5.090577944908776E9   6.120665893221803E8   4.459936891918824E9  5.603339558655082E10   6.854392836010661E9   4.392243866094984E9 1.5166401861793905E10  3.5116273562043867E9 1.8410840079690502E10   3.357271555785142E8  1.0225494270116795E9  2.8283146720805774E9 1.0957606781689209E10  4.434696085340178E10   7.755638654891653E9   2.58817091644665E10  2.930097299862421E10   3.321538132798594E8 1.3501282865331684E10   5.224828108899368E9  4.213408201647118E10  7.951302201154462E10   3.996134058254593E9   6.898206576437459E8   8.287094422648165E9 3.2809604393688263E10  2.569446683902351E10  2.797645692745092E10  1.3447817269009008E9 1.5440909048555153E10 1.8376001350668663E10   1.33512126386772E10  2.984905291771618E10 1.1721478443071732E10  1.9932072212551115E9 3.1723955050915432E10   8.054398827099514E9  1.320350552895265E10 3.0312374440237206E10
        0.001*MaxFES =    7.189577070703776E9   2.772874236363175E9  1.9559134895064604E8  2.465771389476713E10  4.135073643760541E10  1.968887598987873E10   1.172477595186674E9 1.2162773316388634E10   6.031209822590267E9 1.2559570937053637E10 2.1055796239070415E10  2.3165244186437154E9  3.8680395556787844E9   3.153802875750748E8  3.3366548788372154E9  5.108766788404814E10    6.47040865620532E9  3.3786854690954523E9 1.2291820629455547E10   2.436066129127032E9  1.516401639575221E10  2.7407868672924316E8   8.492223812349659E8  1.7362914208757653E9   8.925940937066174E9  3.877397759121458E10  5.7169253877929735E9 2.2718307639753765E10  2.479185835894032E10    2.74229947161669E8 1.1026010870415464E10  4.1159337300876136E9  3.797910125356339E10  7.305244257623193E10   3.027669016386573E9  1.8072871992044538E8   6.322134749320234E9 2.8160618933080765E10 2.1550027325540752E10 2.5149675039782955E10  1.1469629979733922E9 1.2714186335049166E10    1.5524809136685E10 1.0523240488106192E10 2.6337041599000214E10   9.787628452237612E9  1.5837751355966454E9 2.6049145044375214E10   5.734883268836107E9 1.0943354133048262E10 2.7335495784812374E10
         0.01*MaxFES =    1.920210132256785E7   2.122766052399005E7      5863283.21256368   3.117941278549673E7   3.531920515755021E7   2.016252209142543E7   1.705812904840134E7      9010627.86569597   1.985386644061355E7   4.489442770231107E7   2.356554140845427E7   1.776890740293499E7      9638555.18787689      5253780.45639588   2.206341070112742E7   7.546551685036546E7    1.36799090060467E7   2.328724098090027E7      4019938.82939609      6096900.46667921   1.461378058244698E7   1.860570176349994E7      4110485.46591994   4.203559593074439E7   1.367168741789669E7   1.204250368697053E7   1.056469172385972E7   4.977178781439638E7   5.003861551325655E7    3.02451657177158E7   1.203545180854268E7   1.175801233950062E7   1.547222119496805E7   5.561291608297557E7   2.872805654688965E7   1.533961663769546E7   1.740703888473462E7   5.846730731354081E7   4.190383598279132E7   3.222041803837583E7   3.057233297682243E7   2.022869149320258E7   1.585446780849754E7   1.543186367958882E7   1.582242177000389E7   1.871950461187647E7   1.434248434857603E7    3.03089584275544E7   2.764617003894871E7      1.370505448249E7   3.390977753745352E7
         0.02*MaxFES =       2082071.64149336    1.10725687318294E7      3851713.65404813        651249.2945014      8577015.00789196      7126527.87122077      2973082.57636309      5152110.91567789      4943537.28574445   1.221682628999643E7      6172481.05240691      5734539.37396172      5959843.99004045       1522728.1762873      9398012.47498858       9296455.1241213      5806641.56054011      5618046.61814697      3485950.96884788      2848461.07467269       883630.80604777   1.043595938437851E7       1028394.0146279      6297290.50680476      5758903.92947524      2363647.40071833      5959349.62626551      2742657.31836082      5811021.99553708      1696338.45039545      1574510.16792348      3471778.52603857       1804744.0319417      6098472.58875936      1161629.84382072      7256438.95018135       4728765.9246142   1.164037515915805E7   1.619190394255267E7   1.019671239211731E7   1.087059967016165E7      6607368.68700789      3093011.78488221   1.080561598653923E7       1100065.5603468      6600775.30307096      7587259.29310885      4901126.09341952   1.378777071442336E7      5368536.69019012      9542900.22948684
         0.03*MaxFES =        669276.05198012      7570955.55272698       3366864.0719413        222894.6613883      2958006.10675118      3994345.31435827       2033515.7723887      4398971.83079006      4213136.96831234        5983609.435769      3461768.63190906      3699101.21172653      4951242.51654672        200846.9536122      7678527.01675414      8409711.49990418      4870715.10994984      4434486.52707017      2950515.10512686      2211217.09732709       460143.67338813      7837938.98403411       797822.94702335      4868787.32294307       949505.08397508      1594585.42449063      4249251.89897089      1808274.36725245      4184179.05956928      1357286.25849521       836931.48376166      2453921.04912296       1804744.0319417       663600.59351562       634421.01532094      6175899.78812386      2559759.23464958       3794416.8726973      8117804.33245182      7826532.34075274      7721252.79860877      4019142.97906555      1749107.74705415      7762721.33759987       823344.80873849      5865466.44200027       5570893.9518577      2068487.60988648      8848815.23683146      4629463.71626766      5289536.57146179
         0.04*MaxFES =        328686.14039542      6358062.52280594      2935993.21776173       188859.20992882      1217572.16528465      3363442.95557633      1670287.95744518      3601982.22375584      2958362.37267118      4174771.79853484      2474879.37231743      2470511.27594877      3895114.57739938        200846.9536122      6054017.83190769      7792366.34649963      4176963.01572986      3673240.14565074       909073.23107327      1799909.80585646       350908.38536758      5964610.40332948       724750.19801315      4136993.47033183       816494.59188612      1422505.65621524      3595556.52089609      1230416.36753574      3294832.36563846      1295394.78311389       681428.32149841      2064344.64176689       1804744.0319417       593439.25182522       610929.83177214       5242378.3622032      2322212.31049155       2881419.9561627      5541143.04727763      7047755.86193857      6436558.10894163       3103394.9709622      1552920.57775727      6206595.40791697       677683.00419645      4671687.50396289      4664343.10177042       1164715.8857761      7895411.63685705      4230926.68874451      3709504.04269038
         0.05*MaxFES =         80846.27540509      5297529.75503752      2551297.95157782       167094.79518701      1091286.40228218      2799016.25615493      1484108.69785299      2762199.85340064      2233980.02767935      3504877.50820159      1876685.73149656      2070252.63157187      3411180.60811056       180830.66852325      5314483.41226727      6215602.91565588      3569321.36705906      3049698.72795846       870188.99165449       1494356.8044026       310642.07865119      5019487.84170949        690592.5390127      3254576.46078323        713879.5217559      1163940.43291113      3045579.37425455       917701.63801635      2684038.78988666      1197914.70156102       591044.29847528      1803416.17760927      1727680.94269575       544736.39520568       586457.75272108      4426466.61576717      2080233.39302192      2098664.64047362      4269976.71239925      6143195.90752198      5392148.65923971       2727500.6146285      1491968.73209879      5272716.67681839        650618.0161529      4133870.54334566      3854335.32532226      1017013.24991199      7078833.40882528      3989525.48369385      2995122.45215108
          0.1*MaxFES =             0.00751099      2660163.51803796       1131721.3422725        97706.57207867       872243.08282362       954708.18981674       984408.22863539       877504.60635817       991359.70711386      1440220.78520816       719605.63572246      1033970.27089243      1394346.20676824       129521.75936843      2728730.37884833      2287735.34386275      1274735.28505545      1755015.66970474       362548.02167818       580455.25480734       242250.59979993      1955894.31276214        538309.9090766      1406362.80483587       380272.75955508       418308.07456436       1320708.5097189       281967.02429502       938045.02084572       946525.75450432       434290.73263976      1179145.85000418       994532.28951476        320301.0379805       503061.31927926       2388444.7093471      1560106.99485699       755536.15506826        1804920.382291      3357801.50847581      2080885.84663516      1453365.82325852      1261349.09749773      2690278.97761483       536371.26601654      2021044.86337695        1644434.567126       435553.40380142      3966209.73000554      2737710.22706019      1136135.64678267
          0.2*MaxFES =                    0.0               1.02E-6        622838.4910762        61797.13190854       570486.03436138       190448.01842854       502415.37885968       157706.98041341       433614.76421239       463488.29776373       109902.60838728       355915.86805094       632714.81618376        84206.80990048      1339633.56112667       855917.27882631       210161.30171386        768423.5109478        99925.31716021       125151.69520201       163150.12475888       397921.52561034       354807.04198436       396315.55113495       182648.96259226        99633.52462059       368966.13305117        69512.73675729       165706.74289557       702467.78040713       255438.12071007       603824.29408223       544255.19241156       191553.48571855       371238.88930848      1166291.01644052       1012154.2358931       196464.08374469       436351.89706398      1628922.88236485       340474.61949258       703947.15520824       844612.26040287      1062451.74650507       379685.48203047       767243.09358784       555726.68376584       128369.91378881      1477294.55976529      1620556.07204539       107674.60791956
          0.3*MaxFES =                    0.0                   0.0                   0.0         50511.4510118       396664.73925312        111465.8585175       298832.13223489        86305.37768158       304564.47404299       284680.83650035        51545.47161092       249600.58003057       397995.25459514        63611.28129677       768127.46812196       465007.86673311        43104.84119131       515113.83849683        67482.92120233        60805.40263845        111725.9662393       163160.16049556       221296.08602919       208644.57129748       143110.08397077        54600.92869366       232291.07652162         43094.8502593        70835.41260678       558330.92424562       176111.43259198         394290.057565       352735.73677285       156174.61174046       276213.11344532       723953.27292072       669153.57320992       115801.42146988       221878.48154927      1012864.00570019       177745.84095948       387892.42457402       620756.10517404       690697.58117712       273177.46281787       451676.42414324       307904.13766478        88060.25213458       808140.47514304      1006881.31348423        26345.72380517
          0.4*MaxFES =                    0.0                   0.0                   0.0                   0.0        26290.21796477        87065.34149747       209086.59586373        74558.69719685        223497.1518913       223016.19359929        38820.66189999       200908.32379756       297657.50489467         50040.9457832       507873.65738794       329455.91623002        25029.17441209        377326.0402977        52200.50265104        47548.44162216        83903.91947294        97492.46605649       153053.77654989       139633.38849466       122102.63955205        35904.96863463        169275.3586226        36610.87928535        51186.28700179       470659.91586978       127519.29319701        245198.1811162       236686.46160443       132630.62197038       212327.29000446       494461.46070568       492434.79404507        94116.86306642       140413.07949428       722816.28050754       127313.18261226       253617.54862343       459348.75996189       489614.07651317       195066.86364296       289807.22011406       201160.83601806        69555.21129662       534746.92093878        612766.1267296         14379.9918512
          0.5*MaxFES =                    0.0                   0.0                   0.0                   0.0                   0.0        16228.35190085       142020.53351799        70836.65862802       182707.47112295       174867.32246825        32838.84642425       169919.88837214       209341.98829138         39822.0240304       363157.69484968       242770.01472349        23123.04792163       278358.24799573        42553.60070117        42285.20569225        64738.58133675        65308.03824955       103645.97622632        98035.67011293       108423.21974349        26774.09194509       125728.86291244        33377.77792838        45802.76981009       394229.55879219        90944.19029754       184851.61442322       158132.41297183       115663.73715374       171432.85779787       365510.81557213       380648.09089581        83479.52660916        94058.11677923       483482.75847216       103367.37408454       185406.18515831        375693.0826172       368359.65130885       146981.57040448       190768.14773943       134089.82731786        58195.19420113       338410.52398702       403884.91593822        12192.82092217
          0.6*MaxFES =                    0.0                   0.0                   0.0                   0.0                   0.0                   0.0          473.18721059        68287.06932841       151972.61877215       145806.30466921        28198.66515915       149740.76663497       152238.78833839        33159.18932956       279134.11252779       186544.56619286        22540.75956865       224163.39872151        36943.50749483        38454.66237215        51421.32238328        44129.01442827        74527.82664021        68940.81381003        98550.16195972         20365.8704387        96323.29839074        30916.17742361        40701.34134261       333501.01762802        72303.60506089         138541.865724       117734.80770801       106715.71082319       144803.42241679       284973.96411749        296949.7501712        76671.82836366        68335.10375613       356436.32723122        86474.72876647       140346.31532401       308438.88664657       272662.04980539       118282.72201815        118061.2596072       101224.50056654        48556.14736266       228503.43253052       285583.14691977        10859.02755432
          0.7*MaxFES =                    0.0                   0.0                   0.0                   0.0                   0.0                   0.0                   0.0          327.44646568       129812.26126107       122419.10799768        24905.98335697       133556.43396481       114662.37041783        28897.72884172       216903.98880141       140971.53350831        22036.22916804       178126.31798467        32210.58003529        34836.05800243        44147.50329329        28927.66926807        51683.50408071        49155.65767063        91527.36015661        16212.81378246        80813.71664772        28531.20301885        37241.25501044        281001.3591825           57763.66834       111666.39423034        87655.37647617        98821.99024573       119564.73189063       225146.63234681        237655.1729732        72085.96492076        49184.53739679       264339.79665273        70618.05989208       113244.29589585       258651.10665182       209769.73204853        95609.86470819        74995.09887143        77192.50346096        42239.06556365       147352.91882139        211052.9233189         9675.50633089
          0.8*MaxFES =                    0.0                   0.0                   0.0                   0.0                   0.0                   0.0                   0.0                   0.0            0.03061307       106434.45865582        21769.60007955       119638.17232327        91486.31802084        26130.58852213       173378.40262963       118797.76195413        21555.03748054       151587.75852583        28079.37791617        31833.87596577         36702.3096116        19391.45754238        37778.50782295        36150.00425306        85263.21633709        13742.85260744        71942.49637376        26335.98251312        34596.42639736       249962.79258773        49631.11411386        93227.51830338        70875.15027104        93076.37593788        103562.1819001       185732.83202385       196413.41061736        68682.57322719        39077.52234724       212904.80655246        60047.68667192        95538.84775639       221273.59449033       166042.77129711        78685.06813678        47509.13720775        61261.84872635        38501.43127592       104255.67980191       155215.16947323         8724.43353228
          0.9*MaxFES =                    0.0                   0.0                   0.0                   0.0                   0.0                   0.0                   0.0                   0.0                   0.0                4.6E-7        19415.30621657       108275.88160156        76942.01882057        24532.02526372       144245.14691977       100690.08043721        21088.69906157       132884.52163677        24289.50848655        29004.37968865        31787.39376824         13253.8050044        28913.37718711        27934.31413376        80499.44188284        11531.99890883        65017.24553303         24706.7409335        31595.97662302       222249.17807359        43708.25667586        79846.33933317        58317.10525138        88215.22097096        91760.26285232       159384.67470572       168050.47912573          66171.269405        31872.86938021       173144.52377573        51522.06182533        77610.99726273       190175.80316284       138347.51720028        67415.24150946        30839.60825912        51933.77694497        36162.02559421        73203.78129874       123316.36981803         7906.60253768
              MaxFES =                    0.0                   0.0                   0.0                   0.0                   0.0                   0.0                   0.0                   0.0                   0.0                   0.0                   0.0        74941.01337548         69274.7197965        23457.89773119       123303.84733575        87879.70388786        20692.45198562       116273.14939659        21771.79257213        26756.22633026        28869.22286588         9120.83621735        23544.72463201        23257.71770623        76360.48528912        10391.17478062        59884.22964104        23254.07515811        29294.48048309       199058.99526532        39133.65562744        69216.87176515        49415.03131109        84029.14796756        82495.85756191       140612.09281121        146724.2754265         64066.2276686        27593.15477844       147299.12726499        46623.87144488        65995.06742501       168141.88572864       117721.97568155        56552.31907176        20223.92374315        46118.68673099         34476.8794234        52095.65821125        97698.87560182         7184.12811587

                  Best                 Worst                Median                  Mean                   Std
                   0.0       199058.99526532         34476.8794234    51192.263878654114       50263.902384069

