 01/11/2016 20:36:16 |                  Run 1                 Run 2                 Run 3                 Run 4                 Run 5                 Run 6                 Run 7                 Run 8                 Run 9                Run 10                Run 11                Run 12                Run 13                Run 14                Run 15                Run 16                Run 17                Run 18                Run 19                Run 20                Run 21                Run 22                Run 23                Run 24                Run 25                Run 26                Run 27                Run 28                Run 29                Run 30                Run 31                Run 32                Run 33                Run 34                Run 35                Run 36                Run 37                Run 38                Run 39                Run 40                Run 41                Run 42                Run 43                Run 44                Run 45                Run 46                Run 47                Run 48                Run 49                Run 50                Run 51
       0.0001*MaxFES =  4.5862172691763725E10  6.552307324710894E10  4.536496283494398E10  4.541305781891234E10  6.242309417342727E10  5.306877644581871E10 4.4417277654272446E10  6.085636820514475E10  4.043621437594867E10  3.722458266887601E10  4.714760466420911E10 1.0333294087960086E11 5.1623975177116196E10  6.273754061018001E10 6.2131758009193146E10  9.413583920508295E10 1.0130947626650449E11  2.212210015372918E10  7.914360478932971E10 5.6591531158772934E10 2.4728764335980034E10  3.468163590046334E10 1.1107407173455583E11 3.1386784739815292E10 2.4003960867810257E10 1.0846227691669003E11  1.259153048751713E10 3.0970358007880028E10  3.277502758184906E10  2.557479617328228E10 3.3341653193462723E10  4.252845291126848E10 1.9025812594914146E10 1.7218801171942773E11  7.540349278866652E10   3.91577941042141E10 1.9504365916554024E10  4.722009889834494E10  5.460268832508517E10  7.591529507699414E10 5.6682018632713875E10  3.477131928686905E10 3.6154790534860565E10  5.285834439392865E10 4.3268000087549904E10  2.903838727833339E10 3.3331690898225082E10  7.387983033374985E10   4.48440112216127E10   5.55871953860748E10  1.183674368094692E10
        0.001*MaxFES =   3.671734876953817E10   5.36186551949838E10  3.730407314358525E10 3.3327441438783916E10  4.779483575382479E10  4.010617007912274E10  3.538950647890883E10  5.141935275302526E10  2.805295265046332E10  2.528262856951986E10  3.807786799330076E10  8.112242155764038E10  4.140506816162926E10  5.005294372557612E10  4.664268098361766E10  7.518665125918471E10  8.144577113685153E10 1.4336400554385746E10 6.2853993509881226E10 4.0048971529356995E10 1.7074778572018877E10 2.5304184027359818E10  8.778755900064737E10  2.203031370683217E10 1.7869882733697056E10  9.315569644326117E10   7.406619750553746E9 2.3019650853870235E10 2.2866888845630363E10 1.7558620618397682E10  2.543711856261125E10   3.19880941578875E10 1.3347274871398525E10 1.4367064640383353E11  6.105245342047787E10  2.953992215536656E10 1.3787382199015337E10  3.492688988777842E10  4.046693914326132E10  5.917020314839143E10 4.2447074111546074E10 2.5994459019068584E10 2.8008339457242702E10  4.397428457150274E10  3.533729791085886E10  2.092336312247869E10 2.3543767929519924E10   5.31842926620434E10  3.516290196976957E10  4.393900487389849E10   8.505091940952146E9
         0.01*MaxFES =     2.25198351599784E7  1.2627263018962657E8  2.0790639021543843E8  1.0177657800901759E8  1.2714963863004257E8  1.2297965663381024E8  1.2179380780634642E8   9.436767946527404E7  1.1631449002893965E8  1.3772906909868568E8   8.882498892238407E7  1.2406114578215355E8   8.336867888737585E7   1.591062937802386E8    8.84388631303696E7  1.5670180487648907E8   1.042214224732644E8  1.8843226568260536E8  1.5185078529089016E8   1.013390850250841E8   1.549596127030552E8  1.3133513779762758E8  1.4376755733370224E8  1.6777866928087157E8  1.4227428742824018E8  1.5974064442462283E8    6.33728579405858E7   5.572130455554987E7    9.18700772505594E7  1.3414912923443478E8  1.8741653346604759E8  2.6273804981257427E8    7.52185966439322E7   1.651605177235947E8   1.323554591877879E8  1.2686417950826012E8    1.10569961008243E8   8.400627310687485E7  2.2416403424654666E8  1.9963114789002407E8  1.3333342863073754E8  1.9352371647205883E8  1.2884457695260753E8   2.115696136120079E8   1.565896160547936E8    7.74903082779366E7   6.980441301929203E7   8.101356197090495E7  1.6962912219958946E8  1.9422872704016617E8   8.570224657607265E7
         0.02*MaxFES =       8135747.54895089    4.32589822808943E7     6.8875777592633E7   3.993914549612213E7   2.979197243860901E7    1.90822098773197E7   2.802696074754951E7   3.877581317494266E7   4.211573059711698E7   1.951786541496682E7    3.53885434815534E7   2.612849654040248E7   2.685896067394121E7   3.017591859105173E7   3.083080112008533E7   2.260395339298737E7   2.951680487639808E7     6.4800180156402E7   1.981922970157901E7   3.131487477622727E7   2.862803275556793E7   2.796960203388987E7   3.999393947642725E7   4.086241547517445E7   3.433544252981537E7   3.486865795602366E7   2.235788783309528E7    1.64577846012607E7   2.287600895472773E7   2.357100285903745E7   2.980266234366971E7   3.660320858009292E7   2.907480440680218E7   4.841151763177577E7   2.959024707412206E7   3.664673047922085E7   3.257724307296233E7   2.589014832230732E7   4.357184058796031E7    4.05605290132668E7   4.447078872959739E7   3.851438749643022E7   2.583794111436645E7   3.935001592302979E7     7.2820865531206E7   2.580670839590278E7   2.861556017858725E7   1.231790107098732E7   2.146995152988392E7   1.998865655006497E7   1.493112624689248E7
         0.03*MaxFES =        5537822.7278449   2.781640885515307E7   3.397539696695664E7   2.582596207559458E7   1.984047855065518E7   1.413770271519428E7   1.686264286654366E7   2.190708110704434E7   2.080526665771584E7   1.313123944993385E7   2.487811538948371E7   1.607613571276863E7   1.835899759771046E7   1.503200880285123E7   1.594942236498017E7      9919583.35873946   1.812134884978914E7   3.669836998667839E7   1.187775149797922E7   1.962396825269866E7   1.483317488343865E7   1.405178651521674E7   2.293085873054106E7   1.518641168266484E7   1.513142487612342E7   2.149763781550146E7   1.426146260683144E7   1.169939643753917E7   1.123345181854023E7   1.333206285336065E7   1.537937351249489E7   2.205184612348157E7   1.992860609022312E7   2.834313225516375E7   1.873135381822257E7   2.502805598898255E7   1.819019319325145E7    1.95471185279821E7   2.187768885424517E7   2.337924365746264E7   3.164680580979628E7   2.070501235569292E7   1.423884847667552E7   2.123295417489712E7   4.266259955226803E7   1.441716675752903E7   1.887512924235147E7      6755318.35378387   1.250104252209929E7   1.456739715670262E7      7670081.85240097
         0.04*MaxFES =       3294081.36610676   2.115270854692387E7   1.993946081676889E7   2.097588177297499E7   1.482333443048902E7   1.201116050488467E7   1.302927899756964E7   1.578948640579459E7    1.26209800933288E7   1.027888169230281E7   1.847583237121111E7   1.144745506767223E7   1.412237005318075E7   1.093918654294047E7   1.129458503329811E7      6271116.42554932   1.339931607732321E7   2.229975109349606E7   1.019588886060374E7   1.508194834282624E7   1.121809523455829E7      9081746.64315063   1.773162503389439E7   1.032531416552437E7   1.134955316830531E7   1.484857899333949E7     1.0171756777007E7      9391094.73043707      8202967.15908685    1.04959528518378E7   1.171317988530257E7   1.675297659767143E7   1.518022866324466E7   2.126994613433124E7    1.52074266799213E7   1.936545427772193E7   1.204810273911999E7   1.578084315139791E7   1.672105903309785E7   1.662721149155508E7   2.437637987791408E7   1.515907915400486E7   1.038907155288373E7   1.557089567470615E7   2.669521250445068E7   1.073699117660291E7   1.400515625626237E7      5416250.22305921      9908639.47914921   1.176172374107576E7      5035210.04647126
         0.05*MaxFES =       1634982.08586093   1.774654885166622E7   1.495306133867658E7   1.796792861255117E7   1.235656312897531E7    1.00462377010255E7   1.065352659151187E7   1.218715453365714E7      9049851.23376915      8784544.23875719   1.478470035747263E7      8849727.59649057   1.201127682506206E7      8385642.94881572      9059533.26598857      5001486.51505124   1.101230685646185E7   1.608917256189709E7      8895490.95249972    1.28028736844622E7      9638604.52000913      6059575.10148594   1.458127784314781E7      8146149.38442177      9655352.78776748   1.144786193934054E7       7739099.0736575      7879351.44890704       6708531.9202515       9327351.6513647      9479511.74457976   1.403768638119986E7   1.226351391077315E7   1.634856644137957E7   1.274275571348655E7   1.607213194961042E7      9419162.66009211   1.350588612752615E7    1.30286728988522E7   1.309732372956666E7    1.88273301322308E7   1.269743210694889E7      7585566.15135223   1.306976268810657E7   1.951512479651746E7      8731532.78954891   1.209381427234986E7      4764039.71510138      8490894.22004385    1.01667348916238E7      4042939.50373422
          0.1*MaxFES =        411020.70473807      8796481.43273457      8534429.10580209      8939397.85385403      6924171.45801577       6345688.3097175      5080965.86699473      5698309.52908401      4259139.02548089      5359534.91519009      8060637.83468476      4388860.77578517      6384926.36589551      4103548.80572422       4866715.2782293      2490681.94995091      4985248.63690306      7782988.13634306      6049521.28153523      6576049.57779387      6080575.98619031      2717431.77041125      7755031.87449564       4392439.8408787      5158524.41427526       5434650.4965677      4109963.93676263      4089084.53103246      3901530.11026812      5975295.97235652      4279537.79135286      6266250.17158068      6047606.44685543      7831959.76925854       6131183.1014278      7308443.40194628      5300926.08936392      6684780.92834394      7126119.44932531      6529357.74145892      7945114.56475667      7187287.92360543       3430370.5400453      7597268.79614814        6704408.224844      4746037.35826132      6243461.16661982      3146582.67025464      5156222.02626372      6482855.60205818      2300611.82447631
          0.2*MaxFES =         14006.90203385       3788310.3235163      4843171.57744067        3312169.565699      3308587.29725142      3445554.06529999      2186897.05053187      2492687.02116262      2282661.20035885      2779981.68798067      3705615.84180479      2236664.18122377      2776533.75064563       2191419.4950078      2100408.30458584      1093264.62211452      2386520.00043916      4302921.24191617      3388899.87741018      2893921.48644071      3348887.57408358      1444106.93752584      3917659.45532759      1987272.71558757      2571974.91941106      2396267.92153288      2187470.69519748      1611999.29731723      2135053.39562423      3014885.58031399      1774342.66895681      1874349.98818726      2812158.41671308      2941814.15349691      2490989.68410909      2615480.21677897      2631591.17290788      2849119.81014725      3458581.10972794       2800599.5201696      3006254.30499969      3777433.70912516      1554237.30739894      4181489.37762635      1786744.37900647      2435957.46659963      2734158.29417773      1942012.95509858       2677538.6816321      3308191.57423038      1394335.63399357
          0.3*MaxFES =            75.83098231      2186097.41602463      3062247.67590644      1855967.30318361      2120477.95161721       2253814.4676823      1325786.62094297      1357255.55527017      1581648.36999591      1611837.43162871      2332006.86817186      1607037.05348523       1348368.7000124      1395698.38902345      1102903.50750174       682137.15199036       1709001.9351006      2921821.07688668      2044905.46490385      1536754.24769626      2099597.25407467       917283.84863798      2498943.75963639      1170192.01436805      1669598.83780774      1374905.19193957      1428808.26384645       944392.79445481      1327042.64266172       1725908.9861406      1219054.69228205       862753.09483341      1663099.77260578      1529020.40171721      1421667.46510549      1427017.58623717      1639594.87753651      1747153.52622615       1900621.2637179      1557168.81708955      1863649.03581014      2307396.13923789       978428.24674929      2643838.66503381        768131.4728864      1492322.84625443      1563071.43647766      1324507.06907767      1539145.32106223      2117652.28366241      1004792.14243979
          0.4*MaxFES =                    0.0       434128.51959596      2034241.87365341      1193073.03856886      1450118.44785017      1570571.94916362       924032.05538941       831962.32736899      1192328.04711814      1013732.34077368      1606830.37408174       1289434.2187123       776745.69966326       968186.41343138       675697.06361291       470520.59267016      1324615.41637237      2205342.64539967      1359232.54156319       931655.92076967      1377763.89685789       644889.02717666      1693220.34577575       749024.34107125      1182409.13738327       969154.34421479      1063751.48009001       617647.88057545       948830.51543303      1044917.49036661       976661.95293451       538596.79220183       1084777.0505177       920335.18290341       919953.73013329       972226.39022153        1173054.015616      1207148.09171316      1143303.94571051       977560.16206577      1367822.12512966      1608728.40813899       723143.42290314      1812497.89110519        441313.5656782      1026937.80027169      1061656.65854652       999855.38026125      1004443.52382404      1411768.43866483       778466.37220725
          0.5*MaxFES =                    0.0        15705.63248469      1396283.85645195       852583.41150735      1067302.79607507      1160199.21107005       691079.86881232       578700.20620799       947688.13864943       689613.55255463      1215583.04577208      1106215.11014069        483325.4753378       741784.02253181       456850.01839527       357132.86105879      1087598.26465897       1746684.4989517         946966.595253       620802.92569275       951420.74199159       488816.65856502       1236750.4882223       532919.06035958       885930.20325721       733526.58894116       868828.07041022       465019.74006869       713067.68244489       690152.17438921       822646.00254826       404157.93012784       750053.48179874       620141.49171715       652944.31943696       738462.60846106       881068.91642113        873923.5259552       738332.59584904       701550.52951554      1086549.18871856      1208965.74434733       557455.78237505      1278420.55750565       306426.57401658       733964.58951521        801483.5868032       789790.36941237        682227.6672324      1014808.84634229       625908.06942956
          0.6*MaxFES =                    0.0           227.0585687      1004696.19344221       645394.00380969       826944.98778207       908839.18626246       560366.30347185       449066.29178909       778373.63788938       506040.71643383       970253.82218904        978261.1687623       326962.50828014       608290.08732477       352001.80725699       292233.57670508       926266.90538881      1433769.86945098       711554.19142049        452421.2054201       706373.38422717       385949.22149406       983760.28698843       424375.27520876       698358.49214963       596538.95781835       736919.87310743        381704.8620289       584018.65063114       512328.71311529       701382.59241245       329848.45997201       578774.33096734       455054.07125237       485165.36345719       603456.11062111       697344.08967665       677363.89936667       525436.35568664       532785.81289744       902569.42277092       961146.02550272       460478.40717605       954759.85043415       233653.92175645       560209.37945117       652063.82240677       651923.69735437       507714.61347178       770464.78507113       521442.48087804
          0.7*MaxFES =                    0.0                   0.0       668742.78517084       516175.24738198       671484.85144761       731735.33852531        471202.6843454       372205.00357614       665198.28659965       379098.40016912       808434.73980797       883672.30475255       252234.39957344        512221.6864778       300343.79897286       249928.88388079       794705.06931729      1226447.64150282       565668.28113756       349727.54066395       551785.04254698       316641.83560989        802959.1803798        358543.3508257       574322.79446637       513264.70988334       652906.68363387       334098.62523698       497482.37994253       403407.62197582       613374.86519633       290156.21558859       470624.49879224       357892.84045316        386139.5591649       519173.22360259        581628.7640225       536974.82580877       405120.62070137       430767.18347365       764235.49317668       797407.79661058       387543.39798954       747217.22980403       191392.58938286       460268.55806886        561562.2105271       553845.43688114       406215.81653267       621546.74369535       441188.06080037
          0.8*MaxFES =                    0.0                   0.0        39059.65926354       424640.17098515       561214.75826769       602352.81020244       410296.37693197       320515.82605326       579544.87850232       305269.08337021       693443.31121003       802337.82916216       206472.09699468       452200.80379813       265309.96478803       223142.66374437       695153.46306965      1059943.21092326       464820.80753476       288733.29073742       450585.30737323       268777.66047636       671621.08198779       313323.07789503       485726.40699954       456281.80910487       584056.16703801       299821.41118178       438115.19352949       338422.77019776       539510.12934335       259383.54085526        402454.1458167       297561.03022165       319386.94776179       460955.78247051       500226.00553437       444188.56063957       333728.46540034       370844.79978764       660934.82442689       684415.39039564       338422.33772538       596934.39167918       164151.39200979       395482.99986325       497756.28988669        478831.5280794       336351.27392896       525002.47157914       376204.69461114
          0.9*MaxFES =                    0.0                   0.0          833.72371766        360296.8000484       489169.76257505       510558.34168203        366371.5398648       285124.76768227       518252.28390139       255620.90830353       598753.36971994       741434.12802615       178767.20134763       410344.43633375       240609.67312396       202416.52630121       611217.07506189       940625.19787644       395403.48464704       248163.39546139       383887.23950901       232053.86605121       572725.24479971       282414.70417263       413693.52842457       418016.80704618       536730.60772377       276439.04698505       392036.52486541       290332.12500283       478624.60547432       239427.42757912       353202.96268065       252475.76634247       276689.57771004       416930.48054598       441786.23727618       375369.02434412       286663.83635087       328315.47132364       583283.81722962       598212.79518762       302459.80207925       492884.18240064       143847.49219801       346280.67749244       448352.08468308       424694.33079503       291764.75912958       454011.17895485       326212.95650548
              MaxFES =                    0.0                   0.0            0.00665374       309980.93993547       436340.84417658       444702.95960154       328893.02953751       257718.71523057       467430.70172114         223384.576676       527104.46746759       684100.97963146       161179.96096291       376510.66168243       219301.02217291       185790.57922866       542094.72378836       841670.22758697       347812.71173877       219539.59430837       338483.07461185       203791.74058524       495724.35491925        260231.0429238       360481.95531064        389671.0240945       494283.95006142       258904.83041404       355388.01895133        257690.5504764       423291.29094015       223290.68411503        321268.1965964       218712.42187377       242993.69708766       385196.33198406       396379.03279234       323262.65486372       255163.91827141       293164.17777968       521181.91509154       531126.85837919       274767.32703133       416125.02583434       128121.46869296       312789.14588656       412201.85548817       376803.27151233         260431.128464       404382.89019482       284559.42480589

                  Best                 Worst                Median                  Mean                   Std
                   0.0       841670.22758697       323262.65486372     333204.3129830352    156780.52773994496

