 01/11/2016 21:44:40 |                  Run 1                 Run 2                 Run 3                 Run 4                 Run 5                 Run 6                 Run 7                 Run 8                 Run 9                Run 10                Run 11                Run 12                Run 13                Run 14                Run 15                Run 16                Run 17                Run 18                Run 19                Run 20                Run 21                Run 22                Run 23                Run 24                Run 25                Run 26                Run 27                Run 28                Run 29                Run 30                Run 31                Run 32                Run 33                Run 34                Run 35                Run 36                Run 37                Run 38                Run 39                Run 40                Run 41                Run 42                Run 43                Run 44                Run 45                Run 46                Run 47                Run 48                Run 49                Run 50                Run 51
       0.0001*MaxFES =         45551.15064419         11149.1173668        24622.65844544        31666.63687533        42509.74107084         47186.4773753        21978.45596774        52575.58385617        22304.11409036        34876.41061785        11033.38226636        10706.20498359        37108.10621814        20108.95757565        34450.83408054        16184.27479261        31602.99776492        32945.32534573        23491.10417265        27846.38003077        39166.09473803        21180.80517664        15570.66022333        45927.43517138        20995.75588962        17553.36797516        32738.01513113        22567.50774891        31733.76972712        13247.30443716        25335.89833914         43577.0682997        29911.79216473        22938.46289342        22247.92656891        34526.57664366        29456.95451386        39150.11434859         25685.8637073        21228.97020712        36548.57206754         4634.76389538        40401.02664189         5416.13956945        21692.81556947        44065.03223972        27656.78640476        11259.15811753        15644.85643059        42824.10295123        17433.55066686
        0.001*MaxFES =         30364.01785498         7214.23565363        17923.95253819        22111.02343178        29907.79195451        28660.44189929        14253.85190281        36396.06130877        15042.46812226        24296.27244291         7226.66168129         7172.46679308        21774.07481086        11793.02873544        22019.03178547        11128.58881077        21227.62419387        17427.30012246         14709.1437907         18519.1160446        26957.14719042        14055.46080834        10418.12745563        33612.71469445        12674.65342227        10649.65860757        25551.08669752        14213.28171269        21900.89279299         8640.86008565        17860.66762233        26535.99955668        20207.62063936        12118.82556447        14944.63430673        22185.56121758         20989.2601895        28469.26446625        16765.36270761        12367.78069653        23573.74590484         2669.18287424        27679.55892788         3218.76749519        15273.48823054        31022.88205978        20144.91509735         7757.78820577         9672.86987754        26840.06684302          7573.0313726
         0.01*MaxFES =         16037.53612052           229.4889467        11902.02979223         9559.07570366        22465.80873499         5702.45563177          235.28637255        18213.83238693         6449.25045544        14516.55091565         4998.49637284         2282.43867367          242.74177868          224.95758435         14712.4790669         5351.19142503        12732.90386629          226.66031687           230.5757463         7843.98852011        15816.58412801         6767.85464531           230.2970208        18427.84888375         3324.95095723          236.07215544         9421.51171395          234.67588348        16791.85566304          240.16660537        12307.55549898        15593.82065281          233.29404422          236.44121364          236.72611302        12344.93497963        15007.26073798        16903.13888804            241.518178          236.51113639        11657.94074802           235.2521791        16867.93986696          233.28356778         6807.50027885         19945.2231513        12353.26595853          237.19050148         4752.82066304        15375.72222576          233.20464777
         0.02*MaxFES =         15965.13313997          225.21200467        11860.87813077          9351.7723142        22455.44829557         5604.20655703          229.55420091        18146.35217435         6409.65421041        14427.05094612         4983.38540399         2161.69512479          223.81661123          224.45729044        14638.75270807         5331.31651353        12623.91870368          226.66031687          222.19145185         7791.94577659        15815.43618582         6766.01829469          226.83864014          18328.982287         3185.96368139          233.91535107          9220.9820254          227.14963973         16767.8344845           232.7027235        12284.15869414        15522.81722364          233.29404422          230.64634413          229.93007255         12278.3162044        14831.41215396        16865.21833749          230.65598413          226.20858489         11651.6216405          232.66021131        16750.94467952          232.80318755         6674.49193892        19786.75101326         12311.4920896          220.50989012          4687.1885052        15354.02470872          233.20464777
         0.03*MaxFES =         15930.02644793          225.21200467        11853.05107798         9318.98570024        22454.81500229         5598.27148194           225.5003105        18144.59563724         6407.80321007         14400.6489954         4981.35996815         2153.49701886          223.81661123          224.45729044        14629.16376643         5329.77692965          12612.412362          223.25517559          222.19145185         7789.90218616        15815.43616797         6766.01826399          226.83864014        18318.08496265         3177.13483734          228.57098308         9218.86473256          223.21276376         16765.2084844          229.06861367        12282.90401204        15515.99463774          229.14172792          221.27723863          229.93007255        12263.71317901        14814.52825804        16861.01819922           230.6046837          225.53011772        11651.52358968          229.12126792        16739.36477272          232.72078419         6669.39572045        19767.48474049        12306.96194873          220.50989012         4682.90037496        15352.80179531          233.20464777
         0.04*MaxFES =         15922.01832195          224.53841608        11849.41292259         9312.60300114        22454.66520684          5594.7967667           225.5003105        18142.44789829         6407.10015006        14392.06625391         4980.54771129         2150.78497116          223.81661123          209.91196301        14625.02415256         5329.33970377        12605.90414508          223.25517559          221.29797452         7789.56099557        15815.43616797         6766.01826399          226.83864014        18314.87278349         3172.99897349          228.10196205          9218.0566661          220.31178058        16763.94316755          229.06861367        12282.78233794        15513.07311421          229.14172792          212.60754217          229.93007255        12259.10551336        14811.36947668        16859.61331386           230.6046837          225.53011772         11651.4929836          214.20052693        16736.01531373          221.56010415         6666.67680579        19763.14217659        12305.61397431          220.50989012         4681.25924875        15352.39212507          229.21856035
         0.05*MaxFES =         15918.95533127          214.06260431        11848.91220307         9309.87658627        22454.59888003         5592.79115699          219.22991366        18141.98219724         6406.65887806         14389.6107719         4980.17484977         2150.12528963          223.81661123          204.65685146        14623.68540037         5329.26236072        12603.68291969          223.25517559          221.29797452         7789.32721048        15815.43616797         6766.01826399          226.83864014        18314.31569001         3172.99897349          220.52171142         9217.83320491          220.31178058        16763.17067551          219.92747168        12282.30783409        15512.33212533          229.14172792          208.16708047          229.93007255        12258.49008132        14809.36247025        16859.57071242           230.6046837          225.53011772        11651.47103833            212.626135        16733.66148325          211.07407848         6666.33402125        19760.71282473        12305.35744719          220.50989012         4680.45259089        15352.20140166          228.51409596
          0.1*MaxFES =         15911.40900636          212.42454691        11847.64403624         9303.06469266        22454.49061988         5589.89540512          214.16289637        18141.22825506         6406.37827427        14384.62260655          4979.6109048         2149.43741688          214.14735307          203.87040088        14621.93143719         5329.08830401        12601.15498283          216.89896236           219.5079538         7789.11415503        15815.43616797         6766.01826399          219.41396155        18312.56518996          3171.6022741          202.95544435         9217.12757199           209.7966044        16762.77380378          217.40718143        12281.89974263        15511.02702899          217.58260563          207.62561454          228.39785305        12254.81699456        14804.32553734        16858.06040282          225.07934974          217.52444971        11651.45766943          212.24459616        16730.86577336          209.98229846         6665.16451607        19758.31960381        12305.01413503          211.24365875         4679.53920413        15351.85973015          213.94697787
          0.2*MaxFES =         15910.23357473          212.18260924        11847.43043616         9302.67478341        22454.46745692         5589.57336213          213.64650195        18140.55235303         6406.28269847        14384.21793735         4979.55943436         2149.43105141          213.75746047          203.10565852         14621.7713711         5329.00238593        12600.91210961          216.46533809          219.23929751         7789.05008399        15815.43616797         6766.01826398          219.12634343        18312.08234814          3171.4733334          202.59070735         9216.98794653          209.18409155        16762.54619796          216.70743527        12281.73700028        15510.93580352          217.17287728           207.2305043          227.61311631        12253.83787201        14803.49674149        16857.55336448          224.62299118           216.2619262        11651.45271441          212.05570898         16729.9389429          209.44247651         6665.02094276        19758.06103122        12305.00858107          210.94940727         4679.49206742        15351.73768072          213.85117626
          0.3*MaxFES =         15910.18590143           212.0828257        11847.43015396         9302.67038554        22454.46534939         5589.56380358          213.35563487        18140.50272576         6406.23435389         14384.2138987         4979.55807663         2149.43104935           213.6541614          202.82113712        14621.76886525         5329.00139753        12600.89615277          216.12518858          219.07277533         7789.04505227        15815.43616797         6766.01826398          219.05573331        18312.02646724         3171.47158423          202.41546277         9216.98613898          208.93285837         16762.5240293          216.49827146        12281.71366631        15510.93198603          217.05397775          207.00302256          226.88742196        12253.81954607        14803.49033913        16857.50027529          224.45878128          215.34822895        11651.45166067          211.97194962        16729.77809897          209.19556079         6665.02070845        19758.06025368        12305.00858017          210.88815966         4679.49191159        15351.72639735          213.80780607
          0.4*MaxFES =          15910.1802756           212.0428885        11847.43015375         9302.67024647        22454.46520947         5589.56364808          213.12375556        18140.49739016         6406.23191761        14384.21379906          4979.5579864         2149.43104934          213.56022432          202.55139661        14621.76871818         5329.00137322        12600.89550683          216.04044308          219.00103583         7789.04473325        15815.43616797         6766.01826398          219.01144064        18312.02147257         3171.47153836          202.26282704         9216.98609712           208.7548151        16762.52277213           216.4545351        12281.71032776        15510.93191346          216.99977029          206.86649938          226.53799328        12253.81897821        14803.49024466        16857.49817632          224.36001393          215.09093913        11651.45140213          211.94032133        16729.76793123          209.04844908          6665.0207084        19758.06025116        12305.00858017          210.79132078         4679.49191157         15351.7226306          213.75734122
          0.5*MaxFES =         15910.17991515          212.02016284        11847.43015372         9302.67024409        22454.46520139         5589.56364715          212.96908624        18140.49705724         6406.23168535        14384.21379905         4979.55798613         2149.43104934           213.4767894          202.21111906        14621.76871204         5329.00137123        12600.89543694           216.0138329          218.95766475         7789.04470197        15815.43616797         6766.01826398          218.97449248        18312.02130986         3171.47153134          202.05674241         9216.98609696          208.48562345        16762.52272399          216.43417695        12281.70922462        15510.93191011          216.97884415          206.79691702          226.39845936          12253.818977        14803.49024269        16857.49807524          224.30531899          214.96272354        11651.45137003          211.92487106        16729.76750584           209.0071193          6665.0207084        19758.06025115        12305.00858017          210.75175973         4679.49191155        15351.72142567          213.63723087
          0.6*MaxFES =         15910.17990279          211.88226167        11847.43015366         9302.67024407        22454.46520132         5589.56364713          212.88733746         18140.4970454         6406.23159292        14384.21379901         4979.55798591         2149.43104934          213.41975596           201.8980916        14621.76871203         5329.00137119        12600.89543617          216.00130282          218.92526053         7789.04469605        15815.43616797         6766.01826398          218.94494168        18312.02130595         3171.47153127           201.8259617         9216.98609689          208.34159487        16762.52270971          216.41687337        12281.70897477        15510.93191008          216.96543439          206.73001338          226.28202181        12253.81897698        14803.49024267        16857.49807304          224.25734843          214.83179882        11651.45135055          211.91176315        16729.76750224          208.98024566         6665.02070833        19758.06025114        12305.00858017          210.72794089         4679.49191154        15351.72107358          213.55414258
          0.7*MaxFES =         15910.17990279          211.72036944        11847.43015348         9302.67024385         22454.4652011         5589.56364708          212.82662186        18140.49704448         6406.23157296        14384.21379886         4979.55797308         2149.43104934          213.37167331          201.65558936        14621.76871186         5329.00137103        12600.89543616          215.99374775          218.89967712         7789.04469604        15815.43616797         6766.01826398          218.92104177        18312.02130588         3171.47153105          201.67255058         9216.98609671           208.2761212        16762.52270693          216.39825415        12281.70882735        15510.93191001          216.95771098          206.65403914          226.26229143        12253.81897697        14803.49024265        16857.49807303          224.20196326          214.72905188        11651.45134794          211.89928545        16729.76750222          208.88959159         6665.02070805        19758.06025105        12305.00858017          210.71254754         4679.49191115        15351.72061884          213.48560745
          0.8*MaxFES =         15910.17990279          211.61484346        11847.43015207         9302.67024335        22454.46520037         5589.56364701          212.78628971        18140.49704444         6406.23156216        14384.21379868         4979.55794698         2149.43104934          213.33116962          201.40887213        14621.76871039         5329.00137091        12600.89543612          215.98817821          218.88607032           7789.044696        15815.43616797         6766.01826398          218.90252396        18312.02130565         3171.47153055          201.56747681         9216.98609595          208.25105449        16762.52270691          216.37879388        12281.70877155        15510.93190915          216.95097755          206.60136778          226.22838915        12253.81897694        14803.49024263        16857.49807301          224.13727585          214.63880915        11651.45134785          211.88807433        16729.76750216          208.85841162         6665.02070751        19758.06025105        12305.00858017          210.70127343         4679.49191115        15351.72049292          213.38987608
          0.9*MaxFES =         15910.17990279          211.60536516        11847.43015133         9302.67024143         22454.4651972         5589.56364689          212.75739926        18140.49704436         6406.23155882        14384.21379804          4979.5575957         2149.43104934          213.29690952          201.18806796        14621.76870107         5329.00136967        12600.89543606          215.98344587          218.87350169         7789.04469596        15815.43616797         6766.01826398            218.889112        18312.02130485         3171.47152872          201.47125555         9216.98609392          208.23844065         16762.5227068          216.35650472        12281.70873643        15510.93190657          216.94646161          206.56250488          226.21971171        12253.81897692        14803.49024258        16857.49807298          224.06873754          214.57414051        11651.45134743          211.87718065        16729.76750152          208.84968765         6665.02070503        19758.06025105        12305.00858017          210.69172547         4679.49191115        15351.72045295          213.32702288
              MaxFES =         15910.17990279          211.60530588        11847.43014763         9302.67023984        22454.46519209         5589.56364652          212.53940595        18140.49704415         6406.23155638        14384.21379681         4979.54641083         2149.43104934          213.26589349          200.98609155        14621.76867253         5329.00136278        12600.89543564           215.9792752          218.86329564         7789.04469586        15815.43616797         6766.01826398          218.87808897        18312.02130271         3171.47152072          201.40361058         9216.98608395          208.23152186        16762.52270674          216.33100153        12281.70873325        15510.93189396          216.94294469           206.5220564          226.21900783        12253.81897688        14803.49024253        16857.49807291          223.94852771          214.48086436        11651.45134583          211.86634839        16729.76750013          208.84391054         6665.02070503        19758.06025105        12305.00858017          210.68323423         4679.49191115         15351.7204512          213.30960365

                  Best                 Worst                Median                  Mean                   Std
          200.98609155        22454.46519209         6406.23155638      7538.20125199608     7068.165267198287

