 01/11/2016 15:15:22 |                  Run 1                 Run 2                 Run 3                 Run 4                 Run 5                 Run 6                 Run 7                 Run 8                 Run 9                Run 10                Run 11                Run 12                Run 13                Run 14                Run 15                Run 16                Run 17                Run 18                Run 19                Run 20                Run 21                Run 22                Run 23                Run 24                Run 25                Run 26                Run 27                Run 28                Run 29                Run 30                Run 31                Run 32                Run 33                Run 34                Run 35                Run 36                Run 37                Run 38                Run 39                Run 40                Run 41                Run 42                Run 43                Run 44                Run 45                Run 46                Run 47                Run 48                Run 49                Run 50                Run 51
       0.0001*MaxFES =           399.97212162          405.84019138          484.98470908          543.32746007          491.90674259          422.54801745          502.37397104          448.38741919           432.3125984          373.73864438          551.56236932           436.2634046           436.7979927          392.05591124          469.39179843          474.81338494          456.50862286          501.98644168          452.23936806          537.25193706          385.44379121          308.49057596          410.15372617           543.6678979          414.88596818          367.35919859          491.86791102          475.98097987          492.51619548          543.32031148          390.17227879          493.19813183          521.33163196          454.96412048          515.38089912          449.06827998          522.61050833           440.4073051          464.82178866            459.077898          359.46309419           434.8891099          386.79415455          486.77214842          520.51193349          431.66606415          457.36260188          472.99353774          515.85106711           477.8393386          570.13737014
        0.001*MaxFES =           230.58393445          206.62569691          262.79824838          245.36877107          260.93377872           255.0093668           247.2044524            242.849162          257.56124312          215.56899736          213.39867309          278.14482833          264.82721989          244.66143301          227.74004741          246.93400768          268.33426691          308.73251296          258.17176011          247.67614681          263.89664346          230.98289842           226.5324035          266.99289335          203.84082163          235.06776335          239.78147117          252.22620809          249.97847427          262.73413813          237.40847062          250.52969158          249.16450591          208.85018729          226.59548497           286.6861722          251.35245175          233.10734492          257.89766029          237.90388999          261.87652605          252.78492565          199.66068694          278.04305946          253.59506625           244.5369791          249.95837392          241.97265504          261.19235291          264.42592235          203.29287443
         0.01*MaxFES =           118.30228289          114.54011468          115.42987837           114.8855536           114.4463757          116.17534113          114.08651994          114.93259616          114.85344887           112.0502483          114.11754086          115.27632328          115.11068382          117.18762819           115.4814993          114.68260936          114.73560525          116.32908848          115.42323219          115.20444391          115.08993732           116.5092124          115.68679045          112.53975839          112.93634188          114.70777206          116.53344478          115.12317333           114.0913896           112.6140609            114.482271          115.12497852          116.78399697          113.99283569          114.05600776          112.93861674          113.07828899          117.31689309          114.02823936          114.09496798           117.1463417           115.5982758          112.93821283          114.11171991          116.82755292          113.67114248          115.72337129          116.09645737          114.84411066          111.52132799          113.54821339
         0.02*MaxFES =           115.23659761          113.70710509          113.36342301          113.43771267          111.56538594          113.71345296          111.55089943           113.0900853          113.52791926          110.65156847          112.81135331          112.75581107           111.8431971          113.91038135          112.11775946          112.34697945          112.95900327          113.66612034          114.34765472          111.95519847          110.91694943          112.73332512          112.04564309          110.70799836           111.3593716          113.12362177          114.04716826           111.4730981          112.02959795          110.94414526          113.97888073          113.52940908          114.09521182          112.12496509          112.08234374          109.39665105          112.89910637          114.96809739          110.06472822           110.5369213          114.37708892          113.42623921          110.28559722          112.05550522          114.88226764          112.59496451          111.38715889          113.25671852          112.85370949          110.05198827          112.34680308
         0.03*MaxFES =           113.86844437            113.686403          113.35013294          112.17621848          111.39866091          113.67732457          111.48996933          113.07552878          109.59781178          110.60126447          112.71526022          112.63992858          111.82729013          113.53155777          111.95562195          112.28116077          110.31910522          113.60035026          114.33554326          111.91951102          110.71008871          111.19778444          110.91668247          110.65283159          111.28892381          113.10739495          114.02320308          111.38184639          112.00875754          110.88601612          111.96139494          111.97680531          114.03371168          112.04889725           112.0265617          108.97955184            112.246923          112.54555293          110.06178289           109.8829394          114.23481386          113.38077443          110.26548973          111.80593427          114.85758821           109.7771984          111.22702554          113.14028695          112.57205959          110.02668259          112.23864557
         0.04*MaxFES =           113.82944513          112.11672404          113.35013294           112.0968797          111.39866091          113.67732457          111.48996933          112.05721217          109.45658136          110.60126447          112.71526022          112.63992858          111.26793974          113.52610214          111.95562195          112.28116077          109.89226745          113.60035026          112.69801862          111.91951102          110.70666392          111.00152193          110.85601182          110.65283159          111.28549739          113.10739495          114.02318208          111.38184639          111.04662463          110.88601612          111.89818499          111.97680091          114.03083877          112.04602228          111.36740179           108.9695347          112.24692277          112.54555293          110.06178278          109.84856404          114.23481386          113.38076869          110.26548973          111.65837112          112.65164467          109.69148493          111.22414755          113.14028695          112.56864124          110.02668259          112.23864557
         0.05*MaxFES =           113.82944513          110.81698739          112.64577571           112.0968797          111.39866091          113.67732457          111.48996933          111.80179763          109.44818332          110.60126447          112.71526022          112.63992858          109.93305756          112.35835183          111.95562195          112.28116077          109.87738564          113.60035026          111.51078574          111.91951102          110.70666392          111.00140023          110.85601182          110.65283159          111.28549739           112.2369646          114.02315302          111.38184639          110.24841497          110.88601612          111.89818499          111.97680091          114.03083877          112.04602228          110.39280156           108.9695347          110.37276185          112.54555293          110.06178278          109.84856404              113.4219          113.38076716          110.26548973          111.14971004          112.24093431          109.69148493          111.22414755          113.14028695          112.56864124          110.02668259          112.23864557
          0.1*MaxFES =           113.03861044          110.80487547          110.87748241           112.0968797          109.36244655          110.78149811          109.53563095           111.7938254          109.44818332          109.37076209          109.91488124          110.37112634          108.71289502          110.58740809          110.47878973          112.28116077          109.87738564          113.60035026          111.47478201          110.04880058          109.00414066          110.29055178          109.13254048          109.16689061          108.67078707          110.66563536          112.09002274          110.68885054          110.21529894          110.88601612          110.18136434          108.90691555          112.30221367          110.50220222          109.63340101          107.69861395          110.30837647          110.60128512          110.06178278          109.84856404          111.09561254          111.77666629          110.26548973          111.14628229          112.23686355          109.69148493          111.22414755          111.40927427          112.46279854          109.08928572          110.00873533
          0.2*MaxFES =            110.0703727          109.67058545          110.87748241          109.87270633          109.36244655          109.63452356          108.51588146          111.24155992          109.44818332           109.3553936          109.91145224          110.37112634          108.71289502          110.58740809          108.43319304          110.69318593          109.87738564          110.58276914          108.44338786          108.65290557          108.98926759          109.03942435          109.13254048          109.13182317          108.67078707          110.66563536          111.16373659           109.9828185          110.21529894          109.59918068          109.48899468          108.26589971          112.30221367          110.50220222          108.19024062          107.03941869          109.32946845          110.60128512          108.42176281          109.84856404          111.09561254           110.7250702          109.22301248          109.28041028          110.47041559          108.33608018          109.05726388          111.40927427          109.35044963          109.08928572          109.65016792
          0.3*MaxFES =           109.03348194          108.80229286          109.34144335          109.87270633          107.66644892          109.63452356          108.51588146          109.53312404          109.44818332          108.28931578          109.91145224          110.37112634           107.0282999          109.18095577          108.43319304          110.69318593          108.45353995          109.23777239          108.44338786          108.65290557          108.07941837          109.03942435          109.13254048          109.13182317          108.67078707          109.41550444          111.16373659          108.67064183          108.84757625          109.59918068          109.48899468          108.26589971          112.30221367          110.50220222          108.05945506          107.03941869          109.32946845          108.15550908          106.97160116          109.84856404          111.09561254          109.57752732          109.21816834          108.32885475          108.77409834          107.74133603          108.97047933          109.97288854          109.35044963          109.08928572          109.65016792
          0.4*MaxFES =           109.03348194          108.79450978          109.32117462          109.87270633          107.66644892          109.63452356          108.51588146          109.53312404          106.43590701          108.28931578          109.91145224          109.18465322           107.0282999          109.18095577          108.43319304          108.13332902          108.45353995          109.23777239          108.44338786          108.65290557          108.07941837          109.03942435          109.13254048          107.81762364          108.67078707          109.41550444          111.16373659          108.67064183          108.83112296          108.21162013          109.48899468          108.26589971           110.5333043          110.50220222          108.05945506          107.03941869          108.09924862          108.15550908          106.97160116          109.84856404          111.09561254          109.55541087          109.21816834          108.32885475          108.38822189          107.74133603          107.96794259          109.97288854          109.35044963          108.81291649          109.65016792
          0.5*MaxFES =           109.03348194          108.79450978          109.32117462          109.87270633          107.66644892          107.87620882          108.51588146          109.53312404          106.43590701          108.28931578          109.91145224          109.17323428           107.0282999          109.18095577          108.43319304          108.13332902          108.45353995          109.23777239          108.44338786          107.90765679          108.07941837          108.04620723          107.26374376          107.81762155          108.67078707          109.41550444          108.90294046          108.67064183          107.25101299          107.52364693          108.18112263          108.26589971          109.49210298          110.50220222          107.11635454          107.03941869          108.09924862          108.15550908          106.97160116          108.22995952          108.92997442          109.55541087          109.21816834          108.32885475          108.38822189          107.74133603          107.96794244          109.97288854          109.35044963          108.36077102          108.22199278
          0.6*MaxFES =           107.93203548          108.79450978          109.32117462          108.59476296          107.66644892          107.87620882          108.51588146          109.53312404          106.43590701          108.28931578          109.91145224          109.17323428           107.0282999          109.18095577          108.43319304          108.13332902          107.54488471          109.23777239          107.17229121          107.87550546          108.07941837          108.04620723          107.26374376          107.81762155          107.94559932          107.96588365          108.90294046          108.67064183          107.25101299          107.52364693          108.18112263          108.26589971          109.49210298          110.50220222          107.11635454          106.91796657          108.09924862          108.15550908          106.97160116          108.22995952          108.92997442          109.55541087          108.30931498          108.32885475          108.38822189          107.74133603          107.96794236          108.74054069          109.35044963          108.36077102          108.22199278
          0.7*MaxFES =           107.93203548          107.06724003          108.02741684          108.59476296          107.66644892          107.87620882          107.39877328          109.53312404          106.43590701          108.28931578          108.64925989          109.17323428           107.0282999          109.18095577          108.43319304          108.13332902          107.54488471          109.23777239          107.16536979          107.87550546          108.07941837          108.04620723          107.26374376          107.81762155          107.94559932          107.96588365          108.90294046          108.67064183          107.25101299          107.52364693          108.18112263           107.2683192          109.49210298          109.27390385          107.11635454          105.94349317          108.09924862          107.62614289          106.97160116          108.22995952          108.92997442          109.55541087          108.30931498          108.32885475          108.38822189          107.74133603          107.96794236          108.74054069           108.1772115          108.36077102          108.22199278
          0.8*MaxFES =           107.93203548          107.06724003          107.98346502          108.59476296          107.66644892          107.87620882          107.39877328          108.05729863          106.43590701          108.28931578          108.64925989          107.45857068           107.0282999          109.18095577          108.43319304          108.13332902          107.54488471          109.23777239          107.16536979          107.87550546          108.07941837          108.04620723          107.26374376          107.81762155          107.94559932          107.38432039          108.90294046          108.67064183          107.25101299          107.52364693          108.18112263           107.2683192          109.49210298          109.27390385          107.11635454          105.94349317          108.09924862          107.62614289          106.97160116          108.22995952          108.92997442          109.55541087          107.09887636          108.32885475          108.38822189           106.7898897          107.96794236          108.74054069           108.1772115          108.36077102          108.22199278
          0.9*MaxFES =            107.0939678          107.06724003          107.98346502          108.59476296          107.66644892          107.87620882          107.39877328          108.05729863          106.43590701          108.28931578          108.64925989          107.45857068           107.0282999          108.25756051          108.43319304          107.05317548          107.54488471           108.2376714          107.16536979          107.87550546          108.07941837          108.04620723          107.26374376          107.81762155          107.94559932          107.38432039          108.90294046          108.06675643          107.25101299          106.88272364          108.18112263           107.2683192          108.49444222          109.27390385           106.8111991          105.94349317          108.09924862          107.62614289          106.97160116          108.22995952          108.92997442          108.21323869          107.09887636          108.32885475          107.47718832           106.7898897          107.96794236          108.74054069           108.1772115          108.36077102          108.22199278
              MaxFES =            107.0939678          107.06724003          107.98346502          107.59483796          107.66644892          107.87620882          107.39877328          108.05729863          106.43590701          108.28931578          108.64925989          107.45857068           107.0282999          108.25756051          108.43319304          107.05317548          107.54488471          108.12070595          107.16536979          107.86211221          108.07941837          108.04620723          107.26374376          107.81762155          107.94559932          107.38432039          108.90294046          108.06675643          107.25101299          106.88272364          108.18112263           107.2683192          108.23001497          109.27390385           106.8111991          105.94349317          107.47073769          107.62614289          106.97160116          108.22995952          108.92997442          108.21323869          107.09887636          108.32885475          107.47718832           106.7898897          107.96794236          108.74054069           108.1772115          108.36077102          107.22364614

                  Best                 Worst                Median                  Mean                   Std
          105.94349317          109.27390385          107.81762155     107.7253248564706    0.6733378192712168

