 23/07/2016 02:59:40 |                  Run 1                 Run 2                 Run 3                 Run 4                 Run 5                 Run 6                 Run 7                 Run 8                 Run 9                Run 10                Run 11                Run 12                Run 13                Run 14                Run 15                Run 16                Run 17                Run 18                Run 19                Run 20                Run 21                Run 22                Run 23                Run 24                Run 25                Run 26                Run 27                Run 28                Run 29                Run 30                Run 31                Run 32                Run 33                Run 34                Run 35                Run 36                Run 37                Run 38                Run 39                Run 40                Run 41                Run 42                Run 43                Run 44                Run 45                Run 46                Run 47                Run 48                Run 49                Run 50                Run 51
       0.0001*MaxFES =           930.49922325         1493.73356836          779.88783676          873.38627712         1054.97779113          758.44664869          904.03853004         1106.49213484          888.61839883          683.00818301          815.14844799          780.14230978          925.24453299         1023.69837351          920.58806495         1328.22966062         1564.28663804          869.21685804         1018.74012856          809.39565431          880.84082101          984.96573354         1076.56732775          869.47588763         1851.69049491         1129.62016473          835.81765781         1077.91612737          779.84363007          821.54430092         1037.23103532           832.9526954          530.51292052          823.67007261          823.20484756         1041.02921617          784.51051809          803.21234309         1000.04462169          592.18369254          901.64524362         1220.81523905          862.69581134          841.25273758          820.79695794         1110.75124473          853.11280584          884.45949819          554.90380193          887.06762311          721.16755535
        0.001*MaxFES =           486.76477839          786.67278086          570.02744002          518.49083411          569.26897676          546.50559986          452.21811873          641.19851007          400.85968108          677.77456307          737.36726514          627.60639466          723.51126768          564.79669209          692.70920802          475.47192674          596.53659223          478.85448523          464.34271137           751.5039434          615.02674991            545.655452          588.38856713           388.0063877          714.33135258          572.67981979          638.17934736          500.72075421          740.97372509          706.81295305          697.83404086          360.72185036          473.95396351          681.83316003          457.87002604          542.72237786          623.32980851          696.13954779          376.90190849          592.18369254          328.69503497           824.5143164          740.26031197          623.98501487          714.70768515          703.52061475          766.62341045          675.99958637          554.90380193           462.2122137          553.55943137
         0.01*MaxFES =           325.88866073          323.80845512          322.15876466          309.85303889          354.53818686          123.24405744          331.54231695             43.347215          311.60237084          168.36642919          158.43524189          103.09782984          322.35526193           317.1190667          321.52627733          318.53302347          317.64496046          104.93688692          114.76328374           329.2405797           141.5375178          308.46677282          315.92320491           19.33994896          319.74247889          358.59409624           320.1012963          320.23355298          311.45465982          172.55283087          312.21231105           100.0612302          327.92541535           343.2315565          313.86830768          312.43066611          325.47629149          311.70259328          309.41690025          326.64804161          315.83342579          307.30042133          214.48890046           317.2636059          320.44498908          332.67195635           313.7451771          325.32192358          330.53417111          315.60653077          314.64243626
         0.02*MaxFES =           310.51936958          305.83566929          312.23956812          307.22218816          305.47256543           18.23140735          310.69424996           14.27777465           304.2400955           14.16114418           66.77609793           22.09836099          311.05005397          306.90038617          301.97275567          313.25367594          309.45795965           15.43453259           11.26213348          314.73085534           67.34643867          307.68800794          305.54738583           10.81291676           311.2943751          316.72714856          305.51788577          263.18167109          308.84836723           36.06437839          306.20054888            13.9006971          304.18357319          326.42707711          306.08143712          303.46961612          310.59648761          304.42519866          306.61287433          310.75703002          302.58938971          305.27442624           31.04092133          310.73597807          302.27066438          304.83756933          308.90139322          314.37931551           231.8347118          309.30621328          301.51231703
         0.03*MaxFES =           302.94804392          302.76610559          306.06580781          306.37140619          303.36426627           13.42879514          303.57392993           10.65264151          302.56572474           10.71902541           12.13229136           14.99486404          303.50910268          303.49994688          301.27997772          305.11972566          303.60310414           12.33904321            9.56248651          304.81207328           67.26203915           302.8067188          304.15204153            6.87514302           305.9222459          305.15590757          305.48780223           28.45974264           305.2705335           14.33517124          304.85588915            9.72315114          303.30344732           309.4895823          301.22512271          303.09558608          308.15776541          301.93139009          304.20148644          305.62953107          302.26260975          303.41582385           17.93468334          308.51883957          300.99728378          303.31187552          305.05003829          305.34715403           42.44494198          305.77547538          301.45393488
         0.04*MaxFES =           301.38188365          301.77839815          302.86409082          305.10776683          302.60174637            9.83342511          301.45636062               8.55456          301.52493126             9.2097248           10.16138129           12.08954528          302.74954725          303.08176125          301.20835386          304.26402481          302.50733555            9.45820887            8.59585116           303.0390089             34.850447          302.48726546           303.8887705            5.04084755          305.33205625          303.28228975           304.2064932            9.59831108          302.93732417            8.28545125          304.11207136            8.12934534          302.68123654          305.24649824          300.79837397          303.08501605          306.53277772          301.75820408          303.54178861          304.06334707          301.29089979          301.90878249           10.15516176          305.91252776          300.58208558          302.55723091          304.78491755          303.04351683             9.3582654          302.80274927          300.93523242
         0.05*MaxFES =           300.93763328          301.75592012          302.39167724          303.65296007          302.31126222            9.83342511          300.93610648               8.55456          301.33134104            8.48530511           10.11360512            7.94485502          302.62117531          303.07742516          301.06822038          303.96795916          302.45809951             7.5814786            7.10973674          302.61475486           25.16601778          302.15692061          302.18872675            3.87329568          302.39031272          302.53313118          303.46167183            9.23475091          302.76084561            7.59481752          303.86976153            8.12934534          301.71894477          303.49319855          300.74796362          302.97230591          305.09336133          301.75805689          302.64436698          303.76710886          301.23649748          301.88112773            7.26170498          304.67247625          300.41128326          302.21858485          303.93525262          302.74785911            8.82536372          302.67690535          300.91639304
          0.1*MaxFES =           300.71200906          300.67267857          301.02844464          302.70567896          300.72768583            7.25987389          300.58828414            5.65371228          300.66223962            4.40268666            6.55084895            6.21969465          300.66865264          301.78356321          300.60409908          301.46018907          301.51035356            4.41956891            5.56720777          301.64360435            6.63123861          301.16386509          301.53190203            3.79476959          301.45668605          300.53999371          301.64367362            4.42755922          301.54788047            3.71347322          301.86521529            5.97861666          300.64488769          300.90496523          300.49231335           301.8612716          301.80074675           301.1601703           301.2601249          301.73656498          300.75849047          301.06044313            4.89164113          300.99587739           300.2322246          301.23660559          301.58943063          301.03881495            7.02802991          301.14648972          300.63782846
          0.2*MaxFES =           300.40255846          300.34069326          300.34042576          301.37441054          300.44172486            5.13772793          300.34274236             4.1933624          300.37824633            4.13338052              3.704334            3.25249357          300.30286616          301.12043315          300.28153744          300.33259595          300.86430134            4.38698761            5.09785781          300.97143493            4.87654856          300.50541324          300.64947807            3.06480559           300.5082691          300.23948891          300.54407253            3.60954309          300.56071392             3.1964809           300.7778871            5.11160765          300.21655315          300.23471408          300.18561195          300.65525948          300.54830285          300.61984841          300.60021477          300.81224502          300.54466881           300.4771336             4.4009745          300.41338984          300.19570289          300.60745956          300.69152574          300.23378825            3.91310367          300.45688076          300.42831177
          0.3*MaxFES =           300.27546009          300.24729096          300.23339254          300.72433773          300.33126332            3.37321275          300.26663722            4.17637212          300.24623625            2.67907937              3.703877            2.92005962          300.19194629           300.6542228          300.25874947          300.07917338          300.72790675            3.33216384            3.56735239          300.68556184            4.80443017          300.34704863          300.33955309            2.61514624          300.30435756          300.21072812          300.35118503            2.30987935          300.30655844            3.19645341          300.47180566            3.81765364          300.18704238          300.12550918          300.10828047          300.33895511          300.25339556           300.3761086          300.27226786          300.46976419          300.44540702          300.37475931            3.34545373          300.30727646          300.18796819          300.44684107          300.53134166          300.13114687             3.3492801          300.19062194          300.22960922
          0.4*MaxFES =           300.21454631          300.24275582          300.22453599           300.6107598          300.32729839            3.21268876          300.26468266            4.17637212          300.16382534            1.90693906            2.20684573            2.47454616          300.19153757          300.46526278           300.2586636           300.0000261          300.63733719            2.56341878            2.60175864          300.48282531            1.59771323          300.31866234          300.23036308            2.05340756          300.24501646          300.21049744          300.34577573             2.3086287          300.27565148             2.5272581          300.36110855            3.36294886          300.18533458          300.09113542          300.00004939          300.22998699          300.17416784          300.30823973           300.2372641          300.34377896          300.38586123          300.37452624            3.34544613           300.3072108          300.18794506          300.31867776          300.52352728          300.11742034             3.1492838          300.15581474          300.19794535
          0.5*MaxFES =           300.20968101          300.24272885          300.22453359          300.41179479          300.32729641            2.56737412          300.26466379            4.06521116          300.15044449            1.84151053             2.2068455            2.40537255           300.1915375          300.36712434           300.2586636          300.00000001          300.63656814            2.21294558            2.42036228          300.42811298            1.36011013          300.31865374          300.19546464             1.0472555           300.2053307          300.21048599          300.34571426             1.5706045          300.25437366            2.47540007          300.32289966            3.33707825          300.18528253          300.02369165          300.00000001           300.1751082          300.15850694          300.30809086          300.22964893          300.28889316           300.3836046          300.37452608            2.42227154          300.30721067          300.18794506          300.28807739          300.52352239          300.11734566            2.75884169          300.14513647           300.1967084
          0.6*MaxFES =           300.20967787          300.24272885          300.22453359          300.35779837          300.32729641            2.56737412          300.26466379            3.30467527          300.15041845            1.21216412            2.20684546            2.07046269           300.1915375          300.28356289           300.2586636          300.00000001          300.63656799             1.6546382            2.02418519          300.38587019            1.36011013          300.31865374          300.18576647            1.04710361          300.17789692          300.21048599          300.34571426            1.57059652          300.25065909              2.432269          300.32193681            3.33707825          300.18528253          300.00000001          300.00000001          300.15411433          300.15849267          300.30809084          300.22963619          300.24386682          300.38360417          300.37452608            2.42179942          300.30721067          300.18794506          300.28726423          300.52352239          300.11734562            2.71966792            300.144972          300.19670806
          0.7*MaxFES =           300.20967787          300.24272885          300.22453359          300.31654948          300.32729641            2.56737412          300.26466379            2.82026429          300.15041845            1.21216412            1.76798553            1.99786915           300.1915375          300.25406302           300.2586636          300.00000001          300.63656799            1.65423897            2.02418519          300.38482345            1.36011013          300.31865374          300.18313713            1.04710361          300.16501841          300.21048599          300.34571426            1.57059652           300.2505202            2.20646651          300.32193656            2.90468443          300.18528253          300.00000001          300.00000001          300.14789499          300.15849266          300.30809084          300.22963619           300.1907853          300.38360417          300.37452608             2.3585495          300.30721067          300.18794506          300.28725809          300.52352239          300.11734562             2.3733981          300.14497152          300.19670806
          0.8*MaxFES =           300.20967787          300.24272885          300.22453359          300.28917718          300.32729641             2.1296744          300.26466379            2.34008346          300.15041845            1.21216412            1.45057887            1.79376576           300.1915375          300.25306373           300.2586636          300.00000001          300.63656799            1.39625447            2.02418519          300.38482344            1.04970019          300.31865374          300.18308674            1.04710361          300.16492781          300.21048599          300.34571426            1.27893335          300.25051689            1.83761482          300.32193656            2.90468443          300.18528253          300.00000001          300.00000001          300.14783369          300.15849266          300.30809084          300.22963619           300.1774925          300.38360417          300.37452608            2.23032583          300.30721067          300.18794506          300.28725809          300.52352239          300.11734562            2.16328594          300.14497152          300.19670806
          0.9*MaxFES =           300.20967787          300.24272885          300.22453359          300.26418934          300.32729641            2.12958051          300.26466379            2.15526072          300.15041845            1.21216412            1.44279961             1.4222325           300.1915375          300.25306308           300.2586636          300.00000001          300.63656799            1.39527956            1.73603662          300.38482344            0.83915923          300.31865374          300.18308674            1.04710361          300.16492777          300.21048599          300.34571426            1.27683264          300.25051689            1.83761482          300.32193656            2.90468443          300.18528253          300.00000001          300.00000001          300.14783368          300.15849266          300.30809084          300.22963619          300.17717093          300.38360417          300.37452608            2.23032583          300.30721067          300.18794506          300.28725809          300.52352239          300.11734562            2.12058039          300.14497152          300.19670806
              MaxFES =           300.20967787          300.24272885          300.22453359          300.25464406          300.32729641            2.12958051          300.26466379            2.15525866          300.15041845            0.96022186            1.28537139            1.35972641           300.1915375          300.25306308           300.2586636          300.00000001          300.63656799            1.11756514            1.50587701          300.38482344             0.8391592          300.31865374          300.18308674            0.65281855          300.16492777          300.21048599          300.34571426            1.27683264          300.25051689            1.56980916          300.32193656            1.58815232          300.18528253          300.00000001          300.00000001          300.14783368          300.15849266          300.30809084          300.22963619           300.1771521          300.38360417          300.37452608            1.71798603          300.30721067          300.18794506          300.28725809          300.52352239          300.11734562            1.76745587          300.14497152          300.19670806

                  Best                 Worst                Median                  Mean                   Std
            0.65281855          300.63656799          300.18528253    218.21273205921563    134.67970711977802

