 24/07/2016 22:14:49 |                  Run 1                 Run 2                 Run 3                 Run 4                 Run 5                 Run 6                 Run 7                 Run 8                 Run 9                Run 10                Run 11                Run 12                Run 13                Run 14                Run 15                Run 16                Run 17                Run 18                Run 19                Run 20                Run 21                Run 22                Run 23                Run 24                Run 25                Run 26                Run 27                Run 28                Run 29                Run 30                Run 31                Run 32                Run 33                Run 34                Run 35                Run 36                Run 37                Run 38                Run 39                Run 40                Run 41                Run 42                Run 43                Run 44                Run 45                Run 46                Run 47                Run 48                Run 49                Run 50                Run 51
       0.0001*MaxFES =           360.02752615          392.12428908          262.37246818          346.57955031          283.59020849          270.06222503          260.72199993          314.17322145          370.91890322          285.08504809            317.960318          337.29993857          326.37114264          224.54160502           328.1174382          316.58747438          319.22353636          257.28353789          275.08024125          293.47920581          254.35972331          299.72251205          335.64284508          314.83907444          231.72200786          229.76099612          286.86360175          284.78153292          304.75392568           335.2101675          324.94267779          377.11248531           380.0491113          293.10732197          209.92405305          275.62659819           244.3705383          292.05636882          321.52104297          309.90975747          226.53358658          304.85219738          273.88202413          312.56575956          272.04168091          293.11583132          302.66618693          253.52902608          279.67724294          228.09305078             318.92572
        0.001*MaxFES =           184.60368559          200.10966877          196.43274144          209.23607289          174.59278973          200.66329348          200.31710834          203.85858945          184.95743509          185.53293695           182.5338866          205.41596225          212.62902718          178.40851396          197.13263547          199.25954201          198.31244043          195.01155798          203.71376387          204.65660059          203.87872849          169.32366179          198.00422681          183.78377868          190.51892646          178.64749285          189.63903707          188.34004446          166.89005246          184.90570996          202.79119814          185.73190805          205.51821438          203.80350852          184.58811548          200.53110123          201.48177814          201.11368289          190.89474354          208.66621743          186.23011949          184.12021614           205.8089889          209.37696369          174.94147918          195.17515333          214.18344715          194.71552875          161.89358776          187.27985392          175.04073022
         0.01*MaxFES =            111.0720883          109.86897401          110.37017498          111.02929713          110.11541257          110.61685952          110.20331133          112.10727998          106.76049434          109.75220268          110.36653785          111.84408161          108.56530473          110.30223651          109.83749095          113.12328216          107.66767108          109.94460268          110.36892011           112.0745832          113.04068317          111.67919838          110.39007131          108.94394679          109.09488911          110.67410625          109.31030947          111.73524696          110.68400558          110.40041145          111.42403357          107.81464973          108.97609128          111.65802093          111.46831439          109.32094038          110.78082291           111.1636608          110.21815243          109.61280171          110.91369469           108.2056523          110.09170656          109.88117642          110.05904838          113.96197478          111.96635565          110.05452804          111.73009146          110.53996676          112.55659303
         0.02*MaxFES =            108.6093275          105.72242528          108.60760594          109.03300811          107.83190943          108.03934228          108.37128227          109.42441617          105.84672253          107.46485682          107.96231214          109.43949697          108.00819049          109.14532397           107.5588759          108.70429023          106.80917835          106.10155009          110.14415283          109.79860859          109.91555941          109.18901264          107.63236041          106.80144661          106.55264505          110.67410625          106.99102347          109.19421137          107.51002856          108.48052999          107.21577141          106.61259429          108.33016822          109.05655679          109.14471502          106.37198184          108.64147875          108.69058943          107.22205446          106.29674756          106.17200942           107.5186037          108.91688337          108.11648734          108.47271994          110.22523377          108.06860252          107.24936751          108.84455391          108.26397681          107.64488444
         0.03*MaxFES =           105.90384616          105.22951775          106.70670695           108.7803774          107.10139866          107.60511693          107.24122635          107.88882005          105.24934299          106.85031768          107.83771638          108.99158933          106.09862082          108.53477572          106.46888473           107.3785988           106.6393326          105.23697301          108.86158078           107.9942443            108.843816          108.87972995          107.38706822          105.97703547          106.29976076          109.13502587          106.03782961           107.9332767           106.3503621          107.19603152          105.75251426            106.008478          107.55802964          108.67220173           108.8821586          105.76485402          107.75967612          106.64857042          106.03898317          105.78698018          105.52298062          105.42373099          107.59366573          107.95536725          106.97428558          107.80499521          107.55457791          106.67651224          108.55483547          107.21390057          106.85255999
         0.04*MaxFES =            105.8203925          105.16161644          106.47702788          108.75994492          106.42609757          107.58257798          107.19139205          107.15956922          105.21939961          106.79100172          107.82747493          107.84201434          105.69137977          108.43371662          106.37281451          107.19748958          106.62646625           105.1698992          106.46102049          107.81951751          108.79025006          108.86844097          107.31856669          105.94686771          106.25485964          106.27640858          105.94457074          107.72867456          105.78560069          107.13653192           105.6441537          105.94324668          107.14214986          108.63204979          108.88215856          105.65739879          107.58016027          106.41563066          105.97284729          105.74334844          105.48477771           105.3102012          107.33852113          107.90189902          106.83439887          107.03933339          107.50996849          106.62764847          106.52815557          107.16526755          106.79860427
         0.05*MaxFES =           105.80802659          105.15818413          106.35823467          108.75994492          106.35807639          107.07633009          107.17213327          107.08149981           105.2153178          106.78614913          107.48691539          107.84201434          105.64488589          107.97343368          106.36484318          107.18774639          106.62646625          105.16554066          106.27185039           107.8055294          108.78320232          108.86844097          107.31436542          105.94686771          106.25197851          105.92441353          105.93665949          107.72862499          105.75008935          107.13221835          105.64052562          105.94082007          107.10778023          108.63204979          108.07969975          105.64669938          107.56521872          106.39745008          105.96736509          105.74334844          105.48477771          105.30212323          106.60314605          107.89748547          106.79872312          106.91077997          107.50678047           106.6247637          106.43269556          107.16183607          106.79618185
          0.1*MaxFES =           105.80802659          105.15818413          106.34592731           107.6559302          106.35209291          106.39949472          105.30196373          106.21407251           105.2153178          104.67962396          105.27257399          107.21699281          105.64488289           106.0897877          106.36484318          107.18774639          104.99140921          105.16311208          106.25812549           107.8055294          105.88881129          106.23037516          105.31299663          105.94686771          106.25197851          105.88553354          105.00159754          106.08696894          105.74766231          106.09017515          105.64052562          105.94082007          105.88469966          107.17413373          105.57349814          105.64669938          106.32350049          106.39745008          105.96736509          105.74334844          105.48477771          105.29923818          106.31718579          107.35415556          106.76596642          106.33855029          107.50678047           106.6247637          105.12838699          107.16183607          106.79618185
          0.2*MaxFES =           105.80802659          105.15818413          105.65892408          107.65350575          106.07827253          105.13630217          104.24644415          105.40538514           105.2153178          104.67962396          105.27257399          105.92286468          104.53055258           106.0897877          106.36484318          105.41017243          104.99140921          105.16311208          106.25812549          105.81256647          105.88881129          105.68415919          105.31056847          104.83316856          104.90326393          105.88553354          105.00159754          106.08696894          104.66710393          106.04590634          104.28979855          105.94082007          105.87584661            107.174129          105.56552541          104.59613616          106.32061669          106.39745008          104.63695645          105.74334844          105.48477771          105.29923818          106.31718579          106.60793177          105.23731285          105.67155364          106.01000425          104.98927468          105.12838699          107.16183607           105.6924996
          0.3*MaxFES =           104.54740768          105.15818413          105.65892408          106.15125792          105.78108449          105.13630217          104.24644415          105.40538514           105.2153178          104.67962396          105.27257399          104.48180644          104.53055258           106.0897877          105.14636086          105.41017243          104.99140921          105.16311208          106.25812549          105.81256647          105.88881129          105.68415919          105.31056847          104.83316856          104.90326393          104.77244137          103.92707746          106.08696894          104.66710393          106.04590634          104.28979855          105.94082007          104.98852021           105.2629333          105.56552541          104.15825647          104.53468058          105.52618533          104.63695645          104.45311966          105.48477771          105.29923818          106.31718579          106.60793177          105.23731285          105.67155364          104.40560156          104.98927468          104.24680084          105.41727561           105.6924996
          0.4*MaxFES =           104.54740768          105.15818413          105.65892408          105.68925478          105.78108449          105.13630217          104.24644415          104.79133289           105.2153178          104.67962396          103.09685032          104.41567119          104.53055258          104.78365061          105.12990931          105.41017243          104.99140921           104.7013434          106.25812549          105.81256647          105.88881129          105.68415919          105.31056847          104.83316856          104.90326393          104.77244137          103.92707746          106.08696894          104.66710393          106.04590634          104.28979855          104.73996942          104.96784182           105.2629333          105.56552541          104.15825647          104.53468058          104.93885705          104.63695645          104.45311966          105.48477771          104.07157338          105.46618243          106.60793177          105.23731285          105.67155364          104.40560156          104.98927468          104.24680084          104.31070036          105.61563993
          0.5*MaxFES =           104.54740768          104.25709683          104.28768125          105.29383341          104.97106503          105.13630217          104.24644415          104.79133289           105.2153178          104.67962396          103.09685032          104.41567119          104.53055258          104.78365061          105.12990931          105.41017243           104.2015054           104.7013434           104.4734148          105.81256647          105.88881129          105.68415919          105.31056847          104.83316856          104.90326393          104.29352351          103.92707746          106.08696894          104.66710393          106.04590634          104.28979855          104.73996942          104.96784182           105.2629333          104.51353829          104.15825647          104.53468058          104.93885705          104.63695645          104.45311966          105.48477771          104.07157338          105.46618243          105.55064732          105.23731285          105.67155364          104.40560156          104.98927468          104.24680084          104.31070036          105.61563993
          0.6*MaxFES =           104.54740768           104.2518376          104.28768125          105.29383341          104.24535171          105.13630217          104.24644415          104.79133289           105.2153178          104.67962396          103.09685032          104.41567119          104.53055258          104.78365061          105.12990931          105.41017243           104.2015054           104.7013434           104.4734148          105.81256647           104.4167363          105.68415919          105.31056847          104.83316856          104.90326393          104.14854569          103.92707746          105.33425808          104.66710393          106.04590634          104.28979855          104.73996942          104.96784182           105.2629333          104.51353829          104.15825647          104.53468058          104.93885705          104.63695645          104.45311966          105.48477771          103.23131225           104.5969186          105.55055164          105.23731285          105.67155364          104.40560156          104.98927468          104.24680084          104.31070036          105.61563993
          0.7*MaxFES =           104.54740768           104.2518376          104.28768125          105.29383341          104.24535171          105.13630217          104.24644415          104.79133289          104.48073621          104.67962396          103.09685032          104.41567119          104.53055258          104.16773638          105.12990931          105.41017243           104.2015054          103.78791367           104.4734148          104.12245306           104.4167363          105.68415919          105.31056847          104.83316856          104.90326393          104.14854569          103.92707746          104.48885601          104.66710393          106.04590634          104.28979855          104.73996942          104.96784182           105.2629333          104.51353829          104.15825647          104.53468058          104.93885705          104.63695645          104.45311966          105.48477771          103.23131225           104.5969186          105.55032435          105.23731285          105.67155364          104.40560156          104.98927468          104.24680084          104.31070036          104.65941669
          0.8*MaxFES =           104.54740768           104.2518376          104.28768125          105.29383341          104.24535171          105.13630217          104.24644415          104.79133289          104.48073621          104.67962396          103.09685032          104.41567119          104.53055258          104.16773638          105.12990931          105.41017243           104.2015054          103.78791367           104.4734148          104.12245306           104.4167363          104.76330536          105.31056847          104.83316856          104.90326393          104.14854569          103.92707746          104.48756227          103.89806409          106.04590634          104.28979855          104.73996942          104.96784182           105.2629333          104.51353829          104.15825647          104.53468058          104.93885705          104.63695645          104.45311966          105.48477771          103.23131225           104.5969186           105.5501762          105.23731285          105.67155364          104.40560156          104.98927468          104.24680084          104.31070036          104.63031056
          0.9*MaxFES =           104.54740768           104.2518376          104.28768125          105.29383341          104.24535171          104.39237454          104.24644415          104.12906327          104.48073621          104.67962396          103.09685032          104.41567119          104.53055258          104.16773638          105.12990931          105.41017243           104.2015054          103.78791367           104.4734148          104.12245306           104.4167363          104.76330536          104.80742819          104.83316856           104.0604139          104.14854569          103.92707746               104.487          103.89806409          106.04590634          104.28979855          104.73996942          104.96784182           105.2629333          104.51353829          104.15825647          104.53468058          104.93885705          104.27725925          104.45311966          105.39520697          103.23131225           104.5969186          105.54996088          105.23731285          105.67155364          104.40560156          104.98927468          104.24680084          104.31070036          104.63031056
              MaxFES =           104.12862031           104.2518376          104.28768125          105.29383341          104.24535171          104.39237454          104.24644415          104.12906327          104.48073621          103.65135817          103.09685032          104.41567119          104.53055258          104.16773638          104.50714174          105.41017243           104.2015054          103.78791367           104.4734148          104.12245306           104.4167363          104.76330536          104.02805183          104.83316856           104.0603935          104.14854569          103.92707746           104.4822998          103.89806409          104.68386982          104.28979855          104.73996942          104.96784182           105.2629333          104.51353829          104.15825647          104.53468058          104.93885705          104.27382282          104.45311966          103.99128537          103.23131225           104.5969186          105.54996088          105.23731285          105.00374801          104.40560156          104.98927468          104.24680084          104.31070036          104.63031056

                  Best                 Worst                Median                  Mean                   Std
          103.09685032          105.54996088          104.40560156    104.41937781411764   0.49108814430121633

