 23/07/2016 02:51:46 |                  Run 1                 Run 2                 Run 3                 Run 4                 Run 5                 Run 6                 Run 7                 Run 8                 Run 9                Run 10                Run 11                Run 12                Run 13                Run 14                Run 15                Run 16                Run 17                Run 18                Run 19                Run 20                Run 21                Run 22                Run 23                Run 24                Run 25                Run 26                Run 27                Run 28                Run 29                Run 30                Run 31                Run 32                Run 33                Run 34                Run 35                Run 36                Run 37                Run 38                Run 39                Run 40                Run 41                Run 42                Run 43                Run 44                Run 45                Run 46                Run 47                Run 48                Run 49                Run 50                Run 51
       0.0001*MaxFES =    1.775859271290339E9  1.7852961265080273E8   3.104871084419241E8   1.052027136332806E7      7075536.47086541   1.774967850314858E7      1473604.80301034      7096246.36734129   4.668379482005791E8   3.261705417670765E7   5.606354936759994E7  2.4504081200000134E8   1.066787366986788E7  1.8838269572335225E8  2.4074506815335318E8   3.078449515330231E7   3.288950924357005E8      4.472214094117E8    1.46936527285108E8   2.326976628501943E7   1.231051751468604E7   1.527821791649107E7   4.551391778154012E7   6.991809151197793E8  2.5976549566727793E8   1.871271360223095E7   1.059638919731994E7  1.5902301142867868E9   2.677756025008987E7   1.229490161794566E7  1.2484383563350513E9   7.191935066403504E7      2540035.72419075   1.816833970135491E7   4.543918006842047E8   1.555981142354056E8   5.043205994777467E8   1.473830247563509E8   3.867845898017074E7   1.389563437537122E7   1.376724130243485E7   2.294251193801523E7      3486923.75619943   2.120761311831312E7   2.750623234243531E7   8.079722081347038E7  3.9626752216431594E8   9.596587726979431E8   8.729206134631933E7   7.054416968461186E7        6499002.835364
        0.001*MaxFES =       3540087.91020188      4678664.72723756       728011.95713775      2813103.14883597      3689807.95679329      3853251.00475476      1473604.80301034      4103768.46307556        960013.3836608      3396842.96318875      4132597.56698211      1531646.40250324      2595101.36107916      5629771.56622942      3520124.05684475   1.098075798524284E7      2422950.88654535      1771757.29681307       888332.74302254       932760.60618132      5161018.15711607      1707953.13530536   4.289540796997291E7      3319013.41427126      6337657.13158632      3748541.70683354      2424626.62612864        99390.50689503       237027.88722979       732768.57284541      3879828.17842067      2511474.22355857      2308240.69593369      3138986.83135412    2.56465794107114E7       685016.11857418   1.345655566597861E7      6836040.91073727      8909307.55900174       875675.95508177       356850.75630359      7089027.25487499      1745864.07973049       472862.92421925       325691.44464926      1900581.09937784      5027388.46431187      1605964.82751276      3219323.46519797      1517248.26612234      1281050.50381873
         0.01*MaxFES =        113581.04316914        84598.92398196         65920.9058574        33836.90271056         45653.2093456        25831.28654235        84989.09223088         60824.4884897         37874.7198191       193277.87059154       114030.78710552        80290.32892252         14241.9982216        89415.00103165        44308.08175778        31423.25745841        50447.91237461        68764.01984681        38060.78220365        83626.16287588        56166.62652931        57271.03382758         8450.00440085       182997.92970464        21942.54707521        81227.03507527        50279.65818004        54806.44030524       135056.11392856         19669.8530844       232736.64398788        34047.64656883        56740.64360057        15725.69053777         34966.4535137         35659.9205838         17905.1454434        21289.39611797       127650.20067798        57805.67123557       131356.99242275         38000.0722124        59263.37846181        19912.49603079         66669.7318761       149710.54205512        43352.95182172        10361.59495932        76775.94048651        19121.14522305        15333.98384079
         0.02*MaxFES =         37184.63836936        38811.54697282         11607.7113673        24126.48685367        16979.47873952         9887.91425766        21144.73932775        15330.89748375         37874.7198191          4609.7591323        20246.12799259        13022.72910479         14241.9982216        16555.64362086         5215.65442649        21152.72991064        28541.53799053        24560.17885145        18223.17508468        14030.34765884        56166.62652931        16009.19310016         8244.56163418        49211.89886487         9456.28675443        13430.16973514        18146.00590343        20822.17444832        35425.43797517         2991.62354551         32803.5907871        21891.17540956        25108.44686507        12858.51422781        19959.52077409        22509.37807023        14002.84457411        21289.39611797        42455.49398505         15147.1070423         56757.7906155        10468.08892262         17354.1579309        17817.86383164        18071.78110172         7826.95084494        23802.17238152         4062.46865495        16650.17961897        15438.00444295        15333.98384079
         0.03*MaxFES =         14049.87237228         30775.3831314         6966.13869646         3144.69924358        16895.78391108         8996.26674782        14674.78383994        11577.37228048        18659.38014257         4053.45009817        19274.21457705         7575.36778841         1678.09555399         13465.0210517         4368.46623294        21152.72991064        28541.53799053        11071.86460139         17803.0311712        11890.95983389           10683.03723        14217.63450337         8243.88428001        19400.43166028         7568.48054351         7969.00585199         4469.22455577        20198.96094335         3781.34424927         1910.93846552         7140.59011756        17873.66305438         2103.93822313         3330.17420686         5200.25725328        13454.08656777         13952.9854328         9277.19258224        42455.49398505         9437.38493948        46694.57272612         9269.26305029        15586.48036984         16315.2553177        17033.19693012         6157.14403027        23673.79450353         3831.32562075        16164.13599473          4212.2397797        12313.48930986
         0.04*MaxFES =         14049.87237228         8363.90396353         6964.40798965         2915.52778611         10143.3916175         4262.68197258        14674.78383994         4693.48801873        12943.33264206         1870.46857126        19267.05330394         3578.13028298         1678.09555399         4771.10045931         4248.89690944         20706.8825309         5028.30047777         9026.58894943         1640.68611994         11874.0118816         8208.29613176        11896.85282896         8243.88375709         19173.0292942         4800.22680457          7937.9160251         4469.22455577        20184.17454443         3781.34424927          1838.5175676         7066.60465179         17681.2752928         2103.93822313         1191.05716758         3225.13571121        12417.48054011         8758.47862632         9224.69114747        11752.96309569         7466.82806159        19890.60759507         9227.34567328        15477.39667214         11623.6858974        17005.08212231         3523.77774833        23421.01760716          3518.2107481        16160.45573791         3867.36100649         12211.9201904
         0.05*MaxFES =          3166.37733648         8363.90396353         6964.32552156         2896.48225904         10143.3916175         4260.48765028         9149.56833331         4693.48801873         5822.61030205         1711.08238929        19266.65751453         3301.48901909         1678.09555399         4769.40420207         2186.41524694         3242.68803731         5028.30047777         8792.57064838         1297.46038818        11873.41129642         8208.29613176         7063.32251987         8243.88375694        13337.11294463         4800.22680457         7937.40089955         3422.37658987        17613.69410748         3558.96784632         1833.99884174          7062.2471696        17680.48328541         1472.43794902         1187.27945129          3220.5036507        11085.88405189         8758.47862632         9223.88710134         4162.71139972          7413.2396766         3584.78448693         9226.27693569         8864.91278463         8389.11181784        17004.95098452         3031.19631582        11235.87283592         3517.36688158        16160.45497809         3710.29475756         10046.6066333
          0.1*MaxFES =          2446.87770231         4122.13843639         5609.16549551         2896.47119267         3745.16307815         3594.35862186         7151.28314523         1937.62096798         2265.65433242         1709.39348642         9118.74628869         2666.78866526          1603.2757515         4769.40325133         1444.12370214         2929.20352325          4278.4345944         4281.85435856           930.1267775         2359.08722166          2779.8359232         5012.82403344         8243.88375694         2592.60514014         3973.69679212         4744.51033075         3400.43776498         8021.63672131         1304.40469664         1833.99328158         6072.29158443         11211.3327436         1451.01047629          1187.2320933         2716.08163245         1575.30478379         6133.72441437         3467.03902093          912.39211108          4467.9183153         2456.49582049         7183.64378887         4414.84309624         8240.04705622          3442.4998047         2920.61425148         3040.74684841         3517.36618622          4257.4242073         3056.99802924         8471.27551018
          0.2*MaxFES =          1534.05732954         1441.65102944         2528.34584303         2896.47119267         3030.34980915         1491.96944562         2308.37607683         1937.62096798         1166.40251947          936.55741121         5815.47242022         1770.47377123          976.75945324         1602.46974919         1444.12370214         2929.20352261         4054.04356457         2128.92942021          930.12631955          2333.3061694         2165.32743624         2702.39100837         5534.57566767         1741.94692263         3018.76863548         2977.51562605         2776.52959832          8021.6367213          797.27094341         1833.99328157         5976.31162668         5280.14707251         1451.01047629          737.16995247         1322.85350079          860.92930292         6133.72441437         1524.66440827          614.43613429         4467.91827976         2456.49582049         2252.14480427         3487.10729463         2519.00895199         3442.49966225         2738.26158504          962.17722488         3517.36618622         4257.42388607         1250.11219279         1505.36100886
          0.3*MaxFES =          1533.85597188         1441.65102944         1202.30087975         2896.47119267         2768.47895082         1036.43066742         2260.60703096           891.4827832          813.62767186          616.89308742         2288.12954496         1770.47377123           846.5365925           974.3009016         1444.12370213         2087.10459985         2976.80455093         1524.27182387          805.22482942         2333.30616933         2165.32743624         2702.39085683         1877.67875825         1187.19857346         3018.76862064         1262.38266773         1812.29677098         4577.19994869          555.27585891         1833.99328157         2091.32515718         3645.69937871         1451.01047629          432.55609312          1320.0902754           517.0347001          2232.0456973          1191.3893651          611.16471636         3360.33502768         2456.49582049         2164.47896472         3474.97047756         2519.00895199         2831.93414985          1996.2133456          962.17722488         1593.45178885         1454.91464565         1246.63155653         1316.46548781
          0.4*MaxFES =          1295.68249591         1281.59380845          893.27292039          999.30176743         2003.03411364         1036.43066742         2260.60703096          891.48278186          813.62767186          616.89308742         2287.27589298         1052.18819707          846.53659249          912.52546709         1444.12370213         1971.20044215         2022.67264195          1521.4676433          805.22481765          2266.5157336         2165.32743624         2702.39085683         1813.58482873         1133.04038557         2342.47330854         1262.38266773          922.68717358          3292.0886724           490.1792092          1788.3034165         1193.97589417         3645.69937871         1344.29640982          424.55660577          1300.5708823           517.0347001         2232.04553256          719.22914711          611.16471636         2336.70684905         2160.57910073         2164.47896472         2502.98521428         2519.00895199         2831.93414984         1996.21331683          962.17722488         1593.45178884         1454.91464565         1166.78361524         1316.46548781
          0.5*MaxFES =          1295.56017889         1191.62815574          886.78422929          999.30176743         1879.83653027         1036.43066742          1627.9964387          891.48278186          813.62767185          616.89308742         2078.25723862         1052.18819706          846.53659249          912.52546709         1444.12370213         1971.20044215         2022.67264195          988.64340759          657.35087625          2266.5157336         2165.32743624         1446.16966258          940.64729287         1133.04038557         2342.47330854         1262.38266773           915.1884074         1900.52394105           490.1792092         1745.90175821         1193.37789922         3645.69937871         1053.13903585          424.55660577          1174.1161444           517.0347001         2232.04553256          719.22914711          611.16471636         1917.47762097         2150.26007775         1069.96737181         1226.00493662         2396.90963495         1358.67929571         1996.21331683          962.17722488         1593.45178884         1454.91464565         1166.78032694         1316.46548781
          0.6*MaxFES =          1295.56017889         1191.62815574          886.78422929          999.30176743         1879.83653026          698.27856163         1541.76910446          891.48278186           768.7864361          616.89308742         2078.25713051         1052.18819706          846.53659249          912.52546709         1179.95277856         1971.20044215         2022.67264195          872.88045002          657.35087625          2266.5157336         2165.32743624          1446.0034127          889.82129031         1133.04038557         1536.80516392         1215.86439944           571.6832436         1900.52394105          490.17920919         1745.90175821         1193.37789922         3645.69937871          992.23880717          405.06903176         1174.11341653          484.63377991         1065.30369045          523.31895076          611.16471636          864.68200451         1843.98702384         1055.53426908         1226.00493557         2396.90963495         1358.66536843         1996.21331682          668.56551146         1386.90822802         1454.91464565         1166.78032694         1316.46548781
          0.7*MaxFES =          1295.56017889          617.29011183           561.4808619          999.30176743         1509.54472644          698.27856162         1541.76910446          891.48278186          745.63567773          616.89308742         2078.25713051          641.03460904          679.62732417          912.52546709         1179.95277856         1971.20044215         1473.59853584          714.08754845          657.35087625           995.5530585         2165.32743623          1446.0034127          574.40755161         1133.04038557         1536.80516392         1190.85359902          571.68324287         1900.52394105          490.17920919          1745.9017582         1193.37789922         3123.22010643          980.73177894          405.06903176          779.42620875          484.63377991         1004.01932998          523.31882697          611.16471636          864.68200451         1272.08488859         1055.53426908         1226.00493556          936.72090558         1358.66536843         1419.24118176          668.56551103          693.53530335         1339.63495175         1166.78032694         1206.24974285
          0.8*MaxFES =          1101.03141935           617.2897898          506.93787542          999.30176743         1509.52337639          698.27856162         1541.76910446          891.48278186          745.63567773          616.89308742         2078.25713051          641.03460904          634.33191336          912.52546709         1179.95277856         1971.20044215         1473.59743488          652.17414615          657.35087625           995.5530585         2165.32743623          1446.0034127          574.33160319         1097.28757501         1536.80516392         1190.85359902          571.68324287         1900.52394105          490.17920919          1745.9017582         1193.37789922         1922.17818951          892.73224512          403.63581136          778.89574401          481.43274478           966.8310143          523.31882697          611.16471636          864.68200451         1272.08488859         1055.53426908         1226.00493556          703.84844569         1356.67846948         1419.24118068          552.47424865          693.36506344         1016.25074894         1166.78032694         1206.24974092
          0.9*MaxFES =          1101.03141935           617.2897898          506.88583966          999.30176743         1422.74134656           695.4669038         1405.56615374          891.48278186          745.63567773          616.89308742         2078.25713051          641.03460904          629.81499398          833.34575496         1179.95277856         1833.40435979         1473.59743488          652.17414615          657.35087625           995.5530585         2165.32743623          1446.0034127          574.33160319          940.45564491         1334.85657981         1190.85359902          571.68324287         1493.03005717          490.17920919         1491.09243294         1193.37789921           1796.728463          884.68846541          403.63581136          694.70827117          420.59157848           966.8310143          388.32145302          599.81014489          864.68200451         1272.08488859         1055.53426908         1226.00493556          703.84844569         1239.17931643         1404.33022065          467.36321706          693.36506344         1016.25074894         1166.78032694           933.7821083
              MaxFES =          1004.02195983           617.2897898          506.88583966          999.30176743         1329.10364278          678.27051783          1210.2604679          891.48278186          745.63567773          599.68336478         1155.90908177          641.03460904          629.81499398          705.90460818          968.09928941         1833.40435979          789.60600904          652.17414615          657.35087625          933.05694254         1758.40810666          1446.0034127          574.33160319          940.45564491         1334.85657925         1060.39058312          571.68324287         1493.03005717          490.17920919         1491.09243294         1040.83306851         1591.82153343          884.68846541          403.63581136          694.70827117          420.59157848           966.8310143          388.32145302          599.81014489          864.68200451         1272.08488859         1055.53426908         1226.00493556          703.84844569          848.29791012         1404.33022065          466.36223023          693.36506344         1016.25074894         1166.78032694          482.72621344

                  Best                 Worst                Median                  Mean                   Std
          388.32145302         1833.40435979          884.68846541      919.612356774706     365.9186756261462

