 25/10/2016 21:34:11 |                  Run 1                 Run 2                 Run 3                 Run 4                 Run 5                 Run 6                 Run 7                 Run 8                 Run 9                Run 10                Run 11                Run 12                Run 13                Run 14                Run 15                Run 16                Run 17                Run 18                Run 19                Run 20                Run 21                Run 22                Run 23                Run 24                Run 25                Run 26                Run 27                Run 28                Run 29                Run 30                Run 31                Run 32                Run 33                Run 34                Run 35                Run 36                Run 37                Run 38                Run 39                Run 40                Run 41                Run 42                Run 43                Run 44                Run 45                Run 46                Run 47                Run 48                Run 49                Run 50                Run 51
       0.0001*MaxFES =          3554.69777827         2388.86717969         2324.76050854         2906.43996767         2526.76323219         4636.60661877         2496.72506894         2993.84372432         2556.06174192         2441.42479017         2405.40861788         3265.52160689         4081.73470933         2486.80658144          2165.1232944         2609.51967615          2436.2505498          2369.1648562         2495.92601732         2762.71127587         2817.46760219         2766.93089029         2885.68114444         2222.92866221         3262.90422762         3006.06639111         2075.61144796          2118.1647656         3760.03346164          1990.8112074         3483.15690204         2288.54124711         4556.36941814         3658.25195185         4853.86937247         3846.82571719         2118.35569648         2109.28177946         1315.60572454         3002.74043644         2370.46323951         2402.84947856         3164.44049238         2164.20550812         2677.12809834         2411.48595053          2896.3407524         2967.31255973         2290.66866276         4201.02807936         4532.61471897
        0.001*MaxFES =          2674.84917878         2217.65464463         1873.91343284         1778.17182966         2103.62840395          1861.2250077         2174.42985294          2039.7358845         2044.86620505         1900.77248814         2089.14461415         1863.28571921         2074.70213264         2124.75280111          2165.1232944         2075.04459448         1512.00291809         1890.81605879          2034.4335961         1959.36584851         2221.37434878         2166.64053359          1675.4722604         1874.74517524         1889.31573485         1993.11311592         1922.81415187          2118.1647656          1293.0943588          1990.8112074         2074.91123139         1979.65649872         2159.90070663         2185.45783268         1934.30918632         1857.24442803         2118.35569648         1744.73840698         1315.60572454         1865.01704603         1986.02499686         2402.84947856         2319.84158397         1911.41000238         2039.79132398         2094.37642293         1961.52353273         1849.71311765         2114.34518464         2010.77685378         1725.23401638
         0.01*MaxFES =          1124.63131856          893.52690528         1439.45312763         1018.28771606         1508.32558647         1534.33358907         1244.67308422         1502.40366296         1524.00548971         1303.25659595         1135.44760475          955.05888231         1336.35936286         1157.17579061         1543.27089619         1546.38086576           1257.860338         1325.73132929         1303.64571193          905.64367719         1523.45639137           897.5580209         1112.55003475          1396.3896063          1399.0326198         1713.21957963         1281.31627011         1241.68747005         1034.10813788         1318.04608415         1002.11905423         1625.67801372         1104.37398751         1510.67944024          1114.3078024         1009.00355431         1530.22376163         1539.67152572         1045.60514743         1526.78107046         1027.05495565          1425.8117509         1627.79685999         1622.79593663         1375.84206005         1626.57654409         1537.38182447          870.41309021         1358.55052394         1103.34652236         1150.18753616
         0.02*MaxFES =           644.22713924          605.54736036          688.32379449          675.08224957         1387.95575878         1456.50848715          566.03289372         1440.48519059          893.39632473          695.63620374          889.62650865          833.85620924          919.86242242           893.4325084         1384.22534285         1427.33086844           523.7294533          942.26376346          778.67313617          616.81521338         1397.79415475          690.21760909          765.67594292          732.20878656         1068.12858727          1379.4703867         1028.59821198          631.59609652          568.51517161          815.14898362           813.4024593          997.96634774          660.61573305         1446.01166419          760.14187838          620.69407608         1292.66845158         1300.79975999          637.09472797         1382.35378017          724.86663677           951.9171862         1341.72020061         1451.61347837         1010.58247475         1358.61303663         1398.00896211          651.71315209          887.24263647          636.47872481          640.58171373
         0.03*MaxFES =           438.27843317          393.35725681          443.93004665          410.40040518         1280.70651299         1343.43059115          463.82884117         1320.61422433           608.1010661          458.56990309          598.42660238           524.6708947          529.41605932          468.85553363         1208.97395795         1254.23953231          394.65660594          618.26931063          480.71266766           486.1309027         1280.62752828          448.38102783          432.05486359          501.77557517          537.72987091         1324.80724887          542.20127131          454.14902511          416.32597346          559.40022151          427.68854807           654.2779045          403.77678566         1205.77748196          444.93021229           476.3560019         1230.56242693         1154.38793946          410.65720237         1261.78307018          406.30330112          587.22179407         1189.52598488         1317.96230033          735.68577882         1324.35252846         1247.38489834           441.3722604          485.49205306           402.5544493          382.23191489
         0.04*MaxFES =           379.51674586           358.1355396          348.43087088          353.26889616         1125.90654887         1159.74150914          380.55595935         1169.97622002          443.75364426          383.76077465          400.36752177          404.62082794          406.12309698           392.3034494         1119.11576819         1200.04603988          334.10332933           390.7761976          417.20288164          395.55048561         1156.76060491          367.56039812          362.12258087          405.93798843          390.87500203         1149.44359538          415.76687681          362.56410013          355.06474332          379.95746595          366.54468457          460.07738468          353.08178291         1095.08722583          357.82612188          386.38373335         1130.19128574         1080.21143437          352.02555804         1108.65908659           342.9047142          398.64926767         1071.12111109         1215.26893898          585.96416217         1126.85509158         1247.38489834          367.22196437          412.09472915          342.01168904           341.7796276
         0.05*MaxFES =           333.28182661          323.77593926          330.55844318          325.57701881          981.59288386         1063.58791211          335.65280074         1119.25116918           367.9718671          329.21648878          375.15822858          330.72090088          349.59068746          334.25358385           929.6166973         1100.91763901          318.85721931          354.77809793           359.0490335          355.02015748         1048.93478383          327.72546699          331.70768693          353.04093069          342.39575203         1019.02704252          360.02798561           322.8394139          324.40821333          325.26248357          336.69495755          371.27065947          326.86753724         1032.84111743          325.34242545          334.61586574          974.55360874          955.17000656          321.67584552          1046.6627894          320.16992009          341.46739182         1022.24818472          1064.2082447          412.52432807         1073.32401795         1162.93604298          336.36610961          332.02465307          320.27993049          322.13724945
          0.1*MaxFES =           304.75908303          303.85207604          303.68327233          302.62788838          712.55814639          756.76124898          302.78821486           752.3341353          311.59031696          303.37657389          311.43325653          303.35108443          302.57419513          302.71559786          615.24708294          793.63041618          302.76888242          302.60144345          306.41123169          311.36131811          722.71788634          302.02533421           301.9746612          307.27730712          304.03092902          694.94339827           306.4919125          302.74755963          303.51502963          302.65155429          305.20163341          306.29708953          302.45731837          733.30919736          302.47716214          302.93204557          714.52145559          653.80537787          303.82300297          801.53362031          302.38363671          304.40678031           648.2856725          817.07865928          304.52955938          793.05767611          848.50912798          306.43979064          302.43871989          303.09123589          303.60580276
          0.2*MaxFES =           302.62205145          302.46958406          301.89477577           301.3051468          581.58466737          607.22036439          301.41286343          590.35997421           305.3985266          301.92705484          307.10241026          302.04719625           301.4444545          301.21187583          465.92214077          639.18860394          301.52133368          301.37183147          303.34042601          307.09693338          563.66285565          301.34141809          301.08853086          302.55410476          302.21306476           523.3353683          303.41740957          300.52006673          302.01665956          301.44749944          302.31253356          302.47978869          301.28034227          535.41616899          301.30398141          301.57623073          562.77168251          524.76593183          302.13885187          658.61186212           301.5689206          302.23892574          474.14742965          643.93951509          301.92981718          665.75106765          718.31596017          303.82972267          301.33700393          301.42816498          301.54723244
          0.3*MaxFES =           302.35230385          302.19329086          301.66977404          301.13203872          558.56286688          575.64458995          301.25618432          557.78791789          304.76262668           301.8426541          306.04158449          301.89864195          301.29693459          301.06763698          439.32414866          607.90045954          301.40549006          301.29621336           302.9463208          305.55879646          541.05966583           301.2663709          301.00103563          301.23020901          302.07671502          500.62583362          302.93502094          300.26341866          301.93533645          301.26407645           301.6430273          301.69408571          301.22355921          488.84486367          301.24311991          301.50243219          527.19414528          492.60750563          301.91895867          621.32145867          301.43309405          301.96914063          456.00258252          615.58118063          301.73069933          625.56176075          694.06661032          302.91147773          301.22076923          301.18490526          301.33137212
          0.4*MaxFES =           302.29412182          302.10669277          301.63048845          301.11264599           551.5929646          563.08290991          301.17924381          546.50687268          304.59123078          301.82334463          305.84512348          301.85206871          301.28408363          301.05455143          430.98243739          596.57824058          301.39624709          301.26056912          302.75979345          304.71538597          531.91249758          301.24244107          300.99536972          300.94065782          302.04552661          485.50540022          302.56751138          300.15889903          301.88861013          301.22246387          301.18307654          301.48687668          301.21432595          479.81902372          301.20297611          301.49424563          514.92937757          476.47773241           301.8857739          610.30515284          301.40258343          301.78039817          443.81403316          605.06754936          301.69798706          601.73366838          683.77866368          302.64186399          301.20239773          301.14800474          301.30782796
          0.5*MaxFES =           302.28838541          302.07887055          301.62073442          301.10836144          548.15815036          558.90094198          301.15812114          542.41245357          304.52155053          301.80712892           305.6684826          301.83793524          301.28241226          301.04985409          428.99008088          593.11934984          301.39325866           301.2528848          302.65312018          304.31348172          528.59726851          301.24085833          300.99417257          300.90644253          302.04050226          480.32212884          302.41129702          300.10891472          301.88458359          301.21552415           301.0182697          301.47191456          301.21287306          475.00639758          301.19636751          301.49304566          510.09397774          470.60076808          301.88153992          607.00142126          301.39975506          301.76219977          441.39260502          597.52632546          301.69045046          589.34181165          681.10644882          302.55628361          301.19147382          301.13860985          301.29513754
          0.6*MaxFES =           302.28734585          302.07551844          301.61879581          301.10747045          547.17609865          557.75891615          301.15430893          541.20801132          304.51819724          301.80554889          305.62064064          301.83437649          301.28160567          301.04864754          427.62175013          591.51115159          301.39271898          301.25146116          302.53992988          304.20193835          527.79044114          301.24029135          300.99385042          300.90196044          302.03939171           479.2184792          302.38827991          300.07733312          301.88333556          301.21420659          300.88117773          301.46841094           301.2126255          474.03932471           301.1951875          301.49253308          508.43993828          469.66304248          301.88077173          606.41094487          301.39910369          301.75934909          440.00713024          594.57451363          301.68939015          585.82387488          680.54528008          302.54419125           301.1898416          301.13713299          301.28976023
          0.7*MaxFES =           302.28712475          302.07443143          301.61841741          301.10730594          546.81944422          557.29065256          301.15381999          540.23864617          304.51700062          301.80506293          305.61355879          301.83376005          301.28149458          301.04836267          427.04460006          590.99888999          301.39257752           301.2510597          302.41812941          304.17796746          527.52622306          301.24020327           300.9938024          300.90123129          302.03902372          477.84953326          302.38646856          300.05565972          301.88286952          301.21383471          300.76857768          301.46783094          301.21253824          473.43640044          301.19491568          301.49229649          507.92197297          469.39124281          301.88049251          606.15156533          301.39892692          301.75854431          439.62312967          593.66275811          301.68917229          584.45684145          680.04404411          302.54118884          301.18960767          301.13694164          301.28595056
          0.8*MaxFES =            302.2870159          302.07420911          301.61836918          301.10726414           546.5912855          557.17956486          301.15362906           539.8903012          304.51667336          301.80492503          305.61196773           301.8336168          301.28146478          301.04827907          426.81419215          590.76175909          301.39253593          301.25092654          302.37225085          304.16109146          527.44231834          301.24018318          300.99379068          300.90111103            302.038916           477.4095882          302.38588068          300.03661669          301.88274661           301.2137749          300.57732318          301.46765695          301.21250332          473.11408564          301.19486589          301.49224728          507.80115589          469.24002872          301.88041812          606.08786682          301.39888321          301.75829019          439.48619357          593.26690054          301.68904625           583.9640607          679.73692876          302.54044617          301.18955844          301.13691006          301.27055137
          0.9*MaxFES =           302.28698742          302.07416094          301.61834466          301.10725079           546.5322062          557.01863314          301.15357399          539.78939021          304.51660292          301.80489266          305.61151591          301.83357926          301.28145788          301.04825503          426.72158125          590.71626151           301.3925251          301.25089543          302.36714359           304.1593346          527.42937434          301.24017665          300.99378686          300.90108904          302.03887224          477.25777473          302.38567795          300.02689957          301.88270552          301.21374893          300.34770913          301.46761387          301.21249475           472.9944708          301.19484809          301.49222342          507.77529806           469.1876134          301.88039694          606.04111126          301.39887292          301.75824863           439.4377519          593.13135922           301.6889718          583.71589517          679.60692448          302.54032928          301.18954666          301.13690259          301.26899362
              MaxFES =           302.28697381          302.07415249          301.61833607          301.10724468          546.50753199          556.96743249          301.15356273          539.72700764          304.51658762          301.80488623          305.61140963          301.83356512          301.28145598          301.04824838          426.69083125          590.67668825          301.39252278          301.25088469          302.36612232          304.15859987          527.42398031           301.2401752          300.99378622           300.9010836          302.03886243          477.23535225          302.38562832          300.01668325          301.88270042           301.2137437          300.28502793          301.46760432          301.21249111          472.93488724          301.19484408          301.49221897          507.76702136          469.16963484          301.88039279          606.03550204          301.39887002          301.75823931            439.420132          593.06974614          301.68895374          583.64156961          679.52324837          302.54030053          301.18954407          301.13689946           301.2687245

                  Best                 Worst                Median                  Mean                   Std
          300.01668325          679.52324837          301.88039279     370.1859194539216     113.3166967648276

