 26/10/2016 07:17:29 |                  Run 1                 Run 2                 Run 3                 Run 4                 Run 5                 Run 6                 Run 7                 Run 8                 Run 9                Run 10                Run 11                Run 12                Run 13                Run 14                Run 15                Run 16                Run 17                Run 18                Run 19                Run 20                Run 21                Run 22                Run 23                Run 24                Run 25                Run 26                Run 27                Run 28                Run 29                Run 30                Run 31                Run 32                Run 33                Run 34                Run 35                Run 36                Run 37                Run 38                Run 39                Run 40                Run 41                Run 42                Run 43                Run 44                Run 45                Run 46                Run 47                Run 48                Run 49                Run 50                Run 51
       0.0001*MaxFES =       1792515.63381206       817431.78007914       967456.11334756       787716.25517616       438776.73558753       228524.52745602        591103.2580543       573782.42454997       646009.67347819       747270.14266405       629701.18985309       525594.72175696       2783744.9265634      1126842.44182264       629646.01477644       855914.70191327      1190603.48325545       765283.72552193      1004395.27853538       556631.76169122       443446.60738891      1410560.06759797      1273924.55817248       738174.64907504       349334.49935007       966463.28686704          241087.04574       221893.20255767      1933944.84669853       474085.00080064       1323958.4390933      1258450.86064869         270481.430424       760042.67747889      1475102.75643162       255964.33361868       770479.27877106       337301.37569872      1711782.17813865      1066722.95785502       730196.83685061      1088179.85216195      1290630.73723918       542541.02563398         829476.548203       354937.67267784         330298.745521       647014.59606897      1265556.83013938       921040.22617557      1494748.81131477
        0.001*MaxFES =        347247.97037622       377970.00302622        422655.2808671       389216.08460808       438776.73558753       228524.52745602       206866.82194898        488971.3917133        14436.75459434       288186.34923169       469007.99945733       138049.28956735       278451.28628751       202178.12821362       498596.20042705       190651.78012902       481723.58678169       151967.44581008       501169.48877679       438482.23697366       339725.65044837        304234.6470144       456858.48351466       373572.58507272       250112.76111627       188765.45741578       174080.33800906       171695.72227205       279795.46238546        293417.7128402       372934.62072226       164357.76833242       239723.91558542       171591.55740069       214005.16689982       255964.33361868       287642.79767725       337301.37569872       225252.68170491       470402.73012088       543119.90023208       394841.26020631        196110.0158862       349750.18119958       253116.68154356       173141.29301061       278003.43509182       333685.30428417       400200.94715009       178735.20154893       351469.33894407
         0.01*MaxFES =         10210.43045815        23683.28312392        26835.58286127        14011.25907552        11106.43768434         15129.1108656        17592.10453687         3713.42831383          5701.2678914        10054.50634236        19131.12990007        16448.97935183         5687.87493961        11610.88581753        12495.07364362         7795.15511936        22874.11056095         8035.82793274         9042.75540615          6513.2633799         8442.91686695        11327.75506908        19698.67628686          13953.030508        16060.67181925        11456.30924673        12869.42761916        15738.28975062         8772.35953437          8310.0944828        10932.60688789         12237.1423951         5600.42624603         8511.85558881         4454.59144683        26635.22146409         6385.83619429        18397.42490569        14508.36486901        17850.79464747        15033.85628784         3916.88002763         8936.81185429         9090.17054653          7886.9567161        12822.40534701          3650.9518844        17497.27666999        19969.51409696         8434.56593127         8240.69434221
         0.02*MaxFES =           602.99674705          2015.5533637         2978.38856166         1649.90466979          563.43941791          309.09852131         1121.81555912         1374.34748663         1028.72751988          598.05586074         1048.41863692          909.77596102         1371.29189882         1541.24244196            1428.69774          1859.9018109         2687.30523446          933.41254287         2081.31529609          956.15610746          883.76398171          897.50990118         1592.72724065          2220.9931516         2558.38539135         1829.50407468          819.19000669         2951.91280433          426.33890497          857.39393413         1923.83962709         1108.10959575          347.50205037         1300.13892636          519.32748476          3730.0571009           482.6416372          356.40261192          1110.8565262         1071.84568964         1355.93574704          827.75559132         1539.40955736          385.25027119         1640.57053494         1944.09869601          452.46257203         3032.04713833         1810.94945392          557.50165863          699.35090165
         0.03*MaxFES =           235.11938608          258.09008002          477.72039967          472.70351312          167.48408609          154.13627438           278.6311183           372.1460257          226.01043908          329.80345241          193.62533013          262.08278129          238.39139896          262.99035847          145.29175837          201.41788044          352.55317235           188.2181745          331.92046622          293.45078108          321.95580302          370.85110592          279.57149843          315.30808323          320.70384269          232.93761265          182.59343927            476.697942          144.73853035          263.50951634          372.57046011          302.04112015          177.70435407          223.90770849          243.55964997         1159.18489174          199.89573068          193.65833454          202.99053761          324.95159231          236.03329571          240.17087566          284.36453399          202.12818246          245.59395675          277.32901019          260.19818257          657.84922818          357.88350685          198.99769665          197.66677085
         0.04*MaxFES =           147.63340688           155.2938328          178.53489618          203.41622395          146.39102822          138.55253157          146.26348785          190.96655736          147.28783365           160.5739149          139.18579701           161.5019174          180.54074666            157.728793          137.49620627          154.15074385          144.86704832          143.41910877          163.33661292          147.90846243          145.60335319          218.30411611          142.11356296          155.18407614          176.90066853          158.40278813          133.66547314          328.58970425          136.55095396          144.69753226          211.59892526          155.09544039          149.59652186          150.23184805          149.52735673          411.66784835          137.64689259          141.63369356          146.46555967          180.86249511          140.87413432          148.32413358          146.35940801          159.39533305          154.42432088           156.2690398          139.97276664          242.38937902          178.68086899           145.1397936          143.74192672
         0.05*MaxFES =           128.62790586          141.16960023          143.59108886          152.09392544           130.5365219           125.6685235          135.47646696          147.98298959          129.50961724          128.51069131          127.61778305          134.42424307           130.9641088          141.71399017          126.95605779          134.95912055          132.38709574          131.73229445          127.25399757          132.97254957           134.7328835          140.68577077          135.70715414           134.9903034           141.2533086          136.36296925          124.93666346          162.15377198          129.53282002          131.90826901          149.48041359          137.86385313          128.52352574          134.97100974          133.63626532          169.88113379          128.08407509          127.35118574          130.24322297          133.26907792          129.52574411          129.45706552          133.61781453          133.32755133          130.24015191          139.21551436          124.68942884          154.36831967           133.4067622          128.61757821          134.42432784
          0.1*MaxFES =           107.24851574          110.85845034          113.81903754          111.99652874          108.91541161          108.42700822          108.95928538          113.91766466          109.34557175          109.02378568           108.3458963          109.81901773          108.61182315          110.84450003          109.29430087          110.73110582          108.46376526          108.09315506          108.43723213          110.55548492          110.79048479          110.83678618          109.34997426          110.76974697          111.07991598          110.33382496          107.85217749          110.97369007          108.47530912          110.32260836          113.17133463          109.96861979          110.80578346          110.66555203           109.2034464          114.34100952          108.52103376          109.34830455           109.5025795          109.02139243          109.40011218          109.94401184          110.58009726          109.62009324          110.13530121          110.40984259          110.23628083          113.64767313          110.07890202          109.73771446          109.41141399
          0.2*MaxFES =           100.61651133          100.89356978          101.29682013           101.2116287           101.1368466          100.84756616           101.5783602           101.5983272          100.88677298          100.93643153           101.3964481          100.91194331          101.08892483          101.99424985          101.03388228          101.43736345          100.86180794          101.88113573           100.7576361          101.14817923          101.22274536          101.43481261          100.77833296          103.16028301          100.92497647          101.26089334          101.13100692          101.71411905          101.31039685          101.78964637           101.0521567          101.00294203          101.06429164          102.20637678          101.22149767          101.46574935          100.83188917          101.49528323          100.89271282           101.1813869          101.79039874           101.0761094           101.3555446          100.71949311          100.87648366          101.08209064          101.08349236          101.66484136          100.89240465          101.36837068           101.1848697
          0.3*MaxFES =           100.11403735          100.06341652           100.2237222          100.23993269          100.12736426          100.16909499          100.26311821           100.2185086          100.09846172          100.09926226          100.15611465          100.11545309          100.16268852          100.23490516          100.09591139          100.17059739          100.11423816          100.17358308           100.0673934          100.29166682           100.1296898          100.18253365          100.14004422          100.26692994          100.10926009           100.1720417          100.08093201            100.299342          100.17314484          100.21231529          100.15493651          100.11409554          100.11435109          100.16220796          100.20510703          100.16987033          100.13064827          100.14971988          100.10987512          100.11739226          100.26734064          100.11886169          100.14014456          100.11369902          100.08367159          100.13278181          100.10866421          100.31179344          100.14535997          100.17381351          100.15861386
          0.4*MaxFES =           100.01617005          100.01021435          100.01739602           100.0311253          100.01652538          100.04806078          100.04118562          100.03356093          100.01110841          100.01166067          100.01550072          100.02037461          100.01771725          100.03932434          100.01546775          100.02892412          100.01063085          100.02271692          100.00855498          100.02987771          100.02583059          100.02392753          100.01708008             100.03528          100.02155882          100.02990828          100.01113943          100.03531332          100.03205546          100.03584137          100.02873991           100.0163202          100.01453933          100.01941715          100.02511637           100.0196431          100.01930676          100.02358014          100.00878234          100.01672771          100.03822198          100.02044509          100.02085714          100.02573115          100.01078883          100.01138924          100.01250781          100.03965154          100.01778765          100.02174894          100.01658017
          0.5*MaxFES =           100.00325111          100.00176334          100.00208723          100.00338235          100.00309408          100.01028564          100.00302815          100.00471738          100.00111082          100.00171269          100.00286591          100.00245224          100.00338274          100.00757913          100.00120054          100.00873186          100.00154963           100.0052635          100.00192745          100.00276473          100.00584706          100.00292938          100.00197101          100.00375443          100.00504198          100.00377754          100.00207889          100.00334957          100.00497907          100.00347674           100.0040266          100.00177847          100.00238639          100.00225887          100.00600637           100.0043065          100.00351317          100.00229345          100.00051403          100.00393784          100.00509457          100.00234078          100.00424638          100.00271704          100.00179551           100.0026964          100.00152386          100.00346795          100.00168667          100.00501387          100.00432576
          0.6*MaxFES =           100.00063609          100.00032665          100.00049398          100.00065657          100.00063712          100.00110488          100.00051491          100.00041728           100.0003245          100.00034217          100.00050212          100.00024383          100.00033295          100.00126121          100.00018548          100.00135818          100.00035055          100.00085038          100.00046995          100.00048898          100.00139601          100.00071691          100.00026823          100.00047971          100.00064364          100.00046504          100.00041728          100.00029209          100.00053601          100.00066518            100.000384          100.00032782          100.00028843          100.00017742          100.00066674          100.00166573           100.0006716           100.0001598          100.00009559          100.00060573          100.00112513          100.00048212          100.00092229          100.00052785          100.00020426          100.00037923          100.00026848          100.00060477          100.00024053           100.0008976          100.00040649
          0.7*MaxFES =           100.00013031          100.00003151          100.00010574          100.00012264          100.00008828          100.00018965          100.00005783          100.00007938          100.00006519          100.00003104          100.00009427           100.0001152          100.00006674          100.00022215          100.00002107          100.00030512          100.00004167          100.00009551          100.00010348          100.00009629          100.00021048          100.00012481          100.00005384          100.00010131          100.00008836          100.00004765          100.00012513          100.00004381          100.00005937          100.00010139          100.00011915          100.00005301          100.00003223          100.00003831          100.00008267          100.00016756          100.00015502          100.00002532          100.00001842           100.0001294          100.00028743          100.00006095          100.00018922          100.00009367          100.00002419          100.00003832          100.00008936          100.00028472            100.000043           100.0002035          100.00006794
          0.8*MaxFES =           100.00002911          100.00000319          100.00001481          100.00001748          100.00001314          100.00003706          100.00001769          100.00001167          100.00002203          100.00000525          100.00001364           100.0000243          100.00002056          100.00006089          100.00000306          100.00009667           100.0000143          100.00001921           100.0000201          100.00002315           100.0000278           100.0000438          100.00000751           100.0000105          100.00001598          100.00000709          100.00003342          100.00000617          100.00001063           100.0000125           100.0000282          100.00000681           100.0000031          100.00000553          100.00001111          100.00002777          100.00002859          100.00000227          100.00000248          100.00002699          100.00011719          100.00001037          100.00004478          100.00001126          100.00000264          100.00000659          100.00002019          100.00002834          100.00000449          100.00006881          100.00001216
          0.9*MaxFES =           100.00000601          100.00000041          100.00000233          100.00000216          100.00000152          100.00000748          100.00000153          100.00000191          100.00000783          100.00000067          100.00000338          100.00000429          100.00000202          100.00000874          100.00000055          100.00002581          100.00000204          100.00000213          100.00000467          100.00000445          100.00000782          100.00000572          100.00000209          100.00000243          100.00000396          100.00000069          100.00000859          100.00000059          100.00000112          100.00000365          100.00000562           100.0000012          100.00000056          100.00000127          100.00000379          100.00000652          100.00000377          100.00000014          100.00000039          100.00000441           100.0000376          100.00000183          100.00000885          100.00000192          100.00000047          100.00000072          100.00000234          100.00000661          100.00000045          100.00000847           100.0000017
              MaxFES =           100.00000256          100.00000007          100.00000067          100.00000028          100.00000043          100.00000184          100.00000029          100.00000062          100.00000165          100.00000014          100.00000069           100.0000005          100.00000034          100.00000139           100.0000001          100.00001191          100.00000022          100.00000041           100.0000008          100.00000093          100.00000171          100.00000123          100.00000024          100.00000037          100.00000088          100.00000013          100.00000213          100.00000013          100.00000018          100.00000184           100.0000022          100.00000028          100.00000007          100.00000021          100.00000051          100.00000143          100.00000057          100.00000001          100.00000003           100.0000006          100.00000594          100.00000025          100.00000174           100.0000006          100.00000004          100.00000007          100.00000063          100.00000074          100.00000006          100.00000187          100.00000048

                  Best                 Worst                Median                  Mean                   Std
          100.00000001          100.00001191          100.00000051    100.00000103941177 1.8433094273781998E-6

