 28/10/2016 23:30:34 |                  Run 1                 Run 2                 Run 3                 Run 4                 Run 5                 Run 6                 Run 7                 Run 8                 Run 9                Run 10                Run 11                Run 12                Run 13                Run 14                Run 15                Run 16                Run 17                Run 18                Run 19                Run 20                Run 21                Run 22                Run 23                Run 24                Run 25                Run 26                Run 27                Run 28                Run 29                Run 30                Run 31                Run 32                Run 33                Run 34                Run 35                Run 36                Run 37                Run 38                Run 39                Run 40                Run 41                Run 42                Run 43                Run 44                Run 45                Run 46                Run 47                Run 48                Run 49                Run 50                Run 51
       0.0001*MaxFES =       1294544.26024223      1117952.36022093       999196.59137898       471079.87987786       963621.89214319       453353.66414047       379848.81415198       791177.55627087       997719.44637027       691285.88619988       554103.82649938       870274.76399924       776638.77430588       903664.78259807       781096.87418116      1004402.52266963       515204.97321348       575401.13768848       512930.72319717        851484.9947564       745395.06600985        604601.3055712       577401.25177209       392925.88279796       455009.95423255       794744.45284866       300491.78561898        479976.1486048       539131.16745342        730752.4213682       635426.90717857       740999.03826177       736265.69881464       557536.11068784       498424.81205096       450829.21562098       477852.36150321       455444.61440897       1152451.1429586       499063.59928114       830913.91249339      1193061.90011926       618597.11464636       471182.22943807       457499.39306895       645611.66663692       776366.82155718       535337.69591574       651266.63124148       520299.16488053       718029.98050569
        0.001*MaxFES =        208496.77874603       204751.64072826       317519.38850015       201608.03548225       254347.38722087       189797.35214058       168757.96344048       194984.34401691       227503.61196114       359651.49751087       225138.36857395       331291.06342213       265400.92873984       277665.02278083       151439.15275079       289369.91925122       283959.29677707       177195.81760974       274701.47747402       247336.44663171       202887.56510164       226010.59638354       249659.78771811       228740.71435115       187584.91049885       224464.32488507        203408.9310374       182665.27420173       237389.79203006        235778.2247091        221560.9068459        195209.2011632       221523.92462793       174653.74586755       206480.39396164       260223.97998766       214449.65474038       213493.64704202       215060.87074776       170889.53748293        255424.0711954       286901.68897971       231655.67750808       207840.96636104       177626.64423979       220928.32436027        199232.3913742       186079.32563079         173970.612802       229927.52944335       212643.68373172
         0.01*MaxFES =        106918.83540133       133633.40995547       102840.57379215       105643.30913243       118783.26036926       113236.76447626       101683.63646458       102146.46384908        125760.0669942       120002.23485413       118619.53676564       121295.81847137       100929.12528001       116008.97798667        98442.63362964       137670.44470213       107406.62923743        91439.02593162       142632.59013567       111054.16352415        109174.4661928       117224.64460356        98493.86995803       127835.09608192       102446.93387975        128503.6547833       121472.69077793       119892.48254071       103432.15350852       114702.85803033         99679.7341774        94916.59456635       102278.94676854       102211.44739984         97712.7724889         109302.750744       106170.40118719        99695.37792124        99733.92949145        95788.53712649        80620.12840047       145625.71193848        118665.4799206        122629.9011035       109373.99526601       135168.01296755       114239.32612135        94780.37590853        93345.16843118        81547.25698318        128103.7395586
         0.02*MaxFES =          83211.9028878        94812.48206996        86842.58796255        83248.36606432        96430.72536961        92243.20262641        90844.28259677        91606.51629924        94177.54920762         98206.3351715        74467.39159733       103641.20845554        84884.82141583        88049.46772651        83389.40980446        92727.42969294        89810.57769053        82711.14965859        106725.7511658        90093.97782671        87328.83293631        88262.95975088        81739.60115564        86087.43484956         81982.3474046        95515.80754369       102463.42084548        87230.86329966        78167.04519185        98986.98208697        88951.04096488        84004.30655905        89544.30964291        86006.26690814        80936.66387567        81993.91562882        88955.49544293        84185.62558353        86902.43376552        85530.61412646        69001.14432854       100937.38136056        86426.76016982        97522.02209181        89431.05370285       101145.08660888        93964.52927926        72640.15842406        79637.82345944        58759.92333797         92873.2919772
         0.03*MaxFES =         68193.51964532        86277.26517292        83437.73886475        80313.02742329        87970.19145119        84296.50396976        83650.70195909        87032.00180163        87556.05417508        90898.15613982        62815.36579105        97086.12036071        78993.56042267        76716.93792794        79201.79826321        83609.78542769        83132.16827617        77810.05610736        89979.65853653        83559.97183309        83608.27127801        64545.15011686        78037.61629341        81974.38901062        67783.37519937        80260.18578154        92866.39979231        66622.33271114        71797.21541448        85132.95143806        85735.40099592        81541.64572483        83726.55911551        82817.70976116        74983.67616418        65610.36120877        71978.11203492         80716.0624078        82265.59807207        83261.41118495        63281.53236558        82410.01180241        68889.33809259        89559.42010144        81540.05945143        81080.69358544        83115.40136332        56496.47113939        67673.97474734        53189.83889467        83478.04020221
         0.04*MaxFES =         62636.87325937        83072.85761157         81339.6889195         78871.7880843        84107.14541529        82407.05874449        80656.26562353        84900.84865973        82808.08770207        87461.12173169        61105.38885111        88100.59867721        77186.46197519        69242.43987821         78741.3559809        80346.05609081        79768.39185976         76186.8569227        84538.89260264        79350.69950454        82170.65043467        55054.56108234        77009.49876772        80264.91828627         57156.6501172        69035.15207531        88074.15660944        61945.64568231        65594.21628923        81995.87121496         82078.4484493        80935.01313727        82492.55583006        80621.62484894        69078.02430307        61654.09184229        61711.44461234         78404.5765008        79522.36009342        80489.54020035         61266.6836485        74308.73687619        60745.48405645        86618.60211926        77882.93000319        66853.79520053        79559.56654527        51567.71734757        53690.17355855        50737.39819384        80028.88653752
         0.05*MaxFES =         60714.18599963         81406.6173166        80306.20077477        78092.40609769        82787.67580715        81320.70501227        80007.97785703        83123.71563292        76702.73560868        82526.05913443        60163.95675757        85351.73882509        76341.05532751        63424.03015917        78484.59243728        78695.18632018        77729.11678636        74563.88261079        83098.87442806        77894.50107299        80606.40295897        51325.34677593        76516.33096118         78995.9375593         54198.6715063        62989.64771003         85979.5228623        57837.58438367        60565.64726137        78467.13727983        79750.90659374        79980.21487409        81019.60536394        79367.17984312        63368.78630746        60522.86381177        56893.36774677        77687.79646251        78394.58146813        79025.12038219        60327.83652199        68031.83962565         56288.8140592        84215.73218769        76177.98946073        60618.58039287        64773.59448131        50593.32755196        51623.64385601        50192.39210302        76474.27932816
          0.1*MaxFES =         59355.57001288        79094.28953786        79176.98947142        77099.15252179        81092.18336359        79495.32522926        78564.79801624        80909.48353914         52836.3283366        79509.96135507        59369.88027317        79709.95557327        75157.43619507        51027.86622702        76093.45583989        77222.99636134        75871.07095157        69375.44313318        79910.33436632        76027.61171723        77398.70701929        49723.43192699         75339.5928279        77373.66786605        50159.54600589        50509.36148956        81297.87939977        50155.40942157        50916.77043624        77128.98319672        77911.66958044        76819.00689012        78486.56678974        77354.28249462        50331.13983593         59338.2795382        49986.22472502        77028.35285795         78058.9080226        77360.80830832        59475.59730272        50595.42681503        50331.31180071        81757.77040197        68462.75851345        50197.22581118        50588.92821162        49639.96362421        49707.54657601        49623.59990914        55290.45100388
          0.2*MaxFES =         59278.66552788        78155.01314207        79125.49177313        76817.29113733        80531.65707359        76577.92868772        77977.87896918        80125.74904933        49844.75243024         77078.7777138        59244.19373731        79077.94326941        75059.48021651        49577.35793915        75964.58192873         76779.6363514        75668.92368258        49755.89104027        78675.80732272        75606.61041174        76341.97507171        49595.23740379        74867.41411207        76617.52051928        49569.64227686        49598.62489151        79062.90308993        49613.26362414        49611.87098131        76325.27047162        76257.91898683        76005.09999854        77842.28279941        75773.54121001        49572.55975801        59244.96843684        49628.39002783        76976.28527636        78046.09584352        76993.34176842        59305.16448778        49675.38131269         49598.5937904        81094.45573321        49831.63353581         49619.1629132        49617.93759042        49561.99063931        49592.29429136        49591.96250808        49620.74886511
          0.3*MaxFES =         59262.59769453        77972.77330176        79123.24828719        76772.60790728        80281.97541754        74298.65575303           77734.77407        79473.85342889        49595.79846361        76572.64954891        59235.85231444        78827.34293295         74994.0148998        49551.82235374        75953.95571758        76587.33801213        75416.87552937        49547.38444422         78661.0303164        74435.86981355        76230.27004549        49579.50647092        74838.61115413        76215.91026252        49538.77151784        49542.11912926        78689.00191468         49582.0244848        49552.21470165        76072.70199156        75800.42554666          75997.040551        77779.84979561         75756.5508657        49546.41014479        59235.45085627         49599.0353681        76935.78305318        78045.39047214        76833.73049771        59269.86979586        49576.92883251        49550.07333054        80964.41160886        49568.54944114        49569.46239456        49581.09054376        49549.75160828        49542.31808108        49587.65356989        49547.32018242
          0.4*MaxFES =         59251.34873944        77952.90562176        79122.80259419        76693.89418733        80233.71255434        71892.82954243        76777.32149183        79386.44929633        49561.13370656        76052.11293173        59234.23984869        78820.08999652        74974.19958081        49545.97775834         75949.4506571        76378.81777758         75263.2245033          49541.725631        78657.12550777         74419.2725957        75465.79835694        49575.11308703         74837.7447058        73630.89203476        49533.86296071        49536.60003488        78512.06232842        49561.29059572          49541.750433        76063.71262491        75098.71576611        75996.43371786        77614.72847338         75755.6723896        49543.51701361        59231.62253345        49587.16390161         76876.9715961        78045.23806115        76829.89766985        59255.87148555        49556.14884158        49544.66123264        80694.28896296         49544.5035434        49546.71102417        49558.90109854        49542.08832928        49536.65156409        49587.20214461         49542.4251946
          0.5*MaxFES =         59250.14012201        77947.79248745         79122.7178348        76613.01634273        80218.63215182        49991.69270599        76722.96905489        79330.43842123         49550.9832857        75519.53317878        59233.39725332        78818.91122372        74750.78672917        49542.39973426         75946.4114945         76370.4691017        74712.88244019        49534.50428398        78647.41261074        74418.25322702        74889.93642464        49573.66260645        74837.33162525        59265.60606465        49532.49648379        49534.99559502        78500.75097579        49554.25685359        49538.70243196        76063.25079131        75059.41538095        75996.36093464        77576.20006618        75753.86854762        49542.07145237        59229.95836908         49575.5469521        76869.86212009        78045.17400029        76828.58892789        59254.45596061        49544.46618956        49542.59701091        80129.96438861        49538.97324669        49541.87249574         49552.9873123        49535.24988014        49534.50599966        49586.86978165        49539.39951448
          0.6*MaxFES =         59249.58600404        77946.74064125        79122.69280867        76549.12144697        80213.96828275        49583.97841791        76719.42225555        79159.57067532        49547.67599482        75510.72385585        59228.68061205        78818.38443379        74730.58200459        49538.78654057        75946.17805876        76370.29234937         74144.8221243        49533.93472612        78633.37120995        74417.74005911        74760.16540447        49571.01394028        74837.11902747        59249.07388201        49530.95443122        49534.54888911        78499.23026394        49549.50012428        49537.70020305        76063.04385678        75053.89914916        75996.30452211        77575.12224177        75739.86074897        49540.93119314        59229.32039867        49564.47663525        76867.83040019         78045.1592504          76827.712637        59253.78028769        49540.23992466        49539.47717876        80109.28566108        49536.35136941        49540.21772109        49547.31310837        49532.74170722        49533.01750063        49586.10833366        49537.70906209
          0.7*MaxFES =         59249.26550592        77945.82984541        79122.68980635        76469.76246863        80210.95458571        49558.65950199        76718.65829653        79138.10667981         49543.7074662        75507.79209598        59218.47389417        78818.11232974        74728.91309196        49538.29353038        75944.88074112        76370.27257047        74135.15161959        49533.57772632        78569.23066554        74417.66644283          74727.503569        49568.57302108        74836.97259323        59247.27189327        49529.97139193        49534.34823314          78498.759064         49546.8868888         49536.7713879        76062.87441104        75050.49983718        75996.28334823        77574.97953755        75471.17602817        49540.24025072        59229.00534505        49558.49129238        76867.05083122        78045.15925039        76827.09169688        59253.59217728        49531.63093843        49537.35485441        80099.73053029        49535.16140524        49538.65030729        49544.28703164        49531.93690615        49532.31895905        49585.82310787         49535.8882378
          0.8*MaxFES =         59249.12122249        77943.23517057        79122.68440779        76466.57797704          80201.673845        49541.28853237        76715.17588328        79133.89117324        49541.70179567        75505.77264582        59216.39480248        78818.04888951         74728.6918148        49537.84419322         75942.6791654        76370.26766658        74134.77322065         49533.4671802        78565.44883993        74417.59245772        74701.88356022        49567.19834734        74836.88939806        59246.02129484        49528.80095769        49530.85637405         78498.6092223        49545.23221285        49536.53931165        76062.43416173         75039.6861535        75996.27481968        77574.97730028        75463.43627905        49538.53960024        59228.83888898        49555.93346826        76867.03238871        78045.15913489        76826.76418238        59253.50464028        49529.01242724        49536.13437171        80095.39225669        49534.26810066        49537.44896555        49541.62514068        49531.57589196        49531.94444111        49585.78223853        49534.67872096
          0.9*MaxFES =         59249.07569618        77943.11737961        79122.68345676        76465.70618492        80187.81126778        49537.34614183        76585.76144107        79128.91394824        49540.45561376        75504.77711881        59214.22356986        78818.02126971        74728.47307619        49537.08833603         75942.6791654        76370.26620974        74134.72324756        49533.34519249        78564.93050234        74417.59233761        74620.93155141        49566.86867209        74836.78168115        59245.02157736        49528.20412704        49528.01149323        78498.54123795        49542.67447043        49536.37185605        76061.83525871        74879.42512116        75996.25582765        77574.93790112        75463.28347485        49536.94047594        59228.66992096        49554.99533594        76866.80539681        78045.15460307        76826.69429638        59253.33850847        49528.10888195        49535.27475809         80090.1362497        49533.87113206        49535.84767352        49539.02734181        49531.44321369        49531.79131625        49585.77066822        49534.14495785
              MaxFES =         59249.04612478        77943.09441927         79122.6809366        76463.94795316        80165.24546145        49534.66723709        76560.04930801        79106.26979731        49539.47019711        75504.14870075        59212.27608841         78818.0038111        74728.46055685        49536.68192851          75942.605853         76370.2617156         74134.7210023        49533.31837942         78564.8088031        74319.19349546        74389.43508279        49566.74897464        74836.70305919        59243.81521268        49527.89404415        49527.71910648         78498.5074231        49540.93918904        49536.32737897        76056.53571149        74868.55376486        75996.24005024        77574.91912244        75463.24549614        49535.76169999        59228.48448643        49554.57862779        76866.64450045        78045.15460307        76826.56862281         59253.2667679        49527.71090658        49534.53528792        80085.58990349        49533.66776212        49534.70084295        49537.57247731        49531.37730717        49531.62728173        49585.55669752        49533.84939987

                  Best                 Worst                Median                  Mean                   Std
        49527.71090658        80165.24546145         74134.7210023     64396.53299138411    13146.971062189275

