 20/12/2016 12:12:23 |                  Run 1
       0.0001*MaxFES =                    0.0
        0.001*MaxFES =                    0.0
         0.01*MaxFES =                    0.0
         0.02*MaxFES =                    0.0
         0.03*MaxFES =                    0.0
         0.04*MaxFES =                    0.0
         0.05*MaxFES =                    0.0
          0.1*MaxFES =                    0.0
          0.2*MaxFES =                    0.0
          0.3*MaxFES =                    0.0
          0.4*MaxFES =                    0.0
          0.5*MaxFES =                    0.0
          0.6*MaxFES =                    0.0
          0.7*MaxFES =                    0.0
          0.8*MaxFES =                    0.0
          0.9*MaxFES =                    0.0
              MaxFES =                    0.0

                  Best                 Worst                Median                  Mean                   Std
                   0.0                   0.0                   0.0                   0.0                   NaN

 22/03/2017 23:25:58 |                  Run 1
       0.0001*MaxFES =                    0.0
        0.001*MaxFES =                    0.0
         0.01*MaxFES =                    0.0
         0.02*MaxFES =                    0.0
         0.03*MaxFES =                    0.0
         0.04*MaxFES =                    0.0
         0.05*MaxFES =                    0.0
          0.1*MaxFES =                    0.0
          0.2*MaxFES =                    0.0
          0.3*MaxFES =                    0.0
          0.4*MaxFES =                    0.0
          0.5*MaxFES =                    0.0
          0.6*MaxFES =                    0.0
          0.7*MaxFES =                    0.0
          0.8*MaxFES =                    0.0
          0.9*MaxFES =                    0.0
              MaxFES =                    0.0

                  Best                 Worst                Median                  Mean                   Std
                   0.0                   0.0                   0.0                   0.0                   NaN

 22/03/2017 23:57:01 |                  Run 1
       0.0001*MaxFES =                    0.0
        0.001*MaxFES =                    0.0
         0.01*MaxFES =                    0.0
         0.02*MaxFES =                    0.0
         0.03*MaxFES =                    0.0
         0.04*MaxFES =                    0.0
         0.05*MaxFES =                    0.0
          0.1*MaxFES =                    0.0
          0.2*MaxFES =                    0.0
          0.3*MaxFES =                    0.0
          0.4*MaxFES =                    0.0
          0.5*MaxFES =                    0.0
          0.6*MaxFES =                    0.0
          0.7*MaxFES =                    0.0
          0.8*MaxFES =                    0.0
          0.9*MaxFES =                    0.0
              MaxFES =                    0.0

                  Best                 Worst                Median                  Mean                   Std
                   0.0                   0.0                   0.0                   0.0                   NaN

 29/06/2017 00:32:17 |                  Run 1
       0.0001*MaxFES =  05/07/2017 15:17:47 |                  Run 1
       0.0001*MaxFES =  05/07/2017 15:21:51 |                  Run 1
       0.0001*MaxFES =  05/07/2017 15:44:14 |                  Run 1
       0.0001*MaxFES =  05/07/2017 15:53:21 |                  Run 1
       0.0001*MaxFES =  05/07/2017 18:06:05 |                  Run 1
       0.0001*MaxFES =  05/07/2017 18:14:17 |                  Run 1
       0.0001*MaxFES =  05/07/2017 18:20:33 |                  Run 1
       0.0001*MaxFES = 