 23/07/2017 19:03:39 |                  Run 1
       0.0001*MaxFES =            19.75272899
        0.001*MaxFES =            19.75272899
         0.01*MaxFES =             0.80565215
         0.02*MaxFES =             0.80565215
         0.03*MaxFES =             0.80565215
         0.04*MaxFES =             0.66955303
         0.05*MaxFES =             0.66955303
          0.1*MaxFES =             0.11747581
          0.2*MaxFES =             0.11747581
          0.3*MaxFES =             0.05124119
          0.4*MaxFES =             0.05124119
          0.5*MaxFES =             0.05124119
          0.6*MaxFES =             0.04534452
          0.7*MaxFES =             0.04534452
          0.8*MaxFES =             0.04534452
          0.9*MaxFES =             0.04534452
              MaxFES =             0.04534452

                  Best                 Worst                Median                  Mean                   Std
            0.04534452            0.04534452            0.04534452            0.04534452                   NaN

 23/07/2017 19:06:40 |                  Run 1
       0.0001*MaxFES =            21.49240667
        0.001*MaxFES =             20.2041473
         0.01*MaxFES =            19.31540129
         0.02*MaxFES =            18.87819869
         0.03*MaxFES =            18.41146313
         0.04*MaxFES =             7.25557415
         0.05*MaxFES =             1.59409269
          0.1*MaxFES =             0.99922037
          0.2*MaxFES =             0.17641488
          0.3*MaxFES =             0.04995088
          0.4*MaxFES =             0.04995088
          0.5*MaxFES =             0.04995088
          0.6*MaxFES =             0.04995088
          0.7*MaxFES =             0.04995088
          0.8*MaxFES =             0.03724059
          0.9*MaxFES =             0.03724059
              MaxFES =             0.03724059

                  Best                 Worst                Median                  Mean                   Std
            0.03724059            0.03724059            0.03724059            0.03724059                   NaN

 23/07/2017 19:15:48 |                  Run 1
       0.0001*MaxFES =            22.01552521
        0.001*MaxFES =            20.74679521
         0.01*MaxFES =            18.59964984
         0.02*MaxFES =            18.24612761
         0.03*MaxFES =            17.21528836
         0.04*MaxFES =             12.2512554
         0.05*MaxFES =             9.22294033
          0.1*MaxFES =             0.56036017
          0.2*MaxFES =             0.02383587
          0.3*MaxFES =             0.02383587
          0.4*MaxFES =             0.01741152
          0.5*MaxFES =             0.00357231
          0.6*MaxFES =             0.00357231
          0.7*MaxFES =             0.00357231
          0.8*MaxFES =             0.00357231
          0.9*MaxFES =             0.00357231
              MaxFES =             0.00357231

                  Best                 Worst                Median                  Mean                   Std
            0.00357231            0.00357231            0.00357231            0.00357231                   NaN

 23/07/2017 19:19:21 |                  Run 1
       0.0001*MaxFES =            21.62740995
        0.001*MaxFES =             20.0576537
         0.01*MaxFES =            13.84693186
         0.02*MaxFES =            10.69592382
         0.03*MaxFES =             6.91630073
         0.04*MaxFES =             2.93573616
         0.05*MaxFES =             0.56324751
          0.1*MaxFES =             0.21186379
          0.2*MaxFES =             0.06121858
          0.3*MaxFES =             0.01714919
          0.4*MaxFES =             0.01714919
          0.5*MaxFES =             0.01714919
          0.6*MaxFES =             0.01714919
          0.7*MaxFES =             0.01714919
          0.8*MaxFES =             0.01714919
          0.9*MaxFES =             0.01714919
              MaxFES =             0.01714919

                  Best                 Worst                Median                  Mean                   Std
            0.01714919            0.01714919            0.01714919            0.01714919                   NaN

 23/07/2017 19:30:31 |                  Run 1
       0.0001*MaxFES =            21.78325485
        0.001*MaxFES =            20.08692728
         0.01*MaxFES =            20.01668382
         0.02*MaxFES =            19.72041556
         0.03*MaxFES =            19.72041556
         0.04*MaxFES =            19.62953805
         0.05*MaxFES =            19.62953805
          0.1*MaxFES =            19.62953805
          0.2*MaxFES =            19.31027937
          0.3*MaxFES =            18.54460514
          0.4*MaxFES =            16.12774018
          0.5*MaxFES =             6.79355016
          0.6*MaxFES =             1.53477801
          0.7*MaxFES =             0.03288482
          0.8*MaxFES =             0.03288482
          0.9*MaxFES =             0.02434783
              MaxFES =             0.02329561

                  Best                 Worst                Median                  Mean                   Std
            0.02329561            0.02329561            0.02329561            0.02329561                   NaN

 23/07/2017 19:33:27 |                  Run 1
       0.0001*MaxFES =            21.00671549
        0.001*MaxFES =            18.12882396
         0.01*MaxFES =            16.97943419
         0.02*MaxFES =            12.22079197
         0.03*MaxFES =             7.67750512
         0.04*MaxFES =             3.81906836
         0.05*MaxFES =             1.43197376
          0.1*MaxFES =             0.08317845
          0.2*MaxFES =              0.0475208
          0.3*MaxFES =              0.0475208
          0.4*MaxFES =              0.0475208
          0.5*MaxFES =              0.0475208
          0.6*MaxFES =             0.04653579
          0.7*MaxFES =             0.04653579
          0.8*MaxFES =             0.04653579
          0.9*MaxFES =             0.04653579
              MaxFES =             0.02757972

                  Best                 Worst                Median                  Mean                   Std
            0.02757972            0.02757972            0.02757972            0.02757972                   NaN

 23/07/2017 20:21:42 |                  Run 1
       0.0001*MaxFES =            21.80631216
        0.001*MaxFES =            20.56366531
         0.01*MaxFES =            18.15126656
         0.02*MaxFES =            16.82084762
         0.03*MaxFES =            13.61582485
         0.04*MaxFES =              9.6194613
         0.05*MaxFES =              9.6194613
          0.1*MaxFES =             1.27345249
          0.2*MaxFES =             0.08505655
          0.3*MaxFES =             0.08505655
          0.4*MaxFES =             0.02867579
          0.5*MaxFES =              0.0094483
          0.6*MaxFES =              0.0094483
          0.7*MaxFES =              0.0094483
          0.8*MaxFES =              0.0094483
          0.9*MaxFES =              0.0094483
              MaxFES =              0.0094483

                  Best                 Worst                Median                  Mean                   Std
             0.0094483             0.0094483             0.0094483             0.0094483                   NaN

 23/07/2017 21:13:12 |                  Run 1
       0.0001*MaxFES =            20.58596943
        0.001*MaxFES =            20.58596943
         0.01*MaxFES =            20.12042749
         0.02*MaxFES =            20.00632381
         0.03*MaxFES =            19.65558355
         0.04*MaxFES =            19.15732802
         0.05*MaxFES =            19.00640833
          0.1*MaxFES =             8.58580352
          0.2*MaxFES =             0.16260638
          0.3*MaxFES =             0.16260638
          0.4*MaxFES =             0.16260638
          0.5*MaxFES =             0.16260638
          0.6*MaxFES =             0.16260638
          0.7*MaxFES =             0.16260638
          0.8*MaxFES =             0.16260638
          0.9*MaxFES =             0.16260638
              MaxFES =             0.16260638

                  Best                 Worst                Median                  Mean                   Std
            0.16260638            0.16260638            0.16260638            0.16260638                   NaN

 23/07/2017 21:19:47 |                  Run 1
       0.0001*MaxFES =            21.27851308
        0.001*MaxFES =            18.91213544
         0.01*MaxFES =            18.91213544
         0.02*MaxFES =            18.91213544
         0.03*MaxFES =            18.91213544
         0.04*MaxFES =            18.53367482
         0.05*MaxFES =            18.22479134
          0.1*MaxFES =             7.10109994
          0.2*MaxFES =             0.54683201
          0.3*MaxFES =             0.54683201
          0.4*MaxFES =             0.51600106
          0.5*MaxFES =             0.15089824
          0.6*MaxFES =             0.07251346
          0.7*MaxFES =             0.02783543
          0.8*MaxFES =             0.02783543
          0.9*MaxFES =             0.02783543
              MaxFES =             0.02783543

                  Best                 Worst                Median                  Mean                   Std
            0.02783543            0.02783543            0.02783543            0.02783543                   NaN

 23/07/2017 21:28:22 |                  Run 1
       0.0001*MaxFES =            21.62048681
        0.001*MaxFES =             18.9271731
         0.01*MaxFES =             16.1184805
         0.02*MaxFES =            12.05311888
         0.03*MaxFES =             7.96359068
         0.04*MaxFES =             3.09415397
         0.05*MaxFES =             1.40332466
          0.1*MaxFES =             0.31885529
          0.2*MaxFES =             0.05845203
          0.3*MaxFES =             0.05845203
          0.4*MaxFES =             0.05845203
          0.5*MaxFES =             0.05845203
          0.6*MaxFES =             0.05845203
          0.7*MaxFES =             0.05845203
          0.8*MaxFES =             0.05845203
          0.9*MaxFES =             0.05411845
              MaxFES =             0.05411845

                  Best                 Worst                Median                  Mean                   Std
            0.05411845            0.05411845            0.05411845            0.05411845                   NaN

 23/07/2017 21:34:13 |                  Run 1
       0.0001*MaxFES =            21.88291971
        0.001*MaxFES =            20.64691195
         0.01*MaxFES =             8.06276567
         0.02*MaxFES =             6.98229541
         0.03*MaxFES =             3.77386335
         0.04*MaxFES =             2.47635308
         0.05*MaxFES =             2.22879495
          0.1*MaxFES =             0.46633342
          0.2*MaxFES =             0.10746484
          0.3*MaxFES =             0.10746484
          0.4*MaxFES =             0.10730563
          0.5*MaxFES =             0.08961245
          0.6*MaxFES =             0.08961245
          0.7*MaxFES =             0.04265759
          0.8*MaxFES =             0.04265759
          0.9*MaxFES =             0.04265759
              MaxFES =             0.04265759

                  Best                 Worst                Median                  Mean                   Std
            0.04265759            0.04265759            0.04265759            0.04265759                   NaN

 23/07/2017 21:46:51 |                  Run 1
       0.0001*MaxFES =            21.20149176
        0.001*MaxFES =            20.42131554
         0.01*MaxFES =            12.03089644
         0.02*MaxFES =             8.95780263
         0.03*MaxFES =             6.17315452
         0.04*MaxFES =             2.94688543
         0.05*MaxFES =             2.94688543
          0.1*MaxFES =             0.98169578
          0.2*MaxFES =             0.44008987
          0.3*MaxFES =             0.01365438
          0.4*MaxFES =             0.01365438
          0.5*MaxFES =             0.01365438
          0.6*MaxFES =             0.01365438
          0.7*MaxFES =             0.01365438
          0.8*MaxFES =             0.01365438
          0.9*MaxFES =             0.01365438
              MaxFES =             0.01365438

                  Best                 Worst                Median                  Mean                   Std
            0.01365438            0.01365438            0.01365438            0.01365438                   NaN

