 23/07/2017 19:04:38 |                  Run 1
       0.0001*MaxFES =           503.15625625
        0.001*MaxFES =           208.57255738
         0.01*MaxFES =           124.94999586
         0.02*MaxFES =           124.94878789
         0.03*MaxFES =            124.9486407
         0.04*MaxFES =           124.94863862
         0.05*MaxFES =           124.94863862
          0.1*MaxFES =           124.94468884
          0.2*MaxFES =           124.94468884
          0.3*MaxFES =           124.93975476
          0.4*MaxFES =           124.93044626
          0.5*MaxFES =           124.93044626
          0.6*MaxFES =           124.93044626
          0.7*MaxFES =           124.93044626
          0.8*MaxFES =           124.93044626
          0.9*MaxFES =           124.93044626
              MaxFES =           124.93044626

                  Best                 Worst                Median                  Mean                   Std
          124.93044626          124.93044626          124.93044626          124.93044626                   NaN

 23/07/2017 19:07:02 |                  Run 1
       0.0001*MaxFES =           883.50902337
        0.001*MaxFES =           578.01405455
         0.01*MaxFES =            20.47354778
         0.02*MaxFES =            17.74082511
         0.03*MaxFES =            17.47560911
         0.04*MaxFES =            16.82423909
         0.05*MaxFES =            16.76072319
          0.1*MaxFES =            16.76072319
          0.2*MaxFES =            16.75777653
          0.3*MaxFES =            16.75777653
          0.4*MaxFES =            16.75777653
          0.5*MaxFES =            16.75777653
          0.6*MaxFES =            16.75777653
          0.7*MaxFES =            16.75777653
          0.8*MaxFES =            16.75777653
          0.9*MaxFES =            16.75777653
              MaxFES =            16.75777653

                  Best                 Worst                Median                  Mean                   Std
           16.75777653           16.75777653           16.75777653           16.75777653                   NaN

 23/07/2017 19:34:28 |                  Run 1
       0.0001*MaxFES =           757.24329715
        0.001*MaxFES =           383.09148805
         0.01*MaxFES =            99.58468219
         0.02*MaxFES =             2.61283516
         0.03*MaxFES =             1.50694707
         0.04*MaxFES =             0.78237397
         0.05*MaxFES =             0.52551465
          0.1*MaxFES =              0.3290867
          0.2*MaxFES =             0.31867887
          0.3*MaxFES =             0.31867887
          0.4*MaxFES =             0.31867887
          0.5*MaxFES =             0.31296302
          0.6*MaxFES =             0.31296302
          0.7*MaxFES =             0.31296302
          0.8*MaxFES =             0.31296302
          0.9*MaxFES =              0.3128152
              MaxFES =              0.3128152

                  Best                 Worst                Median                  Mean                   Std
             0.3128152             0.3128152             0.3128152             0.3128152                   NaN

 23/07/2017 20:22:43 |                  Run 1
       0.0001*MaxFES =           227.85447401
        0.001*MaxFES =           227.85447401
         0.01*MaxFES =           227.85447401
         0.02*MaxFES =            43.41601189
         0.03*MaxFES =             1.64083753
         0.04*MaxFES =             1.14768577
         0.05*MaxFES =             1.14768577
          0.1*MaxFES =             0.64234576
          0.2*MaxFES =             0.62674633
          0.3*MaxFES =             0.62674633
          0.4*MaxFES =             0.62437809
          0.5*MaxFES =             0.62437809
          0.6*MaxFES =             0.62437809
          0.7*MaxFES =             0.62437809
          0.8*MaxFES =             0.62437809
          0.9*MaxFES =             0.62437809
              MaxFES =             0.62437809

                  Best                 Worst                Median                  Mean                   Std
            0.62437809            0.62437809            0.62437809            0.62437809                   NaN

 23/07/2017 21:20:50 |                  Run 1
       0.0001*MaxFES =           841.15365729
        0.001*MaxFES =           127.44102868
         0.01*MaxFES =            53.44064167
         0.02*MaxFES =             6.00096646
         0.03*MaxFES =             0.39906577
         0.04*MaxFES =             0.30940477
         0.05*MaxFES =             0.17170986
          0.1*MaxFES =               0.020928
          0.2*MaxFES =               0.020928
          0.3*MaxFES =               0.020928
          0.4*MaxFES =               0.020928
          0.5*MaxFES =             0.00161966
          0.6*MaxFES =             0.00161966
          0.7*MaxFES =             0.00161966
          0.8*MaxFES =             0.00161966
          0.9*MaxFES =             0.00161966
              MaxFES =             0.00161966

                  Best                 Worst                Median                  Mean                   Std
            0.00161966            0.00161966            0.00161966            0.00161966                   NaN

 23/07/2017 21:29:23 |                  Run 1
       0.0001*MaxFES =           861.05383795
        0.001*MaxFES =           125.49131736
         0.01*MaxFES =           125.49131736
         0.02*MaxFES =            72.25477465
         0.03*MaxFES =            60.74489892
         0.04*MaxFES =            60.74489892
         0.05*MaxFES =            59.74007595
          0.1*MaxFES =            58.55780915
          0.2*MaxFES =            58.53777624
          0.3*MaxFES =            58.53777624
          0.4*MaxFES =            58.53777624
          0.5*MaxFES =            58.52354898
          0.6*MaxFES =            58.51036554
          0.7*MaxFES =            58.50630117
          0.8*MaxFES =            58.50630117
          0.9*MaxFES =            58.50630117
              MaxFES =            58.50630117

                  Best                 Worst                Median                  Mean                   Std
           58.50630117           58.50630117           58.50630117           58.50630117                   NaN

 23/07/2017 21:35:15 |                  Run 1
       0.0001*MaxFES =           988.06583309
        0.001*MaxFES =           173.33633572
         0.01*MaxFES =            81.05148818
         0.02*MaxFES =            39.79648295
         0.03*MaxFES =             1.68574119
         0.04*MaxFES =             1.68574119
         0.05*MaxFES =             0.66243265
          0.1*MaxFES =             0.66243265
          0.2*MaxFES =              0.6271349
          0.3*MaxFES =              0.6271349
          0.4*MaxFES =              0.6271349
          0.5*MaxFES =              0.6271349
          0.6*MaxFES =              0.6271349
          0.7*MaxFES =              0.6271349
          0.8*MaxFES =              0.6271349
          0.9*MaxFES =              0.6271349
              MaxFES =              0.6271349

                  Best                 Worst                Median                  Mean                   Std
             0.6271349             0.6271349             0.6271349             0.6271349                   NaN

 23/07/2017 21:47:53 |                  Run 1
       0.0001*MaxFES =           841.99688923
        0.001*MaxFES =            277.3941581
         0.01*MaxFES =            28.22279972
         0.02*MaxFES =            12.41162052
         0.03*MaxFES =             1.82393628
         0.04*MaxFES =             1.82393628
         0.05*MaxFES =             0.36199073
          0.1*MaxFES =             0.03274412
          0.2*MaxFES =              0.0061903
          0.3*MaxFES =              0.0061903
          0.4*MaxFES =             0.00314993
          0.5*MaxFES =             0.00314993
          0.6*MaxFES =             0.00314993
          0.7*MaxFES =             0.00314993
          0.8*MaxFES =              7.0952E-4
          0.9*MaxFES =              7.0952E-4
              MaxFES =              7.0952E-4

                  Best                 Worst                Median                  Mean                   Std
             7.0952E-4             7.0952E-4             7.0952E-4             7.0952E-4                   NaN

