 23/07/2017 19:36:18 |                  Run 1
       0.0001*MaxFES =            142.0594121
        0.001*MaxFES =            137.9191099
         0.01*MaxFES =            111.1957763
         0.02*MaxFES =           104.88701506
         0.03*MaxFES =           103.04312233
         0.04*MaxFES =           102.49609634
         0.05*MaxFES =           102.49609634
          0.1*MaxFES =           102.21979142
          0.2*MaxFES =           101.44478263
          0.3*MaxFES =           101.44478263
          0.4*MaxFES =           101.21857958
          0.5*MaxFES =           101.21857958
          0.6*MaxFES =           101.21857958
          0.7*MaxFES =           101.21857958
          0.8*MaxFES =           101.21857958
          0.9*MaxFES =           101.21857958
              MaxFES =           101.21857958

                  Best                 Worst                Median                  Mean                   Std
          101.21857958          101.21857958          101.21857958          101.21857958                   NaN

 23/07/2017 20:24:36 |                  Run 1
       0.0001*MaxFES =            176.6426269
        0.001*MaxFES =           128.95781505
         0.01*MaxFES =           104.79229757
         0.02*MaxFES =           104.79229757
         0.03*MaxFES =           104.67892306
         0.04*MaxFES =           103.75958406
         0.05*MaxFES =           103.51975358
          0.1*MaxFES =           101.60298053
          0.2*MaxFES =           101.60298053
          0.3*MaxFES =           101.32644078
          0.4*MaxFES =           100.86921523
          0.5*MaxFES =           100.86921523
          0.6*MaxFES =           100.86921523
          0.7*MaxFES =           100.86921523
          0.8*MaxFES =           100.86921523
          0.9*MaxFES =           100.86921523
              MaxFES =           100.86921523

                  Best                 Worst                Median                  Mean                   Std
          100.86921523          100.86921523          100.86921523          100.86921523                   NaN

 23/07/2017 21:31:13 |                  Run 1
       0.0001*MaxFES =           189.65510767
        0.001*MaxFES =           124.86489484
         0.01*MaxFES =           118.71027548
         0.02*MaxFES =            116.1322981
         0.03*MaxFES =           106.35284206
         0.04*MaxFES =           106.35284206
         0.05*MaxFES =           102.56431427
          0.1*MaxFES =           102.56431427
          0.2*MaxFES =           101.22310206
          0.3*MaxFES =           101.22310206
          0.4*MaxFES =           101.22310206
          0.5*MaxFES =           101.22310206
          0.6*MaxFES =           101.22310206
          0.7*MaxFES =           101.22310206
          0.8*MaxFES =           101.22310206
          0.9*MaxFES =           101.22310206
              MaxFES =           101.22310206

                  Best                 Worst                Median                  Mean                   Std
          101.22310206          101.22310206          101.22310206          101.22310206                   NaN

 23/07/2017 21:37:07 |                  Run 1
       0.0001*MaxFES =           127.13321315
        0.001*MaxFES =           127.13321315
         0.01*MaxFES =           112.53095635
         0.02*MaxFES =           108.30007394
         0.03*MaxFES =           104.37792268
         0.04*MaxFES =           104.31079946
         0.05*MaxFES =           103.87683796
          0.1*MaxFES =           102.12807592
          0.2*MaxFES =           101.75062685
          0.3*MaxFES =           101.75062685
          0.4*MaxFES =           101.75062685
          0.5*MaxFES =           101.75062685
          0.6*MaxFES =           101.75062685
          0.7*MaxFES =           101.75062685
          0.8*MaxFES =           101.75062685
          0.9*MaxFES =           101.55768934
              MaxFES =           101.42352666

                  Best                 Worst                Median                  Mean                   Std
          101.42352666          101.42352666          101.42352666          101.42352666                   NaN

 23/07/2017 21:49:44 |                  Run 1
       0.0001*MaxFES =           189.16007481
        0.001*MaxFES =           127.18069195
         0.01*MaxFES =           127.18069195
         0.02*MaxFES =           118.94212228
         0.03*MaxFES =           114.24164627
         0.04*MaxFES =           107.44580951
         0.05*MaxFES =           104.11935084
          0.1*MaxFES =           102.36642058
          0.2*MaxFES =           102.07373155
          0.3*MaxFES =            101.6407463
          0.4*MaxFES =            101.6407463
          0.5*MaxFES =           100.74216727
          0.6*MaxFES =           100.74216727
          0.7*MaxFES =           100.74216727
          0.8*MaxFES =           100.74216727
          0.9*MaxFES =           100.74216727
              MaxFES =           100.74216727

                  Best                 Worst                Median                  Mean                   Std
          100.74216727          100.74216727          100.74216727          100.74216727                   NaN

