 19/06/2016 14:35:13 |                  Run 1                 Run 2                 Run 3                 Run 4                 Run 5                 Run 6                 Run 7                 Run 8                 Run 9                Run 10                Run 11                Run 12                Run 13                Run 14                Run 15                Run 16                Run 17                Run 18                Run 19                Run 20                Run 21                Run 22                Run 23                Run 24                Run 25                Run 26                Run 27                Run 28                Run 29                Run 30                Run 31                Run 32                Run 33                Run 34                Run 35                Run 36                Run 37                Run 38                Run 39                Run 40                Run 41                Run 42                Run 43                Run 44                Run 45                Run 46                Run 47                Run 48                Run 49                Run 50                Run 51
       0.0001*MaxFES =      695.1242742830998      733.884111497823      812.665133365869      721.298014789516     640.3941098269347     741.4210840678525     773.2920021897964     807.8576236385793     815.9376820312843     745.1805526769958     543.7734073461336     661.4372926327871     768.8974154971017      666.432412355649     679.2026071211203     817.3672240084688      818.916234610005     699.2241667421022     703.8672788791025     501.8670138086845     802.9780883696324     669.7550082666132      862.710718766982     787.3130650567568     813.2734938471485      756.101989012856     723.2637000753089     740.8670045882793     843.0915541045783     845.2218855859428      743.313186343803     625.6546877627084     718.4677346991566     775.9620928829618     808.4379164388447     701.9788226464689     729.2358202697865     812.6240233498502     661.3705857580621     731.2185787660173     786.3927036229943     851.5042077301273     808.8149026485146     835.0902444547226      778.353276338355      879.815116579871     728.0315446075183     745.1419234006785     676.8582730457074      707.402785712995     662.0973698873938
        0.001*MaxFES =       335.083279137603     301.4840239447349     283.1734826712227     311.1367522753526     285.7933456016904     281.9266359326002      276.955365980338      288.200968505625     352.4304929172517     247.8746205650855     251.8130670542926     250.2272952339617     268.6985429192341     280.7680609429447     287.8043921638778     313.4188423135445     307.7560343619657     285.6187519723237      297.448949802599     251.4697585071738     256.9266388952196     269.7768195307365     312.1426746072775     271.7964962613462       307.83301141456     290.5109060030145     309.6806434994244     304.3189487397135     265.4478422205334     307.5027258238474     284.9899353864726     257.8384520501127     312.6383589898198     259.0104761510233      296.615937906345     289.7106830402383        254.4178490144     276.2850966897643     291.4337756369107     304.4787750154685     268.8860281425173     295.3569675599147       296.05335060404     290.9375097451195     300.9500295505297     295.1643624279504     288.7444588125522     306.9912976569506       275.72937456914     283.8336742606443     273.2508715128088
         0.01*MaxFES =      144.4567981281107      146.626824896704     145.5570651226972     148.1344924387483     145.8078905951356     141.5061884187564      145.089994102173     150.7436880515224     157.0931353398191     141.1569401121712     146.4964084170895     150.7467870915686     145.8357038643735     145.7574208310261     147.1149432822986     157.6212307520245     146.0640400789584     146.6153874298664     140.9025131105013     147.5674941268906     147.8671522745665     140.9353561790501     127.2102346814404     140.9824094774915      158.912808112861     147.7732144531742     148.0862672711503     145.5496251110571     147.5955828165418     149.0685766308668     146.8562543520864     144.0423521631612     147.2954812080056     150.6714187384152      150.776570919059     148.2501262943567     147.9203840480827     147.9099536512317      151.920972349418      147.197486867195     143.2956724891967     144.8590004094979     142.9192014986565       143.35401449207     152.0984894665587     139.0292548147577      146.892948160744     147.0495354431555     140.6682331264108     149.3828070458653     150.5620534716588
         0.02*MaxFES =       119.458685239623     118.0297411699748     119.0818257904707     118.0117295325747     119.4896161505949     119.3027207055395     118.6765540430702      118.129603160003      120.130362806565      118.960000784854     118.8407731375257     120.1449223910358     118.1817834376411     118.6015777230598     119.7627154068118      119.694520400653     117.9877524298713     119.6977980253034       119.15100341544     118.4672302025442     118.8961915273735      119.154502459804     121.1709224101137      119.278628971825     118.3736966699596     118.8785996946403      120.039446259123     118.4091532447294     118.8561787271115     119.9386089551797     120.0618047965231     117.5797594825756     119.9436793764237      119.147543066401     119.3157542324593      119.775421492374     119.0762496492853     119.3148232727572     119.4837419438456       119.22693604871     120.7326704595494     118.8801880846197     118.8856942048355     119.4004240855452     118.3919249870296     117.5976863219557     120.3536032124787      117.911990664567      119.521402184271     120.1579490746528     118.7212120531635
         0.03*MaxFES =      119.3668378296686     116.7872481835268     118.5487679598589     117.8386404949474     118.2531780173076     118.6539858313008     117.5011243969302      117.819741026168     119.3130418186292     118.6685890305312     118.4854909644084      118.959899094628     117.3503525974736     117.9956256478588     119.5760907650672     118.5867200314617     117.9877524298713     119.0462064132396      118.926767108797      118.383978494352     118.0835366196677     118.8077200428493     120.7027012334975     118.7279167109746     118.2268529596215     118.6412723887806      119.541842534546     117.7113531985967     117.3903296684198     119.4653368923784     119.5238001108403      117.193339834729     118.7952804865274      118.393908503574     117.6895481698127     118.5127798363396     118.3398130083058     118.4805467385893      119.097759068752      118.873681653753     120.4576846358643     118.5336337311676     118.8856942048355     118.7514674975214     118.1659889016044     117.5976863219557     119.8872558978114     117.1831966291534     119.4598345568338     119.0737564617293     118.5854037022143
         0.04*MaxFES =      119.1450894292884     116.7872481835268      118.265061524569     117.8366973779287      117.819274662529     118.3571600934933     117.3076605160247     117.1533069835552     119.1308957114052     118.3703261666533     118.4095627875188     118.8100063521729     117.3503525974736     117.9956256478588     119.3774713230864     118.4807645663325      117.851754104728     118.9996320522123     118.8293755823934     118.0735785966967     117.5036495677634     118.6618489077066     120.7008417475915     118.7073458136952      118.145213753954     118.3733864743124     118.6597534526973     117.2539636196768      116.970774034852      119.204159990684     119.5122753728135     116.9320850651413     118.7320874312682     117.9969345547552     117.6895481698127     117.9336752749223     117.7843818064198     118.4653168663033     118.8511020917508     118.5446086338911      120.383164347057     117.9824212825904     118.8335698814046     118.7406990637667     117.3828589832233     117.4576100525603     119.8872558978114     117.0234810095383      119.152995060753     119.0646859875412       118.30875544939
         0.05*MaxFES =      118.8463435577019     116.3370410099128     117.9891352424208     117.7044260749365     117.7656590811062     118.3469663638857     117.3076605160247     117.1533069835552     119.1308957114052      118.207564410529     118.4095627875188     118.8100063521729     117.3210134372775     117.9956256478588     119.3182954224815     118.4434540428874      117.851754104728      118.788129995891      118.554847283376     118.0735785966967     117.5036495677634     118.6002982764633     120.5369367425053     118.6835883345161      118.145213753954     117.7277313847478     118.6597534526973     117.0880251230863     116.8370085000804     119.1488353660206     119.1679794986892     116.9166236599785      118.511047185131     117.6435808206998      117.639813865189     117.9336752749223     117.7770468906747     118.2990655934602     118.6543872359796      118.353245088378     119.8700468206532     117.9824212825904     118.8335698814046     118.7383035706366     117.3828589832233     117.2084779814218     119.6850865214108      116.940018711142      119.152995060753     119.0646859875412     118.3060179000577
          0.1*MaxFES =      118.6511328912532      116.134122584252     117.5722480408654     117.3773001164436     117.6625648099648     118.1973549833274      117.101290340133     117.1329865966177     119.1093920530789     118.1140313045194     118.1269418360766     118.3119058646007     117.1301773801276     117.6531444723119     119.1434437112152     118.4434540428874      117.591621875418      118.788129995891      118.554847283376     117.9481803567508     117.3068407635135     118.5211632510006     119.8579081878363     118.4508539964522     118.0329336298437     117.7113109337915     118.5720859598798     117.0880251230863     116.4952575323096     119.0231351251862     119.0565028011156     116.7928040688548     118.2434450479404      117.636667023132      117.575156084617     117.9336752749223     117.7270018025572     118.0366575709268     118.3560064992603     118.2705879120397     119.8285269804421     117.9824212825904     118.8335698814046     118.7055607205473      117.253743008778     116.9828034256698     119.6196266589868     116.9358537596652     119.0839972050228     118.9685389560768     118.2323800943532
          0.2*MaxFES =       118.607335395071     116.0010572202145     117.5585909515596      117.274294811624     117.6580518923608      118.031152461101     117.0080709076515      116.962531634176     119.0932686867259     118.1140313045194     118.0824283202173      118.145683989573      117.085007591042     117.6095866795592      119.095531250371      118.415453483628     117.5053708951714     118.6493599114438     118.5447392017338     117.9378899027422     117.2776269042643     118.4566119770025     119.8576084437695     118.3450065269365     117.9683516636283     117.7113109337915     118.5660190143863     117.0880251230863     116.3628189100623     118.9164723475162     119.0565028011156     116.6792436802575     118.2434450479404      117.599519470609     117.5492538162882     117.8940009015648     117.7090231016248      117.920120753207     118.3560064992603     118.2705879120397     119.7532557916597     117.9824212825904     118.7801142083047     118.3376429173331     117.1417848151425     116.9026957185592     119.5721232862863     116.8271819378112     119.0835751881023      118.809940551761     118.1790432939017
          0.3*MaxFES =       118.607335395071     115.9138609023555     117.5138192780128     117.2742948013602     117.6580518923608     117.8705139721949     117.0034769947772     116.9410072846667      118.999310258149     118.1140313045194     118.0824283202173     118.1328251412183       116.89272078723     117.5314738538525      119.095022177568     118.3367267549465     117.5012405579982     118.6224783464183      118.544710254284     117.9378899027422     117.2776269042643     118.4326788317376     119.8264678365365     118.2314775561565     117.8922866879368     117.7113109337915       118.53594965856     117.0404966723713     116.3216418604895     118.7749433527674      119.011259393087     116.6792436802575     118.2331744276596      117.599519470609     117.4758843411964      117.846661281266      117.709013398638     117.8973013668417     118.3560064992603     118.1751824913692     119.6833233433874     117.9823682202327     118.7673750672684     118.1014272470968     117.1098765896443     116.8334786159655      119.542258835636     116.8271819378112     119.0355466070364     118.7577576893063      118.079191804219
          0.4*MaxFES =      118.4667356835994     115.9037054790922      117.504553003785      117.234674569173     117.6255077318242     117.8284471205254     117.0034769947772     116.8901115878707     118.9340620851729      118.068156569067     118.0824283202173     118.1046360234545       116.89272078723     117.5314738538525     119.0945749899665     118.3367267549465     117.5012405579982     118.5454349546644     118.4756296607768     117.9007698933037     117.2776269042643     118.4326788317376     119.8264678365365     118.1021536020544     117.8922866879368     117.5980038639705     118.4888236486408     117.0364867659514     116.3124382633473     118.7749433527674      119.011259393087      116.663753869369     118.2331744276596      117.599519470609     117.4758843411964     117.8457293112078     117.6773348871777     117.8891675462844     118.2873550031272     118.1751824913692     119.6831312184656      117.941672628386     118.7673750672684     118.0080941193944     117.0966973414202       116.82214930252      119.542258835636     116.8271819378112     119.0355466070364     118.7526393277212      118.079191804219
          0.5*MaxFES =      118.3940786900023     115.9022772325297      117.504553003785      117.234674569173     117.5919921948032      117.802809281691     117.0004075805139     116.8901115878707     118.9340620851729     118.0587946164296     118.0823994941745     118.1046360234545       116.89272078723     117.5314738538525      119.059682035538     118.3367267549465     117.5012405579982     118.5454349546644      118.469589040357     117.7325895146053     117.2776269042643     118.4326788317376     119.8264678365365     118.1021536020544     117.8922866879368     117.5980038639705     118.4886405920486     117.0364867659514     116.3118205232186     118.7437311285044      119.011259393087      116.663753869369     118.2331744276596      117.599519470609     117.4725918933932     117.8143337636443     117.6773348871777     117.8891675462844     118.2873550031272      118.111432938811     119.6831312184656      117.941672628386     118.7673750672684     117.9944715044917     117.0663308984604       116.82214930252      119.542258835636      116.765446340601     118.9614236856194      118.746500528668     118.0773930709072
          0.6*MaxFES =      118.3940786900023     115.9022772325297      117.504553003785      117.128606039725     117.5919921948032      117.802809281691     117.0003809533423     116.8519278855097     118.9340620851729      118.056268551683     118.0049012486966     118.0758604040943       116.89272078723     117.5270774186922      119.059682035538     118.3225079046517     117.5002065063782     118.5419768484246      118.469589040357     117.7325895146053     117.2776269042643     118.4326788317376     119.8264678365365     118.1021536020544     117.8922866879368     117.5980038639705     118.4497841225877     117.0294313589313     116.3118205232186     118.7437311285044      119.011259393087      116.663753869369     118.2302482595007      117.599519470609     117.4465425312383     117.7952415520551     117.6409763360143     117.8514293201913     118.2873550031272      118.091477222018     119.6831312184656      117.941672628386     118.7673750672684      117.953206777837     117.0663308984604       116.82214930252     119.5356470606914      116.765446340601     118.9614236856194      118.746500528668     118.0773930709072
          0.7*MaxFES =      118.2619900659427      115.863807118265     117.4935756036427      117.128606039725     117.5630400807315      117.802809281691      116.991622444811     116.8282468488478     118.9340620851729      118.046297922924     118.0049012486966      117.988883497967     116.8910802397734     117.4996428180314     119.0568182792524     118.2977682800158      117.494897612996     118.5419768484246      118.469589040357     117.7325895146053     117.2776269042643     118.4326788317376     119.8264678365365     118.1021536020544     117.7991028529907     117.4732628339925     118.4447302251256     117.0294313589313     116.3118205232186     118.7437311285044      119.011259393087      116.663753869369     118.2302482595007     117.5630241903602     117.4465425312383     117.7795053684235     117.6051019420665     117.8514293201913     118.2873550031272     118.0908037266272     119.6831312184656      117.936649948986     118.7673750672684      117.953206777837     117.0524743369658      116.801930511401     119.5356470606914      116.765446340601     118.9614236856194     118.7432495883254     118.0646770816572
          0.8*MaxFES =      118.2619900659427      115.863807118265     117.4844903552878      117.128606039725     117.5630400807315      117.802809281691      116.991622444811     116.8282468488478     118.8872497168416      118.046297922924     118.0049012486966      117.947360141641     116.8910802397734     117.4996428180314     119.0511629954985     118.2977682800158      117.494897612996     118.5419768484246      118.469589040357     117.7325895146053     117.2510151772103     118.4326788317376     119.8221703915694     118.1021536020544     117.7991028529907     117.2166556773616     118.4447302251256     117.0294313589313     116.2799959685633      118.714880763524      119.011259393087      116.661146661024     118.1925707027394     117.4815103188891     117.4359015813882     117.7795053684235     117.6051019420665      117.851426736905     118.2873550031272     118.0908037266272     119.6831312184656      117.936649948986     118.7673750672684      117.953206777837     117.0363301698535      116.801930511401     119.5356470606914      116.765446340601     118.9614236856194     118.7432495883254     118.0646770816572
          0.9*MaxFES =      118.2619900659427      115.863807118265     117.4844903552878      117.128606039725     117.5595723501153     117.8013869741337      116.991622444811     116.8282468488478     118.8872497168416     118.0427219249661     118.0049012486966      117.931024673968     116.8910802397734     117.4996428180314     119.0511629954985     118.2977682800158      117.470340891111     118.5419768484246      118.469589040357     117.6925167731647     117.2510151772103     118.4036228268787     119.8221703915694     118.1021536020544     117.7858987377688     117.2166556773616     118.4447302251256     117.0294313589313     116.2799959685633      118.714880763524     118.9870989033207      116.661146661024     118.1924299503808      117.481510103821     117.4359015813882     117.7794933921934     117.6051019420665      117.851426736905     118.2873550031272     118.0908037266272     119.6831312184656     117.9052113261762     118.7673750672684     117.9332077489912      117.006427959642     116.8015669696742     119.5356470606914      116.765446340601     118.9614236856194     118.7432495883254     118.0646770816572
              MaxFES =      118.2619900659427      115.863807118265     117.4844903552878      117.128606039725     117.5595723501153     117.7430947156618      116.991622444811     116.8149912729427     118.8758668700325     118.0427219249661     118.0049012486966      117.931024673968     116.8776071784732     117.4992982606827     119.0511629954985     118.2977682800158     117.4293508449853     118.5419768484246      118.469589040357     117.6925167731647     117.2510151772103     118.4036228268787     119.8221703915694     118.1021536020544     117.7858987377688     117.2113287537518     118.4447302251256     117.0008623560468     116.2788734685007      118.714880763524     118.9870989033207     116.6566028178095     118.1924299503808     117.4412662764514     117.4359015813882     117.7657604576132      117.555118364842      117.851426736905     118.2873550031272     118.0908037266272     119.6831312184656     117.9052113261762     118.7673750672684     117.9332077489912      117.006427959642     116.8013124688487     119.5356470606914      116.765446340601     118.9614236856194     118.7432495883254     118.0466610725025

                  Best                 Worst                Median                  Mean                   Std
      115.863807118265     119.8221703915694     117.9052113261762    117.88216378353026    0.8455974320881997

