 19/06/2016 11:53:49 |                  Run 1                 Run 2                 Run 3                 Run 4                 Run 5                 Run 6                 Run 7                 Run 8                 Run 9                Run 10                Run 11                Run 12                Run 13                Run 14                Run 15                Run 16                Run 17                Run 18                Run 19                Run 20                Run 21                Run 22                Run 23                Run 24                Run 25                Run 26                Run 27                Run 28                Run 29                Run 30                Run 31                Run 32                Run 33                Run 34                Run 35                Run 36                Run 37                Run 38                Run 39                Run 40                Run 41                Run 42                Run 43                Run 44                Run 45                Run 46                Run 47                Run 48                Run 49                Run 50                Run 51
       0.0001*MaxFES =      4598236638.772046     3728810872.725955     2173190683.559288     4764353904.685865    3856688892.5621605     5162554776.630037    3542971947.1830015     4458786141.376938    3141390924.3553777    1765152734.8577108      5672285172.11977    1685224810.1296291    3323174448.2329664     6551006972.103871     5683804780.894363      5538473477.71124    2707482612.8429327      5197686365.29967    2890260547.3351293     6280371004.639276    3727605974.4317913     4249471778.776738     5828258546.746954     5421734616.585951     3572659152.053547     3130614212.008236      2656904757.96533     3178529425.669857     4350235991.769044    2781937162.1706567    4000414583.4053764    2630538956.6984015    3805508165.0223117    2973888159.5762296    3866870478.3738356     3596906588.532499     2148882574.107326     6663285472.970469    3204195289.8833604    3359436291.9880705     4453505370.110988      4491496799.55685     4940415951.942279     4988126860.689985      2855634377.04023     4235570772.632229      3132768358.77732    2897475005.5497403    4044619074.6390715    3177362346.5940857     2612346351.717699
        0.001*MaxFES =      700165534.8033496     536428449.2116949     722073118.3603142     931078851.9263941     812956999.6050515     973951468.0368485     572312771.4969969    1057213869.1681589    420979182.30263317     1131867817.767599     788919920.3318158      659496148.239764     702955495.0982282     1312030149.148824    1273323899.3630624     676081176.6713552     637070009.0458986     764541310.8865937     609504947.0521865     589936167.7710758     962139497.0777005     634830823.8907236    1771285680.4352095     408495924.7817776    416730733.30806285     742069559.5563763     924017026.2534798     975870403.0159677     751751443.0796822    1352275479.6604166     968121584.8660301     660267117.2147033    1011102279.2199407     373373753.4818987     881529262.4462544     895382097.1977333     400108118.9783985       915429235.34894     1098250985.789306     575797581.6733469     838468898.2185435      727020528.787209    1237866843.4896631      964116229.420227     461272166.5314249     627332160.2739631     741533821.2424594     761258772.8059216     880726569.1196834     642656759.7000351      290437902.975304
         0.01*MaxFES =      39208637.20390493    22668766.817151997     50321154.87399867    128562517.48311608     113137197.1262434    45862173.312398456     78626463.04911858     45584824.20118051     71867776.70721722     68352645.47567153     65188107.48901427     37820436.17040602    38181223.900912344    162602021.00931844     39091730.65122556     67768118.88754241     88389375.73353787     88088963.11747836    38710342.419545926     84967047.64273009    43802801.372969665     40739167.83210405    128935497.92153858     59132598.53290974     73467220.35192344     97222868.18944529    120268421.08287092    114958287.31666282     75543130.82070963    127157899.43503824    128752502.12795898     58066559.74753605     75248075.23723935     50727213.08864911     54254375.33345413    115203917.87164329     65267002.05063126      76705719.2611947    143424071.52211472     54331036.23644722    108427940.87932888     39627583.68872121     50292122.28398329     47098861.03738423    27429214.325951386     41601465.76163146    59161869.983627275     98781336.11542563     81737450.10579804     55842761.54820894      12967641.3191672
         0.02*MaxFES =     16302515.772750475     7823283.527489419    16150214.164325435     40291805.19549376      33174991.2529396    13559919.928550929     26937271.56840815    11774003.979479516     24459142.06106132    24678647.424910486     20050341.25771857    10729871.582696041     4647069.916553263     49658345.25708232    12279751.810631452    16214078.222978994     22659085.14290942    29659175.849458482    15758613.942620125    32686943.847347334     14243258.41380288    16189304.378027147     34896529.63600692    20760104.466079745    29256988.020764474     30631231.59948577      37382679.7568132     38038137.02049083     23291881.71984164     25351131.84266421    29963540.657991335     21615497.29343091    24551307.250887398    17224898.319516458    17841576.045322374    42378590.358885534     22337484.09762142     30421673.31764891     62821584.98898105    19673497.122313593    31124489.306508105    10230084.805393279    18490484.658071406    17793113.986912467     7087731.968808822    12555235.739844887     19645258.44228664    33417459.112314135    24134890.974543445    19018399.617407124     4249153.630994943
         0.03*MaxFES =      9805479.758622687    4485378.8115951335     7994656.740991517    27046413.677655566    17544597.389759712     6963172.229934802    16881623.879592307     4706025.417595132    13082617.110197408    16410433.005783292    11963493.670746544     4647175.460326572      2454442.79862627    27365096.296513047     5929392.442633716     6954962.941649447    11052933.396879215    10110549.022702252     11256986.97796844    21143644.116876967     6487983.314158764    12559320.040236631    23290251.217847716    14929430.287780525      16896770.4406785    19884014.663224544     20818578.10594319    25127004.675681897     11792822.15040324     13993118.66362166     15299739.74000265    10823314.422869787    17102397.181846295      9484214.13960982     9650008.323723322    27817699.091477357     13050821.38768354    22420371.997168493    31810492.825605515     12484514.49924093    15094694.983577956     4365445.892995544    13807149.190797284    11271849.420871092     4494162.462430148     4764786.994018711     11681541.57720847     19325011.98373044     11572384.13224738    12587454.849320088      2011728.02796172
         0.04*MaxFES =      8303456.760486997    3354328.2608592534     6165870.364669612    23596929.926763088    13661883.555046696     5697790.290599739    11780518.319037907    2852552.2233007606    10419369.210663581    12665805.882075818     8712355.380333552    3004380.1388832773    1638378.6107996893    22130978.074057754    4056571.7264745655     5018207.400451345     7304264.034280963     7135406.953008071     9199235.055811593    13947537.246907018     4740683.844585327     11467656.55306842     14299939.88483257    10821114.641389448     10708740.32252445    15202165.027688963    12047075.375244444    19024777.433332164     8085837.063110834       11280726.916371     7844579.816670522     8052121.995568064    14038181.403562669     7222964.085018446     8597405.908615492     21475198.37014361     10365606.21813843    18513541.401522752     22098089.87005877     8343814.049648554     9762221.501122683    2704793.4383236924    10956705.548433093     8437636.605140056     3280972.194953626     3301333.725013816     8198284.455463571     15273188.81003528     9283369.886497434      9640357.07094427      1604581.45552749
         0.05*MaxFES =      6748742.509317789    2869031.0941835227     4966049.381458577     20199371.13050714    10543090.470423803     4935037.718648481       9687863.2060238     2058141.340620234     8380469.448972374     10572576.69640194     7155775.734208801    2307853.0008719377     1109768.857569978    18794770.494057663     3263033.922277167    4046082.5187386437     5420214.461179256     5724882.281261341     8050677.012478203    10278798.555363502     3354896.086472565    10050870.301920911     12242526.41788975     9509563.002047343     8082537.144562378    12643019.043949664     8287488.023121383    15558911.820191901    6250880.9850356635       9637064.6298626     4613813.893235321     5997759.800254193     11886592.35528578     6210451.594066223     7348349.425270281    18410608.477423694     8121491.403542634    17085071.224418923    16396919.502588606     5947028.755889859     7254437.914605986    1640365.0716865244    10357565.939776512     6830683.095889146    2675580.2013851223     2549049.393676212     5967407.068591107    12923171.728095308      7548402.10482293     8237632.858292844    1262606.8420446622
          0.1*MaxFES =      3719016.686788529    1293105.9562526376     2819942.688048594    10971803.892938454     5691098.653358183    3621065.4301353884    3802657.6631670087     654966.9734880701     5491951.842770693     6217557.309437087     4738469.503918525     771548.5626025847     650829.3465250193     9462635.105291108     1624774.509216809    2689700.6877109576     2441332.445702542    3951088.0900181164     5363083.183750233     5820487.128919386    1621605.3191852318     6724106.954444154     8146960.502361523     6216502.057243374    3756004.1780704698     8234238.381300523    3516289.8998951893       8775381.8649351     3002116.036774126     6180189.582209206     1800057.078376776     2516583.417408658     8427193.717637422     4373428.491004775     4936388.840862134    10268286.327781774    3547290.3523474853    10118875.435814878     6581345.778229241    3038071.3917384357     3605392.461333586     402685.6777564723     7366076.593812094     4484871.182400548    1463286.6260971562    1411882.5566357744    3088807.6438144487      8757286.69333184     4985656.375473184     5963155.482029071     762768.6371786031
          0.2*MaxFES =     2073508.5473727442     792752.5061603845    1841784.5608178223     6695596.591125094     2584981.548911321     2431743.941755084    1555825.5733653167    261739.54180095106     3591778.195955746     3236353.270484147    2790185.8825634145     393672.6969769266     474601.1519159822     4552964.700962759     954917.1490088493    1924798.9882212377     1377380.281681732     2592573.969057431     3517476.106921129    3461878.4500731817       843431.40294049    3533118.7086740145     5156278.777475073    3905495.4990819483     1690661.144355366    4177214.8728868845    1604158.2999361292     4223760.521891642     1626950.162711987    3970888.5042433836    1130716.5355735947    1560414.1873690556    4484029.8057998745    2908697.6387481336    2680566.1360542853     5693603.896958276    1730713.8812368035     5878441.157704375    3635945.4191574617    1523977.4042083572    2233949.2613981827    141174.41738662258     4222845.989589395    3132826.1614083843      815665.756597229     883801.2455508627    1559295.8687012237     4342487.225249692    2823592.8801945467     3634720.091742425     414761.2725370981
          0.3*MaxFES =     1437041.9352043553     608740.5235249295    1377747.9017626217     4609811.781167884    1503753.4346050736    1815103.1427609995     875397.9936285368    164440.32009107913    2415013.1805532053     2150987.417492239    1973550.7975661745     245865.6492340795     343734.6061620136     3211945.467026348     736946.9418246357    1532543.0781863672    1115014.7243382053    1975594.3367786016    2486549.6359192627     2434297.123632065     564455.9019847999     2301145.708931875    3819905.2903498784     2897285.505993109     975226.7987863623    2669915.1755135027     998412.4873545949    2628097.9421292907    1154313.7099764685    2673812.3603356956     802382.5062017597    1209518.5097674883     2936768.569617509     2118332.804285077    1845596.7174837978     3609961.981655734    1122956.1617353612    3897190.7458518525    2301584.6569422605    1020750.1840742385    1736916.1204058535     104317.2046146416     3029704.563815191    1797697.4827574852     619106.6380322485     657999.2562274695     1119983.960736044    2954092.2901860178     2019416.986192362     2407969.686683243    295111.69318072044
          0.4*MaxFES =       1097621.41758689     504841.2265436341    1091735.4451674449    3299359.0247174855    1117924.2072048692    1494788.4746380127     585216.8150194557    129198.08367625778    1805772.1955991758    1421942.1397029045     1448836.084063626    174081.90664838743    260242.44162927286     2195896.264379259     648137.5410203823    1220238.7975217113      946959.072729507     1471936.273785281    1930604.1038909666    1880430.7449308017    345967.28466529044    1682083.8880771296    3009378.4351962893      2174944.63954314     686702.3548445576    1888564.5096869676     823527.5621784166    2016805.9903504963     950773.6460405451    1869688.0937215094     633224.5763034952    1015076.9910317817    2191260.5990842376    1566709.6767745526     1408580.764467072     2586729.949219969      860541.042278801     2697707.518400186    1827063.3622244685     891301.9578829132    1379927.9777986135     84257.80546288658    2222207.7653123685    1339249.6388715792     542296.6217715584     562065.4604520039     894159.9540025321    2119836.3654717584    1564904.2638310276    1776660.6291856894    229342.71147429675
          0.5*MaxFES =      866791.9629298483    437775.16879300936     875058.2972128879    2466990.3187106247     849524.3560963903     1175265.611452086    449045.25753104157    111358.82911540328    1415843.8993128792    1076582.5739365595    1183234.6128636177     156854.7095314626    205687.66945289198    1720355.3071006557     577400.5746056304    1021539.1238103674     814875.5661488441     1216595.276545884    1515183.9079532556    1472153.5858236668     284827.0741034847    1327735.3091602253    2356079.4012909974    1739583.0175302697    487990.54191286495     1388905.972772297     696612.7460925994    1465388.2063472385     768295.5843840957    1341472.5525796474     535785.4681584672      837601.229831788    1665363.2577532937    1292253.0927957902    1153579.8816231557    1849043.7556951134     723793.7590430686    1846603.6295719438    1419769.1546373738     656910.7475872975    1062538.8387032347     74368.73395139234     1780072.948420391    1032076.1432417247     444502.0664789256    494917.31743408757      766606.903029961     1453647.363804404    1202202.5751970685     1372152.416404466     202354.0896051352
          0.6*MaxFES =      728384.6625645098     384252.9878240784     770921.9242888682    1970138.9462733206      650025.662182243     946989.5124709436      330434.671863748     88175.20583973026     1190106.738409734     913397.3819721095     933192.6852639494     146001.2752593704    186992.94494838282    1406223.8648449054     533138.0617760624      809430.279320258     722819.9040513134    1051466.7672395746    1120496.8652413916     1135481.812324792    215542.00268816718    1021352.1774515366    1858478.8450064166    1435439.8916406943    402401.61939738144    1099638.4351274688     580820.8735583909    1136625.9016059765     652807.5102241493    1123885.0647464118    437622.16345530166     695514.7431696948     1377624.340399328    1096688.5319846035     867864.6057482992     1317871.846866313     637677.2388556673    1308668.1871891336    1242539.4965093972     574910.6085023227     875770.9258911742     66019.17376628093    1436280.1506720402     830743.7333675879      396083.681428235     451789.1790468289     668075.5385025326    1150209.1973484694     976877.0422763105    1090119.3170508745    180331.36268460486
          0.7*MaxFES =      612470.9358467481     341376.4148650142     672664.8195333722    1693262.8652778624     536304.7943952552     795369.5548208976    245850.91328438272     68857.98073994885    1017020.7530497853     808307.6714883262     759636.8808420723    126462.61550097693    167784.44597183034    1163478.1162326091    461045.84455417126      720977.257870745     645552.6518877618     850861.7667013028     980640.8824138346     972835.6986033318     176321.7457003986     846506.6306528663     1562706.709375343    1212419.1220637392    328524.13875898253     938692.9480841119    463560.75666708587     799806.7355809859     558807.4673667614     963744.3238609135     403654.2614335357     613532.9499672771    1162670.0093080327     886385.7834148532     716546.9718291617    1006394.8509743148     526736.6131470193    1015879.1047592412     1002005.290968526    501122.58400085766     779548.9719037014     59221.44858305225    1208705.7952066818     682376.0098725505     328043.2677553909     410112.4277648153     593525.3262927042     933126.7888019014     803238.8903305331     849829.1420388601    174242.16995568783
          0.8*MaxFES =      529430.9497426499    324244.83384256926     597477.6638855689    1430498.3177692231     464265.7146847131     723729.7400047663    199098.89175115532    62088.373528780256     874328.2999476666     641908.2901487385     628640.3778206157    117028.64131061322    158423.02757592392    1008689.3678179936    407599.55219354964     598623.5047099156     542763.1844555857     702561.6600613013     842598.0288430719     881968.3786408933    155972.22415833597     776447.7612758559    1223222.1082903156     976833.3461337294      270676.567809686     749689.9497980871     398885.3737944798     675993.5748125482    479821.69080719136     756714.2514135095     379975.0297236764     536336.6600542421     963917.1666907079     719983.9204638817     617284.0177040766     862390.0383476544     435040.1811781673     791818.1018825537     775359.8380391048    456426.50174063595     684884.8043107854     53336.83753917084     1010276.006253745     584768.2756276301     283784.2311619619     374406.5452340757     515495.0640927399     776240.1161971241     684049.9131041277      766190.718440021    158567.38742496615
          0.9*MaxFES =      474745.4855282404    289344.49485492136     516529.9665006944    1180855.0050066875     412767.7712800188     646068.2069730789     169504.5907294343     55206.53246685339       764809.82043236     561344.7503777489     538149.1054478901    108673.98583464156    138518.16784798025     859101.5137839224       379425.58619072     552182.3070042311    494032.45466229337     634438.5615396756     701866.4381650224     755675.3145157855     137729.3469887727     632497.6752702887    1041188.1384336442     867402.1365838377     239709.0604520891      639348.838153651     352485.2534616351      585634.460590557     416554.5918028272      594915.203906755     350184.9861508761    482303.63728711987     815990.9703763125     587054.4973657905     553497.1515886578     661776.5344358059    366508.89392174134     650481.8087818596     678419.2717487696    418525.77044586383     604597.9376918632     49093.45027028938     871687.5236817643     552018.7811020555     252325.7743360565     340254.3564122373     466381.8682666823     645997.6341925216     619007.8160667398     652481.5729918873     146253.1095016447
              MaxFES =      411693.2942273143     270244.8469866895    447784.98853844806     972255.6828374709     358706.9317019661     580058.7831649113    145182.10070546798     52568.57780735829     642626.2978634017     508127.0040372266     461858.1654162506    102077.41119819628    124768.09404893089     687407.2987207031     350693.6198294656     486752.1096860287     441088.4768379724     579817.2007351979     636275.2644122727      669703.855111295    126121.21192273815     541311.4770034583     842886.6017713964     748630.9064671587     214727.0489488718     547092.0530355262     310564.5077668579      496129.753453736     365750.7795226728     521630.5300321595    314114.92915007705     437477.5922283069     683714.2998586934    498000.14656724245     500549.0392103431     576170.4920638358    322106.70741043787     567256.0029330447     551386.1271790006     379297.3283010909    502736.57732409093     47218.12749882227     755986.4647927759    466071.82490585477    220379.37309190194     316465.2446847632    417814.74289235513     570854.7058598304      544766.779762161     532069.3079334433    135624.74556529603

                  Best                 Worst                Median                  Mean                   Std
     47218.12749882227     972255.6828374709     486752.1096860287     450678.3418236179    201560.58438206083

