 21/03/2017 23:08:17 |                  Run 1                 Run 2                 Run 3                 Run 4                 Run 5                 Run 6                 Run 7                 Run 8                 Run 9                Run 10                Run 11                Run 12                Run 13                Run 14                Run 15                Run 16                Run 17                Run 18                Run 19                Run 20                Run 21                Run 22                Run 23                Run 24                Run 25                Run 26                Run 27                Run 28                Run 29                Run 30                Run 31                Run 32                Run 33                Run 34                Run 35                Run 36                Run 37                Run 38                Run 39                Run 40                Run 41                Run 42                Run 43                Run 44                Run 45                Run 46                Run 47                Run 48                Run 49                Run 50                Run 51
       0.0001*MaxFES =          9930.40365851          9985.9303304        17641.01568262         10719.3043469         8794.20077607          10711.237185        12295.76435896        10183.63206329        10577.04351276        18633.01676142        10296.32632365        10175.49071139         8242.98003208        18340.14234539        11514.34671901        10129.92608756        10432.46229272        13753.48214022        19127.04906942        12272.23350847        18588.26074104        11405.64961198          9346.1298029        14894.61823393          13043.438143         6684.65816711         5118.15658101         6991.63953995         5871.29531899        17213.00059976        18212.33168642         9044.46086023        10404.92859259        14113.38514939        12935.82795966        14057.79975044         6861.33681678         8769.95243654        11680.46776727         9625.42746848         3896.85130308         17424.4770178        14576.10743316        11431.36309296         10985.2601312         8203.48447229         5702.15206568        12079.67065573         8925.99168228        13605.48629266        12958.60882278
        0.001*MaxFES =           5325.5153301         6336.46351816         3454.08058603         8382.95143654         6889.76444084         7317.17316344         9098.21379463          3878.2273958         9022.62356524         7410.46032157         4957.55590463         3000.13786413         8242.98003208        11162.94778298         6297.81856834         7441.70105228         6389.78432785         4479.23819907         6705.24392456          7774.4969138         5313.13816952         8011.80132002          9346.1298029          3961.7122613         6958.57319324         6684.65816711         2922.56827359         6991.63953995         3820.18671482         4229.67623371         6244.46773078         5288.44981038         7853.67875442         3528.82906943         5272.46055763         7543.67960321         5633.82565275          4048.8027353         3024.49745163         7081.08258463         3896.85130308         6067.09972122         6720.08619154          2653.3525211         3834.67689869         8203.48447229         5702.15206568         5771.64403279         4477.51710123         5470.85417436         3814.36426335
         0.01*MaxFES =          1099.03856899         1105.62890309         1322.12336876         1107.43833725         1297.31690417         1053.58863804         1226.32393301         1074.01252741          951.77070286         1081.75906938         1011.05109658           813.2380398         1047.22913415         1129.91796052         1396.70907689         1215.07039656         1221.06536748           935.5001353         1096.60215603         1025.70350679          919.04072968         1198.01449987         1193.39953838         1120.83257618         1123.53528346         1025.24082647         1020.70226449          1038.4041944           960.6514921          1569.8319767         1169.92466407           978.5614222          833.39557927          921.53843555          913.42694064         1095.38727718         1720.31654507          944.10066526          997.22347705         1185.57800662          1348.4687808          765.68990074          866.26910694          923.91247614          795.39939555         1006.01006013         1184.10176166          831.88247084         1196.07206859         1297.85301619         1027.11287767
         0.02*MaxFES =           655.86393429          597.56141806          647.20776304          583.26622717          594.61611822          592.35829399          591.83576708          727.88836993          588.07162088          619.69209503          620.37971232          575.20647151           607.8265581           596.3166368          642.99358173          643.68712277          640.50655508          595.96666879          600.79501162          616.96004886          624.52665008          634.70263977          669.07287508          590.13207316          623.70306338          649.31652221           631.0395733          591.90607566          587.59392034          684.97509249          648.03717747          589.67951963          630.72546193          612.44426853          575.28677972          640.97103133          703.22736997          590.07859292          691.58339953          726.69595529          623.28260476          575.74731708          664.05418369          621.86532688          613.52869796          662.52443468          622.34540578          560.81750989          660.23922182           609.3448908          634.91539969
         0.03*MaxFES =           548.11950365          535.06847756          535.85073519          532.22614733          540.55674548          532.46866457          545.93442236          564.68633794          534.74749787          545.03734065          559.91149354          528.04309914          525.78787421          527.67005023          557.36151343          573.88889115          560.41464221          536.67622767          536.99691192          543.28317937          528.30398481          567.48941632          555.67279688          535.41339371          524.54379374          537.38606867          539.91156421          527.46855986          522.39409308          556.10927191          532.93687441          547.32326909          540.33081664          531.68261541          525.62987027          553.61225821          557.01051613          540.40294912           555.3467017          549.42736234          549.74955805          527.39666474          553.67063142          549.27893213          549.04794679          560.65480071          554.02612413          525.27298914          587.63490571          510.55768165           568.3495871
         0.04*MaxFES =           533.03602083          519.14748981          524.48430987          516.99281447          526.74388703          517.15036837          531.08652929          528.79956605          524.89854847          533.23316441          519.79405669           513.7340002          506.38942808          520.32773897           553.7422091          527.17066051          528.99331546          518.42554698          519.75832233          541.77657896          508.07237755          549.04540438          526.15864169          526.70345605          504.33907068          505.05226412          524.89103035          508.19128013          515.30624385           537.8452726          526.18514771          511.21598439          519.64913499          508.36735547          520.20252275          534.24640593          512.77193072          537.16771124          523.74794578          528.50086657          524.79782486          525.75615201          530.95524427          531.55132607          535.73498022          557.59462906          552.52735323          508.80063577          564.09387482          510.55768165          554.87857254
         0.05*MaxFES =           522.66894804          514.51280954          517.27779091          507.17076384          522.73799341          500.00946745          521.32286627          515.46963143          515.77502225           528.7565623          507.91416115          508.58787789          495.29416212          514.78803488          533.25318669          517.42102283          518.44638969           506.0242503          498.38960581          532.23786877          495.71308327          538.24601458          522.06045459          513.97702554          499.77668328          505.05226412          516.90501094          504.46975597          509.56692527          524.60117634          515.04031971          509.97169156          509.90519771          508.36735547          513.63596951          516.39852901          502.52151547           531.9118138          511.90386675          521.31676232          508.50731733          519.15227962          522.47675231           525.8762872          525.64718661          553.10281734          543.98114648          508.80063577          555.34440994          510.55768165          536.11626209
          0.1*MaxFES =           488.21828265          494.60933812          499.38656851          494.07750614          493.38247276          474.54029016          504.50965768           486.4007301          494.71462948          496.80278656          491.39900576          486.08205368          479.78379575          476.59531069          484.13078344          483.28405725          502.99406022          490.54297494          487.23246905          508.90799586          484.41426773          490.03394297          497.98525996          492.67021251          485.78828083          492.12213508           504.2427586            478.460129          498.18386715          494.92885197          494.31672936          484.22248475          478.32609774          490.81155244          484.94208386          494.05362966          485.15643622          519.60941286          487.69911573          501.72493895          495.17060282          506.07386718           490.6833264           509.2918478          506.94202437          501.40090568          515.27881986          496.70267668          495.38836756          484.50882664          498.31316468
          0.2*MaxFES =           450.39157507          480.91936746          468.86206792          469.15950997          484.82251897          466.61924408           494.8266232          455.60205459           454.2326009          466.24386882          471.83378572          472.00581673          466.61333575          458.38583958          464.16412336          479.26613911          483.58647998          466.08603623          465.11553054          486.71578841          459.00301973          479.69227681          484.52794922          479.50623972          458.10868865          474.72179731          474.46529747          442.55294758          482.71262016           481.8457718          471.74357514          471.12749892          464.72064502          469.59094428          471.89921892          475.96430493          482.86858849          509.45938759          465.92061973          477.53495957          479.01864678          475.77929875          480.59812915          483.84130514          483.84548336          486.60136024          483.25549521          481.91071577          484.62553963          468.29857636          476.19484728
          0.3*MaxFES =           445.73884296           472.1848933          465.46914683          466.29821418           465.0252536          447.15737805          491.05318487          448.24196656          433.78861807           454.2135497          470.76794986          464.34750856          462.91613683          447.09682465          457.54762002          466.94298842          461.28776574          455.54387022          451.04233062          472.29065818          454.39146337          463.07433006          471.38563018          462.72218242           455.4035534          455.88914112          468.48275647          435.66076438          480.20903089           467.6235008           460.5796814          454.78041278          438.86769907          459.14360868          449.72318219          458.41552532          442.76606761          508.33719452          455.39734783          470.10993494          462.28550926          474.11656299          471.79262065          470.88210716          474.31489785          481.27308466          471.82179383          472.39871143           456.2535428          465.96221893          459.00705628
          0.4*MaxFES =           444.00765503          470.40000354          464.17472909          463.70430055          459.31406414          443.87945549          489.02418035          444.40729921          428.98642573          452.79374334          457.10563546          461.84162921          461.94244421          444.88088833          455.80838016          462.74185454          457.26919518           450.9066334          450.31520423          470.61723376          451.59383768           458.5904156          469.38645583          459.30812488          454.34180111          454.60096478          467.44565557           434.4156097          478.60323371          462.74605705          458.68248046          452.03007905          434.64570879          456.82517091          447.47164571          454.34762085          437.63838246          507.40304761          454.08746777          467.08705122          459.40289028          472.96584885          464.41587613          468.33566053          472.16395685          479.61669421          469.72993385          470.81315849          452.95285036           464.9570337          450.18692837
          0.5*MaxFES =            442.8284054          469.26024946          463.48904327          462.82500736          457.10639462           443.0105553          488.10295609          442.53767002          427.93771109          451.75178036          454.77427451          461.26835502          460.90911738          443.93026742          454.31558454          461.56745984          455.83101017          448.44722459          449.91597006          469.63311114          451.11614965          456.56738034          467.98642859          457.14944283          453.78300681          454.19573593          467.11169995          432.69512969          477.58451362          461.64839377          458.08879141          451.35487826          433.20131256          455.45041204          446.24628227          452.65235001          436.56960374          506.51206638          453.67833474          465.82285166          458.48779582          472.37161305          463.34702025          467.74551603           471.0631398          478.48802147          468.52466497          469.94250027          450.96131269           464.4929985          449.01299088
          0.6*MaxFES =           442.52836101          468.34231117          462.70301653          462.37632725          455.90872628          442.19092045          487.37933156          441.89789094          426.55868965           451.1776478           453.6776376          460.98024458          460.33663831          443.53899888          453.62138379          461.07685986          455.31886042           447.1908084          449.78152632           468.9509099          450.84767069          455.77123399          467.16762149          455.91083729          453.38271759          453.84029684          466.81830745          431.56914778          477.37619356           461.0033392          457.24306684          450.95657983          432.65834772          454.92634991          445.12348554           451.8382186          435.94282242          506.05030617          453.45412585          464.74219285          457.73481076          471.80791992          462.90336594          467.45291176          470.50665878          477.24164112          467.65874276          469.51973545          450.12053356          464.15858737          447.89479986
          0.7*MaxFES =           442.26859616          467.87487578          462.12951992          462.11194562          455.26504336          441.60533995          486.91650512          441.13939456          425.56258555          450.29719129          453.16747126          460.58995362          460.04571921           443.1816398           453.3966477          460.76591313          455.08928838          446.58168174          449.70851772          468.53718061          450.66204164          455.23690101          466.73082123          455.50490498          453.10815059           453.5882953           466.6008408           431.3000805          477.19451533          460.55387754          456.68786897          450.63821602          432.02767528          454.53955951          444.21548275          451.37326347          435.64111311          505.57325563          453.18318243          463.73747212          457.01009604          471.26655545          462.26165642          467.25060059          469.81226483          476.45081543          467.45415476           469.1759463          449.34113795          464.00907635          446.80124295
          0.8*MaxFES =           442.08151159          467.59468394          461.70454942          461.79259369          454.60220504          441.08423349           485.9469683          440.57150641          424.97912289          449.57809395          452.76399011          460.10445509          459.84088732          442.81932369          453.25300351          460.54010086          454.74977387          446.02866506          449.58553923          468.19702798          450.53865968          455.00221556          466.37976989          455.10711105          452.94981171          453.28267353          466.30991822          431.07954864          477.07025851          460.40855656          456.43743986          450.06030064          431.56023651          454.05380171          443.76689669          450.94796538          435.30189944          505.23523153          453.01075706           462.9663356          456.11182701          470.77144272          461.86457442          467.14632494          469.18211615          475.77311186          467.18166735          468.69238143          448.86059843          463.83942184          445.97303731
          0.9*MaxFES =           441.95083836          467.40200834          461.44282536          461.37887399          453.78643011          440.62807879          485.43029645          440.11293178          424.52579011          449.27283082          452.57444636          459.88626522          459.74984135          442.55790871          453.19687032          460.38447184          454.26780652           445.7863283          449.46336619          468.00082433          450.40357868          454.67962635          466.02793164          454.79430386          452.76990347          453.05457929          466.02172297          430.62973125           477.0036656          460.15460641          456.16201373          449.57741107          431.11238491          453.74771236          443.52222954          450.45075833          435.11622487            504.757574          452.85631026          462.51777779          455.55799153          470.34385347          461.72240907          467.00024204          468.82297963          475.24958731          466.98900857          468.15361845          448.62195485          463.75561497          445.38107969
              MaxFES =           441.80908418          467.25125736          460.93063264          460.95791548          453.46379058          440.10026513          484.74057176          439.81315084          424.11075002          449.04810474          452.37951194          459.67039081          459.69176566          442.44994308          453.12026898          460.24826837          453.58688985          445.50579546          449.34881737          467.86607757          450.07048856          454.29078327          465.60578089          454.47569763          452.63289574          452.81221646          465.86937402          429.88768013          476.87095185          460.05558656          455.97375747          449.22153994          430.81962214          453.56660113          443.18708978          450.05450478          434.73582866          504.16286135          452.67330971           462.1111118          455.23427414           469.8350383          461.55182062          466.92625094          468.50275626          474.91089933          466.72805545          467.69309446           448.4890823          463.57749628           444.5264724

                  Best                 Worst                Median                  Mean                   Std
          424.11075002          504.16286135          454.29078327     455.9440426307842    13.989256558788911

